{
	"credit": "Made with Blockbench",
	"texture_size": [512, 512],
	"textures": {
		"5": "gci:items/gun_carbine/stock5",
		"6": "gci:items/gun_carbine/texture1",
		"8": "gci:items/gun_carbine/texture3",
		"11": "gci:items/gun_carbine/texture6"
	},
	"elements": [
		{
			"from": [8.20156, 5.02891, 7.20547],
			"to": [8.73203, 5.15, 9.01094],
			"faces": {
				"north": {"uv": [0.032, 0.032, 0.04858, 0.03578], "texture": "#6"},
				"east": {"uv": [0.032, 0.032, 0.08842, 0.03578], "texture": "#6"},
				"south": {"uv": [0.032, 0.032, 0.04858, 0.03578], "texture": "#6"},
				"west": {"uv": [0.032, 0.032, 0.08842, 0.03578], "texture": "#6"},
				"up": {"uv": [0.032, 0.032, 0.04858, 0.08842], "texture": "#6"},
				"down": {"uv": [0, 0, 0.01658, 0.05642], "texture": "#6"}
			}
		},
		{
			"from": [7.87978, 5.129, 7.74844],
			"to": [8.04306, 5.20712, 8.88984],
			"rotation": {"angle": 45, "axis": "z", "origin": [8.1875, 5.37109, 9.09766]},
			"faces": {
				"north": {"uv": [0.032, 0.032, 0.0371, 0.03444], "texture": "#6"},
				"east": {"uv": [0.032, 0.032, 0.06767, 0.03444], "texture": "#6"},
				"south": {"uv": [0.032, 0.032, 0.0371, 0.03444], "texture": "#6"},
				"west": {"uv": [0.032, 0.032, 0.06767, 0.03444], "texture": "#6"},
				"up": {"uv": [0.032, 0.032, 0.0371, 0.06767], "texture": "#6"},
				"down": {"uv": [0, 0, 0.0051, 0.03567], "texture": "#6"}
			}
		},
		{
			"from": [8.08817, 4.34621, 7.75234],
			"to": [8.20535, 5.04074, 8.49531],
			"rotation": {"angle": 0, "axis": "y", "origin": [8.1875, 5.37109, 9.09766]},
			"faces": {
				"north": {"uv": [0.032, 0.032, 0.0537, 0.03566], "rotation": 90, "texture": "#6"},
				"east": {"uv": [0, 0, 0.0217, 0.02322], "rotation": 270, "texture": "#6"},
				"south": {"uv": [0.032, 0.032, 0.0537, 0.03566], "rotation": 270, "texture": "#6"},
				"west": {"uv": [0.032, 0.032, 0.0537, 0.05522], "rotation": 270, "texture": "#6"},
				"up": {"uv": [0.032, 0.032, 0.05522, 0.03566], "rotation": 270, "texture": "#6"},
				"down": {"uv": [0.032, 0.032, 0.05522, 0.03566], "rotation": 270, "texture": "#6"}
			}
		},
		{
			"from": [8.08817, 4.62355, 8.46719],
			"to": [8.20535, 5.03683, 8.88984],
			"rotation": {"angle": 0, "axis": "y", "origin": [8.1875, 5.37109, 9.09766]},
			"faces": {
				"north": {"uv": [0.032, 0.032, 0.04492, 0.03566], "rotation": 90, "texture": "#6"},
				"east": {"uv": [0, 0, 0.01292, 0.01321], "rotation": 270, "texture": "#6"},
				"south": {"uv": [0.032, 0.032, 0.04492, 0.03566], "rotation": 270, "texture": "#6"},
				"west": {"uv": [0.032, 0.032, 0.04492, 0.04521], "rotation": 270, "texture": "#6"},
				"up": {"uv": [0.032, 0.032, 0.04521, 0.03566], "rotation": 270, "texture": "#6"},
				"down": {"uv": [0.032, 0.032, 0.04521, 0.03566], "rotation": 270, "texture": "#6"}
			}
		},
		{
			"name": "octagon",
			"from": [7.99323, 4.56188, 9.88759],
			"to": [8.27656, 4.88547, 10.02163],
			"rotation": {"angle": 45, "axis": "x", "origin": [6.78531, 6.87233, 9.01992]},
			"faces": {
				"north": {"uv": [0, 0, 0.03125, 0.03125], "rotation": 270, "texture": "#5"},
				"east": {"uv": [0, 0, 0.03125, 0.03125], "texture": "#5"},
				"south": {"uv": [0, 0, 0.03125, 0.03125], "rotation": 90, "texture": "#5"},
				"west": {"uv": [0, 0, 0.03125, 0.03125], "rotation": 180, "texture": "#5"},
				"up": {"uv": [0, 0, 0.03125, 0.03125], "rotation": 90, "texture": "#5"},
				"down": {"uv": [0, 0, 0.03125, 0.03125], "rotation": 90, "texture": "#5"}
			}
		},
		{
			"name": "octagon",
			"from": [7.99323, 4.53028, 8.0945],
			"to": [8.27656, 4.85388, 8.22854],
			"rotation": {"angle": 0, "axis": "y", "origin": [6.78531, 6.87233, 9.01992]},
			"faces": {
				"north": {"uv": [0, 0, 0.03125, 0.03125], "rotation": 270, "texture": "#5"},
				"east": {"uv": [0, 0, 0.03125, 0.03125], "texture": "#5"},
				"south": {"uv": [0, 0, 0.03125, 0.03125], "rotation": 90, "texture": "#5"},
				"west": {"uv": [0, 0, 0.03125, 0.03125], "rotation": 180, "texture": "#5"},
				"up": {"uv": [0, 0, 0.03125, 0.03125], "rotation": 90, "texture": "#5"},
				"down": {"uv": [0, 0, 0.03125, 0.03125], "rotation": 90, "texture": "#5"}
			}
		},
		{
			"name": "octagon",
			"from": [7.99323, 4.65666, 9.79281],
			"to": [8.27656, 4.79069, 10.1164],
			"rotation": {"angle": 45, "axis": "x", "origin": [6.78531, 6.87233, 9.01992]},
			"faces": {
				"north": {"uv": [0, 0, 0.03125, 0.03125], "rotation": 270, "texture": "#5"},
				"east": {"uv": [0, 0, 0.03125, 0.03125], "texture": "#5"},
				"south": {"uv": [0, 0, 0.03125, 0.03125], "rotation": 90, "texture": "#5"},
				"west": {"uv": [0, 0, 0.03125, 0.03125], "rotation": 180, "texture": "#5"},
				"up": {"uv": [0, 0, 0.03125, 0.03125], "rotation": 90, "texture": "#5"},
				"down": {"uv": [0, 0, 0.03125, 0.03125], "rotation": 90, "texture": "#5"}
			}
		},
		{
			"name": "octagon",
			"from": [7.99323, 4.62506, 7.99972],
			"to": [8.27656, 4.7591, 8.32331],
			"rotation": {"angle": 0, "axis": "y", "origin": [6.78531, 6.87233, 9.01992]},
			"faces": {
				"north": {"uv": [0, 0, 0.03125, 0.03125], "rotation": 270, "texture": "#5"},
				"east": {"uv": [0, 0, 0.03125, 0.03125], "texture": "#5"},
				"south": {"uv": [0, 0, 0.03125, 0.03125], "rotation": 90, "texture": "#5"},
				"west": {"uv": [0, 0, 0.03125, 0.03125], "rotation": 180, "texture": "#5"},
				"up": {"uv": [0, 0, 0.03125, 0.03125], "rotation": 90, "texture": "#5"},
				"down": {"uv": [0, 0, 0.03125, 0.03125], "rotation": 90, "texture": "#5"}
			}
		},
		{
			"name": "octagon",
			"from": [8.03196, 5.00613, 9.90362],
			"to": [8.15797, 5.20929, 9.98777],
			"rotation": {"angle": 45, "axis": "x", "origin": [7.27363, 6.34829, 8.95592]},
			"faces": {
				"north": {"uv": [0, 0, 0.03125, 0.03125], "rotation": 270, "texture": "#5"},
				"east": {"uv": [0, 0, 0.03125, 0.03125], "texture": "#5"},
				"south": {"uv": [0, 0, 0.03125, 0.03125], "rotation": 90, "texture": "#5"},
				"west": {"uv": [0, 0, 0.03125, 0.03125], "rotation": 180, "texture": "#5"},
				"up": {"uv": [0, 0, 0.03125, 0.03125], "rotation": 90, "texture": "#5"},
				"down": {"uv": [0, 0, 0.03125, 0.03125], "rotation": 90, "texture": "#5"}
			}
		},
		{
			"name": "octagon",
			"from": [8.03196, 4.66961, 8.7365],
			"to": [8.15797, 4.87277, 8.82065],
			"rotation": {"angle": 0, "axis": "y", "origin": [7.27363, 6.34829, 8.95592]},
			"faces": {
				"north": {"uv": [0, 0, 0.03125, 0.03125], "rotation": 270, "texture": "#5"},
				"east": {"uv": [0, 0, 0.03125, 0.03125], "texture": "#5"},
				"south": {"uv": [0, 0, 0.03125, 0.03125], "rotation": 90, "texture": "#5"},
				"west": {"uv": [0, 0, 0.03125, 0.03125], "rotation": 180, "texture": "#5"},
				"up": {"uv": [0, 0, 0.03125, 0.03125], "rotation": 90, "texture": "#5"},
				"down": {"uv": [0, 0, 0.03125, 0.03125], "rotation": 90, "texture": "#5"}
			}
		},
		{
			"name": "octagon",
			"from": [8.03196, 5.06564, 9.84412],
			"to": [8.15797, 5.14978, 10.04727],
			"rotation": {"angle": 45, "axis": "x", "origin": [7.27363, 6.34829, 8.95592]},
			"faces": {
				"north": {"uv": [0, 0, 0.03125, 0.03125], "rotation": 270, "texture": "#5"},
				"east": {"uv": [0, 0, 0.03125, 0.03125], "texture": "#5"},
				"south": {"uv": [0, 0, 0.03125, 0.03125], "rotation": 90, "texture": "#5"},
				"west": {"uv": [0, 0, 0.03125, 0.03125], "rotation": 180, "texture": "#5"},
				"up": {"uv": [0, 0, 0.03125, 0.03125], "rotation": 90, "texture": "#5"},
				"down": {"uv": [0, 0, 0.03125, 0.03125], "rotation": 90, "texture": "#5"}
			}
		},
		{
			"name": "octagon",
			"from": [8.03196, 4.72911, 8.677],
			"to": [8.15797, 4.81326, 8.88015],
			"rotation": {"angle": 0, "axis": "y", "origin": [7.27363, 6.34829, 8.95592]},
			"faces": {
				"north": {"uv": [0, 0, 0.03125, 0.03125], "rotation": 270, "texture": "#5"},
				"east": {"uv": [0, 0, 0.03125, 0.03125], "texture": "#5"},
				"south": {"uv": [0, 0, 0.03125, 0.03125], "rotation": 90, "texture": "#5"},
				"west": {"uv": [0, 0, 0.03125, 0.03125], "rotation": 180, "texture": "#5"},
				"up": {"uv": [0, 0, 0.03125, 0.03125], "rotation": 90, "texture": "#5"},
				"down": {"uv": [0, 0, 0.03125, 0.03125], "rotation": 90, "texture": "#5"}
			}
		},
		{
			"from": [8.43594, 5.55703, 7.6625],
			"to": [8.50234, 5.62266, 7.6625],
			"rotation": {"angle": 0, "axis": "y", "origin": [8.13281, 5.59766, 7.72656]},
			"faces": {
				"north": {"uv": [0.032, 0.03408, 0.03405, 0.03615], "rotation": 270, "texture": "#11"},
				"east": {"uv": [0, 0.00784, 0.00205, 0.00784], "rotation": 90, "texture": "#11"},
				"south": {"uv": [0.032, 0.03408, 0.03405, 0.03615], "rotation": 90, "texture": "#11"},
				"west": {"uv": [0.032, 0.03984, 0.03405, 0.03984], "rotation": 90, "texture": "#11"},
				"up": {"uv": [0.032, 0.03408, 0.032, 0.03615], "rotation": 90, "texture": "#11"},
				"down": {"uv": [0.032, 0.03408, 0.032, 0.03615], "rotation": 90, "texture": "#11"}
			}
		},
		{
			"from": [8.66641, 5.32266, 7.53359],
			"to": [8.73281, 5.63828, 7.78437],
			"rotation": {"angle": 0, "axis": "y", "origin": [8.13281, 5.59766, 7.72656]},
			"faces": {
				"north": {"uv": [0.032, 0.03408, 0.04186, 0.03615], "rotation": 270, "texture": "#8"},
				"east": {"uv": [0, 0.00784, 0.00986, 0.01567], "rotation": 90, "texture": "#8"},
				"south": {"uv": [0.032, 0.03408, 0.04186, 0.03615], "rotation": 90, "texture": "#8"},
				"west": {"uv": [0.032, 0.03984, 0.04186, 0.04767], "rotation": 90, "texture": "#8"},
				"up": {"uv": [0.032, 0.03408, 0.03984, 0.03615], "rotation": 90, "texture": "#8"},
				"down": {"uv": [0.032, 0.03408, 0.03984, 0.03615], "rotation": 90, "texture": "#8"}
			}
		},
		{
			"from": [8.63576, 5.40294, 7.53359],
			"to": [8.70216, 5.64825, 7.78437],
			"rotation": {"angle": 22.5, "axis": "z", "origin": [8.13281, 5.59766, 7.72656]},
			"faces": {
				"north": {"uv": [0.032, 0.03408, 0.03967, 0.03615], "rotation": 270, "texture": "#8"},
				"east": {"uv": [0, 0.00784, 0.00767, 0.01567], "rotation": 90, "texture": "#8"},
				"south": {"uv": [0.032, 0.03408, 0.03967, 0.03615], "rotation": 90, "texture": "#8"},
				"west": {"uv": [0.032, 0.03984, 0.03967, 0.04767], "rotation": 90, "texture": "#8"},
				"up": {"uv": [0.032, 0.03408, 0.03984, 0.03615], "rotation": 90, "texture": "#8"},
				"down": {"uv": [0.032, 0.03408, 0.03984, 0.03615], "rotation": 90, "texture": "#8"}
			}
		},
		{
			"from": [8.29531, 5.80625, 7.53359],
			"to": [8.63828, 5.86094, 7.78437],
			"faces": {
				"north": {"uv": [0.032, 0.032, 0.04272, 0.03371], "texture": "#8"},
				"east": {"uv": [0.032, 0.032, 0.03984, 0.03371], "texture": "#8"},
				"south": {"uv": [0.032, 0.032, 0.04272, 0.03371], "texture": "#8"},
				"west": {"uv": [0.032, 0.032, 0.03984, 0.03371], "texture": "#8"},
				"up": {"uv": [0.032, 0.032, 0.04272, 0.03984], "texture": "#8"},
				"down": {"uv": [0, 0, 0.01072, 0.00784], "texture": "#8"}
			}
		},
		{
			"from": [8.16037, 5.76021, 7.53359],
			"to": [8.22677, 6.00552, 7.78437],
			"rotation": {"angle": -22.5, "axis": "z", "origin": [7.86719, 5.59766, 7.72656]},
			"faces": {
				"north": {"uv": [0.032, 0.032, 0.03967, 0.03408], "rotation": 270, "texture": "#8"},
				"east": {"uv": [0.032, 0.032, 0.03967, 0.03984], "rotation": 90, "texture": "#8"},
				"south": {"uv": [0.032, 0.032, 0.03967, 0.03408], "rotation": 90, "texture": "#8"},
				"west": {"uv": [0, 0, 0.00767, 0.00784], "rotation": 90, "texture": "#8"},
				"up": {"uv": [0.032, 0.032, 0.03984, 0.03408], "rotation": 90, "texture": "#8"},
				"down": {"uv": [0.032, 0.032, 0.03984, 0.03408], "rotation": 90, "texture": "#8"}
			}
		},
		{
			"from": [8.20078, 5.32266, 7.53359],
			"to": [8.26719, 5.63828, 7.78437],
			"rotation": {"angle": 0, "axis": "y", "origin": [7.86719, 5.59766, 7.72656]},
			"faces": {
				"north": {"uv": [0.032, 0.032, 0.04186, 0.03408], "rotation": 270, "texture": "#8"},
				"east": {"uv": [0.032, 0.032, 0.04186, 0.03984], "rotation": 90, "texture": "#8"},
				"south": {"uv": [0.032, 0.032, 0.04186, 0.03408], "rotation": 90, "texture": "#8"},
				"west": {"uv": [0, 0, 0.00986, 0.00784], "rotation": 90, "texture": "#8"},
				"up": {"uv": [0.032, 0.032, 0.03984, 0.03408], "rotation": 90, "texture": "#8"},
				"down": {"uv": [0.032, 0.032, 0.03984, 0.03408], "rotation": 90, "texture": "#8"}
			}
		},
		{
			"from": [8.20156, 5.26328, 7.53359],
			"to": [8.73203, 5.4, 7.78437],
			"faces": {
				"north": {"uv": [0.032, 0.032, 0.04858, 0.03627], "texture": "#8"},
				"east": {"uv": [0.032, 0.032, 0.03984, 0.03627], "texture": "#8"},
				"south": {"uv": [0.032, 0.032, 0.04858, 0.03627], "texture": "#8"},
				"west": {"uv": [0.032, 0.032, 0.03984, 0.03627], "texture": "#8"},
				"up": {"uv": [0.032, 0.032, 0.04858, 0.03984], "texture": "#8"},
				"down": {"uv": [0, 0, 0.01658, 0.00784], "texture": "#8"}
			}
		},
		{
			"from": [8.20156, 5.23984, 8.20937],
			"to": [8.73203, 5.37266, 8.70234],
			"faces": {
				"north": {"uv": [0.032, 0.032, 0.04858, 0.03615], "texture": "#8"},
				"east": {"uv": [0.032, 0.032, 0.04741, 0.03615], "texture": "#8"},
				"south": {"uv": [0.032, 0.032, 0.04858, 0.03615], "texture": "#8"},
				"west": {"uv": [0.032, 0.032, 0.04741, 0.03615], "texture": "#8"},
				"up": {"uv": [0.032, 0.032, 0.04858, 0.04741], "texture": "#8"},
				"down": {"uv": [0, 0, 0.01658, 0.01541], "texture": "#8"}
			}
		},
		{
			"from": [8.20156, 5.14609, 7.52969],
			"to": [8.73203, 5.32188, 8.70234],
			"faces": {
				"north": {"uv": [0.032, 0.032, 0.04858, 0.03749], "texture": "#8"},
				"east": {"uv": [0.032, 0.032, 0.06865, 0.03749], "texture": "#8"},
				"south": {"uv": [0.032, 0.032, 0.04858, 0.03749], "texture": "#8"},
				"west": {"uv": [0.032, 0.032, 0.06865, 0.03749], "texture": "#8"},
				"up": {"uv": [0.032, 0.032, 0.04858, 0.06865], "texture": "#8"},
				"down": {"uv": [0, 0, 0.01658, 0.03665], "texture": "#8"}
			}
		}
	],
	"display": {
		"thirdperson_righthand": {
			"translation": [0, 7.5, -2.75],
			"scale": [1.5, 1.5, 1.5]
		},
		"thirdperson_lefthand": {
			"translation": [0, 7.5, -2.75],
			"scale": [1.5, 1.5, 1.5]
		},
		"firstperson_righthand": {
			"translation": [-8, 11, 6.5]
		},
		"firstperson_lefthand": {
			"translation": [-7, 11, 6.5]
		},
		"ground": {
			"translation": [0, 4.25, 0]
		},
		"gui": {
			"rotation": [0, 94, 0],
			"translation": [0, 4.75, 0]
		},
		"head": {
			"translation": [0, 10.75, -6]
		},
		"fixed": {
			"rotation": [0, 93, 0],
			"translation": [-0.25, 4.25, 0],
			"scale": [1.2, 1.2, 1.2]
		}
	},
	"groups": [
		{
			"name": "mount",
			"origin": [8.1875, 5.37109, 9.09766],
			"children": [0, 1, 2, 3,
				{
					"name": "octagon",
					"origin": [8, 8, 8],
					"children": [4, 5, 6, 7]
				},
				{
					"name": "octagon",
					"origin": [8, 8, 8],
					"children": [8, 9, 10, 11]
				}
			]
		},
		{
			"name": "sight_colimator",
			"origin": [8, 8, 8],
			"children": [12, 13, 14, 15, 16, 17, 18, 19, 20]
		}
	]
}