{
    "textures": {
        "0": "gci:items/common/all_in_one", 
        "2": "gci:items/common/mpz", 
        "particle": "gci:items/common/all_in_one"
    }, 
    "elements": [
        {
            "to": [
                8.38875, 
                8.67173, 
                15.096
            ], 
            "rotation": {
                "origin": [
                    7.97725, 
                    8.62173, 
                    14.346
                ], 
                "angle": -22.5, 
                "axis": "x"
            }, 
            "from": [
                7.56575, 
                4.97173, 
                13.896
            ], 
            "faces": {
                "north": {
                    "uv": [
                        2.875, 
                        2.75, 
                        2.875, 
                        2.75
                    ], 
                    "texture": "#0"
                }, 
                "west": {
                    "uv": [
                        2.875, 
                        2.75, 
                        2.875, 
                        2.75
                    ], 
                    "texture": "#0"
                }, 
                "up": {
                    "uv": [
                        2.875, 
                        2.75, 
                        2.875, 
                        2.75
                    ], 
                    "texture": "#0"
                }, 
                "down": {
                    "uv": [
                        2.875, 
                        2.75, 
                        2.875, 
                        2.75
                    ], 
                    "texture": "#0"
                }, 
                "east": {
                    "uv": [
                        2.875, 
                        2.75, 
                        2.875, 
                        2.75
                    ], 
                    "texture": "#0"
                }, 
                "south": {
                    "uv": [
                        2.875, 
                        2.75, 
                        2.875, 
                        2.75
                    ], 
                    "texture": "#0"
                }
            }
        }, 
        {
            "to": [
                8.42075, 
                8.19173, 
                15.032
            ], 
            "rotation": {
                "origin": [
                    7.94525, 
                    8.62173, 
                    14.346
                ], 
                "angle": -22.5, 
                "axis": "x"
            }, 
            "from": [
                7.53375, 
                5.61173, 
                13.96
            ], 
            "faces": {
                "north": {
                    "uv": [
                        3.75, 
                        2.375, 
                        4.5, 
                        4.125
                    ], 
                    "texture": "#0"
                }, 
                "west": {
                    "uv": [
                        3.75, 
                        2.375, 
                        4.5, 
                        4.125
                    ], 
                    "texture": "#0"
                }, 
                "up": {
                    "uv": [
                        3.75, 
                        2.375, 
                        4.5, 
                        4.125
                    ], 
                    "texture": "#0"
                }, 
                "down": {
                    "uv": [
                        3.75, 
                        2.375, 
                        4.5, 
                        4.125
                    ], 
                    "texture": "#0"
                }, 
                "east": {
                    "uv": [
                        3.75, 
                        2.375, 
                        4.5, 
                        4.125
                    ], 
                    "texture": "#0"
                }, 
                "south": {
                    "uv": [
                        3.75, 
                        2.375, 
                        4.5, 
                        4.125
                    ], 
                    "texture": "#0"
                }
            }
        }, 
        {
            "to": [
                8.45275, 
                7.23805, 
                15.27928
            ], 
            "rotation": {
                "origin": [
                    7.97725, 
                    7.10005, 
                    15.14128
                ], 
                "angle": 22.5, 
                "axis": "x"
            }, 
            "from": [
                7.50175, 
                6.96205, 
                15.00328
            ], 
            "faces": {
                "north": {
                    "rotation": 180, 
                    "uv": [
                        2.375, 
                        2.625, 
                        2.375, 
                        2.625
                    ], 
                    "texture": "#0"
                }, 
                "west": {
                    "rotation": 270, 
                    "uv": [
                        2.375, 
                        2.625, 
                        2.375, 
                        2.625
                    ], 
                    "texture": "#0"
                }, 
                "up": {
                    "uv": [
                        2.375, 
                        2.625, 
                        2.375, 
                        2.625
                    ], 
                    "texture": "#0"
                }, 
                "down": {
                    "rotation": 180, 
                    "uv": [
                        2.375, 
                        2.625, 
                        2.375, 
                        2.625
                    ], 
                    "texture": "#0"
                }, 
                "east": {
                    "rotation": 90, 
                    "uv": [
                        2.375, 
                        2.625, 
                        2.375, 
                        2.625
                    ], 
                    "texture": "#0"
                }, 
                "south": {
                    "uv": [
                        2.375, 
                        2.625, 
                        2.375, 
                        2.625
                    ], 
                    "texture": "#0"
                }
            }
        }, 
        {
            "to": [
                8.42075, 
                8.71005, 
                15.66328
            ], 
            "rotation": {
                "origin": [
                    7.97725, 
                    8.60405, 
                    15.55728
                ], 
                "angle": 45, 
                "axis": "x"
            }, 
            "from": [
                7.53375, 
                8.53005, 
                15.48328
            ], 
            "faces": {
                "north": {
                    "rotation": 180, 
                    "uv": [
                        2.375, 
                        2.625, 
                        2.375, 
                        2.625
                    ], 
                    "texture": "#0"
                }, 
                "west": {
                    "rotation": 270, 
                    "uv": [
                        2.375, 
                        2.625, 
                        2.375, 
                        2.625
                    ], 
                    "texture": "#0"
                }, 
                "up": {
                    "uv": [
                        2.375, 
                        2.625, 
                        2.375, 
                        2.625
                    ], 
                    "texture": "#0"
                }, 
                "down": {
                    "rotation": 180, 
                    "uv": [
                        2.375, 
                        2.625, 
                        2.375, 
                        2.625
                    ], 
                    "texture": "#0"
                }, 
                "east": {
                    "rotation": 90, 
                    "uv": [
                        2.375, 
                        2.625, 
                        2.375, 
                        2.625
                    ], 
                    "texture": "#0"
                }, 
                "south": {
                    "uv": [
                        2.375, 
                        2.625, 
                        2.375, 
                        2.625
                    ], 
                    "texture": "#0"
                }
            }
        }, 
        {
            "to": [
                8.19675, 
                7.68605, 
                13.71128
            ], 
            "rotation": {
                "origin": [
                    7.97725, 
                    7.58005, 
                    13.60528
                ], 
                "angle": 45, 
                "axis": "x"
            }, 
            "from": [
                7.75775, 
                7.50605, 
                13.53128
            ], 
            "faces": {
                "north": {
                    "rotation": 180, 
                    "uv": [
                        2.375, 
                        2.625, 
                        2.375, 
                        2.625
                    ], 
                    "texture": "#0"
                }, 
                "west": {
                    "rotation": 270, 
                    "uv": [
                        2.375, 
                        2.625, 
                        2.375, 
                        2.625
                    ], 
                    "texture": "#0"
                }, 
                "up": {
                    "uv": [
                        2.375, 
                        2.625, 
                        2.375, 
                        2.625
                    ], 
                    "texture": "#0"
                }, 
                "down": {
                    "rotation": 180, 
                    "uv": [
                        2.375, 
                        2.625, 
                        2.375, 
                        2.625
                    ], 
                    "texture": "#0"
                }, 
                "east": {
                    "rotation": 90, 
                    "uv": [
                        2.375, 
                        2.625, 
                        2.375, 
                        2.625
                    ], 
                    "texture": "#0"
                }, 
                "south": {
                    "uv": [
                        2.375, 
                        2.625, 
                        2.375, 
                        2.625
                    ], 
                    "texture": "#0"
                }
            }
        }, 
        {
            "to": [
                8.38875, 
                6.27736, 
                15.32705
            ], 
            "rotation": {
                "origin": [
                    7.97725, 
                    7.12736, 
                    15.07705
                ], 
                "angle": 0, 
                "axis": "y"
            }, 
            "from": [
                7.56575, 
                5.07736, 
                14.82705
            ], 
            "faces": {
                "north": {
                    "uv": [
                        2.875, 
                        2.75, 
                        2.875, 
                        2.75
                    ], 
                    "texture": "#0"
                }, 
                "west": {
                    "uv": [
                        2.875, 
                        2.75, 
                        2.875, 
                        2.75
                    ], 
                    "texture": "#0"
                }, 
                "up": {
                    "uv": [
                        2.875, 
                        2.75, 
                        2.875, 
                        2.75
                    ], 
                    "texture": "#0"
                }, 
                "down": {
                    "uv": [
                        2.875, 
                        2.75, 
                        2.875, 
                        2.75
                    ], 
                    "texture": "#0"
                }, 
                "east": {
                    "uv": [
                        2.875, 
                        2.75, 
                        2.875, 
                        2.75
                    ], 
                    "texture": "#0"
                }, 
                "south": {
                    "uv": [
                        2.875, 
                        2.75, 
                        2.875, 
                        2.75
                    ], 
                    "texture": "#0"
                }
            }
        }, 
        {
            "to": [
                8.48875, 
                5.53658, 
                16.4677
            ], 
            "rotation": {
                "origin": [
                    7.97725, 
                    7.08658, 
                    16.1857
                ], 
                "angle": 0, 
                "axis": "y"
            }, 
            "from": [
                7.46575, 
                5.13658, 
                14.9357
            ], 
            "faces": {
                "north": {
                    "uv": [
                        7.125, 
                        11.75, 
                        7.125, 
                        11.75
                    ], 
                    "texture": "#0"
                }, 
                "west": {
                    "uv": [
                        7.125, 
                        11.75, 
                        7.125, 
                        11.75
                    ], 
                    "texture": "#0"
                }, 
                "up": {
                    "uv": [
                        7.125, 
                        11.75, 
                        7.125, 
                        11.75
                    ], 
                    "texture": "#0"
                }, 
                "down": {
                    "uv": [
                        7.125, 
                        11.75, 
                        7.125, 
                        11.75
                    ], 
                    "texture": "#0"
                }, 
                "east": {
                    "uv": [
                        7.125, 
                        11.75, 
                        7.125, 
                        11.75
                    ], 
                    "texture": "#0"
                }, 
                "south": {
                    "uv": [
                        7.125, 
                        11.75, 
                        7.125, 
                        11.75
                    ], 
                    "texture": "#0"
                }
            }
        }, 
        {
            "to": [
                8.48875, 
                5.54493, 
                14.96948
            ], 
            "rotation": {
                "origin": [
                    7.97725, 
                    5.34493, 
                    14.86948
                ], 
                "angle": 22.5, 
                "axis": "x"
            }, 
            "from": [
                7.46575, 
                5.14493, 
                14.76948
            ], 
            "faces": {
                "north": {
                    "rotation": 270, 
                    "uv": [
                        7.125, 
                        11.75, 
                        7.125, 
                        11.75
                    ], 
                    "texture": "#0"
                }, 
                "west": {
                    "rotation": 270, 
                    "uv": [
                        7.125, 
                        11.75, 
                        7.125, 
                        11.75
                    ], 
                    "texture": "#0"
                }, 
                "up": {
                    "rotation": 270, 
                    "uv": [
                        7.125, 
                        11.75, 
                        7.125, 
                        11.75
                    ], 
                    "texture": "#0"
                }, 
                "down": {
                    "rotation": 270, 
                    "uv": [
                        7.125, 
                        11.75, 
                        7.125, 
                        11.75
                    ], 
                    "texture": "#0"
                }, 
                "east": {
                    "rotation": 270, 
                    "uv": [
                        7.125, 
                        11.75, 
                        7.125, 
                        11.75
                    ], 
                    "texture": "#0"
                }, 
                "south": {
                    "rotation": 270, 
                    "uv": [
                        7.125, 
                        11.75, 
                        7.125, 
                        11.75
                    ], 
                    "texture": "#0"
                }
            }
        }, 
        {
            "to": [
                8.18875, 
                8.47173, 
                15.196
            ], 
            "rotation": {
                "origin": [
                    7.97725, 
                    7.62173, 
                    13.546
                ], 
                "angle": 0, 
                "axis": "y"
            }, 
            "from": [
                7.76575, 
                7.37173, 
                13.596
            ], 
            "faces": {
                "north": {
                    "rotation": 270, 
                    "uv": [
                        2.875, 
                        2.875, 
                        2.875, 
                        2.875
                    ], 
                    "texture": "#0"
                }, 
                "west": {
                    "rotation": 270, 
                    "uv": [
                        2.875, 
                        2.875, 
                        2.875, 
                        2.875
                    ], 
                    "texture": "#0"
                }, 
                "up": {
                    "rotation": 270, 
                    "uv": [
                        2.875, 
                        2.875, 
                        2.875, 
                        2.875
                    ], 
                    "texture": "#0"
                }, 
                "down": {
                    "rotation": 270, 
                    "uv": [
                        2.875, 
                        2.875, 
                        2.875, 
                        2.875
                    ], 
                    "texture": "#0"
                }, 
                "east": {
                    "rotation": 270, 
                    "uv": [
                        2.875, 
                        2.875, 
                        2.875, 
                        2.875
                    ], 
                    "texture": "#0"
                }, 
                "south": {
                    "rotation": 270, 
                    "uv": [
                        2.875, 
                        2.875, 
                        2.875, 
                        2.875
                    ], 
                    "texture": "#0"
                }
            }
        }, 
        {
            "to": [
                8.18875, 
                7.47173, 
                13.496
            ], 
            "rotation": {
                "origin": [
                    7.97725, 
                    6.72173, 
                    12.746
                ], 
                "angle": 0, 
                "axis": "y"
            }, 
            "from": [
                7.76575, 
                7.27173, 
                12.696
            ], 
            "faces": {
                "north": {
                    "rotation": 270, 
                    "uv": [
                        2.875, 
                        2.875, 
                        2.875, 
                        2.875
                    ], 
                    "texture": "#0"
                }, 
                "west": {
                    "rotation": 270, 
                    "uv": [
                        2.875, 
                        2.875, 
                        2.875, 
                        2.875
                    ], 
                    "texture": "#0"
                }, 
                "up": {
                    "rotation": 270, 
                    "uv": [
                        2.875, 
                        2.875, 
                        2.875, 
                        2.875
                    ], 
                    "texture": "#0"
                }, 
                "down": {
                    "rotation": 270, 
                    "uv": [
                        2.875, 
                        2.875, 
                        2.875, 
                        2.875
                    ], 
                    "texture": "#0"
                }, 
                "east": {
                    "rotation": 270, 
                    "uv": [
                        2.875, 
                        2.875, 
                        2.875, 
                        2.875
                    ], 
                    "texture": "#0"
                }, 
                "south": {
                    "rotation": 270, 
                    "uv": [
                        2.875, 
                        2.875, 
                        2.875, 
                        2.875
                    ], 
                    "texture": "#0"
                }
            }
        }, 
        {
            "to": [
                8.18875, 
                7.571, 
                12.49694
            ], 
            "rotation": {
                "origin": [
                    7.97725, 
                    6.821, 
                    12.34694
                ], 
                "angle": 22.5, 
                "axis": "x"
            }, 
            "from": [
                7.76575, 
                7.371, 
                12.39694
            ], 
            "faces": {
                "north": {
                    "rotation": 270, 
                    "uv": [
                        2.875, 
                        2.875, 
                        2.875, 
                        2.875
                    ], 
                    "texture": "#0"
                }, 
                "west": {
                    "rotation": 270, 
                    "uv": [
                        2.875, 
                        2.875, 
                        2.875, 
                        2.875
                    ], 
                    "texture": "#0"
                }, 
                "up": {
                    "rotation": 270, 
                    "uv": [
                        2.875, 
                        2.875, 
                        2.875, 
                        2.875
                    ], 
                    "texture": "#0"
                }, 
                "down": {
                    "rotation": 270, 
                    "uv": [
                        2.875, 
                        2.875, 
                        2.875, 
                        2.875
                    ], 
                    "texture": "#0"
                }, 
                "east": {
                    "rotation": 270, 
                    "uv": [
                        2.875, 
                        2.875, 
                        2.875, 
                        2.875
                    ], 
                    "texture": "#0"
                }, 
                "south": {
                    "rotation": 270, 
                    "uv": [
                        2.875, 
                        2.875, 
                        2.875, 
                        2.875
                    ], 
                    "texture": "#0"
                }
            }
        }, 
        {
            "to": [
                8.18875, 
                7.61719, 
                14.22728
            ], 
            "rotation": {
                "origin": [
                    7.97725, 
                    7.51719, 
                    13.82728
                ], 
                "angle": -22.5, 
                "axis": "x"
            }, 
            "from": [
                7.76575, 
                7.41719, 
                13.42728
            ], 
            "faces": {
                "north": {
                    "rotation": 270, 
                    "uv": [
                        2.875, 
                        2.875, 
                        2.875, 
                        2.875
                    ], 
                    "texture": "#0"
                }, 
                "west": {
                    "rotation": 270, 
                    "uv": [
                        2.875, 
                        2.875, 
                        2.875, 
                        2.875
                    ], 
                    "texture": "#0"
                }, 
                "up": {
                    "rotation": 270, 
                    "uv": [
                        2.875, 
                        2.875, 
                        2.875, 
                        2.875
                    ], 
                    "texture": "#0"
                }, 
                "down": {
                    "rotation": 270, 
                    "uv": [
                        2.875, 
                        2.875, 
                        2.875, 
                        2.875
                    ], 
                    "texture": "#0"
                }, 
                "east": {
                    "rotation": 270, 
                    "uv": [
                        2.875, 
                        2.875, 
                        2.875, 
                        2.875
                    ], 
                    "texture": "#0"
                }, 
                "south": {
                    "rotation": 270, 
                    "uv": [
                        2.875, 
                        2.875, 
                        2.875, 
                        2.875
                    ], 
                    "texture": "#0"
                }
            }
        }, 
        {
            "to": [
                8.18875, 
                7.61719, 
                13.72728
            ], 
            "rotation": {
                "origin": [
                    7.97725, 
                    7.51719, 
                    13.22728
                ], 
                "angle": -22.5, 
                "axis": "x"
            }, 
            "from": [
                7.76575, 
                7.41719, 
                12.82728
            ], 
            "faces": {
                "north": {
                    "rotation": 270, 
                    "uv": [
                        2.875, 
                        2.875, 
                        2.875, 
                        2.875
                    ], 
                    "texture": "#0"
                }, 
                "west": {
                    "rotation": 270, 
                    "uv": [
                        2.875, 
                        2.875, 
                        2.875, 
                        2.875
                    ], 
                    "texture": "#0"
                }, 
                "up": {
                    "rotation": 270, 
                    "uv": [
                        2.875, 
                        2.875, 
                        2.875, 
                        2.875
                    ], 
                    "texture": "#0"
                }, 
                "down": {
                    "rotation": 270, 
                    "uv": [
                        2.875, 
                        2.875, 
                        2.875, 
                        2.875
                    ], 
                    "texture": "#0"
                }, 
                "east": {
                    "rotation": 270, 
                    "uv": [
                        2.875, 
                        2.875, 
                        2.875, 
                        2.875
                    ], 
                    "texture": "#0"
                }, 
                "south": {
                    "rotation": 270, 
                    "uv": [
                        2.875, 
                        2.875, 
                        2.875, 
                        2.875
                    ], 
                    "texture": "#0"
                }
            }
        }, 
        {
            "to": [
                8.18875, 
                7.61719, 
                13.72728
            ], 
            "rotation": {
                "origin": [
                    7.97725, 
                    7.51719, 
                    13.32728
                ], 
                "angle": -22.5, 
                "axis": "x"
            }, 
            "from": [
                7.76575, 
                7.41719, 
                12.92728
            ], 
            "faces": {
                "north": {
                    "rotation": 270, 
                    "uv": [
                        2.875, 
                        2.875, 
                        2.875, 
                        2.875
                    ], 
                    "texture": "#0"
                }, 
                "west": {
                    "rotation": 270, 
                    "uv": [
                        2.875, 
                        2.875, 
                        2.875, 
                        2.875
                    ], 
                    "texture": "#0"
                }, 
                "up": {
                    "rotation": 270, 
                    "uv": [
                        2.875, 
                        2.875, 
                        2.875, 
                        2.875
                    ], 
                    "texture": "#0"
                }, 
                "down": {
                    "rotation": 270, 
                    "uv": [
                        2.875, 
                        2.875, 
                        2.875, 
                        2.875
                    ], 
                    "texture": "#0"
                }, 
                "east": {
                    "rotation": 270, 
                    "uv": [
                        2.875, 
                        2.875, 
                        2.875, 
                        2.875
                    ], 
                    "texture": "#0"
                }, 
                "south": {
                    "rotation": 270, 
                    "uv": [
                        2.875, 
                        2.875, 
                        2.875, 
                        2.875
                    ], 
                    "texture": "#0"
                }
            }
        }, 
        {
            "to": [
                8.38875, 
                9.09593, 
                15.68255
            ], 
            "rotation": {
                "origin": [
                    7.97725, 
                    8.44593, 
                    14.93255
                ], 
                "angle": 22.5, 
                "axis": "x"
            }, 
            "from": [
                7.56575, 
                7.99593, 
                14.08255
            ], 
            "faces": {
                "north": {
                    "uv": [
                        2.875, 
                        2.75, 
                        2.875, 
                        2.75
                    ], 
                    "texture": "#0"
                }, 
                "west": {
                    "uv": [
                        2.875, 
                        2.75, 
                        2.875, 
                        2.75
                    ], 
                    "texture": "#0"
                }, 
                "up": {
                    "uv": [
                        2.875, 
                        2.75, 
                        2.875, 
                        2.75
                    ], 
                    "texture": "#0"
                }, 
                "down": {
                    "uv": [
                        2.875, 
                        2.75, 
                        2.875, 
                        2.75
                    ], 
                    "texture": "#0"
                }, 
                "east": {
                    "uv": [
                        2.875, 
                        2.75, 
                        2.875, 
                        2.75
                    ], 
                    "texture": "#0"
                }, 
                "south": {
                    "uv": [
                        2.875, 
                        2.75, 
                        2.875, 
                        2.75
                    ], 
                    "texture": "#0"
                }
            }
        }, 
        {
            "to": [
                8.28875, 
                9.07174, 
                15.796
            ], 
            "rotation": {
                "origin": [
                    7.97725, 
                    8.82173, 
                    15.046
                ], 
                "angle": 0, 
                "axis": "y"
            }, 
            "from": [
                7.66575, 
                8.07173, 
                14.596
            ], 
            "faces": {
                "north": {
                    "rotation": 90, 
                    "uv": [
                        2.875, 
                        2.875, 
                        2.875, 
                        2.875
                    ], 
                    "texture": "#0"
                }, 
                "west": {
                    "rotation": 90, 
                    "uv": [
                        2.875, 
                        2.875, 
                        2.875, 
                        2.875
                    ], 
                    "texture": "#0"
                }, 
                "up": {
                    "rotation": 90, 
                    "uv": [
                        2.875, 
                        2.875, 
                        2.875, 
                        2.875
                    ], 
                    "texture": "#0"
                }, 
                "down": {
                    "rotation": 90, 
                    "uv": [
                        2.875, 
                        2.875, 
                        2.875, 
                        2.875
                    ], 
                    "texture": "#0"
                }, 
                "east": {
                    "rotation": 90, 
                    "uv": [
                        2.875, 
                        2.875, 
                        2.875, 
                        2.875
                    ], 
                    "texture": "#0"
                }, 
                "south": {
                    "rotation": 90, 
                    "uv": [
                        2.875, 
                        2.875, 
                        2.875, 
                        2.875
                    ], 
                    "texture": "#0"
                }
            }
        }, 
        {
            "to": [
                8.28875, 
                8.83394, 
                16.1887
            ], 
            "rotation": {
                "origin": [
                    7.97725, 
                    8.53394, 
                    15.3687
                ], 
                "angle": 0, 
                "axis": "y"
            }, 
            "from": [
                7.66575, 
                8.23394, 
                14.5487
            ], 
            "faces": {
                "north": {
                    "rotation": 90, 
                    "uv": [
                        2.875, 
                        2.875, 
                        2.875, 
                        2.875
                    ], 
                    "texture": "#0"
                }, 
                "west": {
                    "rotation": 90, 
                    "uv": [
                        2.875, 
                        2.875, 
                        2.875, 
                        2.875
                    ], 
                    "texture": "#0"
                }, 
                "up": {
                    "rotation": 90, 
                    "uv": [
                        2.875, 
                        2.875, 
                        2.875, 
                        2.875
                    ], 
                    "texture": "#0"
                }, 
                "down": {
                    "rotation": 90, 
                    "uv": [
                        2.875, 
                        2.875, 
                        2.875, 
                        2.875
                    ], 
                    "texture": "#0"
                }, 
                "east": {
                    "rotation": 90, 
                    "uv": [
                        2.875, 
                        2.875, 
                        2.875, 
                        2.875
                    ], 
                    "texture": "#0"
                }, 
                "south": {
                    "rotation": 90, 
                    "uv": [
                        2.875, 
                        2.875, 
                        2.875, 
                        2.875
                    ], 
                    "texture": "#0"
                }
            }
        }, 
        {
            "to": [
                8.28875, 
                8.17173, 
                16.096
            ], 
            "rotation": {
                "origin": [
                    7.97725, 
                    7.92173, 
                    15.046
                ], 
                "angle": -22.5, 
                "axis": "x"
            }, 
            "from": [
                7.66575, 
                7.57173, 
                14.596
            ], 
            "faces": {
                "north": {
                    "rotation": 90, 
                    "uv": [
                        2.875, 
                        2.875, 
                        2.875, 
                        2.875
                    ], 
                    "texture": "#0"
                }, 
                "west": {
                    "rotation": 90, 
                    "uv": [
                        2.875, 
                        2.875, 
                        2.875, 
                        2.875
                    ], 
                    "texture": "#0"
                }, 
                "up": {
                    "rotation": 90, 
                    "uv": [
                        2.875, 
                        2.875, 
                        2.875, 
                        2.875
                    ], 
                    "texture": "#0"
                }, 
                "down": {
                    "rotation": 90, 
                    "uv": [
                        2.875, 
                        2.875, 
                        2.875, 
                        2.875
                    ], 
                    "texture": "#0"
                }, 
                "east": {
                    "rotation": 90, 
                    "uv": [
                        2.875, 
                        2.875, 
                        2.875, 
                        2.875
                    ], 
                    "texture": "#0"
                }, 
                "south": {
                    "rotation": 90, 
                    "uv": [
                        2.875, 
                        2.875, 
                        2.875, 
                        2.875
                    ], 
                    "texture": "#0"
                }
            }
        }, 
        {
            "to": [
                8.28875, 
                9.01032, 
                15.98724
            ], 
            "rotation": {
                "origin": [
                    7.97725, 
                    8.56032, 
                    15.73724
                ], 
                "angle": -22.5, 
                "axis": "x"
            }, 
            "from": [
                7.66575, 
                8.31032, 
                14.98724
            ], 
            "faces": {
                "north": {
                    "rotation": 180, 
                    "uv": [
                        2.875, 
                        2.875, 
                        2.875, 
                        2.875
                    ], 
                    "texture": "#0"
                }, 
                "west": {
                    "rotation": 180, 
                    "uv": [
                        2.875, 
                        2.875, 
                        2.875, 
                        2.875
                    ], 
                    "texture": "#0"
                }, 
                "up": {
                    "rotation": 180, 
                    "uv": [
                        2.875, 
                        2.875, 
                        2.875, 
                        2.875
                    ], 
                    "texture": "#0"
                }, 
                "down": {
                    "rotation": 180, 
                    "uv": [
                        2.875, 
                        2.875, 
                        2.875, 
                        2.875
                    ], 
                    "texture": "#0"
                }, 
                "east": {
                    "rotation": 180, 
                    "uv": [
                        2.875, 
                        2.875, 
                        2.875, 
                        2.875
                    ], 
                    "texture": "#0"
                }, 
                "south": {
                    "rotation": 180, 
                    "uv": [
                        2.875, 
                        2.875, 
                        2.875, 
                        2.875
                    ], 
                    "texture": "#0"
                }
            }
        }, 
        {
            "to": [
                8.38875, 
                8.67173, 
                15.096
            ], 
            "rotation": {
                "origin": [
                    7.97725, 
                    8.62173, 
                    14.346
                ], 
                "angle": -22.5, 
                "axis": "x"
            }, 
            "from": [
                7.56575, 
                4.97173, 
                13.896
            ], 
            "faces": {
                "north": {
                    "uv": [
                        2.875, 
                        2.75, 
                        2.875, 
                        2.75
                    ], 
                    "texture": "#0"
                }, 
                "west": {
                    "uv": [
                        2.875, 
                        2.75, 
                        2.875, 
                        2.75
                    ], 
                    "texture": "#0"
                }, 
                "up": {
                    "uv": [
                        2.875, 
                        2.75, 
                        2.875, 
                        2.75
                    ], 
                    "texture": "#0"
                }, 
                "down": {
                    "uv": [
                        2.875, 
                        2.75, 
                        2.875, 
                        2.75
                    ], 
                    "texture": "#0"
                }, 
                "east": {
                    "uv": [
                        2.875, 
                        2.75, 
                        2.875, 
                        2.75
                    ], 
                    "texture": "#0"
                }, 
                "south": {
                    "uv": [
                        2.875, 
                        2.75, 
                        2.875, 
                        2.75
                    ], 
                    "texture": "#0"
                }
            }
        }, 
        {
            "to": [
                8.42075, 
                8.19173, 
                15.032
            ], 
            "rotation": {
                "origin": [
                    7.94525, 
                    8.62173, 
                    14.346
                ], 
                "angle": -22.5, 
                "axis": "x"
            }, 
            "from": [
                7.53375, 
                5.61173, 
                13.96
            ], 
            "faces": {
                "north": {
                    "uv": [
                        3.75, 
                        2.375, 
                        4.5, 
                        4.125
                    ], 
                    "texture": "#0"
                }, 
                "west": {
                    "uv": [
                        3.75, 
                        2.375, 
                        4.5, 
                        4.125
                    ], 
                    "texture": "#0"
                }, 
                "up": {
                    "uv": [
                        3.75, 
                        2.375, 
                        4.5, 
                        4.125
                    ], 
                    "texture": "#0"
                }, 
                "down": {
                    "uv": [
                        3.75, 
                        2.375, 
                        4.5, 
                        4.125
                    ], 
                    "texture": "#0"
                }, 
                "east": {
                    "uv": [
                        3.75, 
                        2.375, 
                        4.5, 
                        4.125
                    ], 
                    "texture": "#0"
                }, 
                "south": {
                    "uv": [
                        3.75, 
                        2.375, 
                        4.5, 
                        4.125
                    ], 
                    "texture": "#0"
                }
            }
        }, 
        {
            "to": [
                8.45275, 
                7.23805, 
                15.27928
            ], 
            "rotation": {
                "origin": [
                    7.97725, 
                    7.10005, 
                    15.14128
                ], 
                "angle": 22.5, 
                "axis": "x"
            }, 
            "from": [
                7.50175, 
                6.96205, 
                15.00328
            ], 
            "faces": {
                "north": {
                    "rotation": 180, 
                    "uv": [
                        2.375, 
                        2.625, 
                        2.375, 
                        2.625
                    ], 
                    "texture": "#0"
                }, 
                "west": {
                    "rotation": 270, 
                    "uv": [
                        2.375, 
                        2.625, 
                        2.375, 
                        2.625
                    ], 
                    "texture": "#0"
                }, 
                "up": {
                    "uv": [
                        2.375, 
                        2.625, 
                        2.375, 
                        2.625
                    ], 
                    "texture": "#0"
                }, 
                "down": {
                    "rotation": 180, 
                    "uv": [
                        2.375, 
                        2.625, 
                        2.375, 
                        2.625
                    ], 
                    "texture": "#0"
                }, 
                "east": {
                    "rotation": 90, 
                    "uv": [
                        2.375, 
                        2.625, 
                        2.375, 
                        2.625
                    ], 
                    "texture": "#0"
                }, 
                "south": {
                    "uv": [
                        2.375, 
                        2.625, 
                        2.375, 
                        2.625
                    ], 
                    "texture": "#0"
                }
            }
        }, 
        {
            "to": [
                8.42075, 
                8.71005, 
                15.66328
            ], 
            "rotation": {
                "origin": [
                    7.97725, 
                    8.60405, 
                    15.55728
                ], 
                "angle": 45, 
                "axis": "x"
            }, 
            "from": [
                7.53375, 
                8.53005, 
                15.48328
            ], 
            "faces": {
                "north": {
                    "rotation": 180, 
                    "uv": [
                        2.375, 
                        2.625, 
                        2.375, 
                        2.625
                    ], 
                    "texture": "#0"
                }, 
                "west": {
                    "rotation": 270, 
                    "uv": [
                        2.375, 
                        2.625, 
                        2.375, 
                        2.625
                    ], 
                    "texture": "#0"
                }, 
                "up": {
                    "uv": [
                        2.375, 
                        2.625, 
                        2.375, 
                        2.625
                    ], 
                    "texture": "#0"
                }, 
                "down": {
                    "rotation": 180, 
                    "uv": [
                        2.375, 
                        2.625, 
                        2.375, 
                        2.625
                    ], 
                    "texture": "#0"
                }, 
                "east": {
                    "rotation": 90, 
                    "uv": [
                        2.375, 
                        2.625, 
                        2.375, 
                        2.625
                    ], 
                    "texture": "#0"
                }, 
                "south": {
                    "uv": [
                        2.375, 
                        2.625, 
                        2.375, 
                        2.625
                    ], 
                    "texture": "#0"
                }
            }
        }, 
        {
            "to": [
                8.19675, 
                7.68605, 
                13.71128
            ], 
            "rotation": {
                "origin": [
                    7.97725, 
                    7.58005, 
                    13.60528
                ], 
                "angle": 45, 
                "axis": "x"
            }, 
            "from": [
                7.75775, 
                7.50605, 
                13.53128
            ], 
            "faces": {
                "north": {
                    "rotation": 180, 
                    "uv": [
                        2.375, 
                        2.625, 
                        2.375, 
                        2.625
                    ], 
                    "texture": "#0"
                }, 
                "west": {
                    "rotation": 270, 
                    "uv": [
                        2.375, 
                        2.625, 
                        2.375, 
                        2.625
                    ], 
                    "texture": "#0"
                }, 
                "up": {
                    "uv": [
                        2.375, 
                        2.625, 
                        2.375, 
                        2.625
                    ], 
                    "texture": "#0"
                }, 
                "down": {
                    "rotation": 180, 
                    "uv": [
                        2.375, 
                        2.625, 
                        2.375, 
                        2.625
                    ], 
                    "texture": "#0"
                }, 
                "east": {
                    "rotation": 90, 
                    "uv": [
                        2.375, 
                        2.625, 
                        2.375, 
                        2.625
                    ], 
                    "texture": "#0"
                }, 
                "south": {
                    "uv": [
                        2.375, 
                        2.625, 
                        2.375, 
                        2.625
                    ], 
                    "texture": "#0"
                }
            }
        }, 
        {
            "to": [
                8.38875, 
                6.27736, 
                15.32705
            ], 
            "rotation": {
                "origin": [
                    7.97725, 
                    7.12736, 
                    15.07705
                ], 
                "angle": 0, 
                "axis": "y"
            }, 
            "from": [
                7.56575, 
                5.07736, 
                14.82705
            ], 
            "faces": {
                "north": {
                    "uv": [
                        2.875, 
                        2.75, 
                        2.875, 
                        2.75
                    ], 
                    "texture": "#0"
                }, 
                "west": {
                    "uv": [
                        2.875, 
                        2.75, 
                        2.875, 
                        2.75
                    ], 
                    "texture": "#0"
                }, 
                "up": {
                    "uv": [
                        2.875, 
                        2.75, 
                        2.875, 
                        2.75
                    ], 
                    "texture": "#0"
                }, 
                "down": {
                    "uv": [
                        2.875, 
                        2.75, 
                        2.875, 
                        2.75
                    ], 
                    "texture": "#0"
                }, 
                "east": {
                    "uv": [
                        2.875, 
                        2.75, 
                        2.875, 
                        2.75
                    ], 
                    "texture": "#0"
                }, 
                "south": {
                    "uv": [
                        2.875, 
                        2.75, 
                        2.875, 
                        2.75
                    ], 
                    "texture": "#0"
                }
            }
        }, 
        {
            "to": [
                8.48875, 
                5.53658, 
                16.4677
            ], 
            "rotation": {
                "origin": [
                    7.97725, 
                    7.08658, 
                    16.1857
                ], 
                "angle": 0, 
                "axis": "y"
            }, 
            "from": [
                7.46575, 
                5.13658, 
                14.9357
            ], 
            "faces": {
                "north": {
                    "uv": [
                        7.125, 
                        11.75, 
                        7.125, 
                        11.75
                    ], 
                    "texture": "#0"
                }, 
                "west": {
                    "uv": [
                        7.125, 
                        11.75, 
                        7.125, 
                        11.75
                    ], 
                    "texture": "#0"
                }, 
                "up": {
                    "uv": [
                        7.125, 
                        11.75, 
                        7.125, 
                        11.75
                    ], 
                    "texture": "#0"
                }, 
                "down": {
                    "uv": [
                        7.125, 
                        11.75, 
                        7.125, 
                        11.75
                    ], 
                    "texture": "#0"
                }, 
                "east": {
                    "uv": [
                        7.125, 
                        11.75, 
                        7.125, 
                        11.75
                    ], 
                    "texture": "#0"
                }, 
                "south": {
                    "uv": [
                        7.125, 
                        11.75, 
                        7.125, 
                        11.75
                    ], 
                    "texture": "#0"
                }
            }
        }, 
        {
            "to": [
                8.48875, 
                5.07736, 
                14.22705
            ], 
            "rotation": {
                "origin": [
                    7.97725, 
                    6.92736, 
                    13.97705
                ], 
                "angle": -22.5, 
                "axis": "x"
            }, 
            "from": [
                7.46575, 
                4.87736, 
                13.82705
            ], 
            "faces": {
                "north": {
                    "uv": [
                        7.125, 
                        11.75, 
                        7.125, 
                        11.75
                    ], 
                    "texture": "#0"
                }, 
                "west": {
                    "uv": [
                        7.125, 
                        11.75, 
                        7.125, 
                        11.75
                    ], 
                    "texture": "#0"
                }, 
                "up": {
                    "uv": [
                        7.125, 
                        11.75, 
                        7.125, 
                        11.75
                    ], 
                    "texture": "#0"
                }, 
                "down": {
                    "uv": [
                        7.125, 
                        11.75, 
                        7.125, 
                        11.75
                    ], 
                    "texture": "#0"
                }, 
                "east": {
                    "uv": [
                        7.125, 
                        11.75, 
                        7.125, 
                        11.75
                    ], 
                    "texture": "#0"
                }, 
                "south": {
                    "uv": [
                        7.125, 
                        11.75, 
                        7.125, 
                        11.75
                    ], 
                    "texture": "#0"
                }
            }
        }, 
        {
            "to": [
                8.48875, 
                5.54493, 
                14.96948
            ], 
            "rotation": {
                "origin": [
                    7.97725, 
                    5.34493, 
                    14.86948
                ], 
                "angle": 22.5, 
                "axis": "x"
            }, 
            "from": [
                7.46575, 
                5.14493, 
                14.76948
            ], 
            "faces": {
                "north": {
                    "rotation": 270, 
                    "uv": [
                        7.125, 
                        11.75, 
                        7.125, 
                        11.75
                    ], 
                    "texture": "#0"
                }, 
                "west": {
                    "rotation": 270, 
                    "uv": [
                        7.125, 
                        11.75, 
                        7.125, 
                        11.75
                    ], 
                    "texture": "#0"
                }, 
                "up": {
                    "rotation": 270, 
                    "uv": [
                        7.125, 
                        11.75, 
                        7.125, 
                        11.75
                    ], 
                    "texture": "#0"
                }, 
                "down": {
                    "rotation": 270, 
                    "uv": [
                        7.125, 
                        11.75, 
                        7.125, 
                        11.75
                    ], 
                    "texture": "#0"
                }, 
                "east": {
                    "rotation": 270, 
                    "uv": [
                        7.125, 
                        11.75, 
                        7.125, 
                        11.75
                    ], 
                    "texture": "#0"
                }, 
                "south": {
                    "rotation": 270, 
                    "uv": [
                        7.125, 
                        11.75, 
                        7.125, 
                        11.75
                    ], 
                    "texture": "#0"
                }
            }
        }, 
        {
            "to": [
                8.18875, 
                8.47173, 
                15.196
            ], 
            "rotation": {
                "origin": [
                    7.97725, 
                    7.62173, 
                    13.546
                ], 
                "angle": 0, 
                "axis": "y"
            }, 
            "from": [
                7.76575, 
                7.37173, 
                13.596
            ], 
            "faces": {
                "north": {
                    "rotation": 270, 
                    "uv": [
                        2.875, 
                        2.875, 
                        2.875, 
                        2.875
                    ], 
                    "texture": "#0"
                }, 
                "west": {
                    "rotation": 270, 
                    "uv": [
                        2.875, 
                        2.875, 
                        2.875, 
                        2.875
                    ], 
                    "texture": "#0"
                }, 
                "up": {
                    "rotation": 270, 
                    "uv": [
                        2.875, 
                        2.875, 
                        2.875, 
                        2.875
                    ], 
                    "texture": "#0"
                }, 
                "down": {
                    "rotation": 270, 
                    "uv": [
                        2.875, 
                        2.875, 
                        2.875, 
                        2.875
                    ], 
                    "texture": "#0"
                }, 
                "east": {
                    "rotation": 270, 
                    "uv": [
                        2.875, 
                        2.875, 
                        2.875, 
                        2.875
                    ], 
                    "texture": "#0"
                }, 
                "south": {
                    "rotation": 270, 
                    "uv": [
                        2.875, 
                        2.875, 
                        2.875, 
                        2.875
                    ], 
                    "texture": "#0"
                }
            }
        }, 
        {
            "to": [
                8.18875, 
                7.47173, 
                13.496
            ], 
            "rotation": {
                "origin": [
                    7.97725, 
                    6.72173, 
                    12.746
                ], 
                "angle": 0, 
                "axis": "y"
            }, 
            "from": [
                7.76575, 
                7.27173, 
                12.696
            ], 
            "faces": {
                "north": {
                    "rotation": 270, 
                    "uv": [
                        2.875, 
                        2.875, 
                        2.875, 
                        2.875
                    ], 
                    "texture": "#0"
                }, 
                "west": {
                    "rotation": 270, 
                    "uv": [
                        2.875, 
                        2.875, 
                        2.875, 
                        2.875
                    ], 
                    "texture": "#0"
                }, 
                "up": {
                    "rotation": 270, 
                    "uv": [
                        2.875, 
                        2.875, 
                        2.875, 
                        2.875
                    ], 
                    "texture": "#0"
                }, 
                "down": {
                    "rotation": 270, 
                    "uv": [
                        2.875, 
                        2.875, 
                        2.875, 
                        2.875
                    ], 
                    "texture": "#0"
                }, 
                "east": {
                    "rotation": 270, 
                    "uv": [
                        2.875, 
                        2.875, 
                        2.875, 
                        2.875
                    ], 
                    "texture": "#0"
                }, 
                "south": {
                    "rotation": 270, 
                    "uv": [
                        2.875, 
                        2.875, 
                        2.875, 
                        2.875
                    ], 
                    "texture": "#0"
                }
            }
        }, 
        {
            "to": [
                8.18875, 
                7.571, 
                12.49694
            ], 
            "rotation": {
                "origin": [
                    7.97725, 
                    6.821, 
                    12.34694
                ], 
                "angle": 22.5, 
                "axis": "x"
            }, 
            "from": [
                7.76575, 
                7.371, 
                12.39694
            ], 
            "faces": {
                "north": {
                    "rotation": 270, 
                    "uv": [
                        2.875, 
                        2.875, 
                        2.875, 
                        2.875
                    ], 
                    "texture": "#0"
                }, 
                "west": {
                    "rotation": 270, 
                    "uv": [
                        2.875, 
                        2.875, 
                        2.875, 
                        2.875
                    ], 
                    "texture": "#0"
                }, 
                "up": {
                    "rotation": 270, 
                    "uv": [
                        2.875, 
                        2.875, 
                        2.875, 
                        2.875
                    ], 
                    "texture": "#0"
                }, 
                "down": {
                    "rotation": 270, 
                    "uv": [
                        2.875, 
                        2.875, 
                        2.875, 
                        2.875
                    ], 
                    "texture": "#0"
                }, 
                "east": {
                    "rotation": 270, 
                    "uv": [
                        2.875, 
                        2.875, 
                        2.875, 
                        2.875
                    ], 
                    "texture": "#0"
                }, 
                "south": {
                    "rotation": 270, 
                    "uv": [
                        2.875, 
                        2.875, 
                        2.875, 
                        2.875
                    ], 
                    "texture": "#0"
                }
            }
        }, 
        {
            "to": [
                8.18875, 
                7.61719, 
                14.22728
            ], 
            "rotation": {
                "origin": [
                    7.97725, 
                    7.51719, 
                    13.82728
                ], 
                "angle": -22.5, 
                "axis": "x"
            }, 
            "from": [
                7.76575, 
                7.41719, 
                13.42728
            ], 
            "faces": {
                "north": {
                    "rotation": 270, 
                    "uv": [
                        2.875, 
                        2.875, 
                        2.875, 
                        2.875
                    ], 
                    "texture": "#0"
                }, 
                "west": {
                    "rotation": 270, 
                    "uv": [
                        2.875, 
                        2.875, 
                        2.875, 
                        2.875
                    ], 
                    "texture": "#0"
                }, 
                "up": {
                    "rotation": 270, 
                    "uv": [
                        2.875, 
                        2.875, 
                        2.875, 
                        2.875
                    ], 
                    "texture": "#0"
                }, 
                "down": {
                    "rotation": 270, 
                    "uv": [
                        2.875, 
                        2.875, 
                        2.875, 
                        2.875
                    ], 
                    "texture": "#0"
                }, 
                "east": {
                    "rotation": 270, 
                    "uv": [
                        2.875, 
                        2.875, 
                        2.875, 
                        2.875
                    ], 
                    "texture": "#0"
                }, 
                "south": {
                    "rotation": 270, 
                    "uv": [
                        2.875, 
                        2.875, 
                        2.875, 
                        2.875
                    ], 
                    "texture": "#0"
                }
            }
        }, 
        {
            "to": [
                8.18875, 
                7.61719, 
                13.72728
            ], 
            "rotation": {
                "origin": [
                    7.97725, 
                    7.51719, 
                    13.22728
                ], 
                "angle": -22.5, 
                "axis": "x"
            }, 
            "from": [
                7.76575, 
                7.41719, 
                12.82728
            ], 
            "faces": {
                "north": {
                    "rotation": 270, 
                    "uv": [
                        2.875, 
                        2.875, 
                        2.875, 
                        2.875
                    ], 
                    "texture": "#0"
                }, 
                "west": {
                    "rotation": 270, 
                    "uv": [
                        2.875, 
                        2.875, 
                        2.875, 
                        2.875
                    ], 
                    "texture": "#0"
                }, 
                "up": {
                    "rotation": 270, 
                    "uv": [
                        2.875, 
                        2.875, 
                        2.875, 
                        2.875
                    ], 
                    "texture": "#0"
                }, 
                "down": {
                    "rotation": 270, 
                    "uv": [
                        2.875, 
                        2.875, 
                        2.875, 
                        2.875
                    ], 
                    "texture": "#0"
                }, 
                "east": {
                    "rotation": 270, 
                    "uv": [
                        2.875, 
                        2.875, 
                        2.875, 
                        2.875
                    ], 
                    "texture": "#0"
                }, 
                "south": {
                    "rotation": 270, 
                    "uv": [
                        2.875, 
                        2.875, 
                        2.875, 
                        2.875
                    ], 
                    "texture": "#0"
                }
            }
        }, 
        {
            "to": [
                8.18875, 
                7.61719, 
                13.72728
            ], 
            "rotation": {
                "origin": [
                    7.97725, 
                    7.51719, 
                    13.32728
                ], 
                "angle": -22.5, 
                "axis": "x"
            }, 
            "from": [
                7.76575, 
                7.41719, 
                12.92728
            ], 
            "faces": {
                "north": {
                    "rotation": 270, 
                    "uv": [
                        2.875, 
                        2.875, 
                        2.875, 
                        2.875
                    ], 
                    "texture": "#0"
                }, 
                "west": {
                    "rotation": 270, 
                    "uv": [
                        2.875, 
                        2.875, 
                        2.875, 
                        2.875
                    ], 
                    "texture": "#0"
                }, 
                "up": {
                    "rotation": 270, 
                    "uv": [
                        2.875, 
                        2.875, 
                        2.875, 
                        2.875
                    ], 
                    "texture": "#0"
                }, 
                "down": {
                    "rotation": 270, 
                    "uv": [
                        2.875, 
                        2.875, 
                        2.875, 
                        2.875
                    ], 
                    "texture": "#0"
                }, 
                "east": {
                    "rotation": 270, 
                    "uv": [
                        2.875, 
                        2.875, 
                        2.875, 
                        2.875
                    ], 
                    "texture": "#0"
                }, 
                "south": {
                    "rotation": 270, 
                    "uv": [
                        2.875, 
                        2.875, 
                        2.875, 
                        2.875
                    ], 
                    "texture": "#0"
                }
            }
        }, 
        {
            "to": [
                8.38875, 
                9.09593, 
                15.68255
            ], 
            "rotation": {
                "origin": [
                    7.97725, 
                    8.44593, 
                    14.93255
                ], 
                "angle": 22.5, 
                "axis": "x"
            }, 
            "from": [
                7.56575, 
                7.99593, 
                14.08255
            ], 
            "faces": {
                "north": {
                    "uv": [
                        2.875, 
                        2.75, 
                        2.875, 
                        2.75
                    ], 
                    "texture": "#0"
                }, 
                "west": {
                    "uv": [
                        2.875, 
                        2.75, 
                        2.875, 
                        2.75
                    ], 
                    "texture": "#0"
                }, 
                "up": {
                    "uv": [
                        2.875, 
                        2.75, 
                        2.875, 
                        2.75
                    ], 
                    "texture": "#0"
                }, 
                "down": {
                    "uv": [
                        2.875, 
                        2.75, 
                        2.875, 
                        2.75
                    ], 
                    "texture": "#0"
                }, 
                "east": {
                    "uv": [
                        2.875, 
                        2.75, 
                        2.875, 
                        2.75
                    ], 
                    "texture": "#0"
                }, 
                "south": {
                    "uv": [
                        2.875, 
                        2.75, 
                        2.875, 
                        2.75
                    ], 
                    "texture": "#0"
                }
            }
        }, 
        {
            "to": [
                8.28875, 
                9.07174, 
                15.796
            ], 
            "rotation": {
                "origin": [
                    7.97725, 
                    8.82173, 
                    15.046
                ], 
                "angle": 0, 
                "axis": "y"
            }, 
            "from": [
                7.66575, 
                8.07173, 
                14.596
            ], 
            "faces": {
                "north": {
                    "rotation": 90, 
                    "uv": [
                        2.875, 
                        2.875, 
                        2.875, 
                        2.875
                    ], 
                    "texture": "#0"
                }, 
                "west": {
                    "rotation": 90, 
                    "uv": [
                        2.875, 
                        2.875, 
                        2.875, 
                        2.875
                    ], 
                    "texture": "#0"
                }, 
                "up": {
                    "rotation": 90, 
                    "uv": [
                        2.875, 
                        2.875, 
                        2.875, 
                        2.875
                    ], 
                    "texture": "#0"
                }, 
                "down": {
                    "rotation": 90, 
                    "uv": [
                        2.875, 
                        2.875, 
                        2.875, 
                        2.875
                    ], 
                    "texture": "#0"
                }, 
                "east": {
                    "rotation": 90, 
                    "uv": [
                        2.875, 
                        2.875, 
                        2.875, 
                        2.875
                    ], 
                    "texture": "#0"
                }, 
                "south": {
                    "rotation": 90, 
                    "uv": [
                        2.875, 
                        2.875, 
                        2.875, 
                        2.875
                    ], 
                    "texture": "#0"
                }
            }
        }, 
        {
            "to": [
                8.28875, 
                8.83394, 
                16.1887
            ], 
            "rotation": {
                "origin": [
                    7.97725, 
                    8.53394, 
                    15.3687
                ], 
                "angle": 0, 
                "axis": "y"
            }, 
            "from": [
                7.66575, 
                8.23394, 
                14.5487
            ], 
            "faces": {
                "north": {
                    "rotation": 90, 
                    "uv": [
                        2.875, 
                        2.875, 
                        2.875, 
                        2.875
                    ], 
                    "texture": "#0"
                }, 
                "west": {
                    "rotation": 90, 
                    "uv": [
                        2.875, 
                        2.875, 
                        2.875, 
                        2.875
                    ], 
                    "texture": "#0"
                }, 
                "up": {
                    "rotation": 90, 
                    "uv": [
                        2.875, 
                        2.875, 
                        2.875, 
                        2.875
                    ], 
                    "texture": "#0"
                }, 
                "down": {
                    "rotation": 90, 
                    "uv": [
                        2.875, 
                        2.875, 
                        2.875, 
                        2.875
                    ], 
                    "texture": "#0"
                }, 
                "east": {
                    "rotation": 90, 
                    "uv": [
                        2.875, 
                        2.875, 
                        2.875, 
                        2.875
                    ], 
                    "texture": "#0"
                }, 
                "south": {
                    "rotation": 90, 
                    "uv": [
                        2.875, 
                        2.875, 
                        2.875, 
                        2.875
                    ], 
                    "texture": "#0"
                }
            }
        }, 
        {
            "to": [
                8.28875, 
                8.17173, 
                16.096
            ], 
            "rotation": {
                "origin": [
                    7.97725, 
                    7.92173, 
                    15.046
                ], 
                "angle": -22.5, 
                "axis": "x"
            }, 
            "from": [
                7.66575, 
                7.57173, 
                14.596
            ], 
            "faces": {
                "north": {
                    "rotation": 90, 
                    "uv": [
                        2.875, 
                        2.875, 
                        2.875, 
                        2.875
                    ], 
                    "texture": "#0"
                }, 
                "west": {
                    "rotation": 90, 
                    "uv": [
                        2.875, 
                        2.875, 
                        2.875, 
                        2.875
                    ], 
                    "texture": "#0"
                }, 
                "up": {
                    "rotation": 90, 
                    "uv": [
                        2.875, 
                        2.875, 
                        2.875, 
                        2.875
                    ], 
                    "texture": "#0"
                }, 
                "down": {
                    "rotation": 90, 
                    "uv": [
                        2.875, 
                        2.875, 
                        2.875, 
                        2.875
                    ], 
                    "texture": "#0"
                }, 
                "east": {
                    "rotation": 90, 
                    "uv": [
                        2.875, 
                        2.875, 
                        2.875, 
                        2.875
                    ], 
                    "texture": "#0"
                }, 
                "south": {
                    "rotation": 90, 
                    "uv": [
                        2.875, 
                        2.875, 
                        2.875, 
                        2.875
                    ], 
                    "texture": "#0"
                }
            }
        }, 
        {
            "to": [
                8.28875, 
                9.01032, 
                15.98724
            ], 
            "rotation": {
                "origin": [
                    7.97725, 
                    8.56032, 
                    15.73724
                ], 
                "angle": -22.5, 
                "axis": "x"
            }, 
            "from": [
                7.66575, 
                8.31032, 
                14.98724
            ], 
            "faces": {
                "north": {
                    "rotation": 180, 
                    "uv": [
                        2.875, 
                        2.875, 
                        2.875, 
                        2.875
                    ], 
                    "texture": "#0"
                }, 
                "west": {
                    "rotation": 180, 
                    "uv": [
                        2.875, 
                        2.875, 
                        2.875, 
                        2.875
                    ], 
                    "texture": "#0"
                }, 
                "up": {
                    "rotation": 180, 
                    "uv": [
                        2.875, 
                        2.875, 
                        2.875, 
                        2.875
                    ], 
                    "texture": "#0"
                }, 
                "down": {
                    "rotation": 180, 
                    "uv": [
                        2.875, 
                        2.875, 
                        2.875, 
                        2.875
                    ], 
                    "texture": "#0"
                }, 
                "east": {
                    "rotation": 180, 
                    "uv": [
                        2.875, 
                        2.875, 
                        2.875, 
                        2.875
                    ], 
                    "texture": "#0"
                }, 
                "south": {
                    "rotation": 180, 
                    "uv": [
                        2.875, 
                        2.875, 
                        2.875, 
                        2.875
                    ], 
                    "texture": "#0"
                }
            }
        }
    ], 
    "display": {
        "thirdperson_righthand": {
            "rotation": [
                -6, 
                -1, 
                16
            ], 
            "scale": [
                0.93, 
                0.93, 
                0.93
            ], 
            "translation": [
                -1, 
                -1, 
                -3
            ]
        }, 
        "head": {
            "rotation": [
                0, 
                44, 
                90
            ], 
            "scale": [
                1.42, 
                1.53, 
                1.36
            ], 
            "translation": [
                -3.5, 
                7.25, 
                -5.75
            ]
        }, 
        "thirdperson_lefthand": {
            "rotation": [
                -6, 
                -1, 
                16
            ], 
            "scale": [
                0.93, 
                0.93, 
                0.93
            ], 
            "translation": [
                -1.75, 
                -0.5, 
                -4
            ]
        }, 
        "gui": {
            "rotation": [
                16, 
                24, 
                0
            ], 
            "scale": [
                1.5, 
                1.58, 
                1.22
            ], 
            "translation": [
                1.25, 
                -0.25, 
                1
            ]
        }, 
        "firstperson_righthand": {
            "translation": [
                -3.5, 
                4.25, 
                -1.5
            ], 
            "scale": [
                0.98, 
                1.17, 
                1.03
            ]
        }, 
        "firstperson_lefthand": {
            "translation": [
                -4.5, 
                4.25, 
                0
            ], 
            "scale": [
                0.98, 
                1.17, 
                1.03
            ]
        }, 
        "fixed": {
            "rotation": [
                0, 
                91, 
                0
            ], 
            "scale": [
                1.67, 
                1.53, 
                1.33
            ], 
            "translation": [
                0, 
                0, 
                -1.25
            ]
        }
    }
}