{
	"credit": "Made with Blockbench",
	"textures": {
		"2": "gci:items/common/mpz"
	},
	"elements": [
		{
			"from": [5.2193, 2.30091, 9.09049],
			"to": [7.4093, 4.90091, 11.19049],
			"rotation": {"angle": 0, "axis": "z", "origin": [6.3193, 7.31427, 8.50199]},
			"faces": {
				"north": {"uv": [0.1, 13.5, 0.4, 15.49], "rotation": 270, "texture": "#2"},
				"east": {"uv": [0.1, 13.5, 0.4, 15.49], "rotation": 270, "texture": "#2"},
				"south": {"uv": [0.1, 13.5, 0.4, 15.49], "rotation": 270, "texture": "#2"},
				"west": {"uv": [0.1, 13.5, 0.4, 15.49], "rotation": 270, "texture": "#2"},
				"up": {"uv": [0.1, 13.5, 0.4, 15.49], "rotation": 180, "texture": "#2"},
				"down": {"uv": [0.1, 13.5, 0.4, 15.49], "texture": "#2"}
			}
		},
		{
			"from": [5.2193, 2.38908, 9.08725],
			"to": [7.4093, 4.88908, 9.28725],
			"rotation": {"angle": 0, "axis": "z", "origin": [6.3193, 7.31427, 8.50199]},
			"faces": {
				"north": {"uv": [0.1, 13.5, 2.09, 16], "rotation": 180, "texture": "#2"},
				"east": {"uv": [0.1, 13.5, 2.09, 16], "rotation": 180, "texture": "#2"},
				"south": {"uv": [0.1, 13.5, 2.09, 16], "rotation": 180, "texture": "#2"},
				"west": {"uv": [0.1, 13.5, 2.09, 16], "rotation": 180, "texture": "#2"},
				"up": {"uv": [0.1, 13.5, 2.09, 16], "rotation": 90, "texture": "#2"},
				"down": {"uv": [0.1, 13.5, 2.09, 16], "rotation": 270, "texture": "#2"}
			}
		},
		{
			"from": [5.2193, 5.04414, 7.14239],
			"to": [7.4093, 5.64414, 7.84239],
			"rotation": {"angle": -45, "axis": "x", "origin": [6.3193, 7.31427, 8.50199]},
			"faces": {
				"north": {"uv": [0.1, 13.5, 2.09, 16], "rotation": 180, "texture": "#2"},
				"east": {"uv": [0.1, 13.5, 2.09, 16], "rotation": 180, "texture": "#2"},
				"south": {"uv": [0.1, 13.5, 2.09, 16], "rotation": 180, "texture": "#2"},
				"west": {"uv": [0.1, 13.5, 2.09, 16], "rotation": 180, "texture": "#2"},
				"up": {"uv": [0.1, 13.5, 2.09, 16], "rotation": 90, "texture": "#2"},
				"down": {"uv": [0.1, 13.5, 2.09, 16], "rotation": 270, "texture": "#2"}
			}
		},
		{
			"from": [5.2193, 5.25097, 7.88501],
			"to": [7.4093, 5.55097, 8.48501],
			"rotation": {"angle": -22.5, "axis": "x", "origin": [6.3193, 7.31427, 8.50199]},
			"faces": {
				"north": {"uv": [0.1, 13.5, 2.09, 16], "rotation": 180, "texture": "#2"},
				"east": {"uv": [0.1, 13.5, 2.09, 16], "rotation": 180, "texture": "#2"},
				"south": {"uv": [0.1, 13.5, 2.09, 16], "rotation": 180, "texture": "#2"},
				"west": {"uv": [0.1, 13.5, 2.09, 16], "rotation": 180, "texture": "#2"},
				"up": {"uv": [0.1, 13.5, 2.09, 16], "rotation": 90, "texture": "#2"},
				"down": {"uv": [0.1, 13.5, 2.09, 16], "rotation": 270, "texture": "#2"}
			}
		},
		{
			"from": [5.2193, 5.44909, 8.60676],
			"to": [7.4093, 6.74909, 10.70676],
			"rotation": {"angle": 0, "axis": "z", "origin": [6.3193, 7.31427, 8.50199]},
			"faces": {
				"north": {"uv": [0.1, 13.5, 2.09, 16], "rotation": 180, "texture": "#2"},
				"east": {"uv": [0.1, 13.5, 2.09, 16], "rotation": 180, "texture": "#2"},
				"south": {"uv": [0.1, 13.5, 2.09, 16], "rotation": 180, "texture": "#2"},
				"west": {"uv": [0.1, 13.5, 2.09, 16], "rotation": 180, "texture": "#2"},
				"up": {"uv": [0.1, 13.5, 2.09, 16], "rotation": 90, "texture": "#2"},
				"down": {"uv": [0.1, 13.5, 2.09, 16], "rotation": 270, "texture": "#2"}
			}
		},
		{
			"from": [5.2193, 6.18735, 10.62303],
			"to": [7.4093, 6.78735, 10.82303],
			"rotation": {"angle": 0, "axis": "z", "origin": [6.3193, 7.31427, 8.50199]},
			"faces": {
				"north": {"uv": [0.1, 13.5, 2.09, 16], "texture": "#2"},
				"east": {"uv": [0.1, 13.5, 2.09, 16], "texture": "#2"},
				"south": {"uv": [0.1, 13.5, 2.09, 16], "texture": "#2"},
				"west": {"uv": [0.1, 13.5, 2.09, 16], "texture": "#2"},
				"up": {"uv": [0.1, 13.5, 2.09, 16], "rotation": 270, "texture": "#2"},
				"down": {"uv": [0.1, 13.5, 2.09, 16], "rotation": 90, "texture": "#2"}
			}
		},
		{
			"from": [5.2193, 6.55201, 8.3825],
			"to": [7.4093, 6.75201, 8.9825],
			"rotation": {"angle": -22.5, "axis": "x", "origin": [6.3193, 7.31427, 8.50199]},
			"faces": {
				"north": {"uv": [0.1, 13.5, 0.4, 15.49], "rotation": 90, "texture": "#2"},
				"east": {"uv": [0.1, 13.5, 0.4, 15.49], "rotation": 90, "texture": "#2"},
				"south": {"uv": [0.1, 13.5, 0.4, 15.49], "rotation": 90, "texture": "#2"},
				"west": {"uv": [0.1, 13.5, 0.4, 15.49], "rotation": 90, "texture": "#2"},
				"up": {"uv": [0.1, 13.5, 0.4, 15.49], "texture": "#2"},
				"down": {"uv": [0.1, 13.5, 0.4, 15.49], "rotation": 180, "texture": "#2"}
			}
		},
		{
			"from": [5.2193, 4.8787, 9.16109],
			"to": [7.4093, 6.9787, 10.36109],
			"rotation": {"angle": 0, "axis": "z", "origin": [6.3193, 7.31427, 8.50199]},
			"faces": {
				"north": {"uv": [0.1, 13.5, 0.4, 15.49], "rotation": 90, "texture": "#2"},
				"east": {"uv": [0.1, 13.5, 0.4, 15.49], "rotation": 90, "texture": "#2"},
				"south": {"uv": [0.1, 13.5, 0.4, 15.49], "rotation": 90, "texture": "#2"},
				"west": {"uv": [0.1, 13.5, 0.4, 15.49], "rotation": 90, "texture": "#2"},
				"up": {"uv": [0.1, 13.5, 0.4, 15.49], "texture": "#2"},
				"down": {"uv": [0.1, 13.5, 0.4, 15.49], "rotation": 180, "texture": "#2"}
			}
		},
		{
			"from": [5.2193, 3.71137, 12.70438],
			"to": [7.4093, 4.11137, 12.90438],
			"rotation": {"angle": 22.5, "axis": "x", "origin": [6.3193, 7.31427, 8.50199]},
			"faces": {
				"north": {"uv": [0.1, 13.5, 2.09, 16], "rotation": 180, "texture": "#2"},
				"east": {"uv": [0.1, 13.5, 2.09, 16], "rotation": 180, "texture": "#2"},
				"south": {"uv": [0.1, 13.5, 2.09, 16], "rotation": 180, "texture": "#2"},
				"west": {"uv": [0.1, 13.5, 2.09, 16], "rotation": 180, "texture": "#2"},
				"up": {"uv": [0.1, 13.5, 2.09, 16], "rotation": 90, "texture": "#2"},
				"down": {"uv": [0.1, 13.5, 2.09, 16], "rotation": 270, "texture": "#2"}
			}
		},
		{
			"from": [5.2193, 7.51569, 10.34799],
			"to": [7.4093, 7.71569, 10.84799],
			"rotation": {"angle": 22.5, "axis": "x", "origin": [6.3193, 7.31427, 8.50199]},
			"faces": {
				"north": {"uv": [0.1, 13.5, 0.4, 15.49], "rotation": 90, "texture": "#2"},
				"east": {"uv": [0.1, 13.5, 0.4, 15.49], "rotation": 90, "texture": "#2"},
				"south": {"uv": [0.1, 13.5, 0.4, 15.49], "rotation": 90, "texture": "#2"},
				"west": {"uv": [0.1, 13.5, 0.4, 15.49], "rotation": 90, "texture": "#2"},
				"up": {"uv": [0.1, 13.5, 0.4, 15.49], "texture": "#2"},
				"down": {"uv": [0.1, 13.5, 0.4, 15.49], "rotation": 180, "texture": "#2"}
			}
		},
		{
			"from": [5.2193, 4.06145, 9.13033],
			"to": [7.4093, 5.46145, 10.23033],
			"rotation": {"angle": -22.5, "axis": "x", "origin": [6.3193, 7.31427, 8.50199]},
			"faces": {
				"north": {"uv": [0.1, 13.5, 2.09, 16], "texture": "#2"},
				"east": {"uv": [0.1, 13.5, 2.09, 16], "texture": "#2"},
				"south": {"uv": [0.1, 13.5, 2.09, 16], "texture": "#2"},
				"west": {"uv": [0.1, 13.5, 2.09, 16], "texture": "#2"},
				"up": {"uv": [0.1, 13.5, 2.09, 16], "rotation": 270, "texture": "#2"},
				"down": {"uv": [0.1, 13.5, 2.09, 16], "rotation": 90, "texture": "#2"}
			}
		},
		{
			"from": [5.2193, 2.67046, 11.14356],
			"to": [7.4093, 4.97046, 11.34356],
			"rotation": {"angle": 0, "axis": "y", "origin": [6.3193, 7.31427, 8.50199]},
			"faces": {
				"north": {"uv": [0.1, 13.5, 2.09, 16], "texture": "#2"},
				"east": {"uv": [0.1, 13.5, 2.09, 16], "texture": "#2"},
				"south": {"uv": [0.1, 13.5, 2.09, 16], "texture": "#2"},
				"west": {"uv": [0.1, 13.5, 2.09, 16], "texture": "#2"},
				"up": {"uv": [0.1, 13.5, 2.09, 16], "rotation": 270, "texture": "#2"},
				"down": {"uv": [0.1, 13.5, 2.09, 16], "rotation": 90, "texture": "#2"}
			}
		},
		{
			"from": [5.3183, 2.2, 9.02129],
			"to": [7.3153, 7.1, 11.12129],
			"rotation": {"angle": 0, "axis": "z", "origin": [6.3193, 7.31427, 8.50199]},
			"faces": {
				"north": {"uv": [8.76667, 0, 10.43333, 2.33333], "texture": "#2"},
				"east": {"uv": [8.76667, 0, 10.43333, 2.33333], "texture": "#2"},
				"south": {"uv": [8.76667, 0, 10.43333, 2.33333], "texture": "#2"},
				"west": {"uv": [8.76667, 0, 10.43333, 2.33333], "texture": "#2"},
				"up": {"uv": [8.76667, 0, 10.43333, 2.33333], "rotation": 270, "texture": "#2"},
				"down": {"uv": [8.76667, 0, 10.43333, 2.33333], "rotation": 90, "texture": "#2"}
			}
		},
		{
			"from": [5.3173, 2.2, 11.06129],
			"to": [7.3073, 5.6, 11.26129],
			"rotation": {"angle": 0, "axis": "y", "origin": [6.3193, 7.31427, 8.50199]},
			"faces": {
				"north": {"uv": [8.76667, 0, 10.43333, 2.33333], "texture": "#2"},
				"east": {"uv": [8.76667, 0, 10.43333, 2.33333], "texture": "#2"},
				"south": {"uv": [8.76667, 0, 10.43333, 2.33333], "texture": "#2"},
				"west": {"uv": [8.76667, 0, 10.43333, 2.33333], "texture": "#2"},
				"up": {"uv": [8.76667, 0, 10.43333, 2.33333], "rotation": 270, "texture": "#2"},
				"down": {"uv": [8.76667, 0, 10.43333, 2.33333], "rotation": 90, "texture": "#2"}
			}
		},
		{
			"from": [5.3173, 4.9, 11.26129],
			"to": [7.3073, 5.2, 11.36129],
			"rotation": {"angle": 0, "axis": "y", "origin": [6.3193, 7.31427, 8.50199]},
			"faces": {
				"north": {"uv": [8.76667, 0, 10.43333, 2.33333], "texture": "#2"},
				"east": {"uv": [8.76667, 0, 10.43333, 2.33333], "texture": "#2"},
				"south": {"uv": [8.76667, 0, 10.43333, 2.33333], "texture": "#2"},
				"west": {"uv": [8.76667, 0, 10.43333, 2.33333], "texture": "#2"},
				"up": {"uv": [8.76667, 0, 10.43333, 2.33333], "rotation": 270, "texture": "#2"},
				"down": {"uv": [8.76667, 0, 10.43333, 2.33333], "rotation": 90, "texture": "#2"}
			}
		},
		{
			"from": [5.3173, 2.2, 11.26129],
			"to": [7.3073, 2.5, 11.36129],
			"rotation": {"angle": 0, "axis": "y", "origin": [6.3193, 7.31427, 8.50199]},
			"faces": {
				"north": {"uv": [8.76667, 0, 10.43333, 2.33333], "texture": "#2"},
				"east": {"uv": [8.76667, 0, 10.43333, 2.33333], "texture": "#2"},
				"south": {"uv": [8.76667, 0, 10.43333, 2.33333], "texture": "#2"},
				"west": {"uv": [8.76667, 0, 10.43333, 2.33333], "texture": "#2"},
				"up": {"uv": [8.76667, 0, 10.43333, 2.33333], "rotation": 270, "texture": "#2"},
				"down": {"uv": [8.76667, 0, 10.43333, 2.33333], "rotation": 90, "texture": "#2"}
			}
		},
		{
			"from": [5.71375, 7.65356, 2.22129],
			"to": [5.96375, 8.15356, 11.82129],
			"rotation": {"angle": 0, "axis": "x", "origin": [6.3193, 7.31427, 8.50199]},
			"faces": {
				"north": {"uv": [8.76667, 0, 10.43333, 2.33333], "rotation": 180, "texture": "#2"},
				"east": {"uv": [8.76667, 0, 10.43333, 2.33333], "rotation": 180, "texture": "#2"},
				"south": {"uv": [8.76667, 0, 10.43333, 2.33333], "rotation": 180, "texture": "#2"},
				"west": {"uv": [8.76667, 0, 10.43333, 2.33333], "rotation": 180, "texture": "#2"},
				"up": {"uv": [8.76667, 0, 10.43333, 2.33333], "rotation": 90, "texture": "#2"},
				"down": {"uv": [8.76667, 0, 10.43333, 2.33333], "rotation": 270, "texture": "#2"}
			}
		},
		{
			"from": [6.72085, 7.65356, 2.22129],
			"to": [6.97085, 8.15356, 11.82129],
			"rotation": {"angle": 0, "axis": "y", "origin": [6.3193, 7.31427, 8.50199]},
			"faces": {
				"north": {"uv": [8.76667, 0, 10.43333, 2.33333], "rotation": 180, "texture": "#2"},
				"east": {"uv": [8.76667, 0, 10.43333, 2.33333], "rotation": 180, "texture": "#2"},
				"south": {"uv": [8.76667, 0, 10.43333, 2.33333], "rotation": 180, "texture": "#2"},
				"west": {"uv": [8.76667, 0, 10.43333, 2.33333], "rotation": 180, "texture": "#2"},
				"up": {"uv": [8.76667, 0, 10.43333, 2.33333], "rotation": 90, "texture": "#2"},
				"down": {"uv": [8.76667, 0, 10.43333, 2.33333], "rotation": 270, "texture": "#2"}
			}
		},
		{
			"from": [6.29011, 7.51491, 2.22129],
			"to": [6.54011, 8.01491, 11.82129],
			"rotation": {"angle": -45, "axis": "z", "origin": [6.3193, 7.31427, 8.50199]},
			"faces": {
				"north": {"uv": [8.76667, 0, 10.43333, 2.33333], "rotation": 180, "texture": "#2"},
				"east": {"uv": [8.76667, 0, 10.43333, 2.33333], "rotation": 180, "texture": "#2"},
				"south": {"uv": [8.76667, 0, 10.43333, 2.33333], "rotation": 180, "texture": "#2"},
				"west": {"uv": [8.76667, 0, 10.43333, 2.33333], "rotation": 180, "texture": "#2"},
				"up": {"uv": [8.76667, 0, 10.43333, 2.33333], "rotation": 90, "texture": "#2"},
				"down": {"uv": [8.76667, 0, 10.43333, 2.33333], "rotation": 270, "texture": "#2"}
			}
		},
		{
			"from": [5.29765, 7.47954, 2.22129],
			"to": [5.54765, 7.97954, 11.82129],
			"rotation": {"angle": -45, "axis": "z", "origin": [6.3193, 7.31427, 8.50199]},
			"faces": {
				"north": {"uv": [8.76667, 0, 10.43333, 2.33333], "rotation": 180, "texture": "#2"},
				"east": {"uv": [8.76667, 0, 10.43333, 2.33333], "rotation": 180, "texture": "#2"},
				"south": {"uv": [8.76667, 0, 10.43333, 2.33333], "rotation": 180, "texture": "#2"},
				"west": {"uv": [8.76667, 0, 10.43333, 2.33333], "rotation": 180, "texture": "#2"},
				"up": {"uv": [8.76667, 0, 10.43333, 2.33333], "rotation": 90, "texture": "#2"},
				"down": {"uv": [8.76667, 0, 10.43333, 2.33333], "rotation": 270, "texture": "#2"}
			}
		},
		{
			"from": [6.0673, 8.30711, 2.22129],
			"to": [6.6173, 8.50711, 11.82129],
			"rotation": {"angle": 0, "axis": "y", "origin": [6.3193, 7.31427, 8.50199]},
			"faces": {
				"north": {"uv": [8.76667, 0, 10.43333, 2.33333], "texture": "#2"},
				"east": {"uv": [8.76667, 0, 10.43333, 2.33333], "texture": "#2"},
				"south": {"uv": [8.76667, 0, 10.43333, 2.33333], "texture": "#2"},
				"west": {"uv": [8.76667, 0, 10.43333, 2.33333], "texture": "#2"},
				"up": {"uv": [8.76667, 0, 10.43333, 2.33333], "rotation": 270, "texture": "#2"},
				"down": {"uv": [8.76667, 0, 10.43333, 2.33333], "rotation": 90, "texture": "#2"}
			}
		},
		{
			"from": [6.0673, 7.3, 2.22129],
			"to": [6.6173, 7.5, 11.82129],
			"rotation": {"angle": 0, "axis": "y", "origin": [6.3193, 7.31427, 8.50199]},
			"faces": {
				"north": {"uv": [8.76667, 0, 10.43333, 2.33333], "texture": "#2"},
				"east": {"uv": [8.76667, 0, 10.43333, 2.33333], "texture": "#2"},
				"south": {"uv": [8.76667, 0, 10.43333, 2.33333], "texture": "#2"},
				"west": {"uv": [8.76667, 0, 10.43333, 2.33333], "texture": "#2"},
				"up": {"uv": [8.76667, 0, 10.43333, 2.33333], "rotation": 270, "texture": "#2"},
				"down": {"uv": [8.76667, 0, 10.43333, 2.33333], "rotation": 90, "texture": "#2"}
			}
		},
		{
			"from": [5.6512, 7.12599, 2.22129],
			"to": [6.1512, 7.37599, 11.82129],
			"rotation": {"angle": -45, "axis": "z", "origin": [6.3193, 7.31427, 8.50199]},
			"faces": {
				"north": {"uv": [8.76667, 0, 10.43333, 2.33333], "rotation": 180, "texture": "#2"},
				"east": {"uv": [8.76667, 0, 10.43333, 2.33333], "rotation": 180, "texture": "#2"},
				"south": {"uv": [8.76667, 0, 10.43333, 2.33333], "rotation": 180, "texture": "#2"},
				"west": {"uv": [8.76667, 0, 10.43333, 2.33333], "rotation": 180, "texture": "#2"},
				"up": {"uv": [8.76667, 0, 10.43333, 2.33333], "rotation": 90, "texture": "#2"},
				"down": {"uv": [8.76667, 0, 10.43333, 2.33333], "rotation": 270, "texture": "#2"}
			}
		},
		{
			"from": [5.68655, 8.11845, 2.22129],
			"to": [6.18655, 8.36845, 11.82129],
			"rotation": {"angle": -45, "axis": "z", "origin": [6.3193, 7.31427, 8.50199]},
			"faces": {
				"north": {"uv": [8.76667, 0, 10.43333, 2.33333], "rotation": 180, "texture": "#2"},
				"east": {"uv": [8.76667, 0, 10.43333, 2.33333], "rotation": 180, "texture": "#2"},
				"south": {"uv": [8.76667, 0, 10.43333, 2.33333], "rotation": 180, "texture": "#2"},
				"west": {"uv": [8.76667, 0, 10.43333, 2.33333], "rotation": 180, "texture": "#2"},
				"up": {"uv": [8.76667, 0, 10.43333, 2.33333], "rotation": 90, "texture": "#2"},
				"down": {"uv": [8.76667, 0, 10.43333, 2.33333], "rotation": 270, "texture": "#2"}
			}
		},
		{
			"from": [5.71375, 7.65356, 3.02129],
			"to": [5.96375, 8.15356, 11.82129],
			"rotation": {"angle": 0, "axis": "y", "origin": [6.3193, 7.31427, 8.50199]},
			"faces": {
				"north": {"uv": [8.76667, 0, 10.43333, 2.33333], "rotation": 180, "texture": "#2"},
				"east": {"uv": [8.76667, 0, 10.43333, 2.33333], "rotation": 180, "texture": "#2"},
				"south": {"uv": [8.76667, 0, 10.43333, 2.33333], "rotation": 180, "texture": "#2"},
				"west": {"uv": [8.76667, 0, 10.43333, 2.33333], "rotation": 180, "texture": "#2"},
				"up": {"uv": [8.76667, 0, 10.43333, 2.33333], "rotation": 90, "texture": "#2"},
				"down": {"uv": [8.76667, 0, 10.43333, 2.33333], "rotation": 270, "texture": "#2"}
			}
		},
		{
			"from": [6.72085, 7.65356, 3.02129],
			"to": [6.97085, 8.15356, 11.82129],
			"rotation": {"angle": 0, "axis": "y", "origin": [6.3193, 7.31427, 8.50199]},
			"faces": {
				"north": {"uv": [8.76667, 0, 10.43333, 2.33333], "rotation": 180, "texture": "#2"},
				"east": {"uv": [8.76667, 0, 10.43333, 2.33333], "rotation": 180, "texture": "#2"},
				"south": {"uv": [8.76667, 0, 10.43333, 2.33333], "rotation": 180, "texture": "#2"},
				"west": {"uv": [8.76667, 0, 10.43333, 2.33333], "rotation": 180, "texture": "#2"},
				"up": {"uv": [8.76667, 0, 10.43333, 2.33333], "rotation": 90, "texture": "#2"},
				"down": {"uv": [8.76667, 0, 10.43333, 2.33333], "rotation": 270, "texture": "#2"}
			}
		},
		{
			"from": [6.29011, 7.51491, 3.02129],
			"to": [6.54011, 8.01491, 11.82129],
			"rotation": {"angle": -45, "axis": "z", "origin": [6.3193, 7.31427, 8.50199]},
			"faces": {
				"north": {"uv": [8.76667, 0, 10.43333, 2.33333], "rotation": 180, "texture": "#2"},
				"east": {"uv": [8.76667, 0, 10.43333, 2.33333], "rotation": 180, "texture": "#2"},
				"south": {"uv": [8.76667, 0, 10.43333, 2.33333], "rotation": 180, "texture": "#2"},
				"west": {"uv": [8.76667, 0, 10.43333, 2.33333], "rotation": 180, "texture": "#2"},
				"up": {"uv": [8.76667, 0, 10.43333, 2.33333], "rotation": 90, "texture": "#2"},
				"down": {"uv": [8.76667, 0, 10.43333, 2.33333], "rotation": 270, "texture": "#2"}
			}
		},
		{
			"from": [5.29765, 7.47954, 3.02129],
			"to": [5.54765, 7.97954, 11.82129],
			"rotation": {"angle": -45, "axis": "z", "origin": [6.3193, 7.31427, 8.50199]},
			"faces": {
				"north": {"uv": [8.76667, 0, 10.43333, 2.33333], "rotation": 180, "texture": "#2"},
				"east": {"uv": [8.76667, 0, 10.43333, 2.33333], "rotation": 180, "texture": "#2"},
				"south": {"uv": [8.76667, 0, 10.43333, 2.33333], "rotation": 180, "texture": "#2"},
				"west": {"uv": [8.76667, 0, 10.43333, 2.33333], "rotation": 180, "texture": "#2"},
				"up": {"uv": [8.76667, 0, 10.43333, 2.33333], "rotation": 90, "texture": "#2"},
				"down": {"uv": [8.76667, 0, 10.43333, 2.33333], "rotation": 270, "texture": "#2"}
			}
		},
		{
			"from": [6.0673, 8.30711, 3.02129],
			"to": [6.6173, 8.50711, 11.82129],
			"rotation": {"angle": 0, "axis": "y", "origin": [6.3193, 7.31427, 8.50199]},
			"faces": {
				"north": {"uv": [8.76667, 0, 10.43333, 2.33333], "texture": "#2"},
				"east": {"uv": [8.76667, 0, 10.43333, 2.33333], "texture": "#2"},
				"south": {"uv": [8.76667, 0, 10.43333, 2.33333], "texture": "#2"},
				"west": {"uv": [8.76667, 0, 10.43333, 2.33333], "texture": "#2"},
				"up": {"uv": [8.76667, 0, 10.43333, 2.33333], "rotation": 270, "texture": "#2"},
				"down": {"uv": [8.76667, 0, 10.43333, 2.33333], "rotation": 90, "texture": "#2"}
			}
		},
		{
			"from": [6.0673, 7.3, 3.02129],
			"to": [6.6173, 7.5, 11.82129],
			"rotation": {"angle": 0, "axis": "y", "origin": [6.3193, 7.31427, 8.50199]},
			"faces": {
				"north": {"uv": [8.76667, 0, 10.43333, 2.33333], "texture": "#2"},
				"east": {"uv": [8.76667, 0, 10.43333, 2.33333], "texture": "#2"},
				"south": {"uv": [8.76667, 0, 10.43333, 2.33333], "texture": "#2"},
				"west": {"uv": [8.76667, 0, 10.43333, 2.33333], "texture": "#2"},
				"up": {"uv": [8.76667, 0, 10.43333, 2.33333], "rotation": 270, "texture": "#2"},
				"down": {"uv": [8.76667, 0, 10.43333, 2.33333], "rotation": 90, "texture": "#2"}
			}
		},
		{
			"from": [5.6512, 7.12599, 3.02129],
			"to": [6.1512, 7.37599, 11.82129],
			"rotation": {"angle": -45, "axis": "z", "origin": [6.3193, 7.31427, 8.50199]},
			"faces": {
				"north": {"uv": [8.76667, 0, 10.43333, 2.33333], "rotation": 180, "texture": "#2"},
				"east": {"uv": [8.76667, 0, 10.43333, 2.33333], "rotation": 180, "texture": "#2"},
				"south": {"uv": [8.76667, 0, 10.43333, 2.33333], "rotation": 180, "texture": "#2"},
				"west": {"uv": [8.76667, 0, 10.43333, 2.33333], "rotation": 180, "texture": "#2"},
				"up": {"uv": [8.76667, 0, 10.43333, 2.33333], "rotation": 90, "texture": "#2"},
				"down": {"uv": [8.76667, 0, 10.43333, 2.33333], "rotation": 270, "texture": "#2"}
			}
		},
		{
			"from": [5.68655, 8.11845, 3.02129],
			"to": [6.18655, 8.36845, 11.82129],
			"rotation": {"angle": -45, "axis": "z", "origin": [6.3193, 7.31427, 8.50199]},
			"faces": {
				"north": {"uv": [8.76667, 0, 10.43333, 2.33333], "rotation": 180, "texture": "#2"},
				"east": {"uv": [8.76667, 0, 10.43333, 2.33333], "rotation": 180, "texture": "#2"},
				"south": {"uv": [8.76667, 0, 10.43333, 2.33333], "rotation": 180, "texture": "#2"},
				"west": {"uv": [8.76667, 0, 10.43333, 2.33333], "rotation": 180, "texture": "#2"},
				"up": {"uv": [8.76667, 0, 10.43333, 2.33333], "rotation": 90, "texture": "#2"},
				"down": {"uv": [8.76667, 0, 10.43333, 2.33333], "rotation": 270, "texture": "#2"}
			}
		},
		{
			"from": [5.8173, 8.50711, 3.12129],
			"to": [6.8173, 9.00711, 11.62129],
			"rotation": {"angle": 0, "axis": "y", "origin": [6.3193, 7.31427, 8.50199]},
			"faces": {
				"north": {"uv": [8.76667, 0, 10.43333, 2.33333], "texture": "#2"},
				"east": {"uv": [8.76667, 0, 10.43333, 2.33333], "texture": "#2"},
				"south": {"uv": [8.76667, 0, 10.43333, 2.33333], "texture": "#2"},
				"west": {"uv": [8.76667, 0, 10.43333, 2.33333], "texture": "#2"},
				"up": {"uv": [8.76667, 0, 10.43333, 2.33333], "rotation": 270, "texture": "#2"},
				"down": {"uv": [8.76667, 0, 10.43333, 2.33333], "rotation": 90, "texture": "#2"}
			}
		},
		{
			"from": [5.47442, 8.36343, 3.12129],
			"to": [6.32442, 8.86343, 11.72129],
			"rotation": {"angle": -45, "axis": "z", "origin": [6.3193, 7.31427, 8.50199]},
			"faces": {
				"north": {"uv": [8.76667, 0, 10.43333, 2.33333], "texture": "#2"},
				"east": {"uv": [8.76667, 0, 10.43333, 2.33333], "texture": "#2"},
				"south": {"uv": [8.76667, 0, 10.43333, 2.33333], "texture": "#2"},
				"west": {"uv": [8.76667, 0, 10.43333, 2.33333], "texture": "#2"},
				"up": {"uv": [8.76667, 0, 10.43333, 2.33333], "rotation": 270, "texture": "#2"},
				"down": {"uv": [8.76667, 0, 10.43333, 2.33333], "rotation": 90, "texture": "#2"}
			}
		},
		{
			"from": [4.76806, 7.30706, 3.12129],
			"to": [5.26806, 8.15706, 11.72129],
			"rotation": {"angle": -45, "axis": "z", "origin": [6.3193, 7.31427, 8.50199]},
			"faces": {
				"north": {"uv": [8.76667, 0, 10.43333, 2.33333], "rotation": 180, "texture": "#2"},
				"east": {"uv": [8.76667, 0, 10.43333, 2.33333], "rotation": 180, "texture": "#2"},
				"south": {"uv": [8.76667, 0, 10.43333, 2.33333], "rotation": 180, "texture": "#2"},
				"west": {"uv": [8.76667, 0, 10.43333, 2.33333], "rotation": 180, "texture": "#2"},
				"up": {"uv": [8.76667, 0, 10.43333, 2.33333], "rotation": 90, "texture": "#2"},
				"down": {"uv": [8.76667, 0, 10.43333, 2.33333], "rotation": 270, "texture": "#2"}
			}
		},
		{
			"from": [5.2163, 7.55607, 3.12129],
			"to": [5.9163, 8.40607, 11.82129],
			"rotation": {"angle": 0, "axis": "x", "origin": [6.3193, 7.31427, 8.50199]},
			"faces": {
				"north": {"uv": [8.76667, 0, 10.43333, 2.33333], "rotation": 180, "texture": "#2"},
				"east": {"uv": [8.76667, 0, 10.43333, 2.33333], "rotation": 180, "texture": "#2"},
				"south": {"uv": [8.76667, 0, 10.43333, 2.33333], "rotation": 180, "texture": "#2"},
				"west": {"uv": [8.76667, 0, 10.43333, 2.33333], "rotation": 180, "texture": "#2"},
				"up": {"uv": [8.76667, 0, 10.43333, 2.33333], "rotation": 90, "texture": "#2"},
				"down": {"uv": [8.76667, 0, 10.43333, 2.33333], "rotation": 270, "texture": "#2"}
			}
		},
		{
			"from": [6.81834, 7.55607, 3.12129],
			"to": [7.41834, 8.40607, 11.82129],
			"rotation": {"angle": 0, "axis": "y", "origin": [6.3193, 7.31427, 8.50199]},
			"faces": {
				"north": {"uv": [8.76667, 0, 10.43333, 2.33333], "rotation": 180, "texture": "#2"},
				"east": {"uv": [8.76667, 0, 10.43333, 2.33333], "rotation": 180, "texture": "#2"},
				"south": {"uv": [8.76667, 0, 10.43333, 2.33333], "rotation": 180, "texture": "#2"},
				"west": {"uv": [8.76667, 0, 10.43333, 2.33333], "rotation": 180, "texture": "#2"},
				"up": {"uv": [8.76667, 0, 10.43333, 2.33333], "rotation": 90, "texture": "#2"},
				"down": {"uv": [8.76667, 0, 10.43333, 2.33333], "rotation": 270, "texture": "#2"}
			}
		},
		{
			"from": [5.4673, 8.60711, 7.92129],
			"to": [7.1173, 9.20711, 10.02129],
			"rotation": {"angle": 0, "axis": "y", "origin": [6.3193, 7.31427, 8.50199]},
			"faces": {
				"north": {"uv": [8.76667, 0, 10.43333, 2.33333], "texture": "#2"},
				"east": {"uv": [8.76667, 0, 10.43333, 2.33333], "texture": "#2"},
				"south": {"uv": [8.76667, 0, 10.43333, 2.33333], "texture": "#2"},
				"west": {"uv": [8.76667, 0, 10.43333, 2.33333], "texture": "#2"},
				"up": {"uv": [8.76667, 0, 10.43333, 2.33333], "rotation": 270, "texture": "#2"},
				"down": {"uv": [8.76667, 0, 10.43333, 2.33333], "rotation": 90, "texture": "#2"}
			}
		},
		{
			"from": [5.3173, 6.98973, 6.95641],
			"to": [7.3173, 7.88973, 7.55641],
			"rotation": {"angle": -22.5, "axis": "x", "origin": [6.3193, 7.31427, 8.50199]},
			"faces": {
				"north": {"uv": [8.76667, 0, 10.43333, 2.33333], "rotation": 90, "texture": "#2"},
				"east": {"uv": [8.76667, 0, 10.43333, 2.33333], "rotation": 90, "texture": "#2"},
				"south": {"uv": [8.76667, 0, 10.43333, 2.33333], "rotation": 90, "texture": "#2"},
				"west": {"uv": [8.76667, 0, 10.43333, 2.33333], "rotation": 90, "texture": "#2"},
				"up": {"uv": [8.76667, 0, 10.43333, 2.33333], "texture": "#2"},
				"down": {"uv": [8.76667, 0, 10.43333, 2.33333], "rotation": 180, "texture": "#2"}
			}
		},
		{
			"from": [5.9873, 7.05473, 3.12129],
			"to": [6.6373, 7.35473, 3.92129],
			"rotation": {"angle": 0, "axis": "y", "origin": [6.3193, 7.31427, 8.50199]},
			"faces": {
				"north": {"uv": [8.76667, 0, 10.43333, 2.33333], "rotation": 180, "texture": "#2"},
				"east": {"uv": [8.76667, 0, 10.43333, 2.33333], "rotation": 180, "texture": "#2"},
				"south": {"uv": [8.76667, 0, 10.43333, 2.33333], "rotation": 180, "texture": "#2"},
				"west": {"uv": [8.76667, 0, 10.43333, 2.33333], "rotation": 180, "texture": "#2"},
				"up": {"uv": [8.76667, 0, 10.43333, 2.33333], "rotation": 90, "texture": "#2"},
				"down": {"uv": [8.76667, 0, 10.43333, 2.33333], "rotation": 270, "texture": "#2"}
			}
		},
		{
			"from": [5.81807, 6.89599, 3.12129],
			"to": [6.26807, 7.19599, 3.92129],
			"rotation": {"angle": -45, "axis": "z", "origin": [6.3193, 7.31427, 8.50199]},
			"faces": {
				"north": {"uv": [8.76667, 0, 10.43333, 2.33333], "rotation": 180, "texture": "#2"},
				"east": {"uv": [8.76667, 0, 10.43333, 2.33333], "rotation": 180, "texture": "#2"},
				"south": {"uv": [8.76667, 0, 10.43333, 2.33333], "rotation": 180, "texture": "#2"},
				"west": {"uv": [8.76667, 0, 10.43333, 2.33333], "rotation": 180, "texture": "#2"},
				"up": {"uv": [8.76667, 0, 10.43333, 2.33333], "rotation": 90, "texture": "#2"},
				"down": {"uv": [8.76667, 0, 10.43333, 2.33333], "rotation": 270, "texture": "#2"}
			}
		},
		{
			"from": [6.42768, 7.35561, 3.12129],
			"to": [6.72768, 7.80561, 3.92129],
			"rotation": {"angle": -45, "axis": "z", "origin": [6.3193, 7.31427, 8.50199]},
			"faces": {
				"north": {"uv": [8.76667, 0, 10.43333, 2.33333], "rotation": 180, "texture": "#2"},
				"east": {"uv": [8.76667, 0, 10.43333, 2.33333], "rotation": 180, "texture": "#2"},
				"south": {"uv": [8.76667, 0, 10.43333, 2.33333], "rotation": 180, "texture": "#2"},
				"west": {"uv": [8.76667, 0, 10.43333, 2.33333], "rotation": 180, "texture": "#2"},
				"up": {"uv": [8.76667, 0, 10.43333, 2.33333], "rotation": 90, "texture": "#2"},
				"down": {"uv": [8.76667, 0, 10.43333, 2.33333], "rotation": 270, "texture": "#2"}
			}
		},
		{
			"from": [6.7555, 7.37293, 3.12129],
			"to": [6.9555, 8.12293, 3.92129],
			"rotation": {"angle": 0, "axis": "y", "origin": [6.3193, 7.31427, 8.50199]},
			"faces": {
				"north": {"uv": [8.76667, 0, 10.43333, 2.33333], "rotation": 180, "texture": "#2"},
				"east": {"uv": [8.76667, 0, 10.43333, 2.33333], "rotation": 180, "texture": "#2"},
				"south": {"uv": [8.76667, 0, 10.43333, 2.33333], "rotation": 180, "texture": "#2"},
				"west": {"uv": [8.76667, 0, 10.43333, 2.33333], "rotation": 180, "texture": "#2"},
				"up": {"uv": [8.76667, 0, 10.43333, 2.33333], "rotation": 90, "texture": "#2"},
				"down": {"uv": [8.76667, 0, 10.43333, 2.33333], "rotation": 270, "texture": "#2"}
			}
		},
		{
			"from": [5.6691, 7.37293, 3.12129],
			"to": [5.8691, 8.12293, 3.92129],
			"rotation": {"angle": 0, "axis": "y", "origin": [6.3193, 7.31427, 8.50199]},
			"faces": {
				"north": {"uv": [8.76667, 0, 10.43333, 2.33333], "rotation": 180, "texture": "#2"},
				"east": {"uv": [8.76667, 0, 10.43333, 2.33333], "rotation": 180, "texture": "#2"},
				"south": {"uv": [8.76667, 0, 10.43333, 2.33333], "rotation": 180, "texture": "#2"},
				"west": {"uv": [8.76667, 0, 10.43333, 2.33333], "rotation": 180, "texture": "#2"},
				"up": {"uv": [8.76667, 0, 10.43333, 2.33333], "rotation": 90, "texture": "#2"},
				"down": {"uv": [8.76667, 0, 10.43333, 2.33333], "rotation": 270, "texture": "#2"}
			}
		},
		{
			"from": [5.6873, 6.75473, 3.52129],
			"to": [6.9373, 7.15473, 10.92129],
			"rotation": {"angle": 0, "axis": "y", "origin": [6.3193, 7.31427, 8.50199]},
			"faces": {
				"north": {"uv": [8.76667, 0, 10.43333, 2.33333], "rotation": 180, "texture": "#2"},
				"east": {"uv": [8.76667, 0, 10.43333, 2.33333], "rotation": 180, "texture": "#2"},
				"south": {"uv": [8.76667, 0, 10.43333, 2.33333], "rotation": 180, "texture": "#2"},
				"west": {"uv": [8.76667, 0, 10.43333, 2.33333], "rotation": 180, "texture": "#2"},
				"up": {"uv": [8.76667, 0, 10.43333, 2.33333], "rotation": 90, "texture": "#2"},
				"down": {"uv": [8.76667, 0, 10.43333, 2.33333], "rotation": 270, "texture": "#2"}
			}
		},
		{
			"from": [5.61807, 6.47173, 3.52129],
			"to": [6.26807, 6.87173, 10.92129],
			"rotation": {"angle": -45, "axis": "z", "origin": [6.3193, 7.31427, 8.50199]},
			"faces": {
				"north": {"uv": [8.76667, 0, 10.43333, 2.33333], "rotation": 180, "texture": "#2"},
				"east": {"uv": [8.76667, 0, 10.43333, 2.33333], "rotation": 180, "texture": "#2"},
				"south": {"uv": [8.76667, 0, 10.43333, 2.33333], "rotation": 180, "texture": "#2"},
				"west": {"uv": [8.76667, 0, 10.43333, 2.33333], "rotation": 180, "texture": "#2"},
				"up": {"uv": [8.76667, 0, 10.43333, 2.33333], "rotation": 90, "texture": "#2"},
				"down": {"uv": [8.76667, 0, 10.43333, 2.33333], "rotation": 270, "texture": "#2"}
			}
		},
		{
			"from": [6.75195, 7.35561, 3.52129],
			"to": [7.15195, 8.00561, 10.92129],
			"rotation": {"angle": -45, "axis": "z", "origin": [6.3193, 7.31427, 8.50199]},
			"faces": {
				"north": {"uv": [8.76667, 0, 10.43333, 2.33333], "rotation": 180, "texture": "#2"},
				"east": {"uv": [8.76667, 0, 10.43333, 2.33333], "rotation": 180, "texture": "#2"},
				"south": {"uv": [8.76667, 0, 10.43333, 2.33333], "rotation": 180, "texture": "#2"},
				"west": {"uv": [8.76667, 0, 10.43333, 2.33333], "rotation": 180, "texture": "#2"},
				"up": {"uv": [8.76667, 0, 10.43333, 2.33333], "rotation": 90, "texture": "#2"},
				"down": {"uv": [8.76667, 0, 10.43333, 2.33333], "rotation": 270, "texture": "#2"}
			}
		},
		{
			"from": [6.79692, 7.21435, 3.52129],
			"to": [7.39692, 8.06435, 10.92129],
			"rotation": {"angle": 0, "axis": "y", "origin": [6.3193, 7.31427, 8.50199]},
			"faces": {
				"north": {"uv": [8.76667, 0, 10.43333, 2.33333], "rotation": 180, "texture": "#2"},
				"east": {"uv": [8.76667, 0, 10.43333, 2.33333], "rotation": 180, "texture": "#2"},
				"south": {"uv": [8.76667, 0, 10.43333, 2.33333], "rotation": 180, "texture": "#2"},
				"west": {"uv": [8.76667, 0, 10.43333, 2.33333], "rotation": 180, "texture": "#2"},
				"up": {"uv": [8.76667, 0, 10.43333, 2.33333], "rotation": 90, "texture": "#2"},
				"down": {"uv": [8.76667, 0, 10.43333, 2.33333], "rotation": 270, "texture": "#2"}
			}
		},
		{
			"from": [5.22768, 7.21435, 3.52129],
			"to": [5.72768, 8.06435, 10.92129],
			"rotation": {"angle": 0, "axis": "y", "origin": [6.3193, 7.31427, 8.50199]},
			"faces": {
				"north": {"uv": [8.76667, 0, 10.43333, 2.33333], "rotation": 180, "texture": "#2"},
				"east": {"uv": [8.76667, 0, 10.43333, 2.33333], "rotation": 180, "texture": "#2"},
				"south": {"uv": [8.76667, 0, 10.43333, 2.33333], "rotation": 180, "texture": "#2"},
				"west": {"uv": [8.76667, 0, 10.43333, 2.33333], "rotation": 180, "texture": "#2"},
				"up": {"uv": [8.76667, 0, 10.43333, 2.33333], "rotation": 90, "texture": "#2"},
				"down": {"uv": [8.76667, 0, 10.43333, 2.33333], "rotation": 270, "texture": "#2"}
			}
		},
		{
			"from": [5.3173, 6.40711, 7.22129],
			"to": [7.3173, 7.30711, 10.42129],
			"rotation": {"angle": 0, "axis": "y", "origin": [6.3193, 7.31427, 8.50199]},
			"faces": {
				"north": {"uv": [8.76667, 0, 10.43333, 2.33333], "texture": "#2"},
				"east": {"uv": [8.76667, 0, 10.43333, 2.33333], "texture": "#2"},
				"south": {"uv": [8.76667, 0, 10.43333, 2.33333], "texture": "#2"},
				"west": {"uv": [8.76667, 0, 10.43333, 2.33333], "texture": "#2"},
				"up": {"uv": [8.76667, 0, 10.43333, 2.33333], "rotation": 270, "texture": "#2"},
				"down": {"uv": [8.76667, 0, 10.43333, 2.33333], "rotation": 90, "texture": "#2"}
			}
		},
		{
			"from": [5.3173, 6.46575, 7.91421],
			"to": [7.3173, 7.16575, 9.31421],
			"rotation": {"angle": 45, "axis": "x", "origin": [6.3193, 7.31427, 8.50199]},
			"faces": {
				"north": {"uv": [8.76667, 0, 10.43333, 2.33333], "texture": "#2"},
				"east": {"uv": [8.76667, 0, 10.43333, 2.33333], "texture": "#2"},
				"south": {"uv": [8.76667, 0, 10.43333, 2.33333], "texture": "#2"},
				"west": {"uv": [8.76667, 0, 10.43333, 2.33333], "texture": "#2"},
				"up": {"uv": [8.76667, 0, 10.43333, 2.33333], "rotation": 270, "texture": "#2"},
				"down": {"uv": [8.76667, 0, 10.43333, 2.33333], "rotation": 90, "texture": "#2"}
			}
		},
		{
			"from": [5.3184, 5.80705, 7.9756],
			"to": [7.3194, 6.50705, 8.6756],
			"rotation": {"angle": -22.5, "axis": "x", "origin": [6.3193, 7.31427, 8.50199]},
			"faces": {
				"north": {"uv": [8.76667, 0, 10.43333, 2.33333], "rotation": 90, "texture": "#2"},
				"east": {"uv": [8.76667, 0, 10.43333, 2.33333], "rotation": 90, "texture": "#2"},
				"south": {"uv": [8.76667, 0, 10.43333, 2.33333], "rotation": 90, "texture": "#2"},
				"west": {"uv": [8.76667, 0, 10.43333, 2.33333], "rotation": 90, "texture": "#2"},
				"up": {"uv": [8.76667, 0, 10.43333, 2.33333], "texture": "#2"},
				"down": {"uv": [8.76667, 0, 10.43333, 2.33333], "rotation": 180, "texture": "#2"}
			}
		},
		{
			"from": [5.3173, 4.90511, 8.51592],
			"to": [7.3173, 5.90511, 9.21592],
			"rotation": {"angle": 0, "axis": "z", "origin": [6.3193, 7.31427, 8.50199]},
			"faces": {
				"north": {"uv": [8.76667, 0, 10.43333, 2.33333], "rotation": 90, "texture": "#2"},
				"east": {"uv": [8.76667, 0, 10.43333, 2.33333], "rotation": 90, "texture": "#2"},
				"south": {"uv": [8.76667, 0, 10.43333, 2.33333], "rotation": 90, "texture": "#2"},
				"west": {"uv": [8.76667, 0, 10.43333, 2.33333], "rotation": 90, "texture": "#2"},
				"up": {"uv": [8.76667, 0, 10.43333, 2.33333], "texture": "#2"},
				"down": {"uv": [8.76667, 0, 10.43333, 2.33333], "rotation": 180, "texture": "#2"}
			}
		},
		{
			"from": [6.79692, 7.11435, 10.92129],
			"to": [7.39692, 7.96435, 11.82129],
			"rotation": {"angle": 0, "axis": "x", "origin": [6.3193, 7.31427, 8.50199]},
			"faces": {
				"north": {"uv": [8.76667, 0, 10.43333, 2.33333], "rotation": 180, "texture": "#2"},
				"east": {"uv": [8.76667, 0, 10.43333, 2.33333], "rotation": 180, "texture": "#2"},
				"south": {"uv": [8.76667, 0, 10.43333, 2.33333], "rotation": 180, "texture": "#2"},
				"west": {"uv": [8.76667, 0, 10.43333, 2.33333], "rotation": 180, "texture": "#2"},
				"up": {"uv": [8.76667, 0, 10.43333, 2.33333], "rotation": 90, "texture": "#2"},
				"down": {"uv": [8.76667, 0, 10.43333, 2.33333], "rotation": 270, "texture": "#2"}
			}
		},
		{
			"from": [5.22768, 7.11435, 10.92129],
			"to": [5.72768, 7.96435, 11.82129],
			"rotation": {"angle": 0, "axis": "x", "origin": [6.3193, 7.31427, 8.50199]},
			"faces": {
				"north": {"uv": [8.76667, 0, 10.43333, 2.33333], "rotation": 180, "texture": "#2"},
				"east": {"uv": [8.76667, 0, 10.43333, 2.33333], "rotation": 180, "texture": "#2"},
				"south": {"uv": [8.76667, 0, 10.43333, 2.33333], "rotation": 180, "texture": "#2"},
				"west": {"uv": [8.76667, 0, 10.43333, 2.33333], "rotation": 180, "texture": "#2"},
				"up": {"uv": [8.76667, 0, 10.43333, 2.33333], "rotation": 90, "texture": "#2"},
				"down": {"uv": [8.76667, 0, 10.43333, 2.33333], "rotation": 270, "texture": "#2"}
			}
		},
		{
			"from": [5.2273, 7.0609, 10.02744],
			"to": [7.4073, 8.3609, 12.12744],
			"rotation": {"angle": 0, "axis": "y", "origin": [6.3193, 7.31427, 8.50199]},
			"faces": {
				"north": {"uv": [8.76667, 0, 10.43333, 2.33333], "texture": "#2"},
				"east": {"uv": [8.76667, 0, 10.43333, 2.33333], "texture": "#2"},
				"south": {"uv": [8.76667, 0, 10.43333, 2.33333], "texture": "#2"},
				"west": {"uv": [8.76667, 0, 10.43333, 2.33333], "texture": "#2"},
				"up": {"uv": [8.76667, 0, 10.43333, 2.33333], "rotation": 270, "texture": "#2"},
				"down": {"uv": [8.76667, 0, 10.43333, 2.33333], "rotation": 90, "texture": "#2"}
			}
		},
		{
			"from": [5.2173, 7.3609, 9.72744],
			"to": [5.8173, 8.7609, 11.72744],
			"rotation": {"angle": 0, "axis": "y", "origin": [6.3193, 7.31427, 8.50199]},
			"faces": {
				"north": {"uv": [8.76667, 0, 10.43333, 2.33333], "texture": "#2"},
				"east": {"uv": [8.76667, 0, 10.43333, 2.33333], "texture": "#2"},
				"south": {"uv": [8.76667, 0, 10.43333, 2.33333], "texture": "#2"},
				"west": {"uv": [8.76667, 0, 10.43333, 2.33333], "texture": "#2"},
				"up": {"uv": [8.76667, 0, 10.43333, 2.33333], "rotation": 270, "texture": "#2"},
				"down": {"uv": [8.76667, 0, 10.43333, 2.33333], "rotation": 90, "texture": "#2"}
			}
		},
		{
			"from": [5.2173, 8.7, 9.72129],
			"to": [7.4173, 9.2, 11.52129],
			"rotation": {"angle": 0, "axis": "x", "origin": [6.3193, 7.31427, 8.50199]},
			"faces": {
				"north": {"uv": [8.76667, 0, 10.43333, 2.33333], "rotation": 180, "texture": "#2"},
				"east": {"uv": [8.76667, 0, 10.43333, 2.33333], "rotation": 180, "texture": "#2"},
				"south": {"uv": [8.76667, 0, 10.43333, 2.33333], "rotation": 180, "texture": "#2"},
				"west": {"uv": [8.76667, 0, 10.43333, 2.33333], "rotation": 180, "texture": "#2"},
				"up": {"uv": [8.76667, 0, 10.43333, 2.33333], "rotation": 90, "texture": "#2"},
				"down": {"uv": [8.76667, 0, 10.43333, 2.33333], "rotation": 270, "texture": "#2"}
			}
		},
		{
			"from": [5.2173, 6.89382, 11.852],
			"to": [7.4173, 7.49382, 12.252],
			"rotation": {"angle": -22.5, "axis": "x", "origin": [6.3193, 7.31427, 8.50199]},
			"faces": {
				"north": {"uv": [8.76667, 0, 10.43333, 2.33333], "rotation": 270, "texture": "#2"},
				"east": {"uv": [8.76667, 0, 10.43333, 2.33333], "rotation": 270, "texture": "#2"},
				"south": {"uv": [8.76667, 0, 10.43333, 2.33333], "rotation": 270, "texture": "#2"},
				"west": {"uv": [8.76667, 0, 10.43333, 2.33333], "rotation": 270, "texture": "#2"},
				"up": {"uv": [8.76667, 0, 10.43333, 2.33333], "rotation": 180, "texture": "#2"},
				"down": {"uv": [8.76667, 0, 10.43333, 2.33333], "texture": "#2"}
			}
		},
		{
			"from": [5.2173, 6.04509, 11.63526],
			"to": [7.4173, 6.34509, 12.03526],
			"rotation": {"angle": -45, "axis": "x", "origin": [6.3193, 7.31427, 8.50199]},
			"faces": {
				"north": {"uv": [8.76667, 0, 10.43333, 2.33333], "rotation": 270, "texture": "#2"},
				"east": {"uv": [8.76667, 0, 10.43333, 2.33333], "rotation": 270, "texture": "#2"},
				"south": {"uv": [8.76667, 0, 10.43333, 2.33333], "rotation": 270, "texture": "#2"},
				"west": {"uv": [8.76667, 0, 10.43333, 2.33333], "rotation": 270, "texture": "#2"},
				"up": {"uv": [8.76667, 0, 10.43333, 2.33333], "rotation": 180, "texture": "#2"},
				"down": {"uv": [8.76667, 0, 10.43333, 2.33333], "texture": "#2"}
			}
		},
		{
			"from": [5.2173, 9.8119, 10.56982],
			"to": [7.4173, 10.2119, 10.76982],
			"rotation": {"angle": 22.5, "axis": "x", "origin": [6.3193, 7.31427, 8.50199]},
			"faces": {
				"north": {"uv": [8.76667, 0, 10.43333, 2.33333], "rotation": 180, "texture": "#2"},
				"east": {"uv": [8.76667, 0, 10.43333, 2.33333], "rotation": 180, "texture": "#2"},
				"south": {"uv": [8.76667, 0, 10.43333, 2.33333], "rotation": 180, "texture": "#2"},
				"west": {"uv": [8.76667, 0, 10.43333, 2.33333], "rotation": 180, "texture": "#2"},
				"up": {"uv": [8.76667, 0, 10.43333, 2.33333], "rotation": 90, "texture": "#2"},
				"down": {"uv": [8.76667, 0, 10.43333, 2.33333], "rotation": 270, "texture": "#2"}
			}
		},
		{
			"from": [6.7173, 7.3609, 10.02744],
			"to": [7.4173, 8.7609, 11.72744],
			"rotation": {"angle": 0, "axis": "y", "origin": [6.3193, 7.31427, 8.50199]},
			"faces": {
				"north": {"uv": [8.76667, 0, 10.43333, 2.33333], "texture": "#2"},
				"east": {"uv": [8.76667, 0, 10.43333, 2.33333], "texture": "#2"},
				"south": {"uv": [8.76667, 0, 10.43333, 2.33333], "texture": "#2"},
				"west": {"uv": [8.76667, 0, 10.43333, 2.33333], "texture": "#2"},
				"up": {"uv": [8.76667, 0, 10.43333, 2.33333], "rotation": 270, "texture": "#2"},
				"down": {"uv": [8.76667, 0, 10.43333, 2.33333], "rotation": 90, "texture": "#2"}
			}
		},
		{
			"from": [5.9673, 5.72244, 7.09835],
			"to": [6.6673, 6.92244, 7.19835],
			"rotation": {"angle": 0, "axis": "z", "origin": [6.3193, 7.31427, 8.50199]},
			"faces": {
				"north": {"uv": [8.76667, 0, 10.43333, 2.33333], "rotation": 270, "texture": "#2"},
				"east": {"uv": [8.76667, 0, 10.43333, 2.33333], "rotation": 270, "texture": "#2"},
				"south": {"uv": [8.76667, 0, 10.43333, 2.33333], "rotation": 270, "texture": "#2"},
				"west": {"uv": [8.76667, 0, 10.43333, 2.33333], "rotation": 270, "texture": "#2"},
				"up": {"uv": [8.76667, 0, 10.43333, 2.33333], "rotation": 180, "texture": "#2"},
				"down": {"uv": [8.76667, 0, 10.43333, 2.33333], "texture": "#2"}
			}
		},
		{
			"from": [6.0673, 6.27154, 7.65333],
			"to": [6.5673, 7.17154, 7.75333],
			"rotation": {"angle": -22.5, "axis": "x", "origin": [6.3193, 7.31427, 8.50199]},
			"faces": {
				"north": {"uv": [8.76667, 0, 10.43333, 2.33333], "rotation": 270, "texture": "#2"},
				"east": {"uv": [8.76667, 0, 10.43333, 2.33333], "rotation": 270, "texture": "#2"},
				"south": {"uv": [8.76667, 0, 10.43333, 2.33333], "rotation": 270, "texture": "#2"},
				"west": {"uv": [8.76667, 0, 10.43333, 2.33333], "rotation": 270, "texture": "#2"},
				"up": {"uv": [8.76667, 0, 10.43333, 2.33333], "rotation": 180, "texture": "#2"},
				"down": {"uv": [8.76667, 0, 10.43333, 2.33333], "texture": "#2"}
			}
		},
		{
			"from": [6.0673, 5.76441, 8.10935],
			"to": [6.5673, 6.06441, 8.20935],
			"rotation": {"angle": 0, "axis": "z", "origin": [6.3193, 7.31427, 8.50199]},
			"faces": {
				"north": {"uv": [8.76667, 0, 10.43333, 2.33333], "rotation": 270, "texture": "#2"},
				"east": {"uv": [8.76667, 0, 10.43333, 2.33333], "rotation": 270, "texture": "#2"},
				"south": {"uv": [8.76667, 0, 10.43333, 2.33333], "rotation": 270, "texture": "#2"},
				"west": {"uv": [8.76667, 0, 10.43333, 2.33333], "rotation": 270, "texture": "#2"},
				"up": {"uv": [8.76667, 0, 10.43333, 2.33333], "rotation": 180, "texture": "#2"},
				"down": {"uv": [8.76667, 0, 10.43333, 2.33333], "texture": "#2"}
			}
		},
		{
			"from": [6.0673, 5.4704, 8.72474],
			"to": [6.5673, 5.7704, 8.82474],
			"rotation": {"angle": 22.5, "axis": "x", "origin": [6.3193, 7.31427, 8.50199]},
			"faces": {
				"north": {"uv": [8.76667, 0, 10.43333, 2.33333], "rotation": 270, "texture": "#2"},
				"east": {"uv": [8.76667, 0, 10.43333, 2.33333], "rotation": 270, "texture": "#2"},
				"south": {"uv": [8.76667, 0, 10.43333, 2.33333], "rotation": 270, "texture": "#2"},
				"west": {"uv": [8.76667, 0, 10.43333, 2.33333], "rotation": 270, "texture": "#2"},
				"up": {"uv": [8.76667, 0, 10.43333, 2.33333], "rotation": 180, "texture": "#2"},
				"down": {"uv": [8.76667, 0, 10.43333, 2.33333], "texture": "#2"}
			}
		},
		{
			"from": [5.9673, 5.03858, 8.46109],
			"to": [6.6673, 5.13858, 9.06109],
			"rotation": {"angle": 22.5, "axis": "x", "origin": [6.3193, 7.31427, 8.50199]},
			"faces": {
				"north": {"uv": [8.76667, 0, 10.43333, 2.33333], "texture": "#2"},
				"east": {"uv": [8.76667, 0, 10.43333, 2.33333], "texture": "#2"},
				"south": {"uv": [8.76667, 0, 10.43333, 2.33333], "texture": "#2"},
				"west": {"uv": [8.76667, 0, 10.43333, 2.33333], "texture": "#2"},
				"up": {"uv": [8.76667, 0, 10.43333, 2.33333], "rotation": 270, "texture": "#2"},
				"down": {"uv": [8.76667, 0, 10.43333, 2.33333], "rotation": 90, "texture": "#2"}
			}
		},
		{
			"from": [5.9673, 4.99785, 8.14765],
			"to": [6.6673, 5.09785, 8.64765],
			"rotation": {"angle": 0, "axis": "y", "origin": [6.3193, 7.31427, 8.50199]},
			"faces": {
				"north": {"uv": [8.76667, 0, 10.43333, 2.33333], "texture": "#2"},
				"east": {"uv": [8.76667, 0, 10.43333, 2.33333], "texture": "#2"},
				"south": {"uv": [8.76667, 0, 10.43333, 2.33333], "texture": "#2"},
				"west": {"uv": [8.76667, 0, 10.43333, 2.33333], "texture": "#2"},
				"up": {"uv": [8.76667, 0, 10.43333, 2.33333], "rotation": 270, "texture": "#2"},
				"down": {"uv": [8.76667, 0, 10.43333, 2.33333], "rotation": 90, "texture": "#2"}
			}
		},
		{
			"from": [5.9673, 5.19614, 8.63507],
			"to": [6.6673, 5.29614, 9.33507],
			"rotation": {"angle": 45, "axis": "x", "origin": [6.3193, 7.31427, 8.50199]},
			"faces": {
				"north": {"uv": [8.76667, 0, 10.43333, 2.33333], "texture": "#2"},
				"east": {"uv": [8.76667, 0, 10.43333, 2.33333], "texture": "#2"},
				"south": {"uv": [8.76667, 0, 10.43333, 2.33333], "texture": "#2"},
				"west": {"uv": [8.76667, 0, 10.43333, 2.33333], "texture": "#2"},
				"up": {"uv": [8.76667, 0, 10.43333, 2.33333], "rotation": 270, "texture": "#2"},
				"down": {"uv": [8.76667, 0, 10.43333, 2.33333], "rotation": 90, "texture": "#2"}
			}
		},
		{
			"from": [5.2183, 7.52573, 9.25035],
			"to": [5.7683, 8.17573, 9.73035],
			"rotation": {"angle": -22.5, "axis": "x", "origin": [6.3193, 7.31427, 8.50199]},
			"faces": {
				"north": {"uv": [8.76667, 0, 10.43333, 2.33333], "rotation": 90, "texture": "#2"},
				"east": {"uv": [8.76667, 0, 10.43333, 2.33333], "rotation": 90, "texture": "#2"},
				"south": {"uv": [8.76667, 0, 10.43333, 2.33333], "rotation": 90, "texture": "#2"},
				"west": {"uv": [8.76667, 0, 10.43333, 2.33333], "rotation": 90, "texture": "#2"},
				"up": {"uv": [8.76667, 0, 10.43333, 2.33333], "texture": "#2"},
				"down": {"uv": [8.76667, 0, 10.43333, 2.33333], "rotation": 180, "texture": "#2"}
			}
		},
		{
			"from": [5.2193, 7.52573, 9.55035],
			"to": [5.7693, 8.17473, 10.03035],
			"rotation": {"angle": -22.5, "axis": "x", "origin": [6.3193, 7.31427, 8.50199]},
			"faces": {
				"north": {"uv": [8.76667, 0, 10.43333, 2.33333], "rotation": 90, "texture": "#2"},
				"east": {"uv": [8.76667, 0, 10.43333, 2.33333], "rotation": 90, "texture": "#2"},
				"south": {"uv": [8.76667, 0, 10.43333, 2.33333], "rotation": 90, "texture": "#2"},
				"west": {"uv": [8.76667, 0, 10.43333, 2.33333], "rotation": 90, "texture": "#2"},
				"up": {"uv": [8.76667, 0, 10.43333, 2.33333], "texture": "#2"},
				"down": {"uv": [8.76667, 0, 10.43333, 2.33333], "rotation": 180, "texture": "#2"}
			}
		},
		{
			"from": [5.2183, 6.99009, 9.96651],
			"to": [5.7683, 7.64009, 10.34651],
			"rotation": {"angle": -45, "axis": "x", "origin": [6.3193, 7.31427, 8.50199]},
			"faces": {
				"north": {"uv": [8.76667, 0, 10.43333, 2.33333], "rotation": 90, "texture": "#2"},
				"east": {"uv": [8.76667, 0, 10.43333, 2.33333], "rotation": 90, "texture": "#2"},
				"south": {"uv": [8.76667, 0, 10.43333, 2.33333], "rotation": 90, "texture": "#2"},
				"west": {"uv": [8.76667, 0, 10.43333, 2.33333], "rotation": 90, "texture": "#2"},
				"up": {"uv": [8.76667, 0, 10.43333, 2.33333], "texture": "#2"},
				"down": {"uv": [8.76667, 0, 10.43333, 2.33333], "rotation": 180, "texture": "#2"}
			}
		},
		{
			"from": [5.2183, 6.99009, 10.16651],
			"to": [5.7683, 7.64009, 10.54651],
			"rotation": {"angle": -45, "axis": "x", "origin": [6.3193, 7.31427, 8.50199]},
			"faces": {
				"north": {"uv": [8.76667, 0, 10.43333, 2.33333], "rotation": 90, "texture": "#2"},
				"east": {"uv": [8.76667, 0, 10.43333, 2.33333], "rotation": 90, "texture": "#2"},
				"south": {"uv": [8.76667, 0, 10.43333, 2.33333], "rotation": 90, "texture": "#2"},
				"west": {"uv": [8.76667, 0, 10.43333, 2.33333], "rotation": 90, "texture": "#2"},
				"up": {"uv": [8.76667, 0, 10.43333, 2.33333], "texture": "#2"},
				"down": {"uv": [8.76667, 0, 10.43333, 2.33333], "rotation": 180, "texture": "#2"}
			}
		},
		{
			"from": [5.2183, 9.14306, 8.90684],
			"to": [5.7693, 9.52306, 9.55684],
			"rotation": {"angle": 22.5, "axis": "x", "origin": [6.3193, 7.31427, 8.50199]},
			"faces": {
				"north": {"uv": [8.76667, 0, 10.43333, 2.33333], "texture": "#2"},
				"east": {"uv": [8.76667, 0, 10.43333, 2.33333], "texture": "#2"},
				"south": {"uv": [8.76667, 0, 10.43333, 2.33333], "texture": "#2"},
				"west": {"uv": [8.76667, 0, 10.43333, 2.33333], "texture": "#2"},
				"up": {"uv": [8.76667, 0, 10.43333, 2.33333], "rotation": 270, "texture": "#2"},
				"down": {"uv": [8.76667, 0, 10.43333, 2.33333], "rotation": 90, "texture": "#2"}
			}
		},
		{
			"from": [5.4663, 8.70082, 7.82389],
			"to": [7.1183, 9.05082, 8.30389],
			"rotation": {"angle": -22.5, "axis": "x", "origin": [6.3193, 7.31427, 8.50199]},
			"faces": {
				"north": {"uv": [8.76667, 0, 10.43333, 2.33333], "rotation": 90, "texture": "#2"},
				"east": {"uv": [8.76667, 0, 10.43333, 2.33333], "rotation": 90, "texture": "#2"},
				"south": {"uv": [8.76667, 0, 10.43333, 2.33333], "rotation": 90, "texture": "#2"},
				"west": {"uv": [8.76667, 0, 10.43333, 2.33333], "rotation": 90, "texture": "#2"},
				"up": {"uv": [8.76667, 0, 10.43333, 2.33333], "texture": "#2"},
				"down": {"uv": [8.76667, 0, 10.43333, 2.33333], "rotation": 180, "texture": "#2"}
			}
		},
		{
			"from": [5.4663, 8.70082, 8.12389],
			"to": [7.1183, 9.05082, 8.60389],
			"rotation": {"angle": -22.5, "axis": "x", "origin": [6.3193, 7.31427, 8.50199]},
			"faces": {
				"north": {"uv": [8.76667, 0, 10.43333, 2.33333], "rotation": 90, "texture": "#2"},
				"east": {"uv": [8.76667, 0, 10.43333, 2.33333], "rotation": 90, "texture": "#2"},
				"south": {"uv": [8.76667, 0, 10.43333, 2.33333], "rotation": 90, "texture": "#2"},
				"west": {"uv": [8.76667, 0, 10.43333, 2.33333], "rotation": 90, "texture": "#2"},
				"up": {"uv": [8.76667, 0, 10.43333, 2.33333], "texture": "#2"},
				"down": {"uv": [8.76667, 0, 10.43333, 2.33333], "rotation": 180, "texture": "#2"}
			}
		},
		{
			"from": [5.4663, 8.64445, 8.98351],
			"to": [7.1183, 8.99445, 9.26351],
			"rotation": {"angle": -45, "axis": "x", "origin": [6.3193, 7.31427, 8.50199]},
			"faces": {
				"north": {"uv": [8.76667, 0, 10.43333, 2.33333], "rotation": 90, "texture": "#2"},
				"east": {"uv": [8.76667, 0, 10.43333, 2.33333], "rotation": 90, "texture": "#2"},
				"south": {"uv": [8.76667, 0, 10.43333, 2.33333], "rotation": 90, "texture": "#2"},
				"west": {"uv": [8.76667, 0, 10.43333, 2.33333], "rotation": 90, "texture": "#2"},
				"up": {"uv": [8.76667, 0, 10.43333, 2.33333], "texture": "#2"},
				"down": {"uv": [8.76667, 0, 10.43333, 2.33333], "rotation": 180, "texture": "#2"}
			}
		},
		{
			"from": [5.4663, 8.64445, 9.18351],
			"to": [7.1183, 8.99445, 9.46351],
			"rotation": {"angle": -45, "axis": "x", "origin": [6.3193, 7.31427, 8.50199]},
			"faces": {
				"north": {"uv": [8.76667, 0, 10.43333, 2.33333], "rotation": 90, "texture": "#2"},
				"east": {"uv": [8.76667, 0, 10.43333, 2.33333], "rotation": 90, "texture": "#2"},
				"south": {"uv": [8.76667, 0, 10.43333, 2.33333], "rotation": 90, "texture": "#2"},
				"west": {"uv": [8.76667, 0, 10.43333, 2.33333], "rotation": 90, "texture": "#2"},
				"up": {"uv": [8.76667, 0, 10.43333, 2.33333], "texture": "#2"},
				"down": {"uv": [8.76667, 0, 10.43333, 2.33333], "rotation": 180, "texture": "#2"}
			}
		},
		{
			"from": [5.4663, 8.6608, 7.24114],
			"to": [7.1183, 8.8408, 7.59114],
			"rotation": {"angle": 22.5, "axis": "x", "origin": [6.3193, 7.31427, 8.50199]},
			"faces": {
				"north": {"uv": [8.76667, 0, 10.43333, 2.33333], "texture": "#2"},
				"east": {"uv": [8.76667, 0, 10.43333, 2.33333], "texture": "#2"},
				"south": {"uv": [8.76667, 0, 10.43333, 2.33333], "texture": "#2"},
				"west": {"uv": [8.76667, 0, 10.43333, 2.33333], "texture": "#2"},
				"up": {"uv": [8.76667, 0, 10.43333, 2.33333], "rotation": 270, "texture": "#2"},
				"down": {"uv": [8.76667, 0, 10.43333, 2.33333], "rotation": 90, "texture": "#2"}
			}
		},
		{
			"from": [6.8663, 7.52573, 9.25035],
			"to": [7.4163, 8.17573, 9.73035],
			"rotation": {"angle": -22.5, "axis": "x", "origin": [6.3193, 7.31427, 8.50199]},
			"faces": {
				"north": {"uv": [8.76667, 0, 10.43333, 2.33333], "rotation": 90, "texture": "#2"},
				"east": {"uv": [8.76667, 0, 10.43333, 2.33333], "rotation": 90, "texture": "#2"},
				"south": {"uv": [8.76667, 0, 10.43333, 2.33333], "rotation": 90, "texture": "#2"},
				"west": {"uv": [8.76667, 0, 10.43333, 2.33333], "rotation": 90, "texture": "#2"},
				"up": {"uv": [8.76667, 0, 10.43333, 2.33333], "texture": "#2"},
				"down": {"uv": [8.76667, 0, 10.43333, 2.33333], "rotation": 180, "texture": "#2"}
			}
		},
		{
			"from": [6.8663, 7.52573, 9.55035],
			"to": [7.4163, 8.17473, 10.03035],
			"rotation": {"angle": -22.5, "axis": "x", "origin": [6.3193, 7.31427, 8.50199]},
			"faces": {
				"north": {"uv": [8.76667, 0, 10.43333, 2.33333], "rotation": 90, "texture": "#2"},
				"east": {"uv": [8.76667, 0, 10.43333, 2.33333], "rotation": 90, "texture": "#2"},
				"south": {"uv": [8.76667, 0, 10.43333, 2.33333], "rotation": 90, "texture": "#2"},
				"west": {"uv": [8.76667, 0, 10.43333, 2.33333], "rotation": 90, "texture": "#2"},
				"up": {"uv": [8.76667, 0, 10.43333, 2.33333], "texture": "#2"},
				"down": {"uv": [8.76667, 0, 10.43333, 2.33333], "rotation": 180, "texture": "#2"}
			}
		},
		{
			"from": [6.8663, 6.99009, 9.96651],
			"to": [7.4163, 7.64009, 10.34651],
			"rotation": {"angle": -45, "axis": "x", "origin": [6.3193, 7.31427, 8.50199]},
			"faces": {
				"north": {"uv": [8.76667, 0, 10.43333, 2.33333], "rotation": 90, "texture": "#2"},
				"east": {"uv": [8.76667, 0, 10.43333, 2.33333], "rotation": 90, "texture": "#2"},
				"south": {"uv": [8.76667, 0, 10.43333, 2.33333], "rotation": 90, "texture": "#2"},
				"west": {"uv": [8.76667, 0, 10.43333, 2.33333], "rotation": 90, "texture": "#2"},
				"up": {"uv": [8.76667, 0, 10.43333, 2.33333], "texture": "#2"},
				"down": {"uv": [8.76667, 0, 10.43333, 2.33333], "rotation": 180, "texture": "#2"}
			}
		},
		{
			"from": [6.8663, 6.99009, 10.16651],
			"to": [7.4163, 7.64009, 10.54651],
			"rotation": {"angle": -45, "axis": "x", "origin": [6.3193, 7.31427, 8.50199]},
			"faces": {
				"north": {"uv": [8.76667, 0, 10.43333, 2.33333], "rotation": 90, "texture": "#2"},
				"east": {"uv": [8.76667, 0, 10.43333, 2.33333], "rotation": 90, "texture": "#2"},
				"south": {"uv": [8.76667, 0, 10.43333, 2.33333], "rotation": 90, "texture": "#2"},
				"west": {"uv": [8.76667, 0, 10.43333, 2.33333], "rotation": 90, "texture": "#2"},
				"up": {"uv": [8.76667, 0, 10.43333, 2.33333], "texture": "#2"},
				"down": {"uv": [8.76667, 0, 10.43333, 2.33333], "rotation": 180, "texture": "#2"}
			}
		},
		{
			"from": [6.8663, 9.14306, 8.90684],
			"to": [7.4163, 9.52306, 9.55684],
			"rotation": {"angle": 22.5, "axis": "x", "origin": [6.3193, 7.31427, 8.50199]},
			"faces": {
				"north": {"uv": [8.76667, 0, 10.43333, 2.33333], "texture": "#2"},
				"east": {"uv": [8.76667, 0, 10.43333, 2.33333], "texture": "#2"},
				"south": {"uv": [8.76667, 0, 10.43333, 2.33333], "texture": "#2"},
				"west": {"uv": [8.76667, 0, 10.43333, 2.33333], "texture": "#2"},
				"up": {"uv": [8.76667, 0, 10.43333, 2.33333], "rotation": 270, "texture": "#2"},
				"down": {"uv": [8.76667, 0, 10.43333, 2.33333], "rotation": 90, "texture": "#2"}
			}
		},
		{
			"from": [5.3193, 5.69279, 11.27451],
			"to": [7.3083, 6.04279, 11.75451],
			"rotation": {"angle": -22.5, "axis": "x", "origin": [6.3193, 7.31427, 8.50199]},
			"faces": {
				"north": {"uv": [8.76667, 0, 10.43333, 2.33333], "rotation": 270, "texture": "#2"},
				"east": {"uv": [8.76667, 0, 10.43333, 2.33333], "rotation": 270, "texture": "#2"},
				"south": {"uv": [8.76667, 0, 10.43333, 2.33333], "rotation": 270, "texture": "#2"},
				"west": {"uv": [8.76667, 0, 10.43333, 2.33333], "rotation": 270, "texture": "#2"},
				"up": {"uv": [8.76667, 0, 10.43333, 2.33333], "rotation": 180, "texture": "#2"},
				"down": {"uv": [8.76667, 0, 10.43333, 2.33333], "texture": "#2"}
			}
		},
		{
			"from": [5.3193, 8.77523, 10.51105],
			"to": [7.3083, 9.25523, 11.06105],
			"rotation": {"angle": 45, "axis": "x", "origin": [6.3193, 7.31427, 8.50199]},
			"faces": {
				"north": {"uv": [8.76667, 0, 10.43333, 2.33333], "rotation": 180, "texture": "#2"},
				"east": {"uv": [8.76667, 0, 10.43333, 2.33333], "rotation": 180, "texture": "#2"},
				"south": {"uv": [8.76667, 0, 10.43333, 2.33333], "rotation": 180, "texture": "#2"},
				"west": {"uv": [8.76667, 0, 10.43333, 2.33333], "rotation": 180, "texture": "#2"},
				"up": {"uv": [8.76667, 0, 10.43333, 2.33333], "rotation": 90, "texture": "#2"},
				"down": {"uv": [8.76667, 0, 10.43333, 2.33333], "rotation": 270, "texture": "#2"}
			}
		},
		{
			"from": [5.3193, 8.87523, 10.51105],
			"to": [7.3083, 9.35523, 11.06105],
			"rotation": {"angle": 45, "axis": "x", "origin": [6.3193, 7.31427, 8.50199]},
			"faces": {
				"north": {"uv": [8.76667, 0, 10.43333, 2.33333], "rotation": 180, "texture": "#2"},
				"east": {"uv": [8.76667, 0, 10.43333, 2.33333], "rotation": 180, "texture": "#2"},
				"south": {"uv": [8.76667, 0, 10.43333, 2.33333], "rotation": 180, "texture": "#2"},
				"west": {"uv": [8.76667, 0, 10.43333, 2.33333], "rotation": 180, "texture": "#2"},
				"up": {"uv": [8.76667, 0, 10.43333, 2.33333], "rotation": 90, "texture": "#2"},
				"down": {"uv": [8.76667, 0, 10.43333, 2.33333], "rotation": 270, "texture": "#2"}
			}
		},
		{
			"from": [5.3193, 7.20471, 11.07533],
			"to": [7.3083, 7.68471, 11.42533],
			"rotation": {"angle": 22.5, "axis": "x", "origin": [6.3193, 7.31427, 8.50199]},
			"faces": {
				"north": {"uv": [8.76667, 0, 10.43333, 2.33333], "rotation": 180, "texture": "#2"},
				"east": {"uv": [8.76667, 0, 10.43333, 2.33333], "rotation": 180, "texture": "#2"},
				"south": {"uv": [8.76667, 0, 10.43333, 2.33333], "rotation": 180, "texture": "#2"},
				"west": {"uv": [8.76667, 0, 10.43333, 2.33333], "rotation": 180, "texture": "#2"},
				"up": {"uv": [8.76667, 0, 10.43333, 2.33333], "rotation": 90, "texture": "#2"},
				"down": {"uv": [8.76667, 0, 10.43333, 2.33333], "rotation": 270, "texture": "#2"}
			}
		},
		{
			"from": [5.3193, 7.40471, 11.07533],
			"to": [7.3083, 7.88471, 11.42533],
			"rotation": {"angle": 22.5, "axis": "x", "origin": [6.3193, 7.31427, 8.50199]},
			"faces": {
				"north": {"uv": [8.76667, 0, 10.43333, 2.33333], "rotation": 180, "texture": "#2"},
				"east": {"uv": [8.76667, 0, 10.43333, 2.33333], "rotation": 180, "texture": "#2"},
				"south": {"uv": [8.76667, 0, 10.43333, 2.33333], "rotation": 180, "texture": "#2"},
				"west": {"uv": [8.76667, 0, 10.43333, 2.33333], "rotation": 180, "texture": "#2"},
				"up": {"uv": [8.76667, 0, 10.43333, 2.33333], "rotation": 90, "texture": "#2"},
				"down": {"uv": [8.76667, 0, 10.43333, 2.33333], "rotation": 270, "texture": "#2"}
			}
		},
		{
			"from": [5.1723, 7.9, 10.19129],
			"to": [5.2123, 9.2, 10.22129],
			"rotation": {"angle": 0, "axis": "y", "origin": [6.3193, 7.31427, 8.50199]},
			"faces": {
				"north": {"uv": [6.1, 0, 7.76666, 2.33333], "texture": "#2"},
				"east": {"uv": [6.1, 0, 7.76666, 2.33333], "texture": "#2"},
				"south": {"uv": [6.1, 0, 7.76666, 2.33333], "texture": "#2"},
				"west": {"uv": [6.1, 0, 7.76666, 2.33333], "texture": "#2"},
				"up": {"uv": [6.1, 0, 7.76666, 2.33333], "rotation": 270, "texture": "#2"},
				"down": {"uv": [6.1, 0, 7.76666, 2.33333], "rotation": 90, "texture": "#2"}
			}
		},
		{
			"from": [5.1723, 7.9, 10.29129],
			"to": [5.2123, 9.2, 10.32129],
			"rotation": {"angle": 0, "axis": "y", "origin": [6.3193, 7.31427, 8.50199]},
			"faces": {
				"north": {"uv": [6.1, 0, 7.76666, 2.33333], "texture": "#2"},
				"east": {"uv": [6.1, 0, 7.76666, 2.33333], "texture": "#2"},
				"south": {"uv": [6.1, 0, 7.76666, 2.33333], "texture": "#2"},
				"west": {"uv": [6.1, 0, 7.76666, 2.33333], "texture": "#2"},
				"up": {"uv": [6.1, 0, 7.76666, 2.33333], "rotation": 270, "texture": "#2"},
				"down": {"uv": [6.1, 0, 7.76666, 2.33333], "rotation": 90, "texture": "#2"}
			}
		},
		{
			"from": [5.1723, 7.9, 10.39129],
			"to": [5.2123, 9.2, 10.42129],
			"rotation": {"angle": 0, "axis": "y", "origin": [6.3193, 7.31427, 8.50199]},
			"faces": {
				"north": {"uv": [6.1, 0, 7.76666, 2.33333], "texture": "#2"},
				"east": {"uv": [6.1, 0, 7.76666, 2.33333], "texture": "#2"},
				"south": {"uv": [6.1, 0, 7.76666, 2.33333], "texture": "#2"},
				"west": {"uv": [6.1, 0, 7.76666, 2.33333], "texture": "#2"},
				"up": {"uv": [6.1, 0, 7.76666, 2.33333], "rotation": 270, "texture": "#2"},
				"down": {"uv": [6.1, 0, 7.76666, 2.33333], "rotation": 90, "texture": "#2"}
			}
		},
		{
			"from": [5.1723, 7.9, 10.49129],
			"to": [5.2123, 9.2, 10.52129],
			"rotation": {"angle": 0, "axis": "y", "origin": [6.3193, 7.31427, 8.50199]},
			"faces": {
				"north": {"uv": [6.1, 0, 7.76666, 2.33333], "texture": "#2"},
				"east": {"uv": [6.1, 0, 7.76666, 2.33333], "texture": "#2"},
				"south": {"uv": [6.1, 0, 7.76666, 2.33333], "texture": "#2"},
				"west": {"uv": [6.1, 0, 7.76666, 2.33333], "texture": "#2"},
				"up": {"uv": [6.1, 0, 7.76666, 2.33333], "rotation": 270, "texture": "#2"},
				"down": {"uv": [6.1, 0, 7.76666, 2.33333], "rotation": 90, "texture": "#2"}
			}
		},
		{
			"from": [5.1723, 7.9, 10.59129],
			"to": [5.2123, 9.2, 10.62129],
			"rotation": {"angle": 0, "axis": "y", "origin": [6.3193, 7.31427, 8.50199]},
			"faces": {
				"north": {"uv": [6.1, 0, 7.76666, 2.33333], "texture": "#2"},
				"east": {"uv": [6.1, 0, 7.76666, 2.33333], "texture": "#2"},
				"south": {"uv": [6.1, 0, 7.76666, 2.33333], "texture": "#2"},
				"west": {"uv": [6.1, 0, 7.76666, 2.33333], "texture": "#2"},
				"up": {"uv": [6.1, 0, 7.76666, 2.33333], "rotation": 270, "texture": "#2"},
				"down": {"uv": [6.1, 0, 7.76666, 2.33333], "rotation": 90, "texture": "#2"}
			}
		},
		{
			"from": [5.1723, 7.9, 10.69129],
			"to": [5.2123, 9.2, 10.72129],
			"rotation": {"angle": 0, "axis": "y", "origin": [6.3193, 7.31427, 8.50199]},
			"faces": {
				"north": {"uv": [6.1, 0, 7.76666, 2.33333], "texture": "#2"},
				"east": {"uv": [6.1, 0, 7.76666, 2.33333], "texture": "#2"},
				"south": {"uv": [6.1, 0, 7.76666, 2.33333], "texture": "#2"},
				"west": {"uv": [6.1, 0, 7.76666, 2.33333], "texture": "#2"},
				"up": {"uv": [6.1, 0, 7.76666, 2.33333], "rotation": 270, "texture": "#2"},
				"down": {"uv": [6.1, 0, 7.76666, 2.33333], "rotation": 90, "texture": "#2"}
			}
		},
		{
			"from": [5.1723, 7.9, 10.79129],
			"to": [5.2123, 9.2, 10.82129],
			"rotation": {"angle": 0, "axis": "y", "origin": [6.3193, 7.31427, 8.50199]},
			"faces": {
				"north": {"uv": [6.1, 0, 7.76666, 2.33333], "texture": "#2"},
				"east": {"uv": [6.1, 0, 7.76666, 2.33333], "texture": "#2"},
				"south": {"uv": [6.1, 0, 7.76666, 2.33333], "texture": "#2"},
				"west": {"uv": [6.1, 0, 7.76666, 2.33333], "texture": "#2"},
				"up": {"uv": [6.1, 0, 7.76666, 2.33333], "rotation": 270, "texture": "#2"},
				"down": {"uv": [6.1, 0, 7.76666, 2.33333], "rotation": 90, "texture": "#2"}
			}
		},
		{
			"from": [5.1723, 7.9, 10.89129],
			"to": [5.2123, 9.2, 10.92129],
			"rotation": {"angle": 0, "axis": "y", "origin": [6.3193, 7.31427, 8.50199]},
			"faces": {
				"north": {"uv": [6.1, 0, 7.76666, 2.33333], "texture": "#2"},
				"east": {"uv": [6.1, 0, 7.76666, 2.33333], "texture": "#2"},
				"south": {"uv": [6.1, 0, 7.76666, 2.33333], "texture": "#2"},
				"west": {"uv": [6.1, 0, 7.76666, 2.33333], "texture": "#2"},
				"up": {"uv": [6.1, 0, 7.76666, 2.33333], "rotation": 270, "texture": "#2"},
				"down": {"uv": [6.1, 0, 7.76666, 2.33333], "rotation": 90, "texture": "#2"}
			}
		},
		{
			"from": [5.1723, 7.9, 10.99129],
			"to": [5.2123, 9.2, 11.02129],
			"rotation": {"angle": 0, "axis": "y", "origin": [6.3193, 7.31427, 8.50199]},
			"faces": {
				"north": {"uv": [6.1, 0, 7.76666, 2.33333], "texture": "#2"},
				"east": {"uv": [6.1, 0, 7.76666, 2.33333], "texture": "#2"},
				"south": {"uv": [6.1, 0, 7.76666, 2.33333], "texture": "#2"},
				"west": {"uv": [6.1, 0, 7.76666, 2.33333], "texture": "#2"},
				"up": {"uv": [6.1, 0, 7.76666, 2.33333], "rotation": 270, "texture": "#2"},
				"down": {"uv": [6.1, 0, 7.76666, 2.33333], "rotation": 90, "texture": "#2"}
			}
		},
		{
			"from": [5.1723, 7.9, 11.09129],
			"to": [5.2123, 9.2, 11.12129],
			"rotation": {"angle": 0, "axis": "y", "origin": [6.3193, 7.31427, 8.50199]},
			"faces": {
				"north": {"uv": [6.1, 0, 7.76666, 2.33333], "texture": "#2"},
				"east": {"uv": [6.1, 0, 7.76666, 2.33333], "texture": "#2"},
				"south": {"uv": [6.1, 0, 7.76666, 2.33333], "texture": "#2"},
				"west": {"uv": [6.1, 0, 7.76666, 2.33333], "texture": "#2"},
				"up": {"uv": [6.1, 0, 7.76666, 2.33333], "rotation": 270, "texture": "#2"},
				"down": {"uv": [6.1, 0, 7.76666, 2.33333], "rotation": 90, "texture": "#2"}
			}
		},
		{
			"from": [5.1723, 7.9, 11.19129],
			"to": [5.2123, 9.2, 11.22129],
			"rotation": {"angle": 0, "axis": "y", "origin": [6.3193, 7.31427, 8.50199]},
			"faces": {
				"north": {"uv": [6.1, 0, 7.76666, 2.33333], "texture": "#2"},
				"east": {"uv": [6.1, 0, 7.76666, 2.33333], "texture": "#2"},
				"south": {"uv": [6.1, 0, 7.76666, 2.33333], "texture": "#2"},
				"west": {"uv": [6.1, 0, 7.76666, 2.33333], "texture": "#2"},
				"up": {"uv": [6.1, 0, 7.76666, 2.33333], "rotation": 270, "texture": "#2"},
				"down": {"uv": [6.1, 0, 7.76666, 2.33333], "rotation": 90, "texture": "#2"}
			}
		},
		{
			"from": [5.1723, 7.9, 11.29129],
			"to": [5.2123, 9.2, 11.32129],
			"rotation": {"angle": 0, "axis": "y", "origin": [6.3193, 7.31427, 8.50199]},
			"faces": {
				"north": {"uv": [6.1, 0, 7.76666, 2.33333], "texture": "#2"},
				"east": {"uv": [6.1, 0, 7.76666, 2.33333], "texture": "#2"},
				"south": {"uv": [6.1, 0, 7.76666, 2.33333], "texture": "#2"},
				"west": {"uv": [6.1, 0, 7.76666, 2.33333], "texture": "#2"},
				"up": {"uv": [6.1, 0, 7.76666, 2.33333], "rotation": 270, "texture": "#2"},
				"down": {"uv": [6.1, 0, 7.76666, 2.33333], "rotation": 90, "texture": "#2"}
			}
		},
		{
			"from": [5.1723, 7.9, 11.39129],
			"to": [5.2123, 9.2, 11.42129],
			"rotation": {"angle": 0, "axis": "y", "origin": [6.3193, 7.31427, 8.50199]},
			"faces": {
				"north": {"uv": [6.1, 0, 7.76666, 2.33333], "texture": "#2"},
				"east": {"uv": [6.1, 0, 7.76666, 2.33333], "texture": "#2"},
				"south": {"uv": [6.1, 0, 7.76666, 2.33333], "texture": "#2"},
				"west": {"uv": [6.1, 0, 7.76666, 2.33333], "texture": "#2"},
				"up": {"uv": [6.1, 0, 7.76666, 2.33333], "rotation": 270, "texture": "#2"},
				"down": {"uv": [6.1, 0, 7.76666, 2.33333], "rotation": 90, "texture": "#2"}
			}
		},
		{
			"from": [5.1723, 7.9, 11.49129],
			"to": [5.2123, 9.2, 11.52129],
			"rotation": {"angle": 0, "axis": "y", "origin": [6.3193, 7.31427, 8.50199]},
			"faces": {
				"north": {"uv": [6.1, 0, 7.76666, 2.33333], "texture": "#2"},
				"east": {"uv": [6.1, 0, 7.76666, 2.33333], "texture": "#2"},
				"south": {"uv": [6.1, 0, 7.76666, 2.33333], "texture": "#2"},
				"west": {"uv": [6.1, 0, 7.76666, 2.33333], "texture": "#2"},
				"up": {"uv": [6.1, 0, 7.76666, 2.33333], "rotation": 270, "texture": "#2"},
				"down": {"uv": [6.1, 0, 7.76666, 2.33333], "rotation": 90, "texture": "#2"}
			}
		},
		{
			"from": [7.4173, 7.9, 11.49129],
			"to": [7.4573, 9.2, 11.52129],
			"rotation": {"angle": 0, "axis": "y", "origin": [6.3193, 7.31427, 8.50199]},
			"faces": {
				"north": {"uv": [5.76667, 0, 7.43333, 2.33333], "texture": "#2"},
				"east": {"uv": [5.76667, 0, 7.43333, 2.33333], "texture": "#2"},
				"south": {"uv": [5.76667, 0, 7.43333, 2.33333], "texture": "#2"},
				"west": {"uv": [5.76667, 0, 7.43333, 2.33333], "texture": "#2"},
				"up": {"uv": [5.76667, 0, 7.43333, 2.33333], "rotation": 270, "texture": "#2"},
				"down": {"uv": [5.76667, 0, 7.43333, 2.33333], "rotation": 90, "texture": "#2"}
			}
		},
		{
			"from": [7.4173, 7.9, 11.39129],
			"to": [7.4573, 9.2, 11.42129],
			"rotation": {"angle": 0, "axis": "y", "origin": [6.3193, 7.31427, 8.50199]},
			"faces": {
				"north": {"uv": [5.76667, 0, 7.43333, 2.33333], "texture": "#2"},
				"east": {"uv": [5.76667, 0, 7.43333, 2.33333], "texture": "#2"},
				"south": {"uv": [5.76667, 0, 7.43333, 2.33333], "texture": "#2"},
				"west": {"uv": [5.76667, 0, 7.43333, 2.33333], "texture": "#2"},
				"up": {"uv": [5.76667, 0, 7.43333, 2.33333], "rotation": 270, "texture": "#2"},
				"down": {"uv": [5.76667, 0, 7.43333, 2.33333], "rotation": 90, "texture": "#2"}
			}
		},
		{
			"from": [7.4173, 7.9, 11.29129],
			"to": [7.4573, 9.2, 11.32129],
			"rotation": {"angle": 0, "axis": "y", "origin": [6.3193, 7.31427, 8.50199]},
			"faces": {
				"north": {"uv": [5.76667, 0, 7.43333, 2.33333], "texture": "#2"},
				"east": {"uv": [5.76667, 0, 7.43333, 2.33333], "texture": "#2"},
				"south": {"uv": [5.76667, 0, 7.43333, 2.33333], "texture": "#2"},
				"west": {"uv": [5.76667, 0, 7.43333, 2.33333], "texture": "#2"},
				"up": {"uv": [5.76667, 0, 7.43333, 2.33333], "rotation": 270, "texture": "#2"},
				"down": {"uv": [5.76667, 0, 7.43333, 2.33333], "rotation": 90, "texture": "#2"}
			}
		},
		{
			"from": [7.4173, 7.9, 11.19129],
			"to": [7.4573, 9.2, 11.22129],
			"rotation": {"angle": 0, "axis": "y", "origin": [6.3193, 7.31427, 8.50199]},
			"faces": {
				"north": {"uv": [5.76667, 0, 7.43333, 2.33333], "texture": "#2"},
				"east": {"uv": [5.76667, 0, 7.43333, 2.33333], "texture": "#2"},
				"south": {"uv": [5.76667, 0, 7.43333, 2.33333], "texture": "#2"},
				"west": {"uv": [5.76667, 0, 7.43333, 2.33333], "texture": "#2"},
				"up": {"uv": [5.76667, 0, 7.43333, 2.33333], "rotation": 270, "texture": "#2"},
				"down": {"uv": [5.76667, 0, 7.43333, 2.33333], "rotation": 90, "texture": "#2"}
			}
		},
		{
			"from": [7.4173, 7.9, 11.09129],
			"to": [7.4573, 9.2, 11.12129],
			"rotation": {"angle": 0, "axis": "y", "origin": [6.3193, 7.31427, 8.50199]},
			"faces": {
				"north": {"uv": [5.76667, 0, 7.43333, 2.33333], "texture": "#2"},
				"east": {"uv": [5.76667, 0, 7.43333, 2.33333], "texture": "#2"},
				"south": {"uv": [5.76667, 0, 7.43333, 2.33333], "texture": "#2"},
				"west": {"uv": [5.76667, 0, 7.43333, 2.33333], "texture": "#2"},
				"up": {"uv": [5.76667, 0, 7.43333, 2.33333], "rotation": 270, "texture": "#2"},
				"down": {"uv": [5.76667, 0, 7.43333, 2.33333], "rotation": 90, "texture": "#2"}
			}
		},
		{
			"from": [7.4173, 7.9, 10.99129],
			"to": [7.4573, 9.2, 11.02129],
			"rotation": {"angle": 0, "axis": "y", "origin": [6.3193, 7.31427, 8.50199]},
			"faces": {
				"north": {"uv": [5.76667, 0, 7.43333, 2.33333], "texture": "#2"},
				"east": {"uv": [5.76667, 0, 7.43333, 2.33333], "texture": "#2"},
				"south": {"uv": [5.76667, 0, 7.43333, 2.33333], "texture": "#2"},
				"west": {"uv": [5.76667, 0, 7.43333, 2.33333], "texture": "#2"},
				"up": {"uv": [5.76667, 0, 7.43333, 2.33333], "rotation": 270, "texture": "#2"},
				"down": {"uv": [5.76667, 0, 7.43333, 2.33333], "rotation": 90, "texture": "#2"}
			}
		},
		{
			"from": [7.4173, 7.9, 10.89129],
			"to": [7.4573, 9.2, 10.92129],
			"rotation": {"angle": 0, "axis": "y", "origin": [6.3193, 7.31427, 8.50199]},
			"faces": {
				"north": {"uv": [5.76667, 0, 7.43333, 2.33333], "texture": "#2"},
				"east": {"uv": [5.76667, 0, 7.43333, 2.33333], "texture": "#2"},
				"south": {"uv": [5.76667, 0, 7.43333, 2.33333], "texture": "#2"},
				"west": {"uv": [5.76667, 0, 7.43333, 2.33333], "texture": "#2"},
				"up": {"uv": [5.76667, 0, 7.43333, 2.33333], "rotation": 270, "texture": "#2"},
				"down": {"uv": [5.76667, 0, 7.43333, 2.33333], "rotation": 90, "texture": "#2"}
			}
		},
		{
			"from": [7.4173, 7.9, 10.79129],
			"to": [7.4573, 9.2, 10.82129],
			"rotation": {"angle": 0, "axis": "y", "origin": [6.3193, 7.31427, 8.50199]},
			"faces": {
				"north": {"uv": [5.76667, 0, 7.43333, 2.33333], "texture": "#2"},
				"east": {"uv": [5.76667, 0, 7.43333, 2.33333], "texture": "#2"},
				"south": {"uv": [5.76667, 0, 7.43333, 2.33333], "texture": "#2"},
				"west": {"uv": [5.76667, 0, 7.43333, 2.33333], "texture": "#2"},
				"up": {"uv": [5.76667, 0, 7.43333, 2.33333], "rotation": 270, "texture": "#2"},
				"down": {"uv": [5.76667, 0, 7.43333, 2.33333], "rotation": 90, "texture": "#2"}
			}
		},
		{
			"from": [7.4173, 7.9, 10.69129],
			"to": [7.4573, 9.2, 10.72129],
			"rotation": {"angle": 0, "axis": "y", "origin": [6.3193, 7.31427, 8.50199]},
			"faces": {
				"north": {"uv": [5.76667, 0, 7.43333, 2.33333], "texture": "#2"},
				"east": {"uv": [5.76667, 0, 7.43333, 2.33333], "texture": "#2"},
				"south": {"uv": [5.76667, 0, 7.43333, 2.33333], "texture": "#2"},
				"west": {"uv": [5.76667, 0, 7.43333, 2.33333], "texture": "#2"},
				"up": {"uv": [5.76667, 0, 7.43333, 2.33333], "rotation": 270, "texture": "#2"},
				"down": {"uv": [5.76667, 0, 7.43333, 2.33333], "rotation": 90, "texture": "#2"}
			}
		},
		{
			"from": [7.4173, 7.9, 10.59129],
			"to": [7.4573, 9.2, 10.62129],
			"rotation": {"angle": 0, "axis": "y", "origin": [6.3193, 7.31427, 8.50199]},
			"faces": {
				"north": {"uv": [5.76667, 0, 7.43333, 2.33333], "texture": "#2"},
				"east": {"uv": [5.76667, 0, 7.43333, 2.33333], "texture": "#2"},
				"south": {"uv": [5.76667, 0, 7.43333, 2.33333], "texture": "#2"},
				"west": {"uv": [5.76667, 0, 7.43333, 2.33333], "texture": "#2"},
				"up": {"uv": [5.76667, 0, 7.43333, 2.33333], "rotation": 270, "texture": "#2"},
				"down": {"uv": [5.76667, 0, 7.43333, 2.33333], "rotation": 90, "texture": "#2"}
			}
		},
		{
			"from": [7.4173, 7.9, 10.49129],
			"to": [7.4573, 9.2, 10.52129],
			"rotation": {"angle": 0, "axis": "y", "origin": [6.3193, 7.31427, 8.50199]},
			"faces": {
				"north": {"uv": [5.76667, 0, 7.43333, 2.33333], "texture": "#2"},
				"east": {"uv": [5.76667, 0, 7.43333, 2.33333], "texture": "#2"},
				"south": {"uv": [5.76667, 0, 7.43333, 2.33333], "texture": "#2"},
				"west": {"uv": [5.76667, 0, 7.43333, 2.33333], "texture": "#2"},
				"up": {"uv": [5.76667, 0, 7.43333, 2.33333], "rotation": 270, "texture": "#2"},
				"down": {"uv": [5.76667, 0, 7.43333, 2.33333], "rotation": 90, "texture": "#2"}
			}
		},
		{
			"from": [7.4173, 7.9, 10.39129],
			"to": [7.4573, 9.2, 10.42129],
			"rotation": {"angle": 0, "axis": "y", "origin": [6.3193, 7.31427, 8.50199]},
			"faces": {
				"north": {"uv": [5.76667, 0, 7.43333, 2.33333], "texture": "#2"},
				"east": {"uv": [5.76667, 0, 7.43333, 2.33333], "texture": "#2"},
				"south": {"uv": [5.76667, 0, 7.43333, 2.33333], "texture": "#2"},
				"west": {"uv": [5.76667, 0, 7.43333, 2.33333], "texture": "#2"},
				"up": {"uv": [5.76667, 0, 7.43333, 2.33333], "rotation": 270, "texture": "#2"},
				"down": {"uv": [5.76667, 0, 7.43333, 2.33333], "rotation": 90, "texture": "#2"}
			}
		},
		{
			"from": [7.4173, 7.9, 10.29129],
			"to": [7.4573, 9.2, 10.32129],
			"rotation": {"angle": 0, "axis": "y", "origin": [6.3193, 7.31427, 8.50199]},
			"faces": {
				"north": {"uv": [5.76667, 0, 7.43333, 2.33333], "texture": "#2"},
				"east": {"uv": [5.76667, 0, 7.43333, 2.33333], "texture": "#2"},
				"south": {"uv": [5.76667, 0, 7.43333, 2.33333], "texture": "#2"},
				"west": {"uv": [5.76667, 0, 7.43333, 2.33333], "texture": "#2"},
				"up": {"uv": [5.76667, 0, 7.43333, 2.33333], "rotation": 270, "texture": "#2"},
				"down": {"uv": [5.76667, 0, 7.43333, 2.33333], "rotation": 90, "texture": "#2"}
			}
		},
		{
			"from": [7.4173, 7.9, 10.19129],
			"to": [7.4573, 9.2, 10.22129],
			"rotation": {"angle": 0, "axis": "y", "origin": [6.3193, 7.31427, 8.50199]},
			"faces": {
				"north": {"uv": [5.76667, 0, 7.43333, 2.33333], "texture": "#2"},
				"east": {"uv": [5.76667, 0, 7.43333, 2.33333], "texture": "#2"},
				"south": {"uv": [5.76667, 0, 7.43333, 2.33333], "texture": "#2"},
				"west": {"uv": [5.76667, 0, 7.43333, 2.33333], "texture": "#2"},
				"up": {"uv": [5.76667, 0, 7.43333, 2.33333], "rotation": 270, "texture": "#2"},
				"down": {"uv": [5.76667, 0, 7.43333, 2.33333], "rotation": 90, "texture": "#2"}
			}
		},
		{
			"name": "pricel",
			"from": [6.0173, 9.33436, 10.79402],
			"to": [6.2173, 9.43436, 10.99402],
			"rotation": {"angle": 0, "axis": "y", "origin": [6.3193, 7.31427, 8.50199]},
			"faces": {
				"north": {"uv": [11.1, 0, 12.76666, 2.33333], "texture": "#2"},
				"east": {"uv": [11.1, 0, 12.76666, 2.33333], "texture": "#2"},
				"south": {"uv": [11.1, 0, 12.76666, 2.33333], "texture": "#2"},
				"west": {"uv": [11.1, 0, 12.76666, 2.33333], "texture": "#2"},
				"up": {"uv": [11.1, 0, 12.76666, 2.33333], "rotation": 270, "texture": "#2"},
				"down": {"uv": [11.1, 0, 12.76666, 2.33333], "rotation": 90, "texture": "#2"}
			}
		},
		{
			"name": "pricel",
			"from": [6.4173, 9.33436, 10.79402],
			"to": [6.6173, 9.43436, 10.99402],
			"rotation": {"angle": 0, "axis": "y", "origin": [6.3193, 7.31427, 8.50199]},
			"faces": {
				"north": {"uv": [11.1, 0, 12.76666, 2.33333], "texture": "#2"},
				"east": {"uv": [11.1, 0, 12.76666, 2.33333], "texture": "#2"},
				"south": {"uv": [11.1, 0, 12.76666, 2.33333], "texture": "#2"},
				"west": {"uv": [11.1, 0, 12.76666, 2.33333], "texture": "#2"},
				"up": {"uv": [11.1, 0, 12.76666, 2.33333], "rotation": 270, "texture": "#2"},
				"down": {"uv": [11.1, 0, 12.76666, 2.33333], "rotation": 90, "texture": "#2"}
			}
		},
		{
			"name": "pricel",
			"from": [5.9173, 8.93436, 10.69402],
			"to": [6.7173, 9.33436, 11.09402],
			"rotation": {"angle": 0, "axis": "z", "origin": [6.3193, 7.31427, 8.50199]},
			"faces": {
				"north": {"uv": [11.1, 0, 12.76666, 2.33333], "texture": "#2"},
				"east": {"uv": [11.1, 0, 12.76666, 2.33333], "texture": "#2"},
				"south": {"uv": [11.1, 0, 12.76666, 2.33333], "texture": "#2"},
				"west": {"uv": [11.1, 0, 12.76666, 2.33333], "texture": "#2"},
				"up": {"uv": [11.1, 0, 12.76666, 2.33333], "rotation": 270, "texture": "#2"},
				"down": {"uv": [11.1, 0, 12.76666, 2.33333], "rotation": 90, "texture": "#2"}
			}
		},
		{
			"name": "mushka",
			"from": [6.2173, 11.54279, 6.01959],
			"to": [6.4173, 12.04279, 6.41959],
			"rotation": {"angle": -45, "axis": "x", "origin": [6.3193, 7.31427, 8.50199]},
			"faces": {
				"north": {"uv": [11.1, 0, 12.76666, 2.33333], "texture": "#2"},
				"east": {"uv": [11.1, 0, 12.76666, 2.33333], "texture": "#2"},
				"south": {"uv": [11.1, 0, 12.76666, 2.33333], "texture": "#2"},
				"west": {"uv": [11.1, 0, 12.76666, 2.33333], "texture": "#2"},
				"up": {"uv": [11.1, 0, 12.76666, 2.33333], "rotation": 270, "texture": "#2"},
				"down": {"uv": [11.1, 0, 12.76666, 2.33333], "rotation": 90, "texture": "#2"}
			}
		},
		{
			"name": "mushka",
			"from": [6.2173, 4.99317, 4.03478],
			"to": [6.4173, 5.49317, 4.43478],
			"rotation": {"angle": 45, "axis": "x", "origin": [6.3193, 7.31427, 8.50199]},
			"faces": {
				"north": {"uv": [11.1, 0, 12.76666, 2.33333], "texture": "#2"},
				"east": {"uv": [11.1, 0, 12.76666, 2.33333], "texture": "#2"},
				"south": {"uv": [11.1, 0, 12.76666, 2.33333], "texture": "#2"},
				"west": {"uv": [11.1, 0, 12.76666, 2.33333], "texture": "#2"},
				"up": {"uv": [11.1, 0, 12.76666, 2.33333], "rotation": 270, "texture": "#2"},
				"down": {"uv": [11.1, 0, 12.76666, 2.33333], "rotation": 90, "texture": "#2"}
			}
		},
		{
			"name": "mushka",
			"from": [6.2173, 10.38595, 4.76857],
			"to": [6.4173, 10.88595, 4.96857],
			"rotation": {"angle": -22.5, "axis": "x", "origin": [6.3193, 7.31427, 8.50199]},
			"faces": {
				"north": {"uv": [11.1, 0, 12.76666, 2.33333], "texture": "#2"},
				"east": {"uv": [11.1, 0, 12.76666, 2.33333], "texture": "#2"},
				"south": {"uv": [11.1, 0, 12.76666, 2.33333], "texture": "#2"},
				"west": {"uv": [11.1, 0, 12.76666, 2.33333], "texture": "#2"},
				"up": {"uv": [11.1, 0, 12.76666, 2.33333], "rotation": 270, "texture": "#2"},
				"down": {"uv": [11.1, 0, 12.76666, 2.33333], "rotation": 90, "texture": "#2"}
			}
		},
		{
			"name": "mushka",
			"from": [6.2173, 6.84132, 3.47793],
			"to": [6.4173, 7.34132, 3.67793],
			"rotation": {"angle": 22.5, "axis": "x", "origin": [6.3193, 7.31427, 8.50199]},
			"faces": {
				"north": {"uv": [11.1, 0, 12.76666, 2.33333], "texture": "#2"},
				"east": {"uv": [11.1, 0, 12.76666, 2.33333], "texture": "#2"},
				"south": {"uv": [11.1, 0, 12.76666, 2.33333], "texture": "#2"},
				"west": {"uv": [11.1, 0, 12.76666, 2.33333], "texture": "#2"},
				"up": {"uv": [11.1, 0, 12.76666, 2.33333], "rotation": 270, "texture": "#2"},
				"down": {"uv": [11.1, 0, 12.76666, 2.33333], "rotation": 90, "texture": "#2"}
			}
		},
		{
			"from": [5.3193, 5.89434, 10.96087],
			"to": [7.3093, 6.19434, 11.16087],
			"rotation": {"angle": 0, "axis": "z", "origin": [6.3193, 7.31427, 8.50199]},
			"faces": {
				"north": {"uv": [8.76667, 0, 10.43333, 2.33333], "texture": "#2"},
				"east": {"uv": [8.76667, 0, 10.43333, 2.33333], "texture": "#2"},
				"south": {"uv": [8.76667, 0, 10.43333, 2.33333], "texture": "#2"},
				"west": {"uv": [8.76667, 0, 10.43333, 2.33333], "texture": "#2"},
				"up": {"uv": [8.76667, 0, 10.43333, 2.33333], "rotation": 270, "texture": "#2"},
				"down": {"uv": [8.76667, 0, 10.43333, 2.33333], "rotation": 90, "texture": "#2"}
			}
		},
		{
			"from": [5.3674, 5.09382, 9.43681],
			"to": [7.3174, 5.29382, 9.63681],
			"rotation": {"angle": 22.5, "axis": "x", "origin": [6.3193, 7.31427, 8.50199]},
			"faces": {
				"north": {"uv": [8.76667, 0, 10.43333, 2.33333], "texture": "#2"},
				"east": {"uv": [8.76667, 0, 10.43333, 2.33333], "texture": "#2"},
				"south": {"uv": [8.76667, 0, 10.43333, 2.33333], "texture": "#2"},
				"west": {"uv": [8.76667, 0, 10.43333, 2.33333], "texture": "#2"},
				"up": {"uv": [8.76667, 0, 10.43333, 2.33333], "rotation": 270, "texture": "#2"},
				"down": {"uv": [8.76667, 0, 10.43333, 2.33333], "rotation": 90, "texture": "#2"}
			}
		},
		{
			"from": [5.3672, 5.09382, 9.43681],
			"to": [7.3172, 5.29382, 10.03681],
			"rotation": {"angle": 22.5, "axis": "x", "origin": [6.3193, 7.31427, 8.50199]},
			"faces": {
				"north": {"uv": [8.76667, 0, 10.43333, 2.33333], "texture": "#2"},
				"east": {"uv": [8.76667, 0, 10.43333, 2.33333], "texture": "#2"},
				"south": {"uv": [8.76667, 0, 10.43333, 2.33333], "texture": "#2"},
				"west": {"uv": [8.76667, 0, 10.43333, 2.33333], "texture": "#2"},
				"up": {"uv": [8.76667, 0, 10.43333, 2.33333], "rotation": 270, "texture": "#2"},
				"down": {"uv": [8.76667, 0, 10.43333, 2.33333], "rotation": 90, "texture": "#2"}
			}
		},
		{
			"from": [5.3673, 4.35697, 7.81087],
			"to": [7.3173, 4.75697, 8.01087],
			"rotation": {"angle": -22.5, "axis": "x", "origin": [6.3193, 7.31427, 8.50199]},
			"faces": {
				"north": {"uv": [8.76667, 0, 10.43333, 2.33333], "rotation": 90, "texture": "#2"},
				"east": {"uv": [8.76667, 0, 10.43333, 2.33333], "rotation": 90, "texture": "#2"},
				"south": {"uv": [8.76667, 0, 10.43333, 2.33333], "rotation": 90, "texture": "#2"},
				"west": {"uv": [8.76667, 0, 10.43333, 2.33333], "rotation": 90, "texture": "#2"},
				"up": {"uv": [8.76667, 0, 10.43333, 2.33333], "texture": "#2"},
				"down": {"uv": [8.76667, 0, 10.43333, 2.33333], "rotation": 180, "texture": "#2"}
			}
		},
		{
			"from": [5.3674, 4.55697, 7.81087],
			"to": [7.3174, 4.95697, 8.11087],
			"rotation": {"angle": -22.5, "axis": "x", "origin": [6.3193, 7.31427, 8.50199]},
			"faces": {
				"north": {"uv": [8.76667, 0, 10.43333, 2.33333], "rotation": 90, "texture": "#2"},
				"east": {"uv": [8.76667, 0, 10.43333, 2.33333], "rotation": 90, "texture": "#2"},
				"south": {"uv": [8.76667, 0, 10.43333, 2.33333], "rotation": 90, "texture": "#2"},
				"west": {"uv": [8.76667, 0, 10.43333, 2.33333], "rotation": 90, "texture": "#2"},
				"up": {"uv": [8.76667, 0, 10.43333, 2.33333], "texture": "#2"},
				"down": {"uv": [8.76667, 0, 10.43333, 2.33333], "rotation": 180, "texture": "#2"}
			}
		},
		{
			"from": [5.3673, 2.10238, 8.91865],
			"to": [7.3173, 4.50238, 9.11865],
			"rotation": {"angle": 0, "axis": "z", "origin": [6.3193, 7.31427, 8.50199]},
			"faces": {
				"north": {"uv": [8.76667, 0, 10.43333, 2.33333], "rotation": 90, "texture": "#2"},
				"east": {"uv": [8.76667, 0, 10.43333, 2.33333], "rotation": 90, "texture": "#2"},
				"south": {"uv": [8.76667, 0, 10.43333, 2.33333], "rotation": 90, "texture": "#2"},
				"west": {"uv": [8.76667, 0, 10.43333, 2.33333], "rotation": 90, "texture": "#2"},
				"up": {"uv": [8.76667, 0, 10.43333, 2.33333], "texture": "#2"},
				"down": {"uv": [8.76667, 0, 10.43333, 2.33333], "rotation": 180, "texture": "#2"}
			}
		},
		{
			"from": [5.3673, 5.69712, 10.40016],
			"to": [7.3173, 5.89712, 11.10016],
			"rotation": {"angle": 45, "axis": "x", "origin": [6.3193, 7.31427, 8.50199]},
			"faces": {
				"north": {"uv": [8.76667, 0, 10.43333, 2.33333], "texture": "#2"},
				"east": {"uv": [8.76667, 0, 10.43333, 2.33333], "texture": "#2"},
				"south": {"uv": [8.76667, 0, 10.43333, 2.33333], "texture": "#2"},
				"west": {"uv": [8.76667, 0, 10.43333, 2.33333], "texture": "#2"},
				"up": {"uv": [8.76667, 0, 10.43333, 2.33333], "rotation": 270, "texture": "#2"},
				"down": {"uv": [8.76667, 0, 10.43333, 2.33333], "rotation": 90, "texture": "#2"}
			}
		},
		{
			"from": [5.3193, 3.98491, 10.2151],
			"to": [7.3093, 5.08491, 10.4151],
			"rotation": {"angle": -22.5, "axis": "x", "origin": [6.3193, 7.31427, 8.50199]},
			"faces": {
				"north": {"uv": [8.76667, 0, 10.43333, 2.33333], "texture": "#2"},
				"east": {"uv": [8.76667, 0, 10.43333, 2.33333], "texture": "#2"},
				"south": {"uv": [8.76667, 0, 10.43333, 2.33333], "texture": "#2"},
				"west": {"uv": [8.76667, 0, 10.43333, 2.33333], "texture": "#2"},
				"up": {"uv": [8.76667, 0, 10.43333, 2.33333], "rotation": 270, "texture": "#2"},
				"down": {"uv": [8.76667, 0, 10.43333, 2.33333], "rotation": 90, "texture": "#2"}
			}
		},
		{
			"from": [5.3193, 3.50313, 12.96568],
			"to": [7.3093, 4.00313, 13.16568],
			"rotation": {"angle": 22.5, "axis": "x", "origin": [6.3193, 7.31427, 8.50199]},
			"faces": {
				"north": {"uv": [8.76667, 0, 10.43333, 2.33333], "texture": "#2"},
				"east": {"uv": [8.76667, 0, 10.43333, 2.33333], "texture": "#2"},
				"south": {"uv": [8.76667, 0, 10.43333, 2.33333], "texture": "#2"},
				"west": {"uv": [8.76667, 0, 10.43333, 2.33333], "texture": "#2"},
				"up": {"uv": [8.76667, 0, 10.43333, 2.33333], "rotation": 270, "texture": "#2"},
				"down": {"uv": [8.76667, 0, 10.43333, 2.33333], "rotation": 90, "texture": "#2"}
			}
		},
		{
			"from": [5.3193, 2.00852, 8.85222],
			"to": [7.3093, 2.20852, 11.35222],
			"rotation": {"angle": 0, "axis": "z", "origin": [6.3193, 7.31427, 8.50199]},
			"faces": {
				"north": {"uv": [8.76667, 0, 10.43333, 2.33333], "rotation": 90, "texture": "#2"},
				"east": {"uv": [8.76667, 0, 10.43333, 2.33333], "rotation": 90, "texture": "#2"},
				"south": {"uv": [8.76667, 0, 10.43333, 2.33333], "rotation": 90, "texture": "#2"},
				"west": {"uv": [8.76667, 0, 10.43333, 2.33333], "rotation": 90, "texture": "#2"},
				"up": {"uv": [8.76667, 0, 10.43333, 2.33333], "texture": "#2"},
				"down": {"uv": [8.76667, 0, 10.43333, 2.33333], "rotation": 180, "texture": "#2"}
			}
		},
		{
			"from": [5.3193, 2.47046, 11.24356],
			"to": [7.3093, 4.97046, 11.54356],
			"rotation": {"angle": 0, "axis": "x", "origin": [6.3193, 7.31427, 8.50199]},
			"faces": {
				"north": {"uv": [8.76667, 0, 10.43333, 2.33333], "texture": "#2"},
				"east": {"uv": [8.76667, 0, 10.43333, 2.33333], "texture": "#2"},
				"south": {"uv": [8.76667, 0, 10.43333, 2.33333], "texture": "#2"},
				"west": {"uv": [8.76667, 0, 10.43333, 2.33333], "texture": "#2"},
				"up": {"uv": [8.76667, 0, 10.43333, 2.33333], "rotation": 270, "texture": "#2"},
				"down": {"uv": [8.76667, 0, 10.43333, 2.33333], "rotation": 90, "texture": "#2"}
			}
		}
	],
	"display": {
		"thirdperson_righthand": {
			"rotation": [-3, 2, 4],
			"translation": [1.25, 1, 0.25],
			"scale": [0.65, 0.65, 0.5]
		},
		"thirdperson_lefthand": {
			"translation": [-1, 0.75, 0.25],
			"scale": [0.65, 0.65, 0.5]
		},
		"firstperson_righthand": {
			"rotation": [-3, 0, 0],
			"translation": [0.75, 2.75, 1.75],
			"scale": [0.65, 0.65, 0.5]
		},
		"firstperson_lefthand": {
			"rotation": [0, 0, -3],
			"translation": [0, 3, 1],
			"scale": [0.65, 0.65, 0.5]
		},
		"ground": {
			"scale": [0.65, 0.65, 0.5]
		},
		"gui": {
			"rotation": [90, 45, -90],
			"translation": [2.25, -1.5, 0],
			"scale": [1.08, 0.88, 0.85]
		},
		"head": {
			"translation": [1.75, -1.5, -6.5]
		},
		"fixed": {
			"rotation": [90, 45, -90],
			"translation": [0.75, 1.5, -2.65],
			"scale": [0.65, 0.65, 0.5]
		}
	},
	"groups": [
		{
			"name": "base",
			"origin": [8, 8, 8],
			"color": 0,
			"children": [
				{
					"name": "nakladka",
					"origin": [3.64665, 2.52395, 9.547],
					"color": 0,
					"children": []
				},
				{
					"name": "rukoyatka",
					"origin": [8, 8, 8],
					"color": 0,
					"children": []
				},
				{
					"name": "mushka",
					"origin": [10.95386, 8.99265, 8.5],
					"color": 0,
					"children": []
				},
				{
					"name": "polosi_left",
					"origin": [-0.00615, -0.6391, 0],
					"color": 0,
					"children": []
				},
				{
					"name": "polosi_left",
					"origin": [-0.00615, -0.6391, 0],
					"color": 0,
					"children": []
				},
				{
					"name": "niz_rukoyatki_izgib",
					"origin": [4.57245, 8.90009, 7.675],
					"color": 0,
					"children": []
				},
				{
					"name": "bok_verh_right",
					"origin": [4.57245, 8.90009, 7.675],
					"color": 0,
					"children": []
				},
				{
					"name": "verhy_korobki_izgib",
					"origin": [4.57245, 8.90009, 7.675],
					"color": 0,
					"children": []
				},
				{
					"name": "bok_verh_left",
					"origin": [4.57245, 8.90009, 7.675],
					"color": 0,
					"children": []
				},
				{
					"name": "kruchok",
					"origin": [8, 8, 8],
					"color": 0,
					"children": []
				},
				{
					"name": "group",
					"origin": [8, 8, 8],
					"color": 0,
					"children": []
				},
				{
					"name": "niz_korobki_zad",
					"origin": [0, 1.00711, 0],
					"color": 0,
					"children": []
				},
				{
					"name": "niz_korobki",
					"origin": [0, 1.00711, 0],
					"color": 0,
					"children": []
				},
				{
					"name": "niz_korobki_pered",
					"origin": [0, 1.00711, 0],
					"color": 0,
					"children": []
				},
				{
					"name": "verh_korobki",
					"origin": [0, 1.00711, 0],
					"color": 0,
					"children": []
				},
				{
					"name": "bolt1",
					"origin": [0, 0, 0],
					"color": 0,
					"children": []
				},
				{
					"name": "nakladka",
					"origin": [3.37773, 4.47046, 8.497],
					"color": 0,
					"children": [0, 1, 2, 3, 4, 5, 6, 7, 8, 9, 10, 11]
				},
				{
					"name": "stvol",
					"origin": [0, 0, 0],
					"color": 0,
					"children": [
						12,
						13,
						14,
						15,
						16,
						17,
						18,
						19,
						20,
						21,
						22,
						23,
						24,
						25,
						26,
						27,
						28,
						29,
						30,
						31,
						32,
						33,
						34,
						35,
						36,
						37,
						38,
						39,
						40,
						41,
						42,
						43,
						44,
						45,
						46,
						47,
						48,
						49,
						50,
						51,
						52,
						53,
						54,
						55,
						56,
						57,
						58,
						59,
						60,
						61,
						62,
						63,
						64,
						65,
						66,
						67,
						68,
						69,
						70,
						71,
						72,
						73,
						74,
						75,
						76,
						77,
						78,
						79,
						80,
						81,
						82,
						83,
						84,
						85,
						86,
						87,
						88,
						{
							"name": "poloski_left",
							"origin": [-0.00615, -0.6391, 0],
							"color": 0,
							"children": [89, 90, 91, 92, 93, 94, 95, 96, 97, 98, 99, 100, 101, 102]
						},
						{
							"name": "poloski_rght",
							"origin": [5.02, 8.0609, 4.92],
							"color": 0,
							"children": [103, 104, 105, 106, 107, 108, 109, 110, 111, 112, 113, 114, 115, 116]
						},
						{
							"name": "pricel_i_mushka",
							"origin": [10.95386, 8.99265, 8.5],
							"color": 0,
							"children": [117, 118, 119, 120, 121, 122, 123]
						},
						124,
						125,
						126,
						127,
						128,
						129,
						130,
						131,
						132,
						133,
						134
					]
				},
				{
					"name": "group",
					"origin": [8, 8, 8],
					"color": 0,
					"children": []
				}
			]
		}
	]
}