{
    "textures": {
        "0": "gci:items/common/all_in_one",
        "particle": "gci:items/common/all_in_one"
    },
    "elements": [
        {
            "name": "hexadecagon",
            "from": [
                7.89291,
                3.85979,
                6.575
            ],
            "to": [
                8.60711,
                5.65,
                9.325
            ],
            "rotation": {
                "angle": 45,
                "axis": "x",
                "origin": [
                    21.39291,
                    4.75489,
                    4.825
                ]
            },
            "faces": {
                "north": {
                    "uv": [
                        1.875,
                        3.375,
                        2,
                        3.5
                    ],
                    "rotation": 270,
                    "texture": "#0"
                },
                "east": {
                    "uv": [
                        1.875,
                        3.375,
                        2,
                        3.5
                    ],
                    "rotation": 270,
                    "texture": "#0"
                },
                "south": {
                    "uv": [
                        1.875,
                        3.375,
                        2,
                        3.5
                    ],
                    "rotation": 270,
                    "texture": "#0"
                },
                "west": {
                    "uv": [
                        1.875,
                        3.375,
                        2,
                        3.5
                    ],
                    "rotation": 270,
                    "texture": "#0"
                },
                "up": {
                    "uv": [
                        1.875,
                        3.375,
                        2,
                        3.5
                    ],
                    "rotation": 270,
                    "texture": "#0"
                },
                "down": {
                    "uv": [
                        1.875,
                        3.375,
                        2,
                        3.5
                    ],
                    "rotation": 270,
                    "texture": "#0"
                }
            }
        },
        {
            "name": "hexadecagon",
            "from": [
                7.89291,
                3.85979,
                6.575
            ],
            "to": [
                8.60711,
                5.65,
                9.325
            ],
            "rotation": {
                "angle": 22.5,
                "axis": "x",
                "origin": [
                    21.39291,
                    4.75489,
                    4.825
                ]
            },
            "faces": {
                "north": {
                    "uv": [
                        1.875,
                        3.375,
                        2,
                        3.5
                    ],
                    "rotation": 270,
                    "texture": "#0"
                },
                "east": {
                    "uv": [
                        1.875,
                        3.375,
                        2,
                        3.5
                    ],
                    "rotation": 270,
                    "texture": "#0"
                },
                "south": {
                    "uv": [
                        1.875,
                        3.375,
                        2,
                        3.5
                    ],
                    "rotation": 270,
                    "texture": "#0"
                },
                "west": {
                    "uv": [
                        1.875,
                        3.375,
                        2,
                        3.5
                    ],
                    "rotation": 270,
                    "texture": "#0"
                },
                "up": {
                    "uv": [
                        1.875,
                        3.375,
                        2,
                        3.5
                    ],
                    "rotation": 270,
                    "texture": "#0"
                },
                "down": {
                    "uv": [
                        1.875,
                        3.375,
                        2,
                        3.5
                    ],
                    "rotation": 270,
                    "texture": "#0"
                }
            }
        },
        {
            "name": "hexadecagon",
            "from": [
                7.89291,
                3.85979,
                0.325
            ],
            "to": [
                8.60711,
                5.65,
                3.075
            ],
            "rotation": {
                "angle": -22.5,
                "axis": "x",
                "origin": [
                    21.39291,
                    4.75489,
                    4.825
                ]
            },
            "faces": {
                "north": {
                    "uv": [
                        1.875,
                        3.375,
                        2,
                        3.5
                    ],
                    "rotation": 270,
                    "texture": "#0"
                },
                "east": {
                    "uv": [
                        1.875,
                        3.375,
                        2,
                        3.5
                    ],
                    "rotation": 270,
                    "texture": "#0"
                },
                "south": {
                    "uv": [
                        1.875,
                        3.375,
                        2,
                        3.5
                    ],
                    "rotation": 270,
                    "texture": "#0"
                },
                "west": {
                    "uv": [
                        1.875,
                        3.375,
                        2,
                        3.5
                    ],
                    "rotation": 270,
                    "texture": "#0"
                },
                "up": {
                    "uv": [
                        1.875,
                        3.375,
                        2,
                        3.5
                    ],
                    "rotation": 270,
                    "texture": "#0"
                },
                "down": {
                    "uv": [
                        1.875,
                        3.375,
                        2,
                        3.5
                    ],
                    "rotation": 270,
                    "texture": "#0"
                }
            }
        },
        {
            "name": "hexadecagon",
            "from": [
                7.89291,
                3.85979,
                0.325
            ],
            "to": [
                8.60711,
                5.65,
                3.075
            ],
            "rotation": {
                "angle": -45,
                "axis": "x",
                "origin": [
                    21.39291,
                    4.75489,
                    4.825
                ]
            },
            "faces": {
                "north": {
                    "uv": [
                        1.875,
                        3.375,
                        2,
                        3.5
                    ],
                    "rotation": 270,
                    "texture": "#0"
                },
                "east": {
                    "uv": [
                        1.875,
                        3.375,
                        2,
                        3.5
                    ],
                    "rotation": 270,
                    "texture": "#0"
                },
                "south": {
                    "uv": [
                        1.875,
                        3.375,
                        2,
                        3.5
                    ],
                    "rotation": 270,
                    "texture": "#0"
                },
                "west": {
                    "uv": [
                        1.875,
                        3.375,
                        2,
                        3.5
                    ],
                    "rotation": 270,
                    "texture": "#0"
                },
                "up": {
                    "uv": [
                        1.875,
                        3.375,
                        2,
                        3.5
                    ],
                    "rotation": 270,
                    "texture": "#0"
                },
                "down": {
                    "uv": [
                        1.875,
                        3.375,
                        2,
                        3.5
                    ],
                    "rotation": 270,
                    "texture": "#0"
                }
            }
        },
        {
            "name": "hexadecagon",
            "from": [
                7.89291,
                0.25489,
                3.92989
            ],
            "to": [
                8.60711,
                3.00489,
                5.72011
            ],
            "rotation": {
                "angle": 22.5,
                "axis": "x",
                "origin": [
                    21.39291,
                    4.75489,
                    4.825
                ]
            },
            "faces": {
                "north": {
                    "uv": [
                        1.875,
                        3.375,
                        2,
                        3.5
                    ],
                    "rotation": 270,
                    "texture": "#0"
                },
                "east": {
                    "uv": [
                        1.875,
                        3.375,
                        2,
                        3.5
                    ],
                    "rotation": 270,
                    "texture": "#0"
                },
                "south": {
                    "uv": [
                        1.875,
                        3.375,
                        2,
                        3.5
                    ],
                    "rotation": 270,
                    "texture": "#0"
                },
                "west": {
                    "uv": [
                        1.875,
                        3.375,
                        2,
                        3.5
                    ],
                    "rotation": 270,
                    "texture": "#0"
                },
                "up": {
                    "uv": [
                        1.875,
                        3.375,
                        2,
                        3.5
                    ],
                    "rotation": 270,
                    "texture": "#0"
                },
                "down": {
                    "uv": [
                        1.875,
                        3.375,
                        2,
                        3.5
                    ],
                    "rotation": 270,
                    "texture": "#0"
                }
            }
        },
        {
            "name": "hexadecagon",
            "from": [
                7.89291,
                0.25489,
                3.92989
            ],
            "to": [
                8.60711,
                3.00489,
                5.72011
            ],
            "rotation": {
                "angle": 0,
                "axis": "y",
                "origin": [
                    21.39291,
                    4.75489,
                    4.825
                ]
            },
            "faces": {
                "north": {
                    "uv": [
                        1.875,
                        3.375,
                        2,
                        3.5
                    ],
                    "rotation": 270,
                    "texture": "#0"
                },
                "east": {
                    "uv": [
                        1.875,
                        3.375,
                        2,
                        3.5
                    ],
                    "rotation": 270,
                    "texture": "#0"
                },
                "south": {
                    "uv": [
                        1.875,
                        3.375,
                        2,
                        3.5
                    ],
                    "rotation": 270,
                    "texture": "#0"
                },
                "west": {
                    "uv": [
                        1.875,
                        3.375,
                        2,
                        3.5
                    ],
                    "rotation": 270,
                    "texture": "#0"
                },
                "up": {
                    "uv": [
                        1.875,
                        3.375,
                        2,
                        3.5
                    ],
                    "rotation": 270,
                    "texture": "#0"
                },
                "down": {
                    "uv": [
                        1.875,
                        3.375,
                        2,
                        3.5
                    ],
                    "rotation": 270,
                    "texture": "#0"
                }
            }
        },
        {
            "name": "hexadecagon",
            "from": [
                7.89291,
                0.25489,
                3.92989
            ],
            "to": [
                8.60711,
                3.00489,
                5.72011
            ],
            "rotation": {
                "angle": -22.5,
                "axis": "x",
                "origin": [
                    21.39291,
                    4.75489,
                    4.825
                ]
            },
            "faces": {
                "north": {
                    "uv": [
                        1.875,
                        3.375,
                        2,
                        3.5
                    ],
                    "rotation": 270,
                    "texture": "#0"
                },
                "east": {
                    "uv": [
                        1.875,
                        3.375,
                        2,
                        3.5
                    ],
                    "rotation": 270,
                    "texture": "#0"
                },
                "south": {
                    "uv": [
                        1.875,
                        3.375,
                        2,
                        3.5
                    ],
                    "rotation": 270,
                    "texture": "#0"
                },
                "west": {
                    "uv": [
                        1.875,
                        3.375,
                        2,
                        3.5
                    ],
                    "rotation": 270,
                    "texture": "#0"
                },
                "up": {
                    "uv": [
                        1.875,
                        3.375,
                        2,
                        3.5
                    ],
                    "rotation": 270,
                    "texture": "#0"
                },
                "down": {
                    "uv": [
                        1.875,
                        3.375,
                        2,
                        3.5
                    ],
                    "rotation": 270,
                    "texture": "#0"
                }
            }
        }
    ],
    "display": {
        "thirdperson_righthand": {
            "translation": [
                -1.5,
                3.5,
                -3.5
            ],
            "scale": [
                0.8,
                0.8,
                0.8
            ]
        },
        "thirdperson_lefthand": {
            "translation": [
                -0.75,
                3.5,
                -3.5
            ],
            "scale": [
                0.8,
                0.8,
                0.8
            ]
        },
        "firstperson_righthand": {
            "translation": [
                -5.75,
                6,
                0
            ],
            "scale": [
                1,
                1,
                0.9
            ]
        },
        "firstperson_lefthand": {
            "translation": [
                -5.5,
                4.75,
                0
            ],
            "scale": [
                1,
                1,
                0.9
            ]
        },
        "ground": {
            "rotation": [
                0,
                0,
                45
            ],
            "scale": [
                0.88,
                0.88,
                0.88
            ]
        },
        "gui": {
            "rotation": [
                20,
                27,
                -14
            ],
            "translation": [
                -1,
                2,
                0
            ]
        },
        "head": {
            "rotation": [
                0,
                122,
                90
            ],
            "translation": [
                -3.25,
                7.25,
                1.75
            ]
        },
        "fixed": {
            "rotation": [
                90,
                45,
                -90
            ],
            "translation": [
                2,
                3.25,
                -1.25
            ]
        }
    }
}