{
    "textures": {
        "0": "gci:items/common/all_in_one",
        "1": "gci:items/common/mpz",
        "particle": "gci:items/common/all_in_one"
    },
    "elements": [
        {
            "from": [
                7.86793,
                4.1277,
                -8.15652
            ],
            "to": [
                8.16493,
                4.3477,
                -3.75652
            ],
            "rotation": {
                "angle": 0,
                "axis": "y",
                "origin": [
                    7.85771,
                    4.1552,
                    -3.8527
                ]
            },
            "faces": {
                "north": {
                    "uv": [
                        8.33333,
                        0,
                        9.66667,
                        2
                    ],
                    "rotation": 180,
                    "texture": "#1"
                },
                "east": {
                    "uv": [
                        8.33333,
                        0,
                        9.66667,
                        2
                    ],
                    "rotation": 180,
                    "texture": "#1"
                },
                "south": {
                    "uv": [
                        8.33333,
                        0,
                        9.66667,
                        2
                    ],
                    "rotation": 180,
                    "texture": "#1"
                },
                "west": {
                    "uv": [
                        8.33333,
                        0,
                        9.66667,
                        2
                    ],
                    "rotation": 180,
                    "texture": "#1"
                },
                "up": {
                    "uv": [
                        8.33333,
                        0,
                        9.66667,
                        2
                    ],
                    "rotation": 180,
                    "texture": "#1"
                },
                "down": {
                    "uv": [
                        8.33333,
                        0,
                        9.66667,
                        2
                    ],
                    "rotation": 180,
                    "texture": "#1"
                }
            }
        },
        {
            "from": [
                7.86793,
                3.63069,
                -8.15652
            ],
            "to": [
                8.16493,
                3.85069,
                -3.75652
            ],
            "rotation": {
                "angle": 0,
                "axis": "y",
                "origin": [
                    7.85771,
                    3.66916,
                    -3.8527
                ]
            },
            "faces": {
                "north": {
                    "uv": [
                        8.33333,
                        0,
                        9.66667,
                        2
                    ],
                    "rotation": 180,
                    "texture": "#1"
                },
                "east": {
                    "uv": [
                        8.33333,
                        0,
                        9.66667,
                        2
                    ],
                    "rotation": 180,
                    "texture": "#1"
                },
                "south": {
                    "uv": [
                        8.33333,
                        0,
                        9.66667,
                        2
                    ],
                    "rotation": 180,
                    "texture": "#1"
                },
                "west": {
                    "uv": [
                        8.33333,
                        0,
                        9.66667,
                        2
                    ],
                    "rotation": 180,
                    "texture": "#1"
                },
                "up": {
                    "uv": [
                        8.33333,
                        0,
                        9.66667,
                        2
                    ],
                    "rotation": 180,
                    "texture": "#1"
                },
                "down": {
                    "uv": [
                        8.33333,
                        0,
                        9.66667,
                        2
                    ],
                    "rotation": 180,
                    "texture": "#1"
                }
            }
        },
        {
            "from": [
                7.65792,
                3.84069,
                -8.15652
            ],
            "to": [
                7.87792,
                4.13769,
                -3.75652
            ],
            "rotation": {
                "angle": 0,
                "axis": "y",
                "origin": [
                    7.85042,
                    3.83597,
                    -3.8527
                ]
            },
            "faces": {
                "north": {
                    "uv": [
                        8.33333,
                        0,
                        9.66667,
                        2
                    ],
                    "rotation": 270,
                    "texture": "#1"
                },
                "east": {
                    "uv": [
                        8.33333,
                        0,
                        9.66667,
                        2
                    ],
                    "rotation": 270,
                    "texture": "#1"
                },
                "south": {
                    "uv": [
                        8.33333,
                        0,
                        9.66667,
                        2
                    ],
                    "rotation": 270,
                    "texture": "#1"
                },
                "west": {
                    "uv": [
                        8.33333,
                        0,
                        9.66667,
                        2
                    ],
                    "rotation": 270,
                    "texture": "#1"
                },
                "up": {
                    "uv": [
                        8.33333,
                        0,
                        9.66667,
                        2
                    ],
                    "rotation": 270,
                    "texture": "#1"
                },
                "down": {
                    "uv": [
                        8.33333,
                        0,
                        9.66667,
                        2
                    ],
                    "rotation": 270,
                    "texture": "#1"
                }
            }
        },
        {
            "from": [
                8.15494,
                3.84069,
                -8.15652
            ],
            "to": [
                8.37494,
                4.13769,
                -3.75652
            ],
            "rotation": {
                "angle": 0,
                "axis": "y",
                "origin": [
                    8.34744,
                    3.83597,
                    -3.8527
                ]
            },
            "faces": {
                "north": {
                    "uv": [
                        8.33333,
                        0,
                        9.66667,
                        2
                    ],
                    "rotation": 270,
                    "texture": "#1"
                },
                "east": {
                    "uv": [
                        8.33333,
                        0,
                        9.66667,
                        2
                    ],
                    "rotation": 270,
                    "texture": "#1"
                },
                "south": {
                    "uv": [
                        8.33333,
                        0,
                        9.66667,
                        2
                    ],
                    "rotation": 270,
                    "texture": "#1"
                },
                "west": {
                    "uv": [
                        8.33333,
                        0,
                        9.66667,
                        2
                    ],
                    "rotation": 270,
                    "texture": "#1"
                },
                "up": {
                    "uv": [
                        8.33333,
                        0,
                        9.66667,
                        2
                    ],
                    "rotation": 270,
                    "texture": "#1"
                },
                "down": {
                    "uv": [
                        8.33333,
                        0,
                        9.66667,
                        2
                    ],
                    "rotation": 270,
                    "texture": "#1"
                }
            }
        },
        {
            "from": [
                7.7922,
                3.97852,
                -8.15652
            ],
            "to": [
                8.0892,
                4.19852,
                -3.75652
            ],
            "rotation": {
                "angle": 45,
                "axis": "z",
                "origin": [
                    7.79848,
                    4.00602,
                    -3.8527
                ]
            },
            "faces": {
                "north": {
                    "uv": [
                        8.33333,
                        0,
                        9.66667,
                        2
                    ],
                    "rotation": 180,
                    "texture": "#1"
                },
                "east": {
                    "uv": [
                        8.33333,
                        0,
                        9.66667,
                        2
                    ],
                    "rotation": 180,
                    "texture": "#1"
                },
                "south": {
                    "uv": [
                        8.33333,
                        0,
                        9.66667,
                        2
                    ],
                    "rotation": 180,
                    "texture": "#1"
                },
                "west": {
                    "uv": [
                        8.33333,
                        0,
                        9.66667,
                        2
                    ],
                    "rotation": 180,
                    "texture": "#1"
                },
                "up": {
                    "uv": [
                        8.33333,
                        0,
                        9.66667,
                        2
                    ],
                    "rotation": 180,
                    "texture": "#1"
                },
                "down": {
                    "uv": [
                        8.33333,
                        0,
                        9.66667,
                        2
                    ],
                    "rotation": 180,
                    "texture": "#1"
                }
            }
        },
        {
            "from": [
                8.14365,
                3.62707,
                -8.15652
            ],
            "to": [
                8.44065,
                3.84707,
                -3.75652
            ],
            "rotation": {
                "angle": 45,
                "axis": "z",
                "origin": [
                    8.14993,
                    3.65457,
                    -3.8527
                ]
            },
            "faces": {
                "north": {
                    "uv": [
                        8.33333,
                        0,
                        9.66667,
                        2
                    ],
                    "rotation": 180,
                    "texture": "#1"
                },
                "east": {
                    "uv": [
                        8.33333,
                        0,
                        9.66667,
                        2
                    ],
                    "rotation": 180,
                    "texture": "#1"
                },
                "south": {
                    "uv": [
                        8.33333,
                        0,
                        9.66667,
                        2
                    ],
                    "rotation": 180,
                    "texture": "#1"
                },
                "west": {
                    "uv": [
                        8.33333,
                        0,
                        9.66667,
                        2
                    ],
                    "rotation": 180,
                    "texture": "#1"
                },
                "up": {
                    "uv": [
                        8.33333,
                        0,
                        9.66667,
                        2
                    ],
                    "rotation": 180,
                    "texture": "#1"
                },
                "down": {
                    "uv": [
                        8.33333,
                        0,
                        9.66667,
                        2
                    ],
                    "rotation": 180,
                    "texture": "#1"
                }
            }
        },
        {
            "from": [
                8.02697,
                4.17964,
                -8.15652
            ],
            "to": [
                8.32397,
                4.39964,
                -3.75652
            ],
            "rotation": {
                "angle": -45,
                "axis": "z",
                "origin": [
                    8.03325,
                    4.20714,
                    -3.8527
                ]
            },
            "faces": {
                "north": {
                    "uv": [
                        8.33333,
                        0,
                        9.66667,
                        2
                    ],
                    "rotation": 180,
                    "texture": "#1"
                },
                "east": {
                    "uv": [
                        8.33333,
                        0,
                        9.66667,
                        2
                    ],
                    "rotation": 180,
                    "texture": "#1"
                },
                "south": {
                    "uv": [
                        8.33333,
                        0,
                        9.66667,
                        2
                    ],
                    "rotation": 180,
                    "texture": "#1"
                },
                "west": {
                    "uv": [
                        8.33333,
                        0,
                        9.66667,
                        2
                    ],
                    "rotation": 180,
                    "texture": "#1"
                },
                "up": {
                    "uv": [
                        8.33333,
                        0,
                        9.66667,
                        2
                    ],
                    "rotation": 180,
                    "texture": "#1"
                },
                "down": {
                    "uv": [
                        8.33333,
                        0,
                        9.66667,
                        2
                    ],
                    "rotation": 180,
                    "texture": "#1"
                }
            }
        },
        {
            "from": [
                7.67553,
                3.82819,
                -8.15652
            ],
            "to": [
                7.97253,
                4.04819,
                -3.75652
            ],
            "rotation": {
                "angle": -45,
                "axis": "z",
                "origin": [
                    7.68181,
                    3.85569,
                    -3.8527
                ]
            },
            "faces": {
                "north": {
                    "uv": [
                        8.33333,
                        0,
                        9.66667,
                        2
                    ],
                    "rotation": 180,
                    "texture": "#1"
                },
                "east": {
                    "uv": [
                        8.33333,
                        0,
                        9.66667,
                        2
                    ],
                    "rotation": 180,
                    "texture": "#1"
                },
                "south": {
                    "uv": [
                        8.33333,
                        0,
                        9.66667,
                        2
                    ],
                    "rotation": 180,
                    "texture": "#1"
                },
                "west": {
                    "uv": [
                        8.33333,
                        0,
                        9.66667,
                        2
                    ],
                    "rotation": 180,
                    "texture": "#1"
                },
                "up": {
                    "uv": [
                        8.33333,
                        0,
                        9.66667,
                        2
                    ],
                    "rotation": 180,
                    "texture": "#1"
                },
                "down": {
                    "uv": [
                        8.33333,
                        0,
                        9.66667,
                        2
                    ],
                    "rotation": 180,
                    "texture": "#1"
                }
            }
        }
    ],
    "display": {
        "thirdperson_righthand": {
            "translation": [
                0,
                4.5,
                -2.5
            ]
        },
        "thirdperson_lefthand": {
            "translation": [
                0,
                4.5,
                -2.5
            ]
        },
        "firstperson_righthand": {
            "translation": [
                -5,
                9,
                3.75
            ]
        },
        "firstperson_lefthand": {
            "translation": [
                -4,
                8.5,
                2
            ]
        },
        "ground": {
            "translation": [
                0,
                5.75,
                0
            ]
        },
        "gui": {
            "rotation": [
                35,
                35,
                -35
            ],
            "translation": [
                3.75,
                3.5,
                0
            ]
        },
        "head": {
            "translation": [
                0,
                -22,
                0
            ]
        },
        "fixed": {
            "rotation": [
                90,
                45,
                -90
            ],
            "translation": [
                3.5,
                2.5,
                0
            ]
        }
    }
}