{
	"credit": "Made with Blockbench",
	"textures": {
		"0": "gci:items/common/all_in_one",
		"particle": "gci:items/common/all_in_one"
	},
	"elements": [
		{
			"from": [6.82365, 9.60381, 4.168],
			"to": [6.99965, 9.73181, 6.084],
			"rotation": {"angle": 0, "axis": "y", "origin": [6.91165, 9.69981, 5.478]},
			"faces": {
				"north": {"uv": [3, 3, 3, 3], "rotation": 90, "texture": "#0"},
				"east": {"uv": [3, 3, 3, 3], "rotation": 90, "texture": "#0"},
				"south": {"uv": [3, 3, 3, 3], "rotation": 90, "texture": "#0"},
				"west": {"uv": [3, 3, 3, 3], "rotation": 90, "texture": "#0"},
				"up": {"uv": [3, 3, 3, 3], "rotation": 90, "texture": "#0"},
				"down": {"uv": [3, 3, 3, 3], "rotation": 90, "texture": "#0"}
			}
		},
		{
			"from": [6.94325, 9.55896, 4.168],
			"to": [7.07125, 9.73496, 6.084],
			"rotation": {"angle": 45, "axis": "z", "origin": [7.03925, 9.64696, 5.478]},
			"faces": {
				"north": {"uv": [3, 3, 3, 3], "rotation": 180, "texture": "#0"},
				"east": {"uv": [3, 3, 3, 3], "texture": "#0"},
				"south": {"uv": [3, 3, 3, 3], "texture": "#0"},
				"west": {"uv": [3, 3, 3, 3], "texture": "#0"},
				"up": {"uv": [3, 3, 3, 3], "texture": "#0"},
				"down": {"uv": [3, 3, 3, 3], "texture": "#0"}
			}
		},
		{
			"from": [6.9961, 9.43136, 4.168],
			"to": [7.1241, 9.60736, 6.084],
			"rotation": {"angle": 0, "axis": "y", "origin": [6.71319, 9.50326, 4.12018]},
			"faces": {
				"north": {"uv": [3, 3, 3, 3], "rotation": 180, "texture": "#0"},
				"east": {"uv": [3, 3, 3, 3], "texture": "#0"},
				"south": {"uv": [3, 3, 3, 3], "texture": "#0"},
				"west": {"uv": [3, 3, 3, 3], "texture": "#0"},
				"up": {"uv": [3, 3, 3, 3], "texture": "#0"},
				"down": {"uv": [3, 3, 3, 3], "texture": "#0"}
			}
		},
		{
			"from": [6.88745, 9.24311, 4.168],
			"to": [7.06345, 9.37111, 6.084],
			"rotation": {"angle": 45, "axis": "z", "origin": [6.86654, 9.41045, 5.478]},
			"faces": {
				"north": {"uv": [3, 3, 3, 3], "rotation": 270, "texture": "#0"},
				"east": {"uv": [3, 3, 3, 3], "rotation": 270, "texture": "#0"},
				"south": {"uv": [3, 3, 3, 3], "rotation": 270, "texture": "#0"},
				"west": {"uv": [3, 3, 3, 3], "rotation": 270, "texture": "#0"},
				"up": {"uv": [3, 3, 3, 3], "rotation": 270, "texture": "#0"},
				"down": {"uv": [3, 3, 3, 3], "rotation": 270, "texture": "#0"}
			}
		},
		{
			"from": [6.763, 9.36756, 4.168],
			"to": [6.891, 9.54356, 6.084],
			"rotation": {"angle": 45, "axis": "z", "origin": [6.86654, 9.41045, 5.478]},
			"faces": {
				"north": {"uv": [3, 3, 3, 3], "texture": "#0"},
				"east": {"uv": [3, 3, 3, 3], "rotation": 180, "texture": "#0"},
				"south": {"uv": [3, 3, 3, 3], "rotation": 180, "texture": "#0"},
				"west": {"uv": [3, 3, 3, 3], "rotation": 180, "texture": "#0"},
				"up": {"uv": [3, 3, 3, 3], "rotation": 180, "texture": "#0"},
				"down": {"uv": [3, 3, 3, 3], "rotation": 180, "texture": "#0"}
			}
		},
		{
			"from": [6.763, 9.36756, 5.832],
			"to": [7.083, 9.54356, 6.084],
			"rotation": {"angle": 45, "axis": "z", "origin": [6.86654, 9.41045, 5.478]},
			"faces": {
				"north": {"uv": [3, 3, 3, 3], "texture": "#0"},
				"east": {"uv": [3, 3, 3, 3], "rotation": 180, "texture": "#0"},
				"south": {"uv": [3, 3, 3, 3], "rotation": 180, "texture": "#0"},
				"west": {"uv": [3, 3, 3, 3], "rotation": 180, "texture": "#0"},
				"up": {"uv": [3, 3, 3, 3], "rotation": 180, "texture": "#0"},
				"down": {"uv": [3, 3, 3, 3], "rotation": 180, "texture": "#0"}
			}
		},
		{
			"from": [6.82365, 9.30691, 4.168],
			"to": [6.99965, 9.43491, 6.084],
			"rotation": {"angle": 0, "axis": "y", "origin": [6.86654, 9.41045, 5.478]},
			"faces": {
				"north": {"uv": [3, 3, 3, 3], "rotation": 270, "texture": "#0"},
				"east": {"uv": [3, 3, 3, 3], "rotation": 270, "texture": "#0"},
				"south": {"uv": [3, 3, 3, 3], "rotation": 270, "texture": "#0"},
				"west": {"uv": [3, 3, 3, 3], "rotation": 270, "texture": "#0"},
				"up": {"uv": [3, 3, 3, 3], "rotation": 270, "texture": "#0"},
				"down": {"uv": [3, 3, 3, 3], "rotation": 270, "texture": "#0"}
			}
		},
		{
			"from": [6.6992, 9.43136, 4.168],
			"to": [6.8272, 9.60736, 6.084],
			"rotation": {"angle": 0, "axis": "y", "origin": [6.86654, 9.41045, 5.478]},
			"faces": {
				"north": {"uv": [3, 3, 3, 3], "texture": "#0"},
				"east": {"uv": [3, 3, 3, 3], "rotation": 180, "texture": "#0"},
				"south": {"uv": [3, 3, 3, 3], "rotation": 180, "texture": "#0"},
				"west": {"uv": [3, 3, 3, 3], "rotation": 180, "texture": "#0"},
				"up": {"uv": [3, 3, 3, 3], "rotation": 180, "texture": "#0"},
				"down": {"uv": [3, 3, 3, 3], "rotation": 180, "texture": "#0"}
			}
		},
		{
			"from": [6.7729, 9.19765, 4.712],
			"to": [7.5249, 9.74165, 4.964],
			"rotation": {"angle": 0, "axis": "y", "origin": [6.8929, 9.26165, 4.454]},
			"faces": {
				"north": {"uv": [2.875, 3.5, 2.875, 3.5], "rotation": 270, "texture": "#0"},
				"east": {"uv": [2.875, 3.5, 2.875, 3.5], "rotation": 90, "texture": "#0"},
				"south": {"uv": [2.875, 3.5, 2.875, 3.5], "rotation": 90, "texture": "#0"},
				"west": {"uv": [2.875, 3.5, 2.875, 3.5], "rotation": 90, "texture": "#0"},
				"up": {"uv": [2.875, 3.5, 2.875, 3.5], "rotation": 90, "texture": "#0"},
				"down": {"uv": [2.875, 3.5, 2.875, 3.5], "rotation": 90, "texture": "#0"}
			}
		},
		{
			"from": [6.7729, 9.19765, 5.48],
			"to": [7.5249, 9.74165, 5.732],
			"rotation": {"angle": 0, "axis": "y", "origin": [6.8929, 9.26165, 5.222]},
			"faces": {
				"north": {"uv": [2.875, 3.5, 2.875, 3.5], "rotation": 270, "texture": "#0"},
				"east": {"uv": [2.875, 3.5, 2.875, 3.5], "rotation": 90, "texture": "#0"},
				"south": {"uv": [2.875, 3.5, 2.875, 3.5], "rotation": 90, "texture": "#0"},
				"west": {"uv": [2.875, 3.5, 2.875, 3.5], "rotation": 90, "texture": "#0"},
				"up": {"uv": [2.875, 3.5, 2.875, 3.5], "rotation": 90, "texture": "#0"},
				"down": {"uv": [2.875, 3.5, 2.875, 3.5], "rotation": 90, "texture": "#0"}
			}
		},
		{
			"from": [6.7729, 9.71307, 4.712],
			"to": [7.5249, 9.84107, 4.964],
			"rotation": {"angle": 0, "axis": "y", "origin": [6.8929, 9.77707, 4.454]},
			"faces": {
				"north": {"uv": [2.875, 3.5, 2.875, 3.5], "rotation": 90, "texture": "#0"},
				"east": {"uv": [2.875, 3.5, 2.875, 3.5], "rotation": 270, "texture": "#0"},
				"south": {"uv": [2.875, 3.5, 2.875, 3.5], "rotation": 270, "texture": "#0"},
				"west": {"uv": [2.875, 3.5, 2.875, 3.5], "rotation": 270, "texture": "#0"},
				"up": {"uv": [2.875, 3.5, 2.875, 3.5], "rotation": 270, "texture": "#0"},
				"down": {"uv": [2.875, 3.5, 2.875, 3.5], "rotation": 270, "texture": "#0"}
			}
		},
		{
			"from": [6.7729, 9.71307, 5.48],
			"to": [7.5249, 9.84107, 5.732],
			"rotation": {"angle": 0, "axis": "y", "origin": [6.8929, 9.77707, 5.222]},
			"faces": {
				"north": {"uv": [2.875, 3.5, 2.875, 3.5], "rotation": 90, "texture": "#0"},
				"east": {"uv": [2.875, 3.5, 2.875, 3.5], "rotation": 270, "texture": "#0"},
				"south": {"uv": [2.875, 3.5, 2.875, 3.5], "rotation": 270, "texture": "#0"},
				"west": {"uv": [2.875, 3.5, 2.875, 3.5], "rotation": 270, "texture": "#0"},
				"up": {"uv": [2.875, 3.5, 2.875, 3.5], "rotation": 270, "texture": "#0"},
				"down": {"uv": [2.875, 3.5, 2.875, 3.5], "rotation": 270, "texture": "#0"}
			}
		},
		{
			"from": [6.6032, 9.36736, 4.712],
			"to": [6.7312, 9.67136, 4.964],
			"rotation": {"angle": 0, "axis": "y", "origin": [6.6672, 9.55136, 4.454]},
			"faces": {
				"north": {"uv": [2.875, 3.5, 2.875, 3.5], "texture": "#0"},
				"east": {"uv": [2.875, 3.5, 2.875, 3.5], "rotation": 180, "texture": "#0"},
				"south": {"uv": [2.875, 3.5, 2.875, 3.5], "rotation": 180, "texture": "#0"},
				"west": {"uv": [2.875, 3.5, 2.875, 3.5], "rotation": 180, "texture": "#0"},
				"up": {"uv": [2.875, 3.5, 2.875, 3.5], "rotation": 180, "texture": "#0"},
				"down": {"uv": [2.875, 3.5, 2.875, 3.5], "rotation": 180, "texture": "#0"}
			}
		},
		{
			"from": [6.6032, 9.36736, 5.48],
			"to": [6.7312, 9.67136, 5.732],
			"rotation": {"angle": 0, "axis": "y", "origin": [6.6672, 9.55136, 5.222]},
			"faces": {
				"north": {"uv": [2.875, 3.5, 2.875, 3.5], "texture": "#0"},
				"east": {"uv": [2.875, 3.5, 2.875, 3.5], "rotation": 180, "texture": "#0"},
				"south": {"uv": [2.875, 3.5, 2.875, 3.5], "rotation": 180, "texture": "#0"},
				"west": {"uv": [2.875, 3.5, 2.875, 3.5], "rotation": 180, "texture": "#0"},
				"up": {"uv": [2.875, 3.5, 2.875, 3.5], "rotation": 180, "texture": "#0"},
				"down": {"uv": [2.875, 3.5, 2.875, 3.5], "rotation": 180, "texture": "#0"}
			}
		},
		{
			"from": [6.66931, 9.20776, 4.712],
			"to": [6.79731, 9.44776, 4.964],
			"rotation": {"angle": 45, "axis": "z", "origin": [6.73331, 9.32776, 4.454]},
			"faces": {
				"north": {"uv": [2.875, 3.5, 2.875, 3.5], "texture": "#0"},
				"east": {"uv": [2.875, 3.5, 2.875, 3.5], "rotation": 180, "texture": "#0"},
				"south": {"uv": [2.875, 3.5, 2.875, 3.5], "rotation": 180, "texture": "#0"},
				"west": {"uv": [2.875, 3.5, 2.875, 3.5], "rotation": 180, "texture": "#0"},
				"up": {"uv": [2.875, 3.5, 2.875, 3.5], "rotation": 180, "texture": "#0"},
				"down": {"uv": [2.875, 3.5, 2.875, 3.5], "rotation": 180, "texture": "#0"}
			}
		},
		{
			"from": [6.66931, 9.20776, 5.48],
			"to": [6.79731, 9.44776, 5.732],
			"rotation": {"angle": 45, "axis": "z", "origin": [6.73331, 9.32776, 5.222]},
			"faces": {
				"north": {"uv": [2.875, 3.5, 2.875, 3.5], "texture": "#0"},
				"east": {"uv": [2.875, 3.5, 2.875, 3.5], "rotation": 180, "texture": "#0"},
				"south": {"uv": [2.875, 3.5, 2.875, 3.5], "rotation": 180, "texture": "#0"},
				"west": {"uv": [2.875, 3.5, 2.875, 3.5], "rotation": 180, "texture": "#0"},
				"up": {"uv": [2.875, 3.5, 2.875, 3.5], "rotation": 180, "texture": "#0"},
				"down": {"uv": [2.875, 3.5, 2.875, 3.5], "rotation": 180, "texture": "#0"}
			}
		},
		{
			"from": [6.66931, 9.59096, 4.712],
			"to": [6.79731, 9.83096, 4.964],
			"rotation": {"angle": -45, "axis": "z", "origin": [6.73331, 9.71096, 4.454]},
			"faces": {
				"north": {"uv": [2.875, 3.5, 2.875, 3.5], "texture": "#0"},
				"east": {"uv": [2.875, 3.5, 2.875, 3.5], "rotation": 180, "texture": "#0"},
				"south": {"uv": [2.875, 3.5, 2.875, 3.5], "rotation": 180, "texture": "#0"},
				"west": {"uv": [2.875, 3.5, 2.875, 3.5], "rotation": 180, "texture": "#0"},
				"up": {"uv": [2.875, 3.5, 2.875, 3.5], "rotation": 180, "texture": "#0"},
				"down": {"uv": [2.875, 3.5, 2.875, 3.5], "rotation": 180, "texture": "#0"}
			}
		},
		{
			"from": [6.66931, 9.59096, 5.48],
			"to": [6.79731, 9.83096, 5.732],
			"rotation": {"angle": -45, "axis": "z", "origin": [6.73331, 9.71096, 5.222]},
			"faces": {
				"north": {"uv": [2.875, 3.5, 2.875, 3.5], "texture": "#0"},
				"east": {"uv": [2.875, 3.5, 2.875, 3.5], "rotation": 180, "texture": "#0"},
				"south": {"uv": [2.875, 3.5, 2.875, 3.5], "rotation": 180, "texture": "#0"},
				"west": {"uv": [2.875, 3.5, 2.875, 3.5], "rotation": 180, "texture": "#0"},
				"up": {"uv": [2.875, 3.5, 2.875, 3.5], "rotation": 180, "texture": "#0"},
				"down": {"uv": [2.875, 3.5, 2.875, 3.5], "rotation": 180, "texture": "#0"}
			}
		},
		{
			"from": [6.69605, 9.55096, 4.168],
			"to": [6.87205, 9.67896, 6.084],
			"rotation": {"angle": 45, "axis": "z", "origin": [6.78405, 9.64696, 5.478]},
			"faces": {
				"north": {"uv": [3, 3, 3, 3], "rotation": 90, "texture": "#0"},
				"east": {"uv": [3, 3, 3, 3], "rotation": 90, "texture": "#0"},
				"south": {"uv": [3, 3, 3, 3], "rotation": 90, "texture": "#0"},
				"west": {"uv": [3, 3, 3, 3], "rotation": 90, "texture": "#0"},
				"up": {"uv": [3, 3, 3, 3], "rotation": 90, "texture": "#0"},
				"down": {"uv": [3, 3, 3, 3], "rotation": 90, "texture": "#0"}
			}
		},
		{
			"from": [6.69605, 9.35896, 4.2],
			"to": [6.87205, 9.61496, 4.292],
			"rotation": {"angle": 45, "axis": "z", "origin": [6.78405, 9.64696, 5.446]},
			"faces": {
				"north": {"uv": [6.875, 11.5, 6.875, 11.5], "rotation": 90, "texture": "#0"},
				"east": {"uv": [6.875, 11.5, 6.875, 11.5], "rotation": 270, "texture": "#0"},
				"south": {"uv": [6.875, 11.5, 6.875, 11.5], "rotation": 270, "texture": "#0"},
				"west": {"uv": [6.875, 11.5, 6.875, 11.5], "rotation": 270, "texture": "#0"},
				"up": {"uv": [6.875, 11.5, 6.875, 11.5], "rotation": 270, "texture": "#0"},
				"down": {"uv": [6.875, 11.5, 6.875, 11.5], "rotation": 270, "texture": "#0"}
			}
		},
		{
			"from": [6.87319, 9.51826, -10.176],
			"to": [6.95319, 9.51826, 4.26],
			"rotation": {"angle": 0, "axis": "y", "origin": [6.89719, 9.62982, 3.782]},
			"faces": {
				"north": {"uv": [7.375, 7.625, 7.375, 7.625], "rotation": 90, "texture": "#0"},
				"east": {"uv": [8.875, 7.125, 8.875, 7.125], "rotation": 270, "texture": "#0"},
				"south": {"uv": [8.875, 7.125, 8.875, 7.125], "rotation": 270, "texture": "#0"},
				"west": {"uv": [8.875, 7.125, 8.875, 7.125], "rotation": 270, "texture": "#0"},
				"up": {"uv": [8.875, 7.125, 8.875, 7.125], "rotation": 270, "texture": "#0"},
				"down": {"uv": [8.875, 7.125, 8.875, 7.125], "rotation": 270, "texture": "#0"}
			}
		},
		{
			"from": [6.91319, 9.47826, -10.176],
			"to": [6.91319, 9.55826, 4.26],
			"rotation": {"angle": 0, "axis": "y", "origin": [6.91319, 9.51826, 1.494]},
			"faces": {
				"north": {"uv": [7.375, 7.625, 7.375, 7.625], "rotation": 180, "texture": "#0"},
				"east": {"uv": [8.875, 7.125, 8.875, 7.125], "rotation": 180, "texture": "#0"},
				"south": {"uv": [8.875, 7.125, 8.875, 7.125], "rotation": 180, "texture": "#0"},
				"west": {"uv": [8.875, 7.125, 8.875, 7.125], "rotation": 180, "texture": "#0"},
				"up": {"uv": [8.875, 7.125, 8.875, 7.125], "rotation": 180, "texture": "#0"},
				"down": {"uv": [8.875, 7.125, 8.875, 7.125], "rotation": 180, "texture": "#0"}
			}
		},
		{
			"from": [7.3161, 9.17114, 4.81578],
			"to": [7.4281, 9.87114, 4.92778],
			"rotation": {"angle": -45, "axis": "y", "origin": [7.3881, 9.13714, 4.82378]},
			"faces": {
				"north": {"uv": [4.375, 3.375, 4.375, 3.375], "rotation": 180, "texture": "#0"},
				"east": {"uv": [4.375, 3.375, 4.375, 3.375], "texture": "#0"},
				"south": {"uv": [4.375, 3.375, 4.375, 3.375], "texture": "#0"},
				"west": {"uv": [4.375, 3.375, 4.375, 3.375], "texture": "#0"},
				"up": {"uv": [4.375, 3.375, 4.375, 3.375], "texture": "#0"},
				"down": {"uv": [4.375, 3.375, 4.375, 3.375], "texture": "#0"}
			}
		},
		{
			"from": [7.3161, 9.17114, 5.58378],
			"to": [7.4281, 9.87114, 5.69578],
			"rotation": {"angle": -45, "axis": "y", "origin": [7.3881, 9.13714, 5.59178]},
			"faces": {
				"north": {"uv": [4.375, 3.375, 4.375, 3.375], "rotation": 180, "texture": "#0"},
				"east": {"uv": [4.375, 3.375, 4.375, 3.375], "texture": "#0"},
				"south": {"uv": [4.375, 3.375, 4.375, 3.375], "texture": "#0"},
				"west": {"uv": [4.375, 3.375, 4.375, 3.375], "texture": "#0"},
				"up": {"uv": [4.375, 3.375, 4.375, 3.375], "texture": "#0"},
				"down": {"uv": [4.375, 3.375, 4.375, 3.375], "texture": "#0"}
			}
		}
	],
	"display": {
		"thirdperson_righthand": {
			"rotation": [0.5, 0, 1.25],
			"translation": [-1.25, -0.75, -6],
			"scale": [1, 1, 0.83]
		},
		"thirdperson_lefthand": {
			"rotation": [3, 0, 0],
			"translation": [-0.75, -0.75, -5.75],
			"scale": [1, 1, 0.83]
		},
		"firstperson_righthand": {
			"rotation": [1, 1, 0],
			"translation": [-5.25, 3.5, -0.75],
			"scale": [1.19, 1.14, 0.87]
		},
		"firstperson_lefthand": {
			"rotation": [1, 1, 0],
			"translation": [-3.5, 3.25, -4.5],
			"scale": [1.19, 1.14, 0.87]
		},
		"ground": {
			"translation": [0, 0, -3.25]
		},
		"gui": {
			"rotation": [11, 16, -16],
			"translation": [-0.75, -0.25, 0],
			"scale": [1.25, 1.28, 1.60945]
		},
		"head": {
			"rotation": [0, -139, 90],
			"translation": [2.5, 6.5, 4.5],
			"scale": [1.36, 1.36, 1.36]
		},
		"fixed": {
			"rotation": [0, -90, 0],
			"translation": [4, 0, -1.75],
			"scale": [1.58, 1.39, 1.28]
		}
	}
}