{
	"credit": "Made with Blockbench",
	"textures": {
		"0": "gci:items/common/all_in_one",
		"particle": "gci:items/common/all_in_one"
	},
	"elements": [
		{
			"from": [7.6968, 10.59492, 12.264],
			"to": [8.3848, 11.01092, 12.964],
			"rotation": {"angle": 0, "axis": "y", "origin": [8.0278, 10.90559, 13.766]},
			"faces": {
				"north": {"uv": [3.875, 3.125, 3.875, 3.125], "rotation": 270, "texture": "#0"},
				"east": {"uv": [3.875, 3.125, 3.875, 3.125], "rotation": 270, "texture": "#0"},
				"south": {"uv": [3.875, 3.125, 3.875, 3.125], "rotation": 270, "texture": "#0"},
				"west": {"uv": [3.875, 3.125, 3.875, 3.125], "rotation": 270, "texture": "#0"},
				"up": {"uv": [3.875, 3.125, 3.875, 3.125], "rotation": 270, "texture": "#0"},
				"down": {"uv": [3.875, 3.125, 3.875, 3.125], "rotation": 270, "texture": "#0"}
			}
		},
		{
			"from": [7.6968, 10.91492, 12.264],
			"to": [7.8728, 11.55492, 12.964],
			"rotation": {"angle": 0, "axis": "y", "origin": [8.0278, 11.22559, 13.766]},
			"faces": {
				"north": {"uv": [3.875, 3.125, 3.875, 3.125], "rotation": 270, "texture": "#0"},
				"east": {"uv": [3.875, 3.125, 3.875, 3.125], "rotation": 270, "texture": "#0"},
				"south": {"uv": [3.875, 3.125, 3.875, 3.125], "rotation": 270, "texture": "#0"},
				"west": {"uv": [3.875, 3.125, 3.875, 3.125], "rotation": 270, "texture": "#0"},
				"up": {"uv": [3.875, 3.125, 3.875, 3.125], "rotation": 270, "texture": "#0"},
				"down": {"uv": [3.875, 3.125, 3.875, 3.125], "rotation": 270, "texture": "#0"}
			}
		},
		{
			"from": [8.2088, 10.91492, 12.264],
			"to": [8.3848, 11.55492, 12.964],
			"rotation": {"angle": 0, "axis": "y", "origin": [8.0278, 11.22559, 13.766]},
			"faces": {
				"north": {"uv": [3.875, 3.125, 3.875, 3.125], "rotation": 270, "texture": "#0"},
				"east": {"uv": [3.875, 3.125, 3.875, 3.125], "rotation": 270, "texture": "#0"},
				"south": {"uv": [3.875, 3.125, 3.875, 3.125], "rotation": 270, "texture": "#0"},
				"west": {"uv": [3.875, 3.125, 3.875, 3.125], "rotation": 270, "texture": "#0"},
				"up": {"uv": [3.875, 3.125, 3.875, 3.125], "rotation": 270, "texture": "#0"},
				"down": {"uv": [3.875, 3.125, 3.875, 3.125], "rotation": 270, "texture": "#0"}
			}
		},
		{
			"from": [7.6968, 10.59492, 14.28],
			"to": [8.3848, 11.01092, 14.98],
			"rotation": {"angle": 0, "axis": "y", "origin": [8.0278, 10.90559, 15.782]},
			"faces": {
				"north": {"uv": [3.875, 3.125, 3.875, 3.125], "rotation": 270, "texture": "#0"},
				"east": {"uv": [3.875, 3.125, 3.875, 3.125], "rotation": 270, "texture": "#0"},
				"south": {"uv": [3.875, 3.125, 3.875, 3.125], "rotation": 270, "texture": "#0"},
				"west": {"uv": [3.875, 3.125, 3.875, 3.125], "rotation": 270, "texture": "#0"},
				"up": {"uv": [3.875, 3.125, 3.875, 3.125], "rotation": 270, "texture": "#0"},
				"down": {"uv": [3.875, 3.125, 3.875, 3.125], "rotation": 270, "texture": "#0"}
			}
		},
		{
			"from": [7.6968, 10.59492, 12.264],
			"to": [8.3848, 10.91492, 14.98],
			"rotation": {"angle": 0, "axis": "y", "origin": [8.0278, 10.90559, 15.782]},
			"faces": {
				"north": {"uv": [3.875, 3.125, 3.875, 3.125], "rotation": 270, "texture": "#0"},
				"east": {"uv": [3.875, 3.125, 3.875, 3.125], "rotation": 270, "texture": "#0"},
				"south": {"uv": [3.875, 3.125, 3.875, 3.125], "rotation": 270, "texture": "#0"},
				"west": {"uv": [3.875, 3.125, 3.875, 3.125], "rotation": 270, "texture": "#0"},
				"up": {"uv": [3.875, 3.125, 3.875, 3.125], "rotation": 270, "texture": "#0"},
				"down": {"uv": [3.875, 3.125, 3.875, 3.125], "rotation": 270, "texture": "#0"}
			}
		},
		{
			"from": [7.6968, 10.91492, 14.28],
			"to": [7.8728, 11.55492, 14.98],
			"rotation": {"angle": 0, "axis": "y", "origin": [8.0278, 11.22559, 15.782]},
			"faces": {
				"north": {"uv": [3.875, 3.125, 3.875, 3.125], "rotation": 270, "texture": "#0"},
				"east": {"uv": [3.875, 3.125, 3.875, 3.125], "rotation": 270, "texture": "#0"},
				"south": {"uv": [3.875, 3.125, 3.875, 3.125], "rotation": 270, "texture": "#0"},
				"west": {"uv": [3.875, 3.125, 3.875, 3.125], "rotation": 270, "texture": "#0"},
				"up": {"uv": [3.875, 3.125, 3.875, 3.125], "rotation": 270, "texture": "#0"},
				"down": {"uv": [3.875, 3.125, 3.875, 3.125], "rotation": 270, "texture": "#0"}
			}
		},
		{
			"from": [8.2088, 10.91492, 14.28],
			"to": [8.3848, 11.55492, 14.98],
			"rotation": {"angle": 0, "axis": "y", "origin": [8.0278, 11.22559, 15.782]},
			"faces": {
				"north": {"uv": [3.875, 3.125, 3.875, 3.125], "rotation": 270, "texture": "#0"},
				"east": {"uv": [3.875, 3.125, 3.875, 3.125], "rotation": 270, "texture": "#0"},
				"south": {"uv": [3.875, 3.125, 3.875, 3.125], "rotation": 270, "texture": "#0"},
				"west": {"uv": [3.875, 3.125, 3.875, 3.125], "rotation": 270, "texture": "#0"},
				"up": {"uv": [3.875, 3.125, 3.875, 3.125], "rotation": 270, "texture": "#0"},
				"down": {"uv": [3.875, 3.125, 3.875, 3.125], "rotation": 270, "texture": "#0"}
			}
		},
		{
			"from": [7.6648, 10.69292, 12.55],
			"to": [8.4168, 10.81692, 12.678],
			"rotation": {"angle": -45, "axis": "x", "origin": [8.0408, 10.75492, 12.614]},
			"faces": {
				"north": {"uv": [2.875, 1, 2.875, 1.25], "texture": "#0"},
				"east": {"uv": [2.875, 1, 2.875, 1.25], "texture": "#0"},
				"south": {"uv": [2.875, 1, 2.875, 1.25], "texture": "#0"},
				"west": {"uv": [2.875, 1, 2.875, 1.25], "texture": "#0"},
				"up": {"uv": [2.875, 1, 2.875, 1.25], "texture": "#0"},
				"down": {"uv": [2.875, 1, 2.875, 1.25], "texture": "#0"}
			}
		},
		{
			"from": [7.6648, 10.69292, 14.566],
			"to": [8.4168, 10.81692, 14.694],
			"rotation": {"angle": -45, "axis": "x", "origin": [8.0408, 10.75492, 14.63]},
			"faces": {
				"north": {"uv": [2.875, 1, 2.875, 1.25], "texture": "#0"},
				"east": {"uv": [2.875, 1, 2.875, 1.25], "texture": "#0"},
				"south": {"uv": [2.875, 1, 2.875, 1.25], "texture": "#0"},
				"west": {"uv": [2.875, 1, 2.875, 1.25], "texture": "#0"},
				"up": {"uv": [2.875, 1, 2.875, 1.25], "texture": "#0"},
				"down": {"uv": [2.875, 1, 2.875, 1.25], "texture": "#0"}
			}
		},
		{
			"from": [8.25028, 11.88262, 11.768],
			"to": [8.38628, 12.11462, 15.904],
			"rotation": {"angle": 22.5, "axis": "z", "origin": [8.31828, 12.04662, 13.276]},
			"faces": {
				"north": {"uv": [3, 3.75, 3, 3.75], "rotation": 270, "texture": "#0"},
				"east": {"uv": [3, 3.75, 3, 3.75], "rotation": 270, "texture": "#0"},
				"south": {"uv": [3, 3.75, 3, 3.75], "rotation": 270, "texture": "#0"},
				"west": {"uv": [3, 3.75, 3, 3.75], "rotation": 270, "texture": "#0"},
				"up": {"uv": [3, 3.75, 3, 3.75], "rotation": 270, "texture": "#0"},
				"down": {"uv": [3, 3.75, 3, 3.75], "rotation": 270, "texture": "#0"}
			}
		},
		{
			"from": [7.727, 11.63165, 11.768],
			"to": [7.863, 11.86365, 15.904],
			"rotation": {"angle": 22.5, "axis": "z", "origin": [8.03969, 11.56328, 13.276]},
			"faces": {
				"north": {"uv": [3, 3.75, 3, 3.75], "rotation": 90, "texture": "#0"},
				"east": {"uv": [3, 3.75, 3, 3.75], "rotation": 90, "texture": "#0"},
				"south": {"uv": [3, 3.75, 3, 3.75], "rotation": 90, "texture": "#0"},
				"west": {"uv": [3, 3.75, 3, 3.75], "rotation": 90, "texture": "#0"},
				"up": {"uv": [3, 3.75, 3, 3.75], "rotation": 90, "texture": "#0"},
				"down": {"uv": [3, 3.75, 3, 3.75], "rotation": 90, "texture": "#0"}
			}
		},
		{
			"from": [8.10954, 12.0674, 11.768],
			"to": [8.34154, 12.2034, 15.904],
			"rotation": {"angle": -22.5, "axis": "z", "origin": [8.17754, 12.1354, 13.34]},
			"faces": {
				"north": {"uv": [3, 3.75, 3, 3.75], "texture": "#0"},
				"east": {"uv": [3, 3.75, 3, 3.75], "texture": "#0"},
				"south": {"uv": [3, 3.75, 3, 3.75], "texture": "#0"},
				"west": {"uv": [3, 3.75, 3, 3.75], "texture": "#0"},
				"up": {"uv": [3, 3.75, 3, 3.75], "texture": "#0"},
				"down": {"uv": [3, 3.75, 3, 3.75], "texture": "#0"}
			}
		},
		{
			"from": [7.77024, 11.39052, 11.768],
			"to": [8.00224, 11.52652, 15.904],
			"rotation": {"angle": -22.5, "axis": "z", "origin": [8.03969, 11.56328, 13.276]},
			"faces": {
				"north": {"uv": [3, 3.75, 3, 3.75], "rotation": 180, "texture": "#0"},
				"east": {"uv": [3, 3.75, 3, 3.75], "rotation": 180, "texture": "#0"},
				"south": {"uv": [3, 3.75, 3, 3.75], "rotation": 180, "texture": "#0"},
				"west": {"uv": [3, 3.75, 3, 3.75], "rotation": 180, "texture": "#0"},
				"up": {"uv": [3, 3.75, 3, 3.75], "rotation": 180, "texture": "#0"},
				"down": {"uv": [3, 3.75, 3, 3.75], "rotation": 180, "texture": "#0"}
			}
		},
		{
			"from": [7.94074, 12.08825, 11.768],
			"to": [8.14074, 12.22425, 15.904],
			"rotation": {"angle": 0, "axis": "y", "origin": [15.49274, 19.22425, 23.064]},
			"faces": {
				"north": {"uv": [3, 3.75, 3, 3.75], "texture": "#0"},
				"east": {"uv": [3, 3.75, 3, 3.75], "texture": "#0"},
				"south": {"uv": [3, 3.75, 3, 3.75], "texture": "#0"},
				"west": {"uv": [3, 3.75, 3, 3.75], "texture": "#0"},
				"up": {"uv": [3, 3.75, 3, 3.75], "texture": "#0"},
				"down": {"uv": [3, 3.75, 3, 3.75], "texture": "#0"}
			}
		},
		{
			"from": [8.30786, 11.72113, 11.512],
			"to": [8.44386, 11.92113, 15.904],
			"rotation": {"angle": 0, "axis": "y", "origin": [8.02658, 11.82183, 13.276]},
			"faces": {
				"north": {"uv": [3, 3.75, 3, 3.75], "rotation": 90, "texture": "#0"},
				"east": {"uv": [3, 3.75, 3, 3.75], "rotation": 90, "texture": "#0"},
				"south": {"uv": [3, 3.75, 3, 3.75], "rotation": 90, "texture": "#0"},
				"west": {"uv": [3, 3.75, 3, 3.75], "rotation": 90, "texture": "#0"},
				"up": {"uv": [3, 3.75, 3, 3.75], "rotation": 90, "texture": "#0"},
				"down": {"uv": [3, 3.75, 3, 3.75], "rotation": 90, "texture": "#0"}
			}
		},
		{
			"from": [7.93898, 11.418, 11.768],
			"to": [8.13898, 11.554, 15.904],
			"rotation": {"angle": 0, "axis": "y", "origin": [8.03969, 11.56328, 13.276]},
			"faces": {
				"north": {"uv": [3, 3.75, 3, 3.75], "rotation": 180, "texture": "#0"},
				"east": {"uv": [3, 3.75, 3, 3.75], "rotation": 180, "texture": "#0"},
				"south": {"uv": [3, 3.75, 3, 3.75], "rotation": 180, "texture": "#0"},
				"west": {"uv": [3, 3.75, 3, 3.75], "rotation": 180, "texture": "#0"},
				"up": {"uv": [3, 3.75, 3, 3.75], "rotation": 180, "texture": "#0"},
				"down": {"uv": [3, 3.75, 3, 3.75], "rotation": 180, "texture": "#0"}
			}
		},
		{
			"from": [7.63586, 11.72112, 11.768],
			"to": [7.77186, 11.92112, 15.904],
			"rotation": {"angle": 0, "axis": "y", "origin": [8.05314, 11.82042, 13.276]},
			"faces": {
				"north": {"uv": [3, 3.75, 3, 3.75], "rotation": 270, "texture": "#0"},
				"east": {"uv": [3, 3.75, 3, 3.75], "rotation": 270, "texture": "#0"},
				"south": {"uv": [3, 3.75, 3, 3.75], "rotation": 270, "texture": "#0"},
				"west": {"uv": [3, 3.75, 3, 3.75], "rotation": 270, "texture": "#0"},
				"up": {"uv": [3, 3.75, 3, 3.75], "rotation": 270, "texture": "#0"},
				"down": {"uv": [3, 3.75, 3, 3.75], "rotation": 270, "texture": "#0"}
			}
		},
		{
			"from": [7.79353, 12.00311, 11.768],
			"to": [8.02553, 12.13911, 15.904],
			"rotation": {"angle": 22.5, "axis": "z", "origin": [7.76826, 11.96414, 13.28667]},
			"faces": {
				"north": {"uv": [3, 3.75, 3, 3.75], "texture": "#0"},
				"east": {"uv": [3, 3.75, 3, 3.75], "texture": "#0"},
				"south": {"uv": [3, 3.75, 3, 3.75], "texture": "#0"},
				"west": {"uv": [3, 3.75, 3, 3.75], "texture": "#0"},
				"up": {"uv": [3, 3.75, 3, 3.75], "texture": "#0"},
				"down": {"uv": [3, 3.75, 3, 3.75], "texture": "#0"}
			}
		},
		{
			"from": [8.07745, 11.39039, 11.768],
			"to": [8.30945, 11.52639, 15.904],
			"rotation": {"angle": 22.5, "axis": "z", "origin": [8.03969, 11.56328, 13.276]},
			"faces": {
				"north": {"uv": [3, 3.75, 3, 3.75], "rotation": 180, "texture": "#0"},
				"east": {"uv": [3, 3.75, 3, 3.75], "rotation": 180, "texture": "#0"},
				"south": {"uv": [3, 3.75, 3, 3.75], "rotation": 180, "texture": "#0"},
				"west": {"uv": [3, 3.75, 3, 3.75], "rotation": 180, "texture": "#0"},
				"up": {"uv": [3, 3.75, 3, 3.75], "rotation": 180, "texture": "#0"},
				"down": {"uv": [3, 3.75, 3, 3.75], "rotation": 180, "texture": "#0"}
			}
		},
		{
			"from": [7.6624, 11.87373, 11.768],
			"to": [7.7984, 12.10573, 15.904],
			"rotation": {"angle": -22.5, "axis": "z", "origin": [7.76826, 11.96414, 13.28667]},
			"faces": {
				"north": {"uv": [3, 3.75, 3, 3.75], "rotation": 90, "texture": "#0"},
				"east": {"uv": [3, 3.75, 3, 3.75], "rotation": 90, "texture": "#0"},
				"south": {"uv": [3, 3.75, 3, 3.75], "rotation": 90, "texture": "#0"},
				"west": {"uv": [3, 3.75, 3, 3.75], "rotation": 90, "texture": "#0"},
				"up": {"uv": [3, 3.75, 3, 3.75], "rotation": 90, "texture": "#0"},
				"down": {"uv": [3, 3.75, 3, 3.75], "rotation": 90, "texture": "#0"}
			}
		},
		{
			"from": [8.21669, 11.63178, 11.768],
			"to": [8.35269, 11.86378, 15.904],
			"rotation": {"angle": -22.5, "axis": "z", "origin": [8.03969, 11.56328, 13.276]},
			"faces": {
				"north": {"uv": [3, 3.75, 3, 3.75], "rotation": 270, "texture": "#0"},
				"east": {"uv": [3, 3.75, 3, 3.75], "rotation": 270, "texture": "#0"},
				"south": {"uv": [3, 3.75, 3, 3.75], "rotation": 270, "texture": "#0"},
				"west": {"uv": [3, 3.75, 3, 3.75], "rotation": 270, "texture": "#0"},
				"up": {"uv": [3, 3.75, 3, 3.75], "rotation": 270, "texture": "#0"},
				"down": {"uv": [3, 3.75, 3, 3.75], "rotation": 270, "texture": "#0"}
			}
		},
		{
			"name": "hexadecagon",
			"from": [7.94074, 11.32025, 15.544],
			"to": [8.13965, 11.43225, 17.472],
			"rotation": {"angle": -45, "axis": "z", "origin": [8.0402, 11.82025, 16.044]},
			"faces": {
				"north": {"uv": [3.625, 3.625, 3.875, 3.625], "texture": "#0"},
				"east": {"uv": [3.625, 3.625, 3.875, 3.625], "texture": "#0"},
				"south": {"uv": [3.625, 3.625, 3.875, 3.625], "texture": "#0"},
				"west": {"uv": [3.625, 3.625, 3.875, 3.625], "texture": "#0"},
				"up": {"uv": [3.625, 3.625, 3.875, 3.625], "texture": "#0"},
				"down": {"uv": [3.625, 3.625, 3.875, 3.625], "texture": "#0"}
			}
		},
		{
			"name": "hexadecagon",
			"from": [7.94074, 11.32025, 15.544],
			"to": [8.13965, 11.43225, 17.472],
			"rotation": {"angle": -22.5, "axis": "z", "origin": [8.0402, 11.82025, 16.044]},
			"faces": {
				"north": {"uv": [3.625, 3.625, 3.875, 3.625], "texture": "#0"},
				"east": {"uv": [3.625, 3.625, 3.875, 3.625], "texture": "#0"},
				"south": {"uv": [3.625, 3.625, 3.875, 3.625], "texture": "#0"},
				"west": {"uv": [3.625, 3.625, 3.875, 3.625], "texture": "#0"},
				"up": {"uv": [3.625, 3.625, 3.875, 3.625], "texture": "#0"},
				"down": {"uv": [3.625, 3.625, 3.875, 3.625], "texture": "#0"}
			}
		},
		{
			"name": "hexadecagon",
			"from": [7.94074, 11.32025, 15.544],
			"to": [8.13965, 11.43225, 17.472],
			"rotation": {"angle": 0, "axis": "y", "origin": [8.0402, 11.82025, 16.044]},
			"faces": {
				"north": {"uv": [3.625, 3.625, 3.875, 3.625], "texture": "#0"},
				"east": {"uv": [3.625, 3.625, 3.875, 3.625], "texture": "#0"},
				"south": {"uv": [3.625, 3.625, 3.875, 3.625], "texture": "#0"},
				"west": {"uv": [3.625, 3.625, 3.875, 3.625], "texture": "#0"},
				"up": {"uv": [3.625, 3.625, 3.875, 3.625], "texture": "#0"},
				"down": {"uv": [3.625, 3.625, 3.875, 3.625], "texture": "#0"}
			}
		},
		{
			"name": "hexadecagon",
			"from": [7.74874, 11.44825, 16.152],
			"to": [8.36365, 12.20025, 17.408],
			"rotation": {"angle": 0, "axis": "y", "origin": [8.0402, 11.82025, 16.044]},
			"faces": {
				"north": {"uv": [3.75, 11.875, 3.75, 11.875], "texture": "#0"},
				"east": {"uv": [3.75, 11.875, 3.75, 11.875], "texture": "#0"},
				"south": {"uv": [3.75, 11.875, 3.75, 11.875], "texture": "#0"},
				"west": {"uv": [3.75, 11.875, 3.75, 11.875], "texture": "#0"},
				"up": {"uv": [3.75, 11.875, 3.75, 11.875], "texture": "#0"},
				"down": {"uv": [3.75, 11.875, 3.75, 11.875], "texture": "#0"}
			}
		},
		{
			"name": "hexadecagon",
			"from": [7.6682, 11.49679, 16.152],
			"to": [8.4062, 12.11171, 17.408],
			"rotation": {"angle": 0, "axis": "y", "origin": [8.0722, 11.82025, 16.044]},
			"faces": {
				"north": {"uv": [3.75, 11.875, 3.75, 11.875], "rotation": 90, "texture": "#0"},
				"east": {"uv": [3.75, 11.875, 3.75, 11.875], "rotation": 90, "texture": "#0"},
				"south": {"uv": [3.75, 11.875, 3.75, 11.875], "rotation": 90, "texture": "#0"},
				"west": {"uv": [3.75, 11.875, 3.75, 11.875], "rotation": 90, "texture": "#0"},
				"up": {"uv": [3.75, 11.875, 3.75, 11.875], "rotation": 90, "texture": "#0"},
				"down": {"uv": [3.75, 11.875, 3.75, 11.875], "rotation": 90, "texture": "#0"}
			}
		},
		{
			"name": "hexadecagon",
			"from": [7.6362, 11.65679, 16.152],
			"to": [8.4702, 12.04771, 17.408],
			"rotation": {"angle": 0, "axis": "y", "origin": [8.0722, 11.82025, 16.044]},
			"faces": {
				"north": {"uv": [3.75, 11.875, 3.75, 11.875], "rotation": 90, "texture": "#0"},
				"east": {"uv": [3.75, 11.875, 3.75, 11.875], "rotation": 90, "texture": "#0"},
				"south": {"uv": [3.75, 11.875, 3.75, 11.875], "rotation": 90, "texture": "#0"},
				"west": {"uv": [3.75, 11.875, 3.75, 11.875], "rotation": 90, "texture": "#0"},
				"up": {"uv": [3.75, 11.875, 3.75, 11.875], "rotation": 90, "texture": "#0"},
				"down": {"uv": [3.75, 11.875, 3.75, 11.875], "rotation": 90, "texture": "#0"}
			}
		},
		{
			"name": "hexadecagon",
			"from": [7.90874, 11.42225, 16.152],
			"to": [8.29965, 12.22425, 17.408],
			"rotation": {"angle": 0, "axis": "y", "origin": [8.0722, 11.82025, 16.044]},
			"faces": {
				"north": {"uv": [3.75, 11.875, 3.75, 11.875], "rotation": 180, "texture": "#0"},
				"east": {"uv": [3.75, 11.875, 3.75, 11.875], "rotation": 180, "texture": "#0"},
				"south": {"uv": [3.75, 11.875, 3.75, 11.875], "rotation": 180, "texture": "#0"},
				"west": {"uv": [3.75, 11.875, 3.75, 11.875], "rotation": 180, "texture": "#0"},
				"up": {"uv": [3.75, 11.875, 3.75, 11.875], "rotation": 180, "texture": "#0"},
				"down": {"uv": [3.75, 11.875, 3.75, 11.875], "rotation": 180, "texture": "#0"}
			}
		},
		{
			"name": "hexadecagon",
			"from": [7.68474, 11.48025, 9.64],
			"to": [8.39565, 12.16825, 10.896],
			"rotation": {"angle": 0, "axis": "y", "origin": [8.0402, 11.82025, 9.532]},
			"faces": {
				"north": {"uv": [3.75, 11.875, 4, 11.875], "texture": "#0"},
				"east": {"uv": [3.75, 11.875, 4, 11.875], "texture": "#0"},
				"south": {"uv": [3.75, 11.875, 4, 11.875], "texture": "#0"},
				"west": {"uv": [3.75, 11.875, 4, 11.875], "texture": "#0"},
				"up": {"uv": [3.75, 11.875, 4, 11.875], "texture": "#0"},
				"down": {"uv": [3.75, 11.875, 4, 11.875], "texture": "#0"}
			}
		},
		{
			"name": "hexadecagon",
			"from": [7.94074, 11.32025, 15.544],
			"to": [8.13965, 11.43225, 17.472],
			"rotation": {"angle": 22.5, "axis": "z", "origin": [8.0402, 11.82025, 16.044]},
			"faces": {
				"north": {"uv": [3.625, 3.625, 3.875, 3.625], "texture": "#0"},
				"east": {"uv": [3.625, 3.625, 3.875, 3.625], "texture": "#0"},
				"south": {"uv": [3.625, 3.625, 3.875, 3.625], "texture": "#0"},
				"west": {"uv": [3.625, 3.625, 3.875, 3.625], "texture": "#0"},
				"up": {"uv": [3.625, 3.625, 3.875, 3.625], "texture": "#0"},
				"down": {"uv": [3.625, 3.625, 3.875, 3.625], "texture": "#0"}
			}
		},
		{
			"name": "hexadecagon",
			"from": [7.94074, 11.32025, 15.544],
			"to": [8.13965, 11.43225, 17.472],
			"rotation": {"angle": 45, "axis": "z", "origin": [8.0402, 11.82025, 16.044]},
			"faces": {
				"north": {"uv": [3.625, 3.625, 3.875, 3.625], "texture": "#0"},
				"east": {"uv": [3.625, 3.625, 3.875, 3.625], "texture": "#0"},
				"south": {"uv": [3.625, 3.625, 3.875, 3.625], "texture": "#0"},
				"west": {"uv": [3.625, 3.625, 3.875, 3.625], "texture": "#0"},
				"up": {"uv": [3.625, 3.625, 3.875, 3.625], "texture": "#0"},
				"down": {"uv": [3.625, 3.625, 3.875, 3.625], "texture": "#0"}
			}
		},
		{
			"name": "hexadecagon",
			"from": [7.94074, 12.20825, 15.544],
			"to": [8.13965, 12.32025, 17.472],
			"rotation": {"angle": -45, "axis": "z", "origin": [8.0402, 11.82025, 16.044]},
			"faces": {
				"north": {"uv": [3.625, 3.625, 3.875, 3.625], "texture": "#0"},
				"east": {"uv": [3.625, 3.625, 3.875, 3.625], "texture": "#0"},
				"south": {"uv": [3.625, 3.625, 3.875, 3.625], "texture": "#0"},
				"west": {"uv": [3.625, 3.625, 3.875, 3.625], "texture": "#0"},
				"up": {"uv": [3.625, 3.625, 3.875, 3.625], "texture": "#0"},
				"down": {"uv": [3.625, 3.625, 3.875, 3.625], "texture": "#0"}
			}
		},
		{
			"name": "hexadecagon",
			"from": [7.94074, 12.20825, 15.544],
			"to": [8.13965, 12.32025, 17.472],
			"rotation": {"angle": -22.5, "axis": "z", "origin": [8.0402, 11.82025, 16.044]},
			"faces": {
				"north": {"uv": [3.625, 3.625, 3.875, 3.625], "texture": "#0"},
				"east": {"uv": [3.625, 3.625, 3.875, 3.625], "texture": "#0"},
				"south": {"uv": [3.625, 3.625, 3.875, 3.625], "texture": "#0"},
				"west": {"uv": [3.625, 3.625, 3.875, 3.625], "texture": "#0"},
				"up": {"uv": [3.625, 3.625, 3.875, 3.625], "texture": "#0"},
				"down": {"uv": [3.625, 3.625, 3.875, 3.625], "texture": "#0"}
			}
		},
		{
			"name": "hexadecagon",
			"from": [7.94074, 12.20825, 15.544],
			"to": [8.13965, 12.32025, 17.472],
			"rotation": {"angle": 0, "axis": "y", "origin": [8.0402, 11.82025, 16.044]},
			"faces": {
				"north": {"uv": [3.625, 3.625, 3.875, 3.625], "texture": "#0"},
				"east": {"uv": [3.625, 3.625, 3.875, 3.625], "texture": "#0"},
				"south": {"uv": [3.625, 3.625, 3.875, 3.625], "texture": "#0"},
				"west": {"uv": [3.625, 3.625, 3.875, 3.625], "texture": "#0"},
				"up": {"uv": [3.625, 3.625, 3.875, 3.625], "texture": "#0"},
				"down": {"uv": [3.625, 3.625, 3.875, 3.625], "texture": "#0"}
			}
		},
		{
			"name": "hexadecagon",
			"from": [7.94074, 12.20825, 15.544],
			"to": [8.13965, 12.32025, 17.472],
			"rotation": {"angle": 22.5, "axis": "z", "origin": [8.0402, 11.82025, 16.044]},
			"faces": {
				"north": {"uv": [3.625, 3.625, 3.875, 3.625], "texture": "#0"},
				"east": {"uv": [3.625, 3.625, 3.875, 3.625], "texture": "#0"},
				"south": {"uv": [3.625, 3.625, 3.875, 3.625], "texture": "#0"},
				"west": {"uv": [3.625, 3.625, 3.875, 3.625], "texture": "#0"},
				"up": {"uv": [3.625, 3.625, 3.875, 3.625], "texture": "#0"},
				"down": {"uv": [3.625, 3.625, 3.875, 3.625], "texture": "#0"}
			}
		},
		{
			"name": "hexadecagon",
			"from": [7.94074, 12.20825, 15.544],
			"to": [8.13965, 12.32025, 17.472],
			"rotation": {"angle": 45, "axis": "z", "origin": [8.0402, 11.82025, 16.044]},
			"faces": {
				"north": {"uv": [3.625, 3.625, 3.875, 3.625], "texture": "#0"},
				"east": {"uv": [3.625, 3.625, 3.875, 3.625], "texture": "#0"},
				"south": {"uv": [3.625, 3.625, 3.875, 3.625], "texture": "#0"},
				"west": {"uv": [3.625, 3.625, 3.875, 3.625], "texture": "#0"},
				"up": {"uv": [3.625, 3.625, 3.875, 3.625], "texture": "#0"},
				"down": {"uv": [3.625, 3.625, 3.875, 3.625], "texture": "#0"}
			}
		},
		{
			"name": "hexadecagon",
			"from": [7.5402, 11.72079, 15.544],
			"to": [7.6522, 11.91971, 17.472],
			"rotation": {"angle": -22.5, "axis": "z", "origin": [8.0402, 11.82025, 16.044]},
			"faces": {
				"north": {"uv": [3.625, 3.625, 3.875, 3.625], "texture": "#0"},
				"east": {"uv": [3.625, 3.625, 3.875, 3.625], "texture": "#0"},
				"south": {"uv": [3.625, 3.625, 3.875, 3.625], "texture": "#0"},
				"west": {"uv": [3.625, 3.625, 3.875, 3.625], "texture": "#0"},
				"up": {"uv": [3.625, 3.625, 3.875, 3.625], "texture": "#0"},
				"down": {"uv": [3.625, 3.625, 3.875, 3.625], "texture": "#0"}
			}
		},
		{
			"name": "hexadecagon",
			"from": [7.5402, 11.72079, 15.544],
			"to": [7.6522, 11.91971, 17.472],
			"rotation": {"angle": 0, "axis": "y", "origin": [8.0402, 11.82025, 16.044]},
			"faces": {
				"north": {"uv": [3.625, 3.625, 3.875, 3.625], "texture": "#0"},
				"east": {"uv": [3.625, 3.625, 3.875, 3.625], "texture": "#0"},
				"south": {"uv": [3.625, 3.625, 3.875, 3.625], "texture": "#0"},
				"west": {"uv": [3.625, 3.625, 3.875, 3.625], "texture": "#0"},
				"up": {"uv": [3.625, 3.625, 3.875, 3.625], "texture": "#0"},
				"down": {"uv": [3.625, 3.625, 3.875, 3.625], "texture": "#0"}
			}
		},
		{
			"name": "hexadecagon",
			"from": [7.5402, 11.72079, 15.544],
			"to": [7.6522, 11.91971, 17.472],
			"rotation": {"angle": 22.5, "axis": "z", "origin": [8.0402, 11.82025, 16.044]},
			"faces": {
				"north": {"uv": [3.625, 3.625, 3.875, 3.625], "texture": "#0"},
				"east": {"uv": [3.625, 3.625, 3.875, 3.625], "texture": "#0"},
				"south": {"uv": [3.625, 3.625, 3.875, 3.625], "texture": "#0"},
				"west": {"uv": [3.625, 3.625, 3.875, 3.625], "texture": "#0"},
				"up": {"uv": [3.625, 3.625, 3.875, 3.625], "texture": "#0"},
				"down": {"uv": [3.625, 3.625, 3.875, 3.625], "texture": "#0"}
			}
		},
		{
			"name": "hexadecagon",
			"from": [8.4282, 11.72079, 15.544],
			"to": [8.5402, 11.91971, 17.472],
			"rotation": {"angle": -22.5, "axis": "z", "origin": [8.0402, 11.82025, 16.044]},
			"faces": {
				"north": {"uv": [3.625, 3.625, 3.875, 3.625], "texture": "#0"},
				"east": {"uv": [3.625, 3.625, 3.875, 3.625], "texture": "#0"},
				"south": {"uv": [3.625, 3.625, 3.875, 3.625], "texture": "#0"},
				"west": {"uv": [3.625, 3.625, 3.875, 3.625], "texture": "#0"},
				"up": {"uv": [3.625, 3.625, 3.875, 3.625], "texture": "#0"},
				"down": {"uv": [3.625, 3.625, 3.875, 3.625], "texture": "#0"}
			}
		},
		{
			"name": "hexadecagon",
			"from": [8.4282, 11.72079, 15.544],
			"to": [8.5402, 11.91971, 17.472],
			"rotation": {"angle": 0, "axis": "y", "origin": [8.0402, 11.82025, 16.044]},
			"faces": {
				"north": {"uv": [3.625, 3.625, 3.875, 3.625], "texture": "#0"},
				"east": {"uv": [3.625, 3.625, 3.875, 3.625], "texture": "#0"},
				"south": {"uv": [3.625, 3.625, 3.875, 3.625], "texture": "#0"},
				"west": {"uv": [3.625, 3.625, 3.875, 3.625], "texture": "#0"},
				"up": {"uv": [3.625, 3.625, 3.875, 3.625], "texture": "#0"},
				"down": {"uv": [3.625, 3.625, 3.875, 3.625], "texture": "#0"}
			}
		},
		{
			"name": "hexadecagon",
			"from": [8.4282, 11.72079, 15.544],
			"to": [8.5402, 11.91971, 17.472],
			"rotation": {"angle": 22.5, "axis": "z", "origin": [8.0402, 11.82025, 16.044]},
			"faces": {
				"north": {"uv": [3.625, 3.625, 3.875, 3.625], "texture": "#0"},
				"east": {"uv": [3.625, 3.625, 3.875, 3.625], "texture": "#0"},
				"south": {"uv": [3.625, 3.625, 3.875, 3.625], "texture": "#0"},
				"west": {"uv": [3.625, 3.625, 3.875, 3.625], "texture": "#0"},
				"up": {"uv": [3.625, 3.625, 3.875, 3.625], "texture": "#0"},
				"down": {"uv": [3.625, 3.625, 3.875, 3.625], "texture": "#0"}
			}
		},
		{
			"name": "hexadecagon",
			"from": [7.94074, 11.32025, 9.496],
			"to": [8.13965, 11.49625, 12.096],
			"rotation": {"angle": -45, "axis": "z", "origin": [8.0402, 11.82025, 10.668]},
			"faces": {
				"north": {"uv": [4, 3.25, 4.5, 3.25], "texture": "#0"},
				"east": {"uv": [4, 3.25, 4.5, 3.25], "texture": "#0"},
				"south": {"uv": [4, 3.25, 4.5, 3.25], "texture": "#0"},
				"west": {"uv": [4, 3.25, 4.5, 3.25], "texture": "#0"},
				"up": {"uv": [4, 3.25, 4.5, 3.25], "texture": "#0"},
				"down": {"uv": [4, 3.25, 4.5, 3.25], "texture": "#0"}
			}
		},
		{
			"name": "hexadecagon",
			"from": [7.94074, 11.32025, 9.496],
			"to": [8.13965, 11.49625, 12.096],
			"rotation": {"angle": -22.5, "axis": "z", "origin": [8.0402, 11.82025, 10.668]},
			"faces": {
				"north": {"uv": [4, 3.25, 4.5, 3.25], "texture": "#0"},
				"east": {"uv": [4, 3.25, 4.5, 3.25], "texture": "#0"},
				"south": {"uv": [4, 3.25, 4.5, 3.25], "texture": "#0"},
				"west": {"uv": [4, 3.25, 4.5, 3.25], "texture": "#0"},
				"up": {"uv": [4, 3.25, 4.5, 3.25], "texture": "#0"},
				"down": {"uv": [4, 3.25, 4.5, 3.25], "texture": "#0"}
			}
		},
		{
			"name": "hexadecagon",
			"from": [7.94074, 11.32025, 9.496],
			"to": [8.13965, 11.49625, 12.096],
			"rotation": {"angle": 0, "axis": "y", "origin": [8.0402, 11.82025, 10.668]},
			"faces": {
				"north": {"uv": [4, 3.25, 4.5, 3.25], "texture": "#0"},
				"east": {"uv": [4, 3.25, 4.5, 3.25], "texture": "#0"},
				"south": {"uv": [4, 3.25, 4.5, 3.25], "texture": "#0"},
				"west": {"uv": [4, 3.25, 4.5, 3.25], "texture": "#0"},
				"up": {"uv": [4, 3.25, 4.5, 3.25], "texture": "#0"},
				"down": {"uv": [4, 3.25, 4.5, 3.25], "texture": "#0"}
			}
		},
		{
			"name": "hexadecagon",
			"from": [7.94074, 11.32025, 9.496],
			"to": [8.13965, 11.49625, 12.096],
			"rotation": {"angle": 22.5, "axis": "z", "origin": [8.0402, 11.82025, 10.668]},
			"faces": {
				"north": {"uv": [4, 3.25, 4.5, 3.25], "texture": "#0"},
				"east": {"uv": [4, 3.25, 4.5, 3.25], "texture": "#0"},
				"south": {"uv": [4, 3.25, 4.5, 3.25], "texture": "#0"},
				"west": {"uv": [4, 3.25, 4.5, 3.25], "texture": "#0"},
				"up": {"uv": [4, 3.25, 4.5, 3.25], "texture": "#0"},
				"down": {"uv": [4, 3.25, 4.5, 3.25], "texture": "#0"}
			}
		},
		{
			"name": "hexadecagon",
			"from": [7.94074, 11.32025, 9.496],
			"to": [8.13965, 11.49625, 12.096],
			"rotation": {"angle": 45, "axis": "z", "origin": [8.0402, 11.82025, 10.668]},
			"faces": {
				"north": {"uv": [4, 3.25, 4.5, 3.25], "texture": "#0"},
				"east": {"uv": [4, 3.25, 4.5, 3.25], "texture": "#0"},
				"south": {"uv": [4, 3.25, 4.5, 3.25], "texture": "#0"},
				"west": {"uv": [4, 3.25, 4.5, 3.25], "texture": "#0"},
				"up": {"uv": [4, 3.25, 4.5, 3.25], "texture": "#0"},
				"down": {"uv": [4, 3.25, 4.5, 3.25], "texture": "#0"}
			}
		},
		{
			"name": "hexadecagon",
			"from": [7.94074, 12.14425, 9.496],
			"to": [8.13965, 12.32025, 12.096],
			"rotation": {"angle": -45, "axis": "z", "origin": [8.0402, 11.82025, 10.668]},
			"faces": {
				"north": {"uv": [4, 3.25, 4.5, 3.25], "texture": "#0"},
				"east": {"uv": [4, 3.25, 4.5, 3.25], "texture": "#0"},
				"south": {"uv": [4, 3.25, 4.5, 3.25], "texture": "#0"},
				"west": {"uv": [4, 3.25, 4.5, 3.25], "texture": "#0"},
				"up": {"uv": [4, 3.25, 4.5, 3.25], "texture": "#0"},
				"down": {"uv": [4, 3.25, 4.5, 3.25], "texture": "#0"}
			}
		},
		{
			"name": "hexadecagon",
			"from": [7.94074, 12.14425, 9.496],
			"to": [8.13965, 12.32025, 12.096],
			"rotation": {"angle": -22.5, "axis": "z", "origin": [8.0402, 11.82025, 10.668]},
			"faces": {
				"north": {"uv": [4, 3.25, 4.5, 3.25], "texture": "#0"},
				"east": {"uv": [4, 3.25, 4.5, 3.25], "texture": "#0"},
				"south": {"uv": [4, 3.25, 4.5, 3.25], "texture": "#0"},
				"west": {"uv": [4, 3.25, 4.5, 3.25], "texture": "#0"},
				"up": {"uv": [4, 3.25, 4.5, 3.25], "texture": "#0"},
				"down": {"uv": [4, 3.25, 4.5, 3.25], "texture": "#0"}
			}
		},
		{
			"name": "hexadecagon",
			"from": [7.94074, 12.14425, 9.496],
			"to": [8.13965, 12.32025, 12.096],
			"rotation": {"angle": 0, "axis": "y", "origin": [8.0402, 11.82025, 10.668]},
			"faces": {
				"north": {"uv": [4, 3.25, 4.5, 3.25], "texture": "#0"},
				"east": {"uv": [4, 3.25, 4.5, 3.25], "texture": "#0"},
				"south": {"uv": [4, 3.25, 4.5, 3.25], "texture": "#0"},
				"west": {"uv": [4, 3.25, 4.5, 3.25], "texture": "#0"},
				"up": {"uv": [4, 3.25, 4.5, 3.25], "texture": "#0"},
				"down": {"uv": [4, 3.25, 4.5, 3.25], "texture": "#0"}
			}
		},
		{
			"name": "hexadecagon",
			"from": [7.94074, 12.14425, 9.496],
			"to": [8.13965, 12.32025, 12.096],
			"rotation": {"angle": 22.5, "axis": "z", "origin": [8.0402, 11.82025, 10.668]},
			"faces": {
				"north": {"uv": [4, 3.25, 4.5, 3.25], "texture": "#0"},
				"east": {"uv": [4, 3.25, 4.5, 3.25], "texture": "#0"},
				"south": {"uv": [4, 3.25, 4.5, 3.25], "texture": "#0"},
				"west": {"uv": [4, 3.25, 4.5, 3.25], "texture": "#0"},
				"up": {"uv": [4, 3.25, 4.5, 3.25], "texture": "#0"},
				"down": {"uv": [4, 3.25, 4.5, 3.25], "texture": "#0"}
			}
		},
		{
			"name": "hexadecagon",
			"from": [7.94074, 12.14425, 9.496],
			"to": [8.13965, 12.32025, 12.096],
			"rotation": {"angle": 45, "axis": "z", "origin": [8.0402, 11.82025, 10.668]},
			"faces": {
				"north": {"uv": [4, 3.25, 4.5, 3.25], "texture": "#0"},
				"east": {"uv": [4, 3.25, 4.5, 3.25], "texture": "#0"},
				"south": {"uv": [4, 3.25, 4.5, 3.25], "texture": "#0"},
				"west": {"uv": [4, 3.25, 4.5, 3.25], "texture": "#0"},
				"up": {"uv": [4, 3.25, 4.5, 3.25], "texture": "#0"},
				"down": {"uv": [4, 3.25, 4.5, 3.25], "texture": "#0"}
			}
		},
		{
			"name": "hexadecagon",
			"from": [7.5402, 11.72079, 9.496],
			"to": [7.7162, 11.91971, 12.096],
			"rotation": {"angle": -22.5, "axis": "z", "origin": [8.0402, 11.82025, 10.668]},
			"faces": {
				"north": {"uv": [4, 3.25, 4.5, 3.25], "texture": "#0"},
				"east": {"uv": [4, 3.25, 4.5, 3.25], "texture": "#0"},
				"south": {"uv": [4, 3.25, 4.5, 3.25], "texture": "#0"},
				"west": {"uv": [4, 3.25, 4.5, 3.25], "texture": "#0"},
				"up": {"uv": [4, 3.25, 4.5, 3.25], "texture": "#0"},
				"down": {"uv": [4, 3.25, 4.5, 3.25], "texture": "#0"}
			}
		},
		{
			"name": "hexadecagon",
			"from": [7.5402, 11.72079, 9.496],
			"to": [7.7162, 11.91971, 12.096],
			"rotation": {"angle": 0, "axis": "y", "origin": [8.0402, 11.82025, 10.668]},
			"faces": {
				"north": {"uv": [4, 3.25, 4.5, 3.25], "texture": "#0"},
				"east": {"uv": [4, 3.25, 4.5, 3.25], "texture": "#0"},
				"south": {"uv": [4, 3.25, 4.5, 3.25], "texture": "#0"},
				"west": {"uv": [4, 3.25, 4.5, 3.25], "texture": "#0"},
				"up": {"uv": [4, 3.25, 4.5, 3.25], "texture": "#0"},
				"down": {"uv": [4, 3.25, 4.5, 3.25], "texture": "#0"}
			}
		},
		{
			"name": "hexadecagon",
			"from": [7.5402, 11.72079, 9.496],
			"to": [7.7162, 11.91971, 12.096],
			"rotation": {"angle": 22.5, "axis": "z", "origin": [8.0402, 11.82025, 10.668]},
			"faces": {
				"north": {"uv": [4, 3.25, 4.5, 3.25], "texture": "#0"},
				"east": {"uv": [4, 3.25, 4.5, 3.25], "texture": "#0"},
				"south": {"uv": [4, 3.25, 4.5, 3.25], "texture": "#0"},
				"west": {"uv": [4, 3.25, 4.5, 3.25], "texture": "#0"},
				"up": {"uv": [4, 3.25, 4.5, 3.25], "texture": "#0"},
				"down": {"uv": [4, 3.25, 4.5, 3.25], "texture": "#0"}
			}
		},
		{
			"name": "hexadecagon",
			"from": [8.3642, 11.72079, 9.496],
			"to": [8.5402, 11.91971, 12.096],
			"rotation": {"angle": -22.5, "axis": "z", "origin": [8.0402, 11.82025, 10.668]},
			"faces": {
				"north": {"uv": [4, 3.25, 4.5, 3.25], "texture": "#0"},
				"east": {"uv": [4, 3.25, 4.5, 3.25], "texture": "#0"},
				"south": {"uv": [4, 3.25, 4.5, 3.25], "texture": "#0"},
				"west": {"uv": [4, 3.25, 4.5, 3.25], "texture": "#0"},
				"up": {"uv": [4, 3.25, 4.5, 3.25], "texture": "#0"},
				"down": {"uv": [4, 3.25, 4.5, 3.25], "texture": "#0"}
			}
		},
		{
			"name": "hexadecagon",
			"from": [8.3642, 11.72079, 9.496],
			"to": [8.5402, 11.91971, 12.096],
			"rotation": {"angle": 0, "axis": "y", "origin": [8.0402, 11.82025, 10.668]},
			"faces": {
				"north": {"uv": [4, 3.25, 4.5, 3.25], "texture": "#0"},
				"east": {"uv": [4, 3.25, 4.5, 3.25], "texture": "#0"},
				"south": {"uv": [4, 3.25, 4.5, 3.25], "texture": "#0"},
				"west": {"uv": [4, 3.25, 4.5, 3.25], "texture": "#0"},
				"up": {"uv": [4, 3.25, 4.5, 3.25], "texture": "#0"},
				"down": {"uv": [4, 3.25, 4.5, 3.25], "texture": "#0"}
			}
		},
		{
			"name": "hexadecagon",
			"from": [8.3642, 11.72079, 9.496],
			"to": [8.5402, 11.91971, 12.096],
			"rotation": {"angle": 22.5, "axis": "z", "origin": [8.0402, 11.82025, 10.668]},
			"faces": {
				"north": {"uv": [4, 3.25, 4.5, 3.25], "texture": "#0"},
				"east": {"uv": [4, 3.25, 4.5, 3.25], "texture": "#0"},
				"south": {"uv": [4, 3.25, 4.5, 3.25], "texture": "#0"},
				"west": {"uv": [4, 3.25, 4.5, 3.25], "texture": "#0"},
				"up": {"uv": [4, 3.25, 4.5, 3.25], "texture": "#0"},
				"down": {"uv": [4, 3.25, 4.5, 3.25], "texture": "#0"}
			}
		},
		{
			"name": "hexadecagon",
			"from": [7.94074, 11.32025, 14.296],
			"to": [8.13965, 11.49625, 14.976],
			"rotation": {"angle": -45, "axis": "z", "origin": [8.0402, 11.82025, 13.548]},
			"faces": {
				"north": {"uv": [4, 3.25, 4.75, 3.25], "texture": "#0"},
				"east": {"uv": [4, 3.25, 4.75, 3.25], "texture": "#0"},
				"south": {"uv": [4, 3.25, 4.75, 3.25], "texture": "#0"},
				"west": {"uv": [4, 3.25, 4.75, 3.25], "texture": "#0"},
				"up": {"uv": [4, 3.25, 4.75, 3.25], "texture": "#0"},
				"down": {"uv": [4, 3.25, 4.75, 3.25], "texture": "#0"}
			}
		},
		{
			"name": "hexadecagon",
			"from": [7.94074, 11.32025, 14.296],
			"to": [8.13965, 11.49625, 14.976],
			"rotation": {"angle": -22.5, "axis": "z", "origin": [8.0402, 11.82025, 13.548]},
			"faces": {
				"north": {"uv": [4, 3.25, 4.75, 3.25], "texture": "#0"},
				"east": {"uv": [4, 3.25, 4.75, 3.25], "texture": "#0"},
				"south": {"uv": [4, 3.25, 4.75, 3.25], "texture": "#0"},
				"west": {"uv": [4, 3.25, 4.75, 3.25], "texture": "#0"},
				"up": {"uv": [4, 3.25, 4.75, 3.25], "texture": "#0"},
				"down": {"uv": [4, 3.25, 4.75, 3.25], "texture": "#0"}
			}
		},
		{
			"name": "hexadecagon",
			"from": [7.94074, 11.32025, 14.296],
			"to": [8.13965, 11.49625, 14.976],
			"rotation": {"angle": 0, "axis": "y", "origin": [8.0402, 11.82025, 13.548]},
			"faces": {
				"north": {"uv": [4, 3.25, 4.75, 3.25], "texture": "#0"},
				"east": {"uv": [4, 3.25, 4.75, 3.25], "texture": "#0"},
				"south": {"uv": [4, 3.25, 4.75, 3.25], "texture": "#0"},
				"west": {"uv": [4, 3.25, 4.75, 3.25], "texture": "#0"},
				"up": {"uv": [4, 3.25, 4.75, 3.25], "texture": "#0"},
				"down": {"uv": [4, 3.25, 4.75, 3.25], "texture": "#0"}
			}
		},
		{
			"name": "hexadecagon",
			"from": [7.94074, 11.32025, 14.296],
			"to": [8.13965, 11.49625, 14.976],
			"rotation": {"angle": 22.5, "axis": "z", "origin": [8.0402, 11.82025, 13.548]},
			"faces": {
				"north": {"uv": [4, 3.25, 4.75, 3.25], "texture": "#0"},
				"east": {"uv": [4, 3.25, 4.75, 3.25], "texture": "#0"},
				"south": {"uv": [4, 3.25, 4.75, 3.25], "texture": "#0"},
				"west": {"uv": [4, 3.25, 4.75, 3.25], "texture": "#0"},
				"up": {"uv": [4, 3.25, 4.75, 3.25], "texture": "#0"},
				"down": {"uv": [4, 3.25, 4.75, 3.25], "texture": "#0"}
			}
		},
		{
			"name": "hexadecagon",
			"from": [7.94074, 11.32025, 14.296],
			"to": [8.13965, 11.49625, 14.976],
			"rotation": {"angle": 45, "axis": "z", "origin": [8.0402, 11.82025, 13.548]},
			"faces": {
				"north": {"uv": [4, 3.25, 4.75, 3.25], "texture": "#0"},
				"east": {"uv": [4, 3.25, 4.75, 3.25], "texture": "#0"},
				"south": {"uv": [4, 3.25, 4.75, 3.25], "texture": "#0"},
				"west": {"uv": [4, 3.25, 4.75, 3.25], "texture": "#0"},
				"up": {"uv": [4, 3.25, 4.75, 3.25], "texture": "#0"},
				"down": {"uv": [4, 3.25, 4.75, 3.25], "texture": "#0"}
			}
		},
		{
			"name": "hexadecagon",
			"from": [7.94074, 12.14425, 14.296],
			"to": [8.13965, 12.32025, 14.976],
			"rotation": {"angle": -45, "axis": "z", "origin": [8.0402, 11.82025, 13.548]},
			"faces": {
				"north": {"uv": [4, 3.25, 4.75, 3.25], "texture": "#0"},
				"east": {"uv": [4, 3.25, 4.75, 3.25], "texture": "#0"},
				"south": {"uv": [4, 3.25, 4.75, 3.25], "texture": "#0"},
				"west": {"uv": [4, 3.25, 4.75, 3.25], "texture": "#0"},
				"up": {"uv": [4, 3.25, 4.75, 3.25], "texture": "#0"},
				"down": {"uv": [4, 3.25, 4.75, 3.25], "texture": "#0"}
			}
		},
		{
			"name": "hexadecagon",
			"from": [7.94074, 12.14425, 14.296],
			"to": [8.13965, 12.32025, 14.976],
			"rotation": {"angle": -22.5, "axis": "z", "origin": [8.0402, 11.82025, 13.548]},
			"faces": {
				"north": {"uv": [4, 3.25, 4.75, 3.25], "texture": "#0"},
				"east": {"uv": [4, 3.25, 4.75, 3.25], "texture": "#0"},
				"south": {"uv": [4, 3.25, 4.75, 3.25], "texture": "#0"},
				"west": {"uv": [4, 3.25, 4.75, 3.25], "texture": "#0"},
				"up": {"uv": [4, 3.25, 4.75, 3.25], "texture": "#0"},
				"down": {"uv": [4, 3.25, 4.75, 3.25], "texture": "#0"}
			}
		},
		{
			"name": "hexadecagon",
			"from": [7.94074, 12.14425, 14.296],
			"to": [8.13965, 12.32025, 14.976],
			"rotation": {"angle": 0, "axis": "y", "origin": [8.0402, 11.82025, 13.548]},
			"faces": {
				"north": {"uv": [4, 3.25, 4.75, 3.25], "texture": "#0"},
				"east": {"uv": [4, 3.25, 4.75, 3.25], "texture": "#0"},
				"south": {"uv": [4, 3.25, 4.75, 3.25], "texture": "#0"},
				"west": {"uv": [4, 3.25, 4.75, 3.25], "texture": "#0"},
				"up": {"uv": [4, 3.25, 4.75, 3.25], "texture": "#0"},
				"down": {"uv": [4, 3.25, 4.75, 3.25], "texture": "#0"}
			}
		},
		{
			"name": "hexadecagon",
			"from": [7.94074, 12.14425, 14.296],
			"to": [8.13965, 12.32025, 14.976],
			"rotation": {"angle": 22.5, "axis": "z", "origin": [8.0402, 11.82025, 13.548]},
			"faces": {
				"north": {"uv": [4, 3.25, 4.75, 3.25], "texture": "#0"},
				"east": {"uv": [4, 3.25, 4.75, 3.25], "texture": "#0"},
				"south": {"uv": [4, 3.25, 4.75, 3.25], "texture": "#0"},
				"west": {"uv": [4, 3.25, 4.75, 3.25], "texture": "#0"},
				"up": {"uv": [4, 3.25, 4.75, 3.25], "texture": "#0"},
				"down": {"uv": [4, 3.25, 4.75, 3.25], "texture": "#0"}
			}
		},
		{
			"name": "hexadecagon",
			"from": [7.94074, 12.14425, 14.296],
			"to": [8.13965, 12.32025, 14.976],
			"rotation": {"angle": 45, "axis": "z", "origin": [8.0402, 11.82025, 13.548]},
			"faces": {
				"north": {"uv": [4, 3.25, 4.75, 3.25], "texture": "#0"},
				"east": {"uv": [4, 3.25, 4.75, 3.25], "texture": "#0"},
				"south": {"uv": [4, 3.25, 4.75, 3.25], "texture": "#0"},
				"west": {"uv": [4, 3.25, 4.75, 3.25], "texture": "#0"},
				"up": {"uv": [4, 3.25, 4.75, 3.25], "texture": "#0"},
				"down": {"uv": [4, 3.25, 4.75, 3.25], "texture": "#0"}
			}
		},
		{
			"name": "hexadecagon",
			"from": [7.5402, 11.72079, 14.296],
			"to": [7.7162, 11.91971, 14.976],
			"rotation": {"angle": -22.5, "axis": "z", "origin": [8.0402, 11.82025, 13.548]},
			"faces": {
				"north": {"uv": [4, 3.25, 4.75, 3.25], "texture": "#0"},
				"east": {"uv": [4, 3.25, 4.75, 3.25], "texture": "#0"},
				"south": {"uv": [4, 3.25, 4.75, 3.25], "texture": "#0"},
				"west": {"uv": [4, 3.25, 4.75, 3.25], "texture": "#0"},
				"up": {"uv": [4, 3.25, 4.75, 3.25], "texture": "#0"},
				"down": {"uv": [4, 3.25, 4.75, 3.25], "texture": "#0"}
			}
		},
		{
			"name": "hexadecagon",
			"from": [7.5402, 11.72079, 14.296],
			"to": [7.7162, 11.91971, 14.976],
			"rotation": {"angle": 0, "axis": "y", "origin": [8.0402, 11.82025, 13.548]},
			"faces": {
				"north": {"uv": [4, 3.25, 4.75, 3.25], "texture": "#0"},
				"east": {"uv": [4, 3.25, 4.75, 3.25], "texture": "#0"},
				"south": {"uv": [4, 3.25, 4.75, 3.25], "texture": "#0"},
				"west": {"uv": [4, 3.25, 4.75, 3.25], "texture": "#0"},
				"up": {"uv": [4, 3.25, 4.75, 3.25], "texture": "#0"},
				"down": {"uv": [4, 3.25, 4.75, 3.25], "texture": "#0"}
			}
		},
		{
			"name": "hexadecagon",
			"from": [7.5402, 11.72079, 14.296],
			"to": [7.7162, 11.91971, 14.976],
			"rotation": {"angle": 22.5, "axis": "z", "origin": [8.0402, 11.82025, 13.548]},
			"faces": {
				"north": {"uv": [4, 3.25, 4.75, 3.25], "texture": "#0"},
				"east": {"uv": [4, 3.25, 4.75, 3.25], "texture": "#0"},
				"south": {"uv": [4, 3.25, 4.75, 3.25], "texture": "#0"},
				"west": {"uv": [4, 3.25, 4.75, 3.25], "texture": "#0"},
				"up": {"uv": [4, 3.25, 4.75, 3.25], "texture": "#0"},
				"down": {"uv": [4, 3.25, 4.75, 3.25], "texture": "#0"}
			}
		},
		{
			"name": "hexadecagon",
			"from": [8.3642, 11.72079, 14.296],
			"to": [8.5402, 11.91971, 14.976],
			"rotation": {"angle": -22.5, "axis": "z", "origin": [8.0402, 11.82025, 13.548]},
			"faces": {
				"north": {"uv": [4, 3.25, 4.75, 3.25], "texture": "#0"},
				"east": {"uv": [4, 3.25, 4.75, 3.25], "texture": "#0"},
				"south": {"uv": [4, 3.25, 4.75, 3.25], "texture": "#0"},
				"west": {"uv": [4, 3.25, 4.75, 3.25], "texture": "#0"},
				"up": {"uv": [4, 3.25, 4.75, 3.25], "texture": "#0"},
				"down": {"uv": [4, 3.25, 4.75, 3.25], "texture": "#0"}
			}
		},
		{
			"name": "hexadecagon",
			"from": [8.3642, 11.72079, 14.296],
			"to": [8.5402, 11.91971, 14.976],
			"rotation": {"angle": 0, "axis": "y", "origin": [8.0402, 11.82025, 13.548]},
			"faces": {
				"north": {"uv": [4, 3.25, 4.75, 3.25], "texture": "#0"},
				"east": {"uv": [4, 3.25, 4.75, 3.25], "texture": "#0"},
				"south": {"uv": [4, 3.25, 4.75, 3.25], "texture": "#0"},
				"west": {"uv": [4, 3.25, 4.75, 3.25], "texture": "#0"},
				"up": {"uv": [4, 3.25, 4.75, 3.25], "texture": "#0"},
				"down": {"uv": [4, 3.25, 4.75, 3.25], "texture": "#0"}
			}
		},
		{
			"name": "hexadecagon",
			"from": [8.3642, 11.72079, 14.296],
			"to": [8.5402, 11.91971, 14.976],
			"rotation": {"angle": 22.5, "axis": "z", "origin": [8.0402, 11.82025, 13.548]},
			"faces": {
				"north": {"uv": [4, 3.25, 4.75, 3.25], "texture": "#0"},
				"east": {"uv": [4, 3.25, 4.75, 3.25], "texture": "#0"},
				"south": {"uv": [4, 3.25, 4.75, 3.25], "texture": "#0"},
				"west": {"uv": [4, 3.25, 4.75, 3.25], "texture": "#0"},
				"up": {"uv": [4, 3.25, 4.75, 3.25], "texture": "#0"},
				"down": {"uv": [4, 3.25, 4.75, 3.25], "texture": "#0"}
			}
		},
		{
			"name": "hexadecagon",
			"from": [7.94074, 11.32025, 12.28],
			"to": [8.13965, 11.49625, 12.96],
			"rotation": {"angle": -45, "axis": "z", "origin": [8.0402, 11.82025, 11.532]},
			"faces": {
				"north": {"uv": [4, 3.25, 4.75, 3.25], "texture": "#0"},
				"east": {"uv": [4, 3.25, 4.75, 3.25], "texture": "#0"},
				"south": {"uv": [4, 3.25, 4.75, 3.25], "texture": "#0"},
				"west": {"uv": [4, 3.25, 4.75, 3.25], "texture": "#0"},
				"up": {"uv": [4, 3.25, 4.75, 3.25], "texture": "#0"},
				"down": {"uv": [4, 3.25, 4.75, 3.25], "texture": "#0"}
			}
		},
		{
			"name": "hexadecagon",
			"from": [7.94074, 11.32025, 12.28],
			"to": [8.13965, 11.49625, 12.96],
			"rotation": {"angle": -22.5, "axis": "z", "origin": [8.0402, 11.82025, 11.532]},
			"faces": {
				"north": {"uv": [4, 3.25, 4.75, 3.25], "texture": "#0"},
				"east": {"uv": [4, 3.25, 4.75, 3.25], "texture": "#0"},
				"south": {"uv": [4, 3.25, 4.75, 3.25], "texture": "#0"},
				"west": {"uv": [4, 3.25, 4.75, 3.25], "texture": "#0"},
				"up": {"uv": [4, 3.25, 4.75, 3.25], "texture": "#0"},
				"down": {"uv": [4, 3.25, 4.75, 3.25], "texture": "#0"}
			}
		},
		{
			"name": "hexadecagon",
			"from": [7.94074, 11.32025, 12.28],
			"to": [8.13965, 11.49625, 12.96],
			"rotation": {"angle": 0, "axis": "y", "origin": [8.0402, 11.82025, 11.532]},
			"faces": {
				"north": {"uv": [4, 3.25, 4.75, 3.25], "texture": "#0"},
				"east": {"uv": [4, 3.25, 4.75, 3.25], "texture": "#0"},
				"south": {"uv": [4, 3.25, 4.75, 3.25], "texture": "#0"},
				"west": {"uv": [4, 3.25, 4.75, 3.25], "texture": "#0"},
				"up": {"uv": [4, 3.25, 4.75, 3.25], "texture": "#0"},
				"down": {"uv": [4, 3.25, 4.75, 3.25], "texture": "#0"}
			}
		},
		{
			"name": "hexadecagon",
			"from": [7.94074, 11.32025, 12.28],
			"to": [8.13965, 11.49625, 12.96],
			"rotation": {"angle": 22.5, "axis": "z", "origin": [8.0402, 11.82025, 11.532]},
			"faces": {
				"north": {"uv": [4, 3.25, 4.75, 3.25], "texture": "#0"},
				"east": {"uv": [4, 3.25, 4.75, 3.25], "texture": "#0"},
				"south": {"uv": [4, 3.25, 4.75, 3.25], "texture": "#0"},
				"west": {"uv": [4, 3.25, 4.75, 3.25], "texture": "#0"},
				"up": {"uv": [4, 3.25, 4.75, 3.25], "texture": "#0"},
				"down": {"uv": [4, 3.25, 4.75, 3.25], "texture": "#0"}
			}
		},
		{
			"name": "hexadecagon",
			"from": [7.94074, 11.32025, 12.28],
			"to": [8.13965, 11.49625, 12.96],
			"rotation": {"angle": 45, "axis": "z", "origin": [8.0402, 11.82025, 11.532]},
			"faces": {
				"north": {"uv": [4, 3.25, 4.75, 3.25], "texture": "#0"},
				"east": {"uv": [4, 3.25, 4.75, 3.25], "texture": "#0"},
				"south": {"uv": [4, 3.25, 4.75, 3.25], "texture": "#0"},
				"west": {"uv": [4, 3.25, 4.75, 3.25], "texture": "#0"},
				"up": {"uv": [4, 3.25, 4.75, 3.25], "texture": "#0"},
				"down": {"uv": [4, 3.25, 4.75, 3.25], "texture": "#0"}
			}
		},
		{
			"name": "hexadecagon",
			"from": [7.94074, 12.14425, 12.28],
			"to": [8.13965, 12.32025, 12.96],
			"rotation": {"angle": -45, "axis": "z", "origin": [8.0402, 11.82025, 11.532]},
			"faces": {
				"north": {"uv": [4, 3.25, 4.75, 3.25], "texture": "#0"},
				"east": {"uv": [4, 3.25, 4.75, 3.25], "texture": "#0"},
				"south": {"uv": [4, 3.25, 4.75, 3.25], "texture": "#0"},
				"west": {"uv": [4, 3.25, 4.75, 3.25], "texture": "#0"},
				"up": {"uv": [4, 3.25, 4.75, 3.25], "texture": "#0"},
				"down": {"uv": [4, 3.25, 4.75, 3.25], "texture": "#0"}
			}
		},
		{
			"name": "hexadecagon",
			"from": [7.94074, 12.14425, 12.28],
			"to": [8.13965, 12.32025, 12.96],
			"rotation": {"angle": -22.5, "axis": "z", "origin": [8.0402, 11.82025, 11.532]},
			"faces": {
				"north": {"uv": [4, 3.25, 4.75, 3.25], "texture": "#0"},
				"east": {"uv": [4, 3.25, 4.75, 3.25], "texture": "#0"},
				"south": {"uv": [4, 3.25, 4.75, 3.25], "texture": "#0"},
				"west": {"uv": [4, 3.25, 4.75, 3.25], "texture": "#0"},
				"up": {"uv": [4, 3.25, 4.75, 3.25], "texture": "#0"},
				"down": {"uv": [4, 3.25, 4.75, 3.25], "texture": "#0"}
			}
		},
		{
			"name": "hexadecagon",
			"from": [7.94074, 12.14425, 12.28],
			"to": [8.13965, 12.32025, 12.96],
			"rotation": {"angle": 0, "axis": "y", "origin": [8.0402, 11.82025, 11.532]},
			"faces": {
				"north": {"uv": [4, 3.25, 4.75, 3.25], "texture": "#0"},
				"east": {"uv": [4, 3.25, 4.75, 3.25], "texture": "#0"},
				"south": {"uv": [4, 3.25, 4.75, 3.25], "texture": "#0"},
				"west": {"uv": [4, 3.25, 4.75, 3.25], "texture": "#0"},
				"up": {"uv": [4, 3.25, 4.75, 3.25], "texture": "#0"},
				"down": {"uv": [4, 3.25, 4.75, 3.25], "texture": "#0"}
			}
		},
		{
			"name": "hexadecagon",
			"from": [7.94074, 12.14425, 12.28],
			"to": [8.13965, 12.32025, 12.96],
			"rotation": {"angle": 22.5, "axis": "z", "origin": [8.0402, 11.82025, 11.532]},
			"faces": {
				"north": {"uv": [4, 3.25, 4.75, 3.25], "texture": "#0"},
				"east": {"uv": [4, 3.25, 4.75, 3.25], "texture": "#0"},
				"south": {"uv": [4, 3.25, 4.75, 3.25], "texture": "#0"},
				"west": {"uv": [4, 3.25, 4.75, 3.25], "texture": "#0"},
				"up": {"uv": [4, 3.25, 4.75, 3.25], "texture": "#0"},
				"down": {"uv": [4, 3.25, 4.75, 3.25], "texture": "#0"}
			}
		},
		{
			"name": "hexadecagon",
			"from": [7.94074, 12.14425, 12.28],
			"to": [8.13965, 12.32025, 12.96],
			"rotation": {"angle": 45, "axis": "z", "origin": [8.0402, 11.82025, 11.532]},
			"faces": {
				"north": {"uv": [4, 3.25, 4.75, 3.25], "texture": "#0"},
				"east": {"uv": [4, 3.25, 4.75, 3.25], "texture": "#0"},
				"south": {"uv": [4, 3.25, 4.75, 3.25], "texture": "#0"},
				"west": {"uv": [4, 3.25, 4.75, 3.25], "texture": "#0"},
				"up": {"uv": [4, 3.25, 4.75, 3.25], "texture": "#0"},
				"down": {"uv": [4, 3.25, 4.75, 3.25], "texture": "#0"}
			}
		},
		{
			"name": "hexadecagon",
			"from": [7.5402, 11.72079, 12.28],
			"to": [7.7162, 11.91971, 12.96],
			"rotation": {"angle": -22.5, "axis": "z", "origin": [8.0402, 11.82025, 11.532]},
			"faces": {
				"north": {"uv": [4, 3.25, 4.75, 3.25], "texture": "#0"},
				"east": {"uv": [4, 3.25, 4.75, 3.25], "texture": "#0"},
				"south": {"uv": [4, 3.25, 4.75, 3.25], "texture": "#0"},
				"west": {"uv": [4, 3.25, 4.75, 3.25], "texture": "#0"},
				"up": {"uv": [4, 3.25, 4.75, 3.25], "texture": "#0"},
				"down": {"uv": [4, 3.25, 4.75, 3.25], "texture": "#0"}
			}
		},
		{
			"name": "hexadecagon",
			"from": [7.5402, 11.72079, 12.28],
			"to": [7.7162, 11.91971, 12.96],
			"rotation": {"angle": 0, "axis": "y", "origin": [8.0402, 11.82025, 11.532]},
			"faces": {
				"north": {"uv": [4, 3.25, 4.75, 3.25], "texture": "#0"},
				"east": {"uv": [4, 3.25, 4.75, 3.25], "texture": "#0"},
				"south": {"uv": [4, 3.25, 4.75, 3.25], "texture": "#0"},
				"west": {"uv": [4, 3.25, 4.75, 3.25], "texture": "#0"},
				"up": {"uv": [4, 3.25, 4.75, 3.25], "texture": "#0"},
				"down": {"uv": [4, 3.25, 4.75, 3.25], "texture": "#0"}
			}
		},
		{
			"name": "hexadecagon",
			"from": [7.5402, 11.72079, 12.28],
			"to": [7.7162, 11.91971, 12.96],
			"rotation": {"angle": 22.5, "axis": "z", "origin": [8.0402, 11.82025, 11.532]},
			"faces": {
				"north": {"uv": [4, 3.25, 4.75, 3.25], "texture": "#0"},
				"east": {"uv": [4, 3.25, 4.75, 3.25], "texture": "#0"},
				"south": {"uv": [4, 3.25, 4.75, 3.25], "texture": "#0"},
				"west": {"uv": [4, 3.25, 4.75, 3.25], "texture": "#0"},
				"up": {"uv": [4, 3.25, 4.75, 3.25], "texture": "#0"},
				"down": {"uv": [4, 3.25, 4.75, 3.25], "texture": "#0"}
			}
		},
		{
			"name": "hexadecagon",
			"from": [8.3642, 11.72079, 12.28],
			"to": [8.5402, 11.91971, 12.96],
			"rotation": {"angle": -22.5, "axis": "z", "origin": [8.0402, 11.82025, 11.532]},
			"faces": {
				"north": {"uv": [4, 3.25, 4.75, 3.25], "texture": "#0"},
				"east": {"uv": [4, 3.25, 4.75, 3.25], "texture": "#0"},
				"south": {"uv": [4, 3.25, 4.75, 3.25], "texture": "#0"},
				"west": {"uv": [4, 3.25, 4.75, 3.25], "texture": "#0"},
				"up": {"uv": [4, 3.25, 4.75, 3.25], "texture": "#0"},
				"down": {"uv": [4, 3.25, 4.75, 3.25], "texture": "#0"}
			}
		},
		{
			"name": "hexadecagon",
			"from": [8.3642, 11.72079, 12.28],
			"to": [8.5402, 11.91971, 12.96],
			"rotation": {"angle": 0, "axis": "y", "origin": [8.0402, 11.82025, 11.532]},
			"faces": {
				"north": {"uv": [4, 3.25, 4.75, 3.25], "texture": "#0"},
				"east": {"uv": [4, 3.25, 4.75, 3.25], "texture": "#0"},
				"south": {"uv": [4, 3.25, 4.75, 3.25], "texture": "#0"},
				"west": {"uv": [4, 3.25, 4.75, 3.25], "texture": "#0"},
				"up": {"uv": [4, 3.25, 4.75, 3.25], "texture": "#0"},
				"down": {"uv": [4, 3.25, 4.75, 3.25], "texture": "#0"}
			}
		},
		{
			"name": "hexadecagon",
			"from": [8.3642, 11.72079, 12.28],
			"to": [8.5402, 11.91971, 12.96],
			"rotation": {"angle": 22.5, "axis": "z", "origin": [8.0402, 11.82025, 11.532]},
			"faces": {
				"north": {"uv": [4, 3.25, 4.75, 3.25], "texture": "#0"},
				"east": {"uv": [4, 3.25, 4.75, 3.25], "texture": "#0"},
				"south": {"uv": [4, 3.25, 4.75, 3.25], "texture": "#0"},
				"west": {"uv": [4, 3.25, 4.75, 3.25], "texture": "#0"},
				"up": {"uv": [4, 3.25, 4.75, 3.25], "texture": "#0"},
				"down": {"uv": [4, 3.25, 4.75, 3.25], "texture": "#0"}
			}
		},
		{
			"name": "hexadecagon",
			"from": [7.94074, 11.67225, 13.112],
			"to": [8.13965, 12.57625, 14.112],
			"rotation": {"angle": -45, "axis": "y", "origin": [8.0402, 11.82025, 13.612]},
			"faces": {
				"north": {"uv": [3.875, 3, 4.125, 3.875], "texture": "#0"},
				"east": {"uv": [3.875, 3, 4.125, 3.875], "texture": "#0"},
				"south": {"uv": [3.875, 3, 4.125, 3.875], "texture": "#0"},
				"west": {"uv": [3.875, 3, 4.125, 3.875], "texture": "#0"},
				"up": {"uv": [3.875, 3, 4.125, 3.875], "texture": "#0"},
				"down": {"uv": [3.875, 3, 4.125, 3.875], "texture": "#0"}
			}
		},
		{
			"name": "hexadecagon",
			"from": [7.94074, 11.67225, 13.112],
			"to": [8.13965, 12.57625, 14.112],
			"rotation": {"angle": -22.5, "axis": "y", "origin": [8.0402, 11.82025, 13.612]},
			"faces": {
				"north": {"uv": [3.875, 3, 4.125, 3.875], "texture": "#0"},
				"east": {"uv": [3.875, 3, 4.125, 3.875], "texture": "#0"},
				"south": {"uv": [3.875, 3, 4.125, 3.875], "texture": "#0"},
				"west": {"uv": [3.875, 3, 4.125, 3.875], "texture": "#0"},
				"up": {"uv": [3.875, 3, 4.125, 3.875], "texture": "#0"},
				"down": {"uv": [3.875, 3, 4.125, 3.875], "texture": "#0"}
			}
		},
		{
			"name": "hexadecagon",
			"from": [7.94074, 11.67225, 13.112],
			"to": [8.13965, 12.57625, 14.112],
			"rotation": {"angle": 0, "axis": "y", "origin": [8.0402, 11.82025, 13.612]},
			"faces": {
				"north": {"uv": [3.875, 3, 4.125, 3.875], "texture": "#0"},
				"east": {"uv": [3.875, 3, 4.125, 3.875], "texture": "#0"},
				"south": {"uv": [3.875, 3, 4.125, 3.875], "texture": "#0"},
				"west": {"uv": [3.875, 3, 4.125, 3.875], "texture": "#0"},
				"up": {"uv": [3.875, 3, 4.125, 3.875], "texture": "#0"},
				"down": {"uv": [3.875, 3, 4.125, 3.875], "texture": "#0"}
			}
		},
		{
			"name": "hexadecagon",
			"from": [7.97274, 11.67225, 13.528],
			"to": [8.13965, 12.60825, 13.696],
			"rotation": {"angle": -45, "axis": "y", "origin": [8.0402, 11.82025, 13.612]},
			"faces": {
				"north": {"uv": [2.25, 2.875, 2.375, 3.75], "texture": "#0"},
				"east": {"uv": [2.25, 2.875, 2.375, 3.75], "texture": "#0"},
				"south": {"uv": [2.25, 2.875, 2.375, 3.75], "texture": "#0"},
				"west": {"uv": [2.25, 2.875, 2.375, 3.75], "texture": "#0"},
				"up": {"uv": [2.25, 2.875, 2.375, 3.75], "texture": "#0"},
				"down": {"uv": [2.25, 2.875, 2.375, 3.75], "texture": "#0"}
			}
		},
		{
			"name": "hexadecagon",
			"from": [7.94074, 11.67225, 13.112],
			"to": [8.13965, 12.57625, 14.112],
			"rotation": {"angle": 22.5, "axis": "y", "origin": [8.0402, 11.82025, 13.612]},
			"faces": {
				"north": {"uv": [3.875, 3, 4.125, 3.875], "texture": "#0"},
				"east": {"uv": [3.875, 3, 4.125, 3.875], "texture": "#0"},
				"south": {"uv": [3.875, 3, 4.125, 3.875], "texture": "#0"},
				"west": {"uv": [3.875, 3, 4.125, 3.875], "texture": "#0"},
				"up": {"uv": [3.875, 3, 4.125, 3.875], "texture": "#0"},
				"down": {"uv": [3.875, 3, 4.125, 3.875], "texture": "#0"}
			}
		},
		{
			"name": "hexadecagon",
			"from": [7.94074, 11.67225, 13.112],
			"to": [8.13965, 12.57625, 14.112],
			"rotation": {"angle": 45, "axis": "y", "origin": [8.0402, 11.82025, 13.612]},
			"faces": {
				"north": {"uv": [3.875, 3, 4.125, 3.875], "texture": "#0"},
				"east": {"uv": [3.875, 3, 4.125, 3.875], "texture": "#0"},
				"south": {"uv": [3.875, 3, 4.125, 3.875], "texture": "#0"},
				"west": {"uv": [3.875, 3, 4.125, 3.875], "texture": "#0"},
				"up": {"uv": [3.875, 3, 4.125, 3.875], "texture": "#0"},
				"down": {"uv": [3.875, 3, 4.125, 3.875], "texture": "#0"}
			}
		},
		{
			"name": "hexadecagon",
			"from": [7.5402, 11.67225, 13.51254],
			"to": [8.5402, 12.57625, 13.71146],
			"rotation": {"angle": -22.5, "axis": "y", "origin": [8.0402, 11.82025, 13.612]},
			"faces": {
				"north": {"uv": [3.875, 3, 4.125, 3.875], "texture": "#0"},
				"east": {"uv": [3.875, 3, 4.125, 3.875], "texture": "#0"},
				"south": {"uv": [3.875, 3, 4.125, 3.875], "texture": "#0"},
				"west": {"uv": [3.875, 3, 4.125, 3.875], "texture": "#0"},
				"up": {"uv": [3.875, 3, 4.125, 3.875], "rotation": 90, "texture": "#0"},
				"down": {"uv": [3.875, 3, 4.125, 3.875], "texture": "#0"}
			}
		},
		{
			"name": "hexadecagon",
			"from": [7.5402, 11.67225, 13.51254],
			"to": [8.5402, 12.57625, 13.71146],
			"rotation": {"angle": 0, "axis": "y", "origin": [8.0402, 11.82025, 13.612]},
			"faces": {
				"north": {"uv": [3.875, 3, 4.125, 3.875], "texture": "#0"},
				"east": {"uv": [3.875, 3, 4.125, 3.875], "texture": "#0"},
				"south": {"uv": [3.875, 3, 4.125, 3.875], "texture": "#0"},
				"west": {"uv": [3.875, 3, 4.125, 3.875], "texture": "#0"},
				"up": {"uv": [3.875, 3, 4.125, 3.875], "rotation": 90, "texture": "#0"},
				"down": {"uv": [3.875, 3, 4.125, 3.875], "texture": "#0"}
			}
		},
		{
			"name": "hexadecagon",
			"from": [7.5402, 11.67225, 13.51254],
			"to": [8.5402, 12.57625, 13.71146],
			"rotation": {"angle": 22.5, "axis": "y", "origin": [8.0402, 11.82025, 13.612]},
			"faces": {
				"north": {"uv": [3.875, 3, 4.125, 3.875], "texture": "#0"},
				"east": {"uv": [3.875, 3, 4.125, 3.875], "texture": "#0"},
				"south": {"uv": [3.875, 3, 4.125, 3.875], "texture": "#0"},
				"west": {"uv": [3.875, 3, 4.125, 3.875], "texture": "#0"},
				"up": {"uv": [3.875, 3, 4.125, 3.875], "rotation": 90, "texture": "#0"},
				"down": {"uv": [3.875, 3, 4.125, 3.875], "texture": "#0"}
			}
		},
		{
			"name": "hexadecagon",
			"from": [7.4928, 11.77254, 13.1],
			"to": [8.5888, 11.97146, 14.1],
			"rotation": {"angle": -45, "axis": "x", "origin": [8.0568, 11.872, 13.6]},
			"faces": {
				"north": {"uv": [4, 2.75, 4.25, 2.875], "texture": "#0"},
				"east": {"uv": [4, 2.75, 4.25, 2.875], "texture": "#0"},
				"south": {"uv": [4, 2.75, 4.25, 2.875], "texture": "#0"},
				"west": {"uv": [4, 2.75, 4.25, 2.875], "texture": "#0"},
				"up": {"uv": [4, 2.75, 4.25, 2.875], "texture": "#0"},
				"down": {"uv": [4, 2.75, 4.25, 2.875], "texture": "#0"}
			}
		},
		{
			"name": "hexadecagon",
			"from": [7.4928, 11.77254, 13.1],
			"to": [8.5888, 11.97146, 14.1],
			"rotation": {"angle": -22.5, "axis": "x", "origin": [8.0568, 11.872, 13.6]},
			"faces": {
				"north": {"uv": [4, 2.75, 4.25, 2.875], "texture": "#0"},
				"east": {"uv": [4, 2.75, 4.25, 2.875], "texture": "#0"},
				"south": {"uv": [4, 2.75, 4.25, 2.875], "texture": "#0"},
				"west": {"uv": [4, 2.75, 4.25, 2.875], "texture": "#0"},
				"up": {"uv": [4, 2.75, 4.25, 2.875], "texture": "#0"},
				"down": {"uv": [4, 2.75, 4.25, 2.875], "texture": "#0"}
			}
		},
		{
			"name": "hexadecagon",
			"from": [7.4928, 11.77254, 13.1],
			"to": [8.5888, 11.97146, 14.1],
			"rotation": {"angle": 0, "axis": "y", "origin": [8.0568, 11.872, 13.6]},
			"faces": {
				"north": {"uv": [4, 2.75, 4.25, 2.875], "texture": "#0"},
				"east": {"uv": [4, 2.75, 4.25, 2.875], "texture": "#0"},
				"south": {"uv": [4, 2.75, 4.25, 2.875], "texture": "#0"},
				"west": {"uv": [4, 2.75, 4.25, 2.875], "texture": "#0"},
				"up": {"uv": [4, 2.75, 4.25, 2.875], "texture": "#0"},
				"down": {"uv": [4, 2.75, 4.25, 2.875], "texture": "#0"}
			}
		},
		{
			"name": "hexadecagon",
			"from": [7.4928, 11.77254, 13.1],
			"to": [8.5888, 11.97146, 14.1],
			"rotation": {"angle": 22.5, "axis": "x", "origin": [8.0568, 11.872, 13.6]},
			"faces": {
				"north": {"uv": [4, 2.75, 4.25, 2.875], "texture": "#0"},
				"east": {"uv": [4, 2.75, 4.25, 2.875], "texture": "#0"},
				"south": {"uv": [4, 2.75, 4.25, 2.875], "texture": "#0"},
				"west": {"uv": [4, 2.75, 4.25, 2.875], "texture": "#0"},
				"up": {"uv": [4, 2.75, 4.25, 2.875], "texture": "#0"},
				"down": {"uv": [4, 2.75, 4.25, 2.875], "texture": "#0"}
			}
		},
		{
			"name": "hexadecagon",
			"from": [7.4928, 11.77254, 13.1],
			"to": [8.5888, 11.97146, 14.1],
			"rotation": {"angle": 45, "axis": "x", "origin": [8.0568, 11.872, 13.6]},
			"faces": {
				"north": {"uv": [4, 2.75, 4.25, 2.875], "texture": "#0"},
				"east": {"uv": [4, 2.75, 4.25, 2.875], "texture": "#0"},
				"south": {"uv": [4, 2.75, 4.25, 2.875], "texture": "#0"},
				"west": {"uv": [4, 2.75, 4.25, 2.875], "texture": "#0"},
				"up": {"uv": [4, 2.75, 4.25, 2.875], "texture": "#0"},
				"down": {"uv": [4, 2.75, 4.25, 2.875], "texture": "#0"}
			}
		},
		{
			"name": "hexadecagon",
			"from": [7.4928, 11.372, 13.50054],
			"to": [8.5888, 12.372, 13.69946],
			"rotation": {"angle": -22.5, "axis": "x", "origin": [8.0568, 11.872, 13.6]},
			"faces": {
				"north": {"uv": [4, 2.75, 4.25, 2.875], "texture": "#0"},
				"east": {"uv": [4, 2.75, 4.25, 2.875], "texture": "#0"},
				"south": {"uv": [4, 2.75, 4.25, 2.875], "texture": "#0"},
				"west": {"uv": [4, 2.75, 4.25, 2.875], "texture": "#0"},
				"up": {"uv": [4, 2.75, 4.25, 2.875], "texture": "#0"},
				"down": {"uv": [4, 2.75, 4.25, 2.875], "texture": "#0"}
			}
		},
		{
			"name": "hexadecagon",
			"from": [7.4928, 11.372, 13.50054],
			"to": [8.5888, 12.372, 13.69946],
			"rotation": {"angle": 0, "axis": "y", "origin": [8.0568, 11.872, 13.6]},
			"faces": {
				"north": {"uv": [4, 2.75, 4.25, 2.875], "texture": "#0"},
				"east": {"uv": [4, 2.75, 4.25, 2.875], "texture": "#0"},
				"south": {"uv": [4, 2.75, 4.25, 2.875], "texture": "#0"},
				"west": {"uv": [4, 2.75, 4.25, 2.875], "texture": "#0"},
				"up": {"uv": [4, 2.75, 4.25, 2.875], "texture": "#0"},
				"down": {"uv": [4, 2.75, 4.25, 2.875], "texture": "#0"}
			}
		},
		{
			"name": "hexadecagon",
			"from": [7.4928, 11.372, 13.50054],
			"to": [8.5888, 12.372, 13.69946],
			"rotation": {"angle": 22.5, "axis": "x", "origin": [8.0568, 11.872, 13.6]},
			"faces": {
				"north": {"uv": [4, 2.75, 4.25, 2.875], "texture": "#0"},
				"east": {"uv": [4, 2.75, 4.25, 2.875], "texture": "#0"},
				"south": {"uv": [4, 2.75, 4.25, 2.875], "texture": "#0"},
				"west": {"uv": [4, 2.75, 4.25, 2.875], "texture": "#0"},
				"up": {"uv": [4, 2.75, 4.25, 2.875], "texture": "#0"},
				"down": {"uv": [4, 2.75, 4.25, 2.875], "texture": "#0"}
			}
		}
	],
	"display": {
		"thirdperson_righthand": {
			"rotation": [0.5, 0, 1.25],
			"translation": [-1.25, -0.75, -6],
			"scale": [1, 1, 0.83]
		},
		"thirdperson_lefthand": {
			"rotation": [3, 0, 0],
			"translation": [-0.75, -0.75, -5.75],
			"scale": [1, 1, 0.83]
		},
		"firstperson_righthand": {
			"rotation": [1, 1, 0],
			"translation": [-5.25, 3.5, -0.75],
			"scale": [1.19, 1.14, 0.87]
		},
		"firstperson_lefthand": {
			"rotation": [1, 1, 0],
			"translation": [-3.5, 3.25, -4.5],
			"scale": [1.19, 1.14, 0.87]
		},
		"ground": {
			"translation": [0, 0, -3.25]
		},
		"gui": {
			"rotation": [11, 16, -16],
			"translation": [-0.75, -0.25, 0],
			"scale": [1.25, 1.28, 1.60945]
		},
		"head": {
			"rotation": [0, -139, 90],
			"translation": [2.5, 6.5, 4.5],
			"scale": [1.36, 1.36, 1.36]
		},
		"fixed": {
			"rotation": [0, -90, 0],
			"translation": [4, 0, -1.75],
			"scale": [1.58, 1.39, 1.28]
		}
	}
}