{
	"credit": "Made with Blockbench",
	"textures": {
		"0": "gci:items/common/all_in_one",
		"particle": "gci:items/common/all_in_one"
	},
	"elements": [
		{
			"from": [7.69851, 8.79104, 18.1772],
			"to": [8.35841, 10.09104, 25.6772],
			"rotation": {"angle": 0, "axis": "y", "origin": [8.02846, 8.68888, 24.01276]},
			"faces": {
				"north": {"uv": [9.25, 11.875, 9.375, 12.375], "rotation": 180, "texture": "#0"},
				"east": {"uv": [9.25, 11.875, 9.375, 12.375], "rotation": 180, "texture": "#0"},
				"south": {"uv": [9.25, 11.875, 9.25, 11.875], "rotation": 180, "texture": "#0"},
				"west": {"uv": [9.25, 11.875, 9.375, 12.375], "rotation": 180, "texture": "#0"},
				"up": {"uv": [9.25, 11.875, 9.375, 12.375], "rotation": 180, "texture": "#0"},
				"down": {"uv": [9.25, 11.875, 9.375, 12.375], "rotation": 180, "texture": "#0"}
			}
		},
		{
			"from": [7.79851, 10.09104, 18.1772],
			"to": [8.25841, 10.19104, 25.7772],
			"rotation": {"angle": 0, "axis": "y", "origin": [8.02846, 8.78888, 24.01276]},
			"faces": {
				"north": {"uv": [9.25, 11.875, 9.375, 12.375], "rotation": 180, "texture": "#0"},
				"east": {"uv": [9.25, 11.875, 9.375, 12.375], "rotation": 180, "texture": "#0"},
				"south": {"uv": [9.25, 11.875, 9.25, 11.875], "rotation": 180, "texture": "#0"},
				"west": {"uv": [9.25, 11.875, 9.375, 12.375], "rotation": 180, "texture": "#0"},
				"up": {"uv": [9.25, 11.875, 9.375, 12.375], "rotation": 180, "texture": "#0"},
				"down": {"uv": [9.25, 11.875, 9.375, 12.375], "rotation": 180, "texture": "#0"}
			}
		},
		{
			"from": [7.79851, 10.09104, 25.7772],
			"to": [8.25841, 10.19104, 26.0012],
			"rotation": {"angle": 0, "axis": "y", "origin": [8.02846, 8.78888, 24.20476]},
			"faces": {
				"north": {"uv": [4.125, 3.75, 4.25, 3.75], "rotation": 180, "texture": "#0"},
				"east": {"uv": [4.125, 3.75, 4.25, 3.75], "rotation": 180, "texture": "#0"},
				"south": {"uv": [3.75, 3, 3.875, 3], "rotation": 180, "texture": "#0"},
				"west": {"uv": [4.125, 3.75, 4.25, 3.75], "rotation": 180, "texture": "#0"},
				"up": {"uv": [4.125, 3.75, 4.25, 3.75], "rotation": 180, "texture": "#0"},
				"down": {"uv": [4.125, 3.75, 4.25, 3.75], "rotation": 180, "texture": "#0"}
			}
		},
		{
			"from": [7.23788, 9.11967, 18.1772],
			"to": [7.33788, 9.26167, 25.7772],
			"rotation": {"angle": -45, "axis": "z", "origin": [8.64004, 9.04962, 24.01276]},
			"faces": {
				"north": {"uv": [9.25, 11.875, 9.375, 12.375], "rotation": 90, "texture": "#0"},
				"east": {"uv": [9.25, 11.875, 9.375, 12.375], "rotation": 90, "texture": "#0"},
				"south": {"uv": [9.25, 11.875, 9.25, 11.875], "rotation": 90, "texture": "#0"},
				"west": {"uv": [9.25, 11.875, 9.375, 12.375], "rotation": 90, "texture": "#0"},
				"up": {"uv": [9.25, 11.875, 9.375, 12.375], "rotation": 90, "texture": "#0"},
				"down": {"uv": [9.25, 11.875, 9.375, 12.375], "rotation": 90, "texture": "#0"}
			}
		},
		{
			"from": [7.23788, 9.11967, 25.7772],
			"to": [7.33788, 9.26167, 26.0012],
			"rotation": {"angle": -45, "axis": "z", "origin": [8.64004, 9.04962, 24.20476]},
			"faces": {
				"north": {"uv": [4.125, 3.75, 4.25, 3.75], "rotation": 90, "texture": "#0"},
				"east": {"uv": [4.125, 3.75, 4.25, 3.75], "rotation": 90, "texture": "#0"},
				"south": {"uv": [3.75, 3, 3.875, 3], "rotation": 90, "texture": "#0"},
				"west": {"uv": [4.125, 3.75, 4.25, 3.75], "rotation": 90, "texture": "#0"},
				"up": {"uv": [4.125, 3.75, 4.25, 3.75], "rotation": 90, "texture": "#0"},
				"down": {"uv": [4.125, 3.75, 4.25, 3.75], "rotation": 90, "texture": "#0"}
			}
		},
		{
			"from": [7.28745, 10.55126, 18.1772],
			"to": [7.42945, 10.65126, 25.7772],
			"rotation": {"angle": -45, "axis": "z", "origin": [7.2174, 9.2491, 24.01276]},
			"faces": {
				"north": {"uv": [9.25, 11.875, 9.375, 12.375], "rotation": 180, "texture": "#0"},
				"east": {"uv": [9.25, 11.875, 9.375, 12.375], "rotation": 180, "texture": "#0"},
				"south": {"uv": [9.25, 11.875, 9.25, 11.875], "rotation": 180, "texture": "#0"},
				"west": {"uv": [9.25, 11.875, 9.375, 12.375], "rotation": 180, "texture": "#0"},
				"up": {"uv": [9.25, 11.875, 9.375, 12.375], "rotation": 180, "texture": "#0"},
				"down": {"uv": [9.25, 11.875, 9.375, 12.375], "rotation": 180, "texture": "#0"}
			}
		},
		{
			"from": [7.28745, 10.55126, 25.7772],
			"to": [7.42945, 10.65126, 26.0012],
			"rotation": {"angle": -45, "axis": "z", "origin": [7.2174, 9.2491, 24.20476]},
			"faces": {
				"north": {"uv": [4.125, 3.75, 4.25, 3.75], "rotation": 180, "texture": "#0"},
				"east": {"uv": [4.125, 3.75, 4.25, 3.75], "rotation": 180, "texture": "#0"},
				"south": {"uv": [3.75, 3, 3.875, 3], "rotation": 180, "texture": "#0"},
				"west": {"uv": [4.125, 3.75, 4.25, 3.75], "rotation": 180, "texture": "#0"},
				"up": {"uv": [4.125, 3.75, 4.25, 3.75], "rotation": 180, "texture": "#0"},
				"down": {"uv": [4.125, 3.75, 4.25, 3.75], "rotation": 180, "texture": "#0"}
			}
		},
		{
			"from": [7.79851, 7.39104, 18.9772],
			"to": [8.25841, 8.39104, 21.8972],
			"rotation": {"angle": 22.5, "axis": "x", "origin": [8.02846, 6.58888, 23.61276]},
			"faces": {
				"north": {"uv": [9.25, 11.875, 9.375, 12.375], "rotation": 180, "texture": "#0"},
				"east": {"uv": [9.25, 11.875, 9.375, 12.375], "rotation": 180, "texture": "#0"},
				"south": {"uv": [9.25, 11.875, 9.25, 11.875], "rotation": 180, "texture": "#0"},
				"west": {"uv": [9.25, 11.875, 9.375, 12.375], "rotation": 180, "texture": "#0"},
				"up": {"uv": [9.25, 11.875, 9.375, 12.375], "rotation": 180, "texture": "#0"},
				"down": {"uv": [9.25, 11.875, 9.375, 12.375], "rotation": 180, "texture": "#0"}
			}
		},
		{
			"from": [7.79851, 7.02799, 22.32466],
			"to": [8.25841, 9.72799, 25.62466],
			"rotation": {"angle": 0, "axis": "y", "origin": [8.02846, 8.98325, 23.43246]},
			"faces": {
				"north": {"uv": [9.25, 11.875, 9.375, 12.375], "rotation": 90, "texture": "#0"},
				"east": {"uv": [9.25, 11.875, 9.375, 12.375], "rotation": 90, "texture": "#0"},
				"south": {"uv": [9.25, 11.875, 9.25, 11.875], "rotation": 90, "texture": "#0"},
				"west": {"uv": [9.25, 11.875, 9.375, 12.375], "rotation": 90, "texture": "#0"},
				"up": {"uv": [9.25, 11.875, 9.375, 12.375], "rotation": 90, "texture": "#0"},
				"down": {"uv": [9.25, 11.875, 9.375, 12.375], "rotation": 90, "texture": "#0"}
			}
		},
		{
			"from": [7.69851, 6.79104, 22.1772],
			"to": [8.35841, 7.19104, 25.7772],
			"rotation": {"angle": 0, "axis": "y", "origin": [8.02846, 6.7463, 23.285]},
			"faces": {
				"north": {"uv": [9.25, 11.875, 9.375, 12.375], "rotation": 90, "texture": "#0"},
				"east": {"uv": [9.25, 11.875, 9.375, 12.375], "rotation": 90, "texture": "#0"},
				"south": {"uv": [9.25, 11.875, 9.25, 11.875], "rotation": 90, "texture": "#0"},
				"west": {"uv": [9.25, 11.875, 9.375, 12.375], "rotation": 90, "texture": "#0"},
				"up": {"uv": [9.25, 11.875, 9.375, 12.375], "rotation": 90, "texture": "#0"},
				"down": {"uv": [9.25, 11.875, 9.375, 12.375], "rotation": 90, "texture": "#0"}
			}
		},
		{
			"from": [7.69851, 6.79104, 25.7772],
			"to": [8.35841, 7.19104, 26.0012],
			"rotation": {"angle": 0, "axis": "y", "origin": [8.02846, 6.7463, 23.477]},
			"faces": {
				"north": {"uv": [4.125, 3.75, 4.25, 3.75], "rotation": 90, "texture": "#0"},
				"east": {"uv": [4.125, 3.75, 4.25, 3.75], "rotation": 90, "texture": "#0"},
				"south": {"uv": [3.75, 3, 3.875, 3], "rotation": 90, "texture": "#0"},
				"west": {"uv": [4.125, 3.75, 4.25, 3.75], "rotation": 90, "texture": "#0"},
				"up": {"uv": [4.125, 3.75, 4.25, 3.75], "rotation": 90, "texture": "#0"},
				"down": {"uv": [4.125, 3.75, 4.25, 3.75], "rotation": 90, "texture": "#0"}
			}
		},
		{
			"from": [7.69851, 6.77051, 22.07575],
			"to": [8.35841, 7.17051, 22.37575],
			"rotation": {"angle": 22.5, "axis": "x", "origin": [8.02846, 6.72577, 23.18355]},
			"faces": {
				"north": {"uv": [9.25, 11.875, 9.375, 12.375], "rotation": 90, "texture": "#0"},
				"east": {"uv": [9.25, 11.875, 9.375, 12.375], "rotation": 90, "texture": "#0"},
				"south": {"uv": [9.25, 11.875, 9.25, 11.875], "rotation": 90, "texture": "#0"},
				"west": {"uv": [9.25, 11.875, 9.375, 12.375], "rotation": 90, "texture": "#0"},
				"up": {"uv": [9.25, 11.875, 9.375, 12.375], "rotation": 90, "texture": "#0"},
				"down": {"uv": [9.25, 11.875, 9.375, 12.375], "rotation": 90, "texture": "#0"}
			}
		},
		{
			"from": [7.69851, 7.19104, 25.5772],
			"to": [8.35841, 10.09104, 25.7772],
			"rotation": {"angle": 0, "axis": "y", "origin": [8.02846, 8.98325, 26.33246]},
			"faces": {
				"north": {"uv": [9.25, 11.875, 9.375, 12.375], "rotation": 180, "texture": "#0"},
				"east": {"uv": [9.25, 11.875, 9.375, 12.375], "rotation": 180, "texture": "#0"},
				"south": {"uv": [9.25, 11.875, 9.25, 11.875], "rotation": 180, "texture": "#0"},
				"west": {"uv": [9.25, 11.875, 9.375, 12.375], "rotation": 180, "texture": "#0"},
				"up": {"uv": [9.25, 11.875, 9.375, 12.375], "rotation": 180, "texture": "#0"},
				"down": {"uv": [9.25, 11.875, 9.375, 12.375], "rotation": 180, "texture": "#0"}
			}
		},
		{
			"from": [7.69851, 7.19104, 25.7772],
			"to": [8.35841, 10.09104, 26.0012],
			"rotation": {"angle": 0, "axis": "y", "origin": [8.02846, 8.98325, 26.52446]},
			"faces": {
				"north": {"uv": [4.125, 3.75, 4.25, 3.75], "rotation": 180, "texture": "#0"},
				"east": {"uv": [4.125, 3.75, 4.25, 3.75], "rotation": 180, "texture": "#0"},
				"south": {"uv": [3.75, 3, 3.875, 3], "rotation": 180, "texture": "#0"},
				"west": {"uv": [4.125, 3.75, 4.25, 3.75], "rotation": 180, "texture": "#0"},
				"up": {"uv": [4.125, 3.75, 4.25, 3.75], "rotation": 180, "texture": "#0"},
				"down": {"uv": [4.125, 3.75, 4.25, 3.75], "rotation": 180, "texture": "#0"}
			}
		}
	],
	"display": {
		"thirdperson_righthand": {
			"rotation": [0.5, 0, 1.25],
			"translation": [-1.25, -0.75, -6],
			"scale": [1, 1, 0.83]
		},
		"thirdperson_lefthand": {
			"rotation": [3, 0, 0],
			"translation": [-0.75, -0.75, -5.75],
			"scale": [1, 1, 0.83]
		},
		"firstperson_righthand": {
			"rotation": [1, 1, 0],
			"translation": [-5.25, 3.5, -0.75],
			"scale": [1.19, 1.14, 0.87]
		},
		"firstperson_lefthand": {
			"rotation": [1, 1, 0],
			"translation": [-3.5, 3.25, -4.5],
			"scale": [1.19, 1.14, 0.87]
		},
		"ground": {
			"translation": [0, 0, -3.25]
		},
		"gui": {
			"rotation": [11, 16, -16],
			"translation": [-0.75, -0.25, 0],
			"scale": [1.25, 1.28, 1.60945]
		},
		"head": {
			"rotation": [0, -139, 90],
			"translation": [2.5, 6.5, 4.5],
			"scale": [1.36, 1.36, 1.36]
		},
		"fixed": {
			"rotation": [0, -90, 0],
			"translation": [4, 0, -1.75],
			"scale": [1.58, 1.39, 1.28]
		}
	}
}