{
    "textures": {
        "1": "gci:items/common/all_in_one",
        "2": "gci:items/common/mpz"
    },
    "elements": [
        {
            "from": [
                7.74877,
                10.69092,
                8.2
            ],
            "to": [
                8.43677,
                11.07492,
                9.86
            ],
            "rotation": {
                "angle": 0,
                "axis": "y",
                "origin": [
                    8.07977,
                    11.00159,
                    9.702
                ]
            },
            "faces": {
                "north": {
                    "uv": [
                        2.875,
                        3,
                        2.875,
                        3.25
                    ],
                    "rotation": 270,
                    "texture": "#1"
                },
                "east": {
                    "uv": [
                        2.875,
                        3,
                        2.875,
                        3.25
                    ],
                    "rotation": 270,
                    "texture": "#1"
                },
                "south": {
                    "uv": [
                        2.875,
                        3,
                        2.875,
                        3.25
                    ],
                    "rotation": 270,
                    "texture": "#1"
                },
                "west": {
                    "uv": [
                        2.875,
                        3,
                        2.875,
                        3.25
                    ],
                    "rotation": 270,
                    "texture": "#1"
                },
                "up": {
                    "uv": [
                        2.875,
                        3,
                        2.875,
                        3.25
                    ],
                    "rotation": 270,
                    "texture": "#1"
                },
                "down": {
                    "uv": [
                        2.875,
                        3,
                        2.875,
                        3.25
                    ],
                    "rotation": 270,
                    "texture": "#1"
                }
            }
        },
        {
            "from": [
                7.71677,
                10.75692,
                8.326
            ],
            "to": [
                8.46877,
                10.88092,
                8.454
            ],
            "rotation": {
                "angle": -45,
                "axis": "x",
                "origin": [
                    8.09277,
                    10.81892,
                    8.39
                ]
            },
            "faces": {
                "north": {
                    "uv": [
                        14.25,
                        6.625,
                        14.25,
                        6.625
                    ],
                    "texture": "#1"
                },
                "east": {
                    "uv": [
                        14.25,
                        6.625,
                        14.25,
                        6.625
                    ],
                    "texture": "#1"
                },
                "south": {
                    "uv": [
                        14.25,
                        6.625,
                        14.25,
                        6.625
                    ],
                    "texture": "#1"
                },
                "west": {
                    "uv": [
                        14.25,
                        6.625,
                        14.25,
                        6.625
                    ],
                    "texture": "#1"
                },
                "up": {
                    "uv": [
                        14.25,
                        6.625,
                        14.25,
                        6.625
                    ],
                    "texture": "#1"
                },
                "down": {
                    "uv": [
                        14.25,
                        6.625,
                        14.25,
                        6.625
                    ],
                    "texture": "#1"
                }
            }
        },
        {
            "from": [
                7.71677,
                10.75692,
                9.638
            ],
            "to": [
                8.46877,
                10.88092,
                9.766
            ],
            "rotation": {
                "angle": -45,
                "axis": "x",
                "origin": [
                    8.09277,
                    10.81892,
                    9.702
                ]
            },
            "faces": {
                "north": {
                    "uv": [
                        14.25,
                        6.625,
                        14.25,
                        6.625
                    ],
                    "texture": "#1"
                },
                "east": {
                    "uv": [
                        14.25,
                        6.625,
                        14.25,
                        6.625
                    ],
                    "texture": "#1"
                },
                "south": {
                    "uv": [
                        14.25,
                        6.625,
                        14.25,
                        6.625
                    ],
                    "texture": "#1"
                },
                "west": {
                    "uv": [
                        14.25,
                        6.625,
                        14.25,
                        6.625
                    ],
                    "texture": "#1"
                },
                "up": {
                    "uv": [
                        14.25,
                        6.625,
                        14.25,
                        6.625
                    ],
                    "texture": "#1"
                },
                "down": {
                    "uv": [
                        14.25,
                        6.625,
                        14.25,
                        6.625
                    ],
                    "texture": "#1"
                }
            }
        },
        {
            "from": [
                7.71677,
                11.20492,
                9.734
            ],
            "to": [
                8.46877,
                11.32892,
                9.862
            ],
            "rotation": {
                "angle": -45,
                "axis": "x",
                "origin": [
                    8.09277,
                    11.26692,
                    9.798
                ]
            },
            "faces": {
                "north": {
                    "uv": [
                        2.875,
                        1,
                        2.875,
                        1.25
                    ],
                    "texture": "#1"
                },
                "east": {
                    "uv": [
                        2.875,
                        1,
                        2.875,
                        1.25
                    ],
                    "texture": "#1"
                },
                "south": {
                    "uv": [
                        2.875,
                        1,
                        2.875,
                        1.25
                    ],
                    "texture": "#1"
                },
                "west": {
                    "uv": [
                        2.875,
                        1,
                        2.875,
                        1.25
                    ],
                    "texture": "#1"
                },
                "up": {
                    "uv": [
                        2.875,
                        1,
                        2.875,
                        1.25
                    ],
                    "texture": "#1"
                },
                "down": {
                    "uv": [
                        2.875,
                        1,
                        2.875,
                        1.25
                    ],
                    "texture": "#1"
                }
            }
        },
        {
            "from": [
                7.74877,
                11.13892,
                8.2
            ],
            "to": [
                8.43677,
                11.29892,
                10.276
            ],
            "rotation": {
                "angle": 0,
                "axis": "y",
                "origin": [
                    8.07977,
                    11.44959,
                    9.702
                ]
            },
            "faces": {
                "north": {
                    "uv": [
                        2.875,
                        3,
                        2.875,
                        3.25
                    ],
                    "rotation": 270,
                    "texture": "#1"
                },
                "east": {
                    "uv": [
                        2.875,
                        3,
                        2.875,
                        3.25
                    ],
                    "rotation": 270,
                    "texture": "#1"
                },
                "south": {
                    "uv": [
                        2.875,
                        3,
                        2.875,
                        3.25
                    ],
                    "rotation": 270,
                    "texture": "#1"
                },
                "west": {
                    "uv": [
                        2.875,
                        3,
                        2.875,
                        3.25
                    ],
                    "rotation": 270,
                    "texture": "#1"
                },
                "up": {
                    "uv": [
                        2.875,
                        3,
                        2.875,
                        3.25
                    ],
                    "rotation": 270,
                    "texture": "#1"
                },
                "down": {
                    "uv": [
                        2.875,
                        3,
                        2.875,
                        3.25
                    ],
                    "rotation": 270,
                    "texture": "#1"
                }
            }
        },
        {
            "from": [
                8.03677,
                11.29892,
                8.936
            ],
            "to": [
                8.14877,
                11.39892,
                9.048
            ],
            "rotation": {
                "angle": -45,
                "axis": "y",
                "origin": [
                    8.09277,
                    11.36292,
                    8.992
                ]
            },
            "faces": {
                "north": {
                    "uv": [
                        4.25,
                        3.125,
                        4.25,
                        3.375
                    ],
                    "rotation": 270,
                    "texture": "#1"
                },
                "east": {
                    "uv": [
                        4.25,
                        3.125,
                        4.25,
                        3.375
                    ],
                    "rotation": 270,
                    "texture": "#1"
                },
                "south": {
                    "uv": [
                        4.25,
                        3.125,
                        4.25,
                        3.375
                    ],
                    "rotation": 270,
                    "texture": "#1"
                },
                "west": {
                    "uv": [
                        4.25,
                        3.125,
                        4.25,
                        3.375
                    ],
                    "rotation": 270,
                    "texture": "#1"
                },
                "up": {
                    "uv": [
                        4.25,
                        3.125,
                        4.25,
                        3.375
                    ],
                    "rotation": 270,
                    "texture": "#1"
                },
                "down": {
                    "uv": [
                        4.25,
                        3.125,
                        4.25,
                        3.375
                    ],
                    "rotation": 270,
                    "texture": "#1"
                }
            }
        },
        {
            "from": [
                7.84291,
                11.29892,
                8.86353
            ],
            "to": [
                8.57491,
                11.39492,
                9.16753
            ],
            "rotation": {
                "angle": 45,
                "axis": "y",
                "origin": [
                    8.12291,
                    11.33092,
                    9.14353
                ]
            },
            "faces": {
                "north": {
                    "uv": [
                        14.25,
                        6.625,
                        14.25,
                        6.625
                    ],
                    "rotation": 270,
                    "texture": "#1"
                },
                "east": {
                    "uv": [
                        14.25,
                        6.625,
                        14.25,
                        6.625
                    ],
                    "rotation": 270,
                    "texture": "#1"
                },
                "south": {
                    "uv": [
                        14.25,
                        6.625,
                        14.25,
                        6.625
                    ],
                    "rotation": 270,
                    "texture": "#1"
                },
                "west": {
                    "uv": [
                        14.25,
                        6.625,
                        14.25,
                        6.625
                    ],
                    "rotation": 270,
                    "texture": "#1"
                },
                "up": {
                    "uv": [
                        14.25,
                        6.625,
                        14.25,
                        6.625
                    ],
                    "rotation": 270,
                    "texture": "#1"
                },
                "down": {
                    "uv": [
                        14.25,
                        6.625,
                        14.25,
                        6.625
                    ],
                    "rotation": 270,
                    "texture": "#1"
                }
            }
        },
        {
            "from": [
                7.72721,
                11.29892,
                8.84021
            ],
            "to": [
                8.45921,
                11.39492,
                9.14421
            ],
            "rotation": {
                "angle": 0,
                "axis": "y",
                "origin": [
                    8.09321,
                    11.34692,
                    8.99221
                ]
            },
            "faces": {
                "north": {
                    "uv": [
                        14.25,
                        6.625,
                        14.25,
                        6.625
                    ],
                    "rotation": 270,
                    "texture": "#1"
                },
                "east": {
                    "uv": [
                        14.25,
                        6.625,
                        14.25,
                        6.625
                    ],
                    "rotation": 270,
                    "texture": "#1"
                },
                "south": {
                    "uv": [
                        14.25,
                        6.625,
                        14.25,
                        6.625
                    ],
                    "rotation": 270,
                    "texture": "#1"
                },
                "west": {
                    "uv": [
                        14.25,
                        6.625,
                        14.25,
                        6.625
                    ],
                    "rotation": 270,
                    "texture": "#1"
                },
                "up": {
                    "uv": [
                        14.25,
                        6.625,
                        14.25,
                        6.625
                    ],
                    "rotation": 270,
                    "texture": "#1"
                },
                "down": {
                    "uv": [
                        14.25,
                        6.625,
                        14.25,
                        6.625
                    ],
                    "rotation": 270,
                    "texture": "#1"
                }
            }
        },
        {
            "from": [
                7.94121,
                11.29892,
                8.62621
            ],
            "to": [
                8.24521,
                11.39492,
                9.35821
            ],
            "rotation": {
                "angle": 45,
                "axis": "y",
                "origin": [
                    8.09321,
                    11.34692,
                    8.99221
                ]
            },
            "faces": {
                "north": {
                    "uv": [
                        14.25,
                        6.625,
                        14.25,
                        6.625
                    ],
                    "texture": "#1"
                },
                "east": {
                    "uv": [
                        14.25,
                        6.625,
                        14.25,
                        6.625
                    ],
                    "texture": "#1"
                },
                "south": {
                    "uv": [
                        14.25,
                        6.625,
                        14.25,
                        6.625
                    ],
                    "texture": "#1"
                },
                "west": {
                    "uv": [
                        14.25,
                        6.625,
                        14.25,
                        6.625
                    ],
                    "texture": "#1"
                },
                "up": {
                    "uv": [
                        14.25,
                        6.625,
                        14.25,
                        6.625
                    ],
                    "texture": "#1"
                },
                "down": {
                    "uv": [
                        14.25,
                        6.625,
                        14.25,
                        6.625
                    ],
                    "texture": "#1"
                }
            }
        },
        {
            "from": [
                7.94121,
                11.29892,
                8.62621
            ],
            "to": [
                8.24521,
                11.39492,
                9.35821
            ],
            "rotation": {
                "angle": 0,
                "axis": "y",
                "origin": [
                    8.09321,
                    11.34692,
                    8.99221
                ]
            },
            "faces": {
                "north": {
                    "uv": [
                        14.25,
                        6.625,
                        14.25,
                        6.625
                    ],
                    "texture": "#1"
                },
                "east": {
                    "uv": [
                        14.25,
                        6.625,
                        14.25,
                        6.625
                    ],
                    "texture": "#1"
                },
                "south": {
                    "uv": [
                        14.25,
                        6.625,
                        14.25,
                        6.625
                    ],
                    "texture": "#1"
                },
                "west": {
                    "uv": [
                        14.25,
                        6.625,
                        14.25,
                        6.625
                    ],
                    "texture": "#1"
                },
                "up": {
                    "uv": [
                        14.25,
                        6.625,
                        14.25,
                        6.625
                    ],
                    "texture": "#1"
                },
                "down": {
                    "uv": [
                        14.25,
                        6.625,
                        14.25,
                        6.625
                    ],
                    "texture": "#1"
                }
            }
        },
        {
            "from": [
                8.06233,
                11.31289,
                8.296
            ],
            "to": [
                8.30233,
                11.36089,
                8.58
            ],
            "rotation": {
                "angle": 22.5,
                "axis": "z",
                "origin": [
                    8.39937,
                    11.64258,
                    8.438
                ]
            },
            "faces": {
                "north": {
                    "uv": [
                        2.875,
                        3,
                        2.875,
                        3.25
                    ],
                    "rotation": 90,
                    "texture": "#1"
                },
                "east": {
                    "uv": [
                        2.875,
                        3,
                        2.875,
                        3.25
                    ],
                    "rotation": 90,
                    "texture": "#1"
                },
                "south": {
                    "uv": [
                        2.875,
                        3,
                        2.875,
                        3.25
                    ],
                    "rotation": 90,
                    "texture": "#1"
                },
                "west": {
                    "uv": [
                        2.875,
                        3,
                        2.875,
                        3.25
                    ],
                    "rotation": 90,
                    "texture": "#1"
                },
                "up": {
                    "uv": [
                        2.875,
                        3,
                        2.875,
                        3.25
                    ],
                    "rotation": 90,
                    "texture": "#1"
                },
                "down": {
                    "uv": [
                        2.875,
                        3,
                        2.875,
                        3.25
                    ],
                    "rotation": 90,
                    "texture": "#1"
                }
            }
        },
        {
            "from": [
                7.75242,
                11.96832,
                8.296
            ],
            "to": [
                8.44042,
                12.01632,
                8.58
            ],
            "rotation": {
                "angle": 0,
                "axis": "y",
                "origin": [
                    8.08342,
                    11.60699,
                    9.766
                ]
            },
            "faces": {
                "north": {
                    "uv": [
                        2.875,
                        3,
                        2.875,
                        3.25
                    ],
                    "rotation": 270,
                    "texture": "#1"
                },
                "east": {
                    "uv": [
                        2.875,
                        3,
                        2.875,
                        3.25
                    ],
                    "rotation": 270,
                    "texture": "#1"
                },
                "south": {
                    "uv": [
                        2.875,
                        3,
                        2.875,
                        3.25
                    ],
                    "rotation": 270,
                    "texture": "#1"
                },
                "west": {
                    "uv": [
                        2.875,
                        3,
                        2.875,
                        3.25
                    ],
                    "rotation": 270,
                    "texture": "#1"
                },
                "up": {
                    "uv": [
                        2.875,
                        3,
                        2.875,
                        3.25
                    ],
                    "rotation": 270,
                    "texture": "#1"
                },
                "down": {
                    "uv": [
                        2.875,
                        3,
                        2.875,
                        3.25
                    ],
                    "rotation": 270,
                    "texture": "#1"
                }
            }
        },
        {
            "from": [
                8.05447,
                11.61632,
                8.424
            ],
            "to": [
                8.13447,
                11.69632,
                8.424
            ],
            "rotation": {
                "angle": 0,
                "axis": "y",
                "origin": [
                    8.43542,
                    11.89499,
                    9.766
                ]
            },
            "faces": {
                "north": {
                    "uv": [
                        8.75,
                        7,
                        8.75,
                        7.125
                    ],
                    "texture": "#1"
                },
                "east": {
                    "uv": [
                        8.75,
                        7,
                        8.75,
                        7.125
                    ],
                    "texture": "#1"
                },
                "south": {
                    "uv": [
                        8.75,
                        7,
                        8.75,
                        7.125
                    ],
                    "texture": "#1"
                },
                "west": {
                    "uv": [
                        8.75,
                        7,
                        8.75,
                        7.125
                    ],
                    "texture": "#1"
                },
                "up": {
                    "uv": [
                        8.75,
                        7,
                        8.75,
                        7.125
                    ],
                    "texture": "#1"
                },
                "down": {
                    "uv": [
                        8.75,
                        7,
                        8.75,
                        7.125
                    ],
                    "texture": "#1"
                }
            }
        },
        {
            "from": [
                7.6012,
                11.19925,
                8.296
            ],
            "to": [
                7.8412,
                11.24725,
                8.58
            ],
            "rotation": {
                "angle": -22.5,
                "axis": "z",
                "origin": [
                    7.9322,
                    10.86992,
                    9.766
                ]
            },
            "faces": {
                "north": {
                    "uv": [
                        2.875,
                        3,
                        2.875,
                        3.25
                    ],
                    "rotation": 270,
                    "texture": "#1"
                },
                "east": {
                    "uv": [
                        2.875,
                        3,
                        2.875,
                        3.25
                    ],
                    "rotation": 270,
                    "texture": "#1"
                },
                "south": {
                    "uv": [
                        2.875,
                        3,
                        2.875,
                        3.25
                    ],
                    "rotation": 270,
                    "texture": "#1"
                },
                "west": {
                    "uv": [
                        2.875,
                        3,
                        2.875,
                        3.25
                    ],
                    "rotation": 270,
                    "texture": "#1"
                },
                "up": {
                    "uv": [
                        2.875,
                        3,
                        2.875,
                        3.25
                    ],
                    "rotation": 270,
                    "texture": "#1"
                },
                "down": {
                    "uv": [
                        2.875,
                        3,
                        2.875,
                        3.25
                    ],
                    "rotation": 270,
                    "texture": "#1"
                }
            }
        },
        {
            "from": [
                7.66058,
                11.55458,
                8.296
            ],
            "to": [
                7.70858,
                11.79458,
                8.58
            ],
            "rotation": {
                "angle": 0,
                "axis": "y",
                "origin": [
                    7.73715,
                    11.5863,
                    8.438
                ]
            },
            "faces": {
                "north": {
                    "uv": [
                        2.875,
                        3,
                        2.875,
                        3.25
                    ],
                    "texture": "#1"
                },
                "east": {
                    "uv": [
                        2.875,
                        3,
                        2.875,
                        3.25
                    ],
                    "rotation": 180,
                    "texture": "#1"
                },
                "south": {
                    "uv": [
                        2.875,
                        3,
                        2.875,
                        3.25
                    ],
                    "rotation": 180,
                    "texture": "#1"
                },
                "west": {
                    "uv": [
                        2.875,
                        3,
                        2.875,
                        3.25
                    ],
                    "rotation": 180,
                    "texture": "#1"
                },
                "up": {
                    "uv": [
                        2.875,
                        3,
                        2.875,
                        3.25
                    ],
                    "rotation": 180,
                    "texture": "#1"
                },
                "down": {
                    "uv": [
                        2.875,
                        3,
                        2.875,
                        3.25
                    ],
                    "rotation": 180,
                    "texture": "#1"
                }
            }
        },
        {
            "from": [
                8.47973,
                11.55458,
                8.296
            ],
            "to": [
                8.52773,
                11.79458,
                8.58
            ],
            "rotation": {
                "angle": 0,
                "axis": "y",
                "origin": [
                    8.39937,
                    11.67458,
                    8.438
                ]
            },
            "faces": {
                "north": {
                    "uv": [
                        2.875,
                        3,
                        2.875,
                        3.25
                    ],
                    "rotation": 180,
                    "texture": "#1"
                },
                "east": {
                    "uv": [
                        2.875,
                        3,
                        2.875,
                        3.25
                    ],
                    "texture": "#1"
                },
                "south": {
                    "uv": [
                        2.875,
                        3,
                        2.875,
                        3.25
                    ],
                    "texture": "#1"
                },
                "west": {
                    "uv": [
                        2.875,
                        3,
                        2.875,
                        3.25
                    ],
                    "texture": "#1"
                },
                "up": {
                    "uv": [
                        2.875,
                        3,
                        2.875,
                        3.25
                    ],
                    "texture": "#1"
                },
                "down": {
                    "uv": [
                        2.875,
                        3,
                        2.875,
                        3.25
                    ],
                    "texture": "#1"
                }
            }
        },
        {
            "from": [
                7.74877,
                11.23492,
                8.296
            ],
            "to": [
                8.43677,
                11.34692,
                8.58
            ],
            "rotation": {
                "angle": 0,
                "axis": "y",
                "origin": [
                    8.07977,
                    10.90559,
                    9.766
                ]
            },
            "faces": {
                "north": {
                    "uv": [
                        2.875,
                        3,
                        2.875,
                        3.25
                    ],
                    "rotation": 270,
                    "texture": "#1"
                },
                "east": {
                    "uv": [
                        2.875,
                        3,
                        2.875,
                        3.25
                    ],
                    "rotation": 270,
                    "texture": "#1"
                },
                "south": {
                    "uv": [
                        2.875,
                        3,
                        2.875,
                        3.25
                    ],
                    "rotation": 270,
                    "texture": "#1"
                },
                "west": {
                    "uv": [
                        2.875,
                        3,
                        2.875,
                        3.25
                    ],
                    "rotation": 270,
                    "texture": "#1"
                },
                "up": {
                    "uv": [
                        2.875,
                        3,
                        2.875,
                        3.25
                    ],
                    "rotation": 270,
                    "texture": "#1"
                },
                "down": {
                    "uv": [
                        2.875,
                        3,
                        2.875,
                        3.25
                    ],
                    "rotation": 270,
                    "texture": "#1"
                }
            }
        },
        {
            "from": [
                7.74877,
                11.29892,
                9.832
            ],
            "to": [
                8.43677,
                11.44292,
                10.276
            ],
            "rotation": {
                "angle": 0,
                "axis": "y",
                "origin": [
                    8.07977,
                    10.96959,
                    11.462
                ]
            },
            "faces": {
                "north": {
                    "uv": [
                        2.875,
                        3,
                        2.875,
                        3.25
                    ],
                    "rotation": 270,
                    "texture": "#1"
                },
                "east": {
                    "uv": [
                        2.875,
                        3,
                        2.875,
                        3.25
                    ],
                    "rotation": 270,
                    "texture": "#1"
                },
                "south": {
                    "uv": [
                        2.875,
                        3,
                        2.875,
                        3.25
                    ],
                    "rotation": 270,
                    "texture": "#1"
                },
                "west": {
                    "uv": [
                        2.875,
                        3,
                        2.875,
                        3.25
                    ],
                    "rotation": 270,
                    "texture": "#1"
                },
                "up": {
                    "uv": [
                        2.875,
                        3,
                        2.875,
                        3.25
                    ],
                    "rotation": 270,
                    "texture": "#1"
                },
                "down": {
                    "uv": [
                        2.875,
                        3,
                        2.875,
                        3.25
                    ],
                    "rotation": 270,
                    "texture": "#1"
                }
            }
        },
        {
            "from": [
                7.74877,
                11.20248,
                9.37918
            ],
            "to": [
                8.43677,
                11.34648,
                9.95118
            ],
            "rotation": {
                "angle": 0,
                "axis": "y",
                "origin": [
                    8.07977,
                    10.87315,
                    10.78518
                ]
            },
            "faces": {
                "north": {
                    "uv": [
                        2.875,
                        3,
                        2.875,
                        3.25
                    ],
                    "rotation": 270,
                    "texture": "#1"
                },
                "east": {
                    "uv": [
                        2.875,
                        3,
                        2.875,
                        3.25
                    ],
                    "rotation": 270,
                    "texture": "#1"
                },
                "south": {
                    "uv": [
                        2.875,
                        3,
                        2.875,
                        3.25
                    ],
                    "rotation": 270,
                    "texture": "#1"
                },
                "west": {
                    "uv": [
                        2.875,
                        3,
                        2.875,
                        3.25
                    ],
                    "rotation": 270,
                    "texture": "#1"
                },
                "up": {
                    "uv": [
                        2.875,
                        3,
                        2.875,
                        3.25
                    ],
                    "rotation": 270,
                    "texture": "#1"
                },
                "down": {
                    "uv": [
                        2.875,
                        3,
                        2.875,
                        3.25
                    ],
                    "rotation": 270,
                    "texture": "#1"
                }
            }
        },
        {
            "from": [
                7.74877,
                11.78881,
                9.67086
            ],
            "to": [
                8.43677,
                11.93281,
                9.92286
            ],
            "rotation": {
                "angle": -22.5,
                "axis": "x",
                "origin": [
                    8.07977,
                    11.45948,
                    11.10886
                ]
            },
            "faces": {
                "north": {
                    "uv": [
                        2.875,
                        3,
                        2.875,
                        3.25
                    ],
                    "rotation": 270,
                    "texture": "#1"
                },
                "east": {
                    "uv": [
                        2.875,
                        3,
                        2.875,
                        3.25
                    ],
                    "rotation": 270,
                    "texture": "#1"
                },
                "south": {
                    "uv": [
                        2.875,
                        3,
                        2.875,
                        3.25
                    ],
                    "rotation": 270,
                    "texture": "#1"
                },
                "west": {
                    "uv": [
                        2.875,
                        3,
                        2.875,
                        3.25
                    ],
                    "rotation": 270,
                    "texture": "#1"
                },
                "up": {
                    "uv": [
                        2.875,
                        3,
                        2.875,
                        3.25
                    ],
                    "rotation": 270,
                    "texture": "#1"
                },
                "down": {
                    "uv": [
                        2.875,
                        3,
                        2.875,
                        3.25
                    ],
                    "rotation": 270,
                    "texture": "#1"
                }
            }
        },
        {
            "from": [
                7.81367,
                11.74822,
                8.296
            ],
            "to": [
                7.86167,
                11.98822,
                8.58
            ],
            "rotation": {
                "angle": -22.5,
                "axis": "z",
                "origin": [
                    7.85367,
                    12.15622,
                    8.438
                ]
            },
            "faces": {
                "north": {
                    "uv": [
                        2.875,
                        3,
                        2.875,
                        3.25
                    ],
                    "rotation": 180,
                    "texture": "#1"
                },
                "east": {
                    "uv": [
                        2.875,
                        3,
                        2.875,
                        3.25
                    ],
                    "texture": "#1"
                },
                "south": {
                    "uv": [
                        2.875,
                        3,
                        2.875,
                        3.25
                    ],
                    "texture": "#1"
                },
                "west": {
                    "uv": [
                        2.875,
                        3,
                        2.875,
                        3.25
                    ],
                    "texture": "#1"
                },
                "up": {
                    "uv": [
                        2.875,
                        3,
                        2.875,
                        3.25
                    ],
                    "texture": "#1"
                },
                "down": {
                    "uv": [
                        2.875,
                        3,
                        2.875,
                        3.25
                    ],
                    "texture": "#1"
                }
            }
        },
        {
            "from": [
                8.51588,
                11.37284,
                8.296
            ],
            "to": [
                8.56388,
                11.61284,
                8.58
            ],
            "rotation": {
                "angle": -22.5,
                "axis": "z",
                "origin": [
                    8.39937,
                    11.67458,
                    8.438
                ]
            },
            "faces": {
                "north": {
                    "uv": [
                        2.875,
                        3,
                        2.875,
                        3.25
                    ],
                    "texture": "#1"
                },
                "east": {
                    "uv": [
                        2.875,
                        3,
                        2.875,
                        3.25
                    ],
                    "rotation": 180,
                    "texture": "#1"
                },
                "south": {
                    "uv": [
                        2.875,
                        3,
                        2.875,
                        3.25
                    ],
                    "rotation": 180,
                    "texture": "#1"
                },
                "west": {
                    "uv": [
                        2.875,
                        3,
                        2.875,
                        3.25
                    ],
                    "rotation": 180,
                    "texture": "#1"
                },
                "up": {
                    "uv": [
                        2.875,
                        3,
                        2.875,
                        3.25
                    ],
                    "rotation": 180,
                    "texture": "#1"
                },
                "down": {
                    "uv": [
                        2.875,
                        3,
                        2.875,
                        3.25
                    ],
                    "rotation": 180,
                    "texture": "#1"
                }
            }
        },
        {
            "from": [
                7.66689,
                11.3463,
                8.296
            ],
            "to": [
                7.71489,
                11.5863,
                8.58
            ],
            "rotation": {
                "angle": 22.5,
                "axis": "z",
                "origin": [
                    7.74346,
                    11.55458,
                    8.438
                ]
            },
            "faces": {
                "north": {
                    "uv": [
                        2.875,
                        3,
                        2.875,
                        3.25
                    ],
                    "rotation": 180,
                    "texture": "#1"
                },
                "east": {
                    "uv": [
                        2.875,
                        3,
                        2.875,
                        3.25
                    ],
                    "texture": "#1"
                },
                "south": {
                    "uv": [
                        2.875,
                        3,
                        2.875,
                        3.25
                    ],
                    "texture": "#1"
                },
                "west": {
                    "uv": [
                        2.875,
                        3,
                        2.875,
                        3.25
                    ],
                    "texture": "#1"
                },
                "up": {
                    "uv": [
                        2.875,
                        3,
                        2.875,
                        3.25
                    ],
                    "texture": "#1"
                },
                "down": {
                    "uv": [
                        2.875,
                        3,
                        2.875,
                        3.25
                    ],
                    "texture": "#1"
                }
            }
        },
        {
            "from": [
                8.51588,
                11.73633,
                8.296
            ],
            "to": [
                8.56388,
                11.97633,
                8.58
            ],
            "rotation": {
                "angle": 22.5,
                "axis": "z",
                "origin": [
                    8.39937,
                    11.67458,
                    8.438
                ]
            },
            "faces": {
                "north": {
                    "uv": [
                        2.875,
                        3,
                        2.875,
                        3.25
                    ],
                    "texture": "#1"
                },
                "east": {
                    "uv": [
                        2.875,
                        3,
                        2.875,
                        3.25
                    ],
                    "rotation": 180,
                    "texture": "#1"
                },
                "south": {
                    "uv": [
                        2.875,
                        3,
                        2.875,
                        3.25
                    ],
                    "rotation": 180,
                    "texture": "#1"
                },
                "west": {
                    "uv": [
                        2.875,
                        3,
                        2.875,
                        3.25
                    ],
                    "rotation": 180,
                    "texture": "#1"
                },
                "up": {
                    "uv": [
                        2.875,
                        3,
                        2.875,
                        3.25
                    ],
                    "rotation": 180,
                    "texture": "#1"
                },
                "down": {
                    "uv": [
                        2.875,
                        3,
                        2.875,
                        3.25
                    ],
                    "rotation": 180,
                    "texture": "#1"
                }
            }
        },
        {
            "from": [
                7.78077,
                11.04292,
                8.232
            ],
            "to": [
                8.40477,
                11.23492,
                10.244
            ],
            "rotation": {
                "angle": 0,
                "axis": "y",
                "origin": [
                    8.07977,
                    11.38559,
                    9.702
                ]
            },
            "faces": {
                "north": {
                    "uv": [
                        1.625,
                        0.875,
                        1.625,
                        0.875
                    ],
                    "rotation": 270,
                    "texture": "#1"
                },
                "east": {
                    "uv": [
                        1.625,
                        0.875,
                        1.625,
                        0.875
                    ],
                    "rotation": 270,
                    "texture": "#1"
                },
                "south": {
                    "uv": [
                        1.625,
                        0.875,
                        1.625,
                        0.875
                    ],
                    "rotation": 270,
                    "texture": "#1"
                },
                "west": {
                    "uv": [
                        1.625,
                        0.875,
                        1.625,
                        0.875
                    ],
                    "rotation": 270,
                    "texture": "#1"
                },
                "up": {
                    "uv": [
                        1.625,
                        0.875,
                        1.625,
                        0.875
                    ],
                    "rotation": 270,
                    "texture": "#1"
                },
                "down": {
                    "uv": [
                        1.625,
                        0.875,
                        1.625,
                        0.875
                    ],
                    "rotation": 270,
                    "texture": "#1"
                }
            }
        }
    ],
    "display": {
        "thirdperson_righthand": {
            "translation": [
                -0.75,
                -1,
                -0.75
            ],
            "scale": [
                1,
                1.2,
                1
            ]
        },
        "thirdperson_lefthand": {
            "translation": [
                -0.75,
                -1,
                -1.25
            ],
            "scale": [
                1.2,
                1.2,
                1.1
            ]
        },
        "firstperson_righthand": {
            "rotation": [
                -5.25,
                0,
                0
            ],
            "translation": [
                -2.75,
                1,
                -1.25
            ],
            "scale": [
                1.2,
                1.2,
                1.1
            ]
        },
        "firstperson_lefthand": {
            "rotation": [
                -5.25,
                0,
                0
            ],
            "translation": [
                -2.75,
                1,
                -1.25
            ],
            "scale": [
                1.2,
                1.2,
                1.1
            ]
        },
        "gui": {
            "rotation": [
                21.75,
                19.25,
                31.75
            ],
            "translation": [
                2.5,
                -1.75,
                0
            ],
            "scale": [
                0.9,
                0.9,
                0.9
            ]
        },
        "fixed": {
            "rotation": [
                -90,
                -180,
                -180
            ],
            "translation": [
                0,
                -1.25,
                -5.25
            ],
            "scale": [
                1.4,
                1.4,
                1.4
            ]
        }
    }
}