{
    "textures": {
        "0": "gci:items/common/all_in_one",
        "2": "gci:items/common/mpz",
        "particle": "gci:items/common/all_in_one"
    },
    "elements": [
        {
            "name": "octagon",
            "from": [
                7.55,
                3.40471,
                8.65373
            ],
            "to": [
                8.42279,
                5.79471,
                11.00373
            ],
            "rotation": {
                "angle": 0,
                "axis": "y",
                "origin": [
                    7.9864,
                    4.22971,
                    7.87873
                ]
            },
            "faces": {
                "north": {
                    "uv": [
                        3.375,
                        3.875,
                        4.625,
                        4.125
                    ],
                    "texture": "#0"
                },
                "east": {
                    "uv": [
                        3.375,
                        2.125,
                        4.5,
                        4.125
                    ],
                    "texture": "#0"
                },
                "south": {
                    "uv": [
                        3.375,
                        3.875,
                        4.5,
                        4.125
                    ],
                    "texture": "#0"
                },
                "west": {
                    "uv": [
                        3.375,
                        2.125,
                        4.5,
                        4.125
                    ],
                    "texture": "#0"
                },
                "up": {
                    "uv": [
                        3.375,
                        2.125,
                        4.5,
                        4.125
                    ],
                    "texture": "#0"
                },
                "down": {
                    "uv": [
                        3.375,
                        2.125,
                        4.5,
                        4.125
                    ],
                    "texture": "#0"
                }
            }
        },
        {
            "name": "octagon",
            "from": [
                7.65,
                3.26471,
                8.65373
            ],
            "to": [
                8.32279,
                3.46471,
                11.00373
            ],
            "rotation": {
                "angle": 0,
                "axis": "y",
                "origin": [
                    7.9864,
                    2.93971,
                    7.87873
                ]
            },
            "faces": {
                "north": {
                    "uv": [
                        3.375,
                        3.875,
                        4.75,
                        4
                    ],
                    "texture": "#0"
                },
                "east": {
                    "uv": [
                        3.375,
                        3.875,
                        4.75,
                        4
                    ],
                    "texture": "#0"
                },
                "south": {
                    "uv": [
                        3.375,
                        3.875,
                        4.75,
                        4
                    ],
                    "texture": "#0"
                },
                "west": {
                    "uv": [
                        3.375,
                        3.875,
                        4.75,
                        4
                    ],
                    "texture": "#0"
                },
                "up": {
                    "uv": [
                        3.375,
                        3.875,
                        4.75,
                        4
                    ],
                    "texture": "#0"
                },
                "down": {
                    "uv": [
                        3.375,
                        3.875,
                        4.75,
                        4
                    ],
                    "texture": "#0"
                }
            }
        },
        {
            "name": "octagon",
            "from": [
                7.57419,
                3.32312,
                8.65373
            ],
            "to": [
                7.74698,
                3.46312,
                11.00373
            ],
            "rotation": {
                "angle": -45,
                "axis": "z",
                "origin": [
                    7.66059,
                    3.39312,
                    9.82873
                ]
            },
            "faces": {
                "north": {
                    "uv": [
                        3.375,
                        3.875,
                        4.75,
                        4
                    ],
                    "texture": "#0"
                },
                "east": {
                    "uv": [
                        3.375,
                        3.875,
                        4.75,
                        4
                    ],
                    "texture": "#0"
                },
                "south": {
                    "uv": [
                        3.375,
                        3.875,
                        4.75,
                        4
                    ],
                    "texture": "#0"
                },
                "west": {
                    "uv": [
                        3.375,
                        3.875,
                        4.75,
                        4
                    ],
                    "texture": "#0"
                },
                "up": {
                    "uv": [
                        3.375,
                        3.875,
                        4.75,
                        4
                    ],
                    "texture": "#0"
                },
                "down": {
                    "uv": [
                        3.375,
                        3.875,
                        4.75,
                        4
                    ],
                    "texture": "#0"
                }
            }
        },
        {
            "name": "octagon",
            "from": [
                8.2422,
                3.30672,
                8.65373
            ],
            "to": [
                8.3822,
                3.47951,
                11.00373
            ],
            "rotation": {
                "angle": -45,
                "axis": "z",
                "origin": [
                    8.3122,
                    3.39312,
                    9.82873
                ]
            },
            "faces": {
                "north": {
                    "uv": [
                        3.375,
                        3.875,
                        4.75,
                        4
                    ],
                    "rotation": 90,
                    "texture": "#0"
                },
                "east": {
                    "uv": [
                        3.375,
                        3.875,
                        4.75,
                        4
                    ],
                    "rotation": 90,
                    "texture": "#0"
                },
                "south": {
                    "uv": [
                        3.375,
                        3.875,
                        4.75,
                        4
                    ],
                    "rotation": 90,
                    "texture": "#0"
                },
                "west": {
                    "uv": [
                        3.375,
                        3.875,
                        4.75,
                        4
                    ],
                    "rotation": 90,
                    "texture": "#0"
                },
                "up": {
                    "uv": [
                        3.375,
                        3.875,
                        4.75,
                        4
                    ],
                    "rotation": 90,
                    "texture": "#0"
                },
                "down": {
                    "uv": [
                        3.375,
                        3.875,
                        4.75,
                        4
                    ],
                    "rotation": 90,
                    "texture": "#0"
                }
            }
        }
    ],
    "display": {
        "thirdperson_righthand": {
            "translation": [
                -0.25,
                2,
                -4.75
            ],
            "scale": [
                0.8,
                0.8,
                0.8
            ]
        },
        "thirdperson_lefthand": {
            "translation": [
                -0.75,
                1.75,
                -3.75
            ],
            "scale": [
                0.8,
                0.8,
                0.8
            ]
        },
        "firstperson_righthand": {
            "translation": [
                -5.5,
                5.5,
                0.75
            ],
            "scale": [
                1,
                1,
                0.9
            ]
        },
        "firstperson_lefthand": {
            "translation": [
                -5.5,
                5.25,
                0.75
            ],
            "scale": [
                1,
                1,
                0.9
            ]
        },
        "ground": {
            "rotation": [
                0,
                0,
                45
            ],
            "scale": [
                0.88,
                0.88,
                0.88
            ]
        },
        "gui": {
            "rotation": [
                20,
                27,
                -14
            ],
            "translation": [
                -1,
                2,
                0
            ]
        },
        "head": {
            "rotation": [
                0,
                122,
                90
            ],
            "translation": [
                -3.25,
                7.25,
                1.75
            ]
        },
        "fixed": {
            "rotation": [
                90,
                45,
                -90
            ],
            "translation": [
                0.5,
                3.5,
                -2.25
            ]
        }
    }
}