{
    "textures": {
        "1": "gci:items/m60/m60_all_in_one"
    },
    "elements": [
        {
            "from": [
                8.18801,
                7.8584,
                -2.996
            ],
            "to": [
                8.31201,
                8.2304,
                -2.252
            ],
            "rotation": {
                "angle": 45,
                "axis": "z",
                "origin": [
                    7.53098,
                    8.12412,
                    -12.41151
                ]
            },
            "faces": {
                "north": {
                    "uv": [
                        14.375,
                        6.75,
                        14.625,
                        6.825
                    ],
                    "rotation": 180,
                    "texture": "#1"
                },
                "east": {
                    "uv": [
                        14.375,
                        6.75,
                        14.625,
                        6.825
                    ],
                    "rotation": 180,
                    "texture": "#1"
                },
                "south": {
                    "uv": [
                        14.375,
                        6.75,
                        14.625,
                        6.825
                    ],
                    "rotation": 180,
                    "texture": "#1"
                },
                "west": {
                    "uv": [
                        14.375,
                        6.75,
                        14.625,
                        6.825
                    ],
                    "rotation": 180,
                    "texture": "#1"
                },
                "up": {
                    "uv": [
                        14.375,
                        6.75,
                        14.625,
                        6.825
                    ],
                    "rotation": 180,
                    "texture": "#1"
                },
                "down": {
                    "uv": [
                        14.375,
                        6.75,
                        14.625,
                        6.825
                    ],
                    "rotation": 180,
                    "texture": "#1"
                }
            }
        },
        {
            "from": [
                7.92795,
                8.89371,
                -2.996
            ],
            "to": [
                8.29995,
                9.01771,
                -2.252
            ],
            "rotation": {
                "angle": 45,
                "axis": "z",
                "origin": [
                    8.05195,
                    8.95571,
                    -18.31
                ]
            },
            "faces": {
                "north": {
                    "uv": [
                        14.375,
                        6.75,
                        14.625,
                        6.825
                    ],
                    "rotation": 90,
                    "texture": "#1"
                },
                "east": {
                    "uv": [
                        14.375,
                        6.75,
                        14.625,
                        6.825
                    ],
                    "rotation": 90,
                    "texture": "#1"
                },
                "south": {
                    "uv": [
                        14.375,
                        6.75,
                        14.625,
                        6.825
                    ],
                    "rotation": 90,
                    "texture": "#1"
                },
                "west": {
                    "uv": [
                        14.375,
                        6.75,
                        14.625,
                        6.825
                    ],
                    "rotation": 90,
                    "texture": "#1"
                },
                "up": {
                    "uv": [
                        14.375,
                        6.75,
                        14.625,
                        6.825
                    ],
                    "rotation": 90,
                    "texture": "#1"
                },
                "down": {
                    "uv": [
                        14.375,
                        6.75,
                        14.625,
                        6.825
                    ],
                    "rotation": 90,
                    "texture": "#1"
                }
            }
        },
        {
            "from": [
                8.42395,
                8.47034,
                -2.996
            ],
            "to": [
                8.79595,
                8.59434,
                -2.252
            ],
            "rotation": {
                "angle": 45,
                "axis": "z",
                "origin": [
                    8.54795,
                    8.53234,
                    -18.31
                ]
            },
            "faces": {
                "north": {
                    "uv": [
                        14.375,
                        6.75,
                        14.625,
                        6.825
                    ],
                    "rotation": 90,
                    "texture": "#1"
                },
                "east": {
                    "uv": [
                        14.375,
                        6.75,
                        14.625,
                        6.825
                    ],
                    "rotation": 90,
                    "texture": "#1"
                },
                "south": {
                    "uv": [
                        14.375,
                        6.75,
                        14.625,
                        6.825
                    ],
                    "rotation": 90,
                    "texture": "#1"
                },
                "west": {
                    "uv": [
                        14.375,
                        6.75,
                        14.625,
                        6.825
                    ],
                    "rotation": 90,
                    "texture": "#1"
                },
                "up": {
                    "uv": [
                        14.375,
                        6.75,
                        14.625,
                        6.825
                    ],
                    "rotation": 90,
                    "texture": "#1"
                },
                "down": {
                    "uv": [
                        14.375,
                        6.75,
                        14.625,
                        6.825
                    ],
                    "rotation": 90,
                    "texture": "#1"
                }
            }
        },
        {
            "from": [
                7.85853,
                8.57602,
                -2.66819
            ],
            "to": [
                8.05853,
                8.97602,
                4.77581
            ],
            "rotation": {
                "angle": 22.5,
                "axis": "x",
                "origin": [
                    8.36241,
                    8.77602,
                    -2.8645
                ]
            },
            "faces": {
                "north": {
                    "uv": [
                        14.375,
                        6.75,
                        14.625,
                        6.825
                    ],
                    "rotation": 270,
                    "texture": "#1"
                },
                "east": {
                    "uv": [
                        14.375,
                        6.75,
                        14.625,
                        6.825
                    ],
                    "rotation": 180,
                    "texture": "#1"
                },
                "south": {
                    "uv": [
                        14.375,
                        6.75,
                        14.625,
                        6.825
                    ],
                    "rotation": 90,
                    "texture": "#1"
                },
                "west": {
                    "uv": [
                        14.375,
                        6.75,
                        14.625,
                        6.825
                    ],
                    "texture": "#1"
                },
                "up": {
                    "uv": [
                        14.375,
                        6.75,
                        14.625,
                        6.825
                    ],
                    "rotation": 90,
                    "texture": "#1"
                },
                "down": {
                    "uv": [
                        14.375,
                        6.75,
                        14.625,
                        6.825
                    ],
                    "rotation": 270,
                    "texture": "#1"
                }
            }
        },
        {
            "from": [
                8.65853,
                8.57602,
                -2.66819
            ],
            "to": [
                8.85853,
                8.97602,
                4.77581
            ],
            "rotation": {
                "angle": 22.5,
                "axis": "x",
                "origin": [
                    8.36241,
                    8.77602,
                    -2.8645
                ]
            },
            "faces": {
                "north": {
                    "uv": [
                        14.375,
                        6.75,
                        14.625,
                        6.825
                    ],
                    "rotation": 270,
                    "texture": "#1"
                },
                "east": {
                    "uv": [
                        14.375,
                        6.75,
                        14.625,
                        6.825
                    ],
                    "rotation": 180,
                    "texture": "#1"
                },
                "south": {
                    "uv": [
                        14.375,
                        6.75,
                        14.625,
                        6.825
                    ],
                    "rotation": 90,
                    "texture": "#1"
                },
                "west": {
                    "uv": [
                        14.375,
                        6.75,
                        14.625,
                        6.825
                    ],
                    "texture": "#1"
                },
                "up": {
                    "uv": [
                        14.375,
                        6.75,
                        14.625,
                        6.825
                    ],
                    "rotation": 90,
                    "texture": "#1"
                },
                "down": {
                    "uv": [
                        14.375,
                        6.75,
                        14.625,
                        6.825
                    ],
                    "rotation": 270,
                    "texture": "#1"
                }
            }
        },
        {
            "from": [
                7.71828,
                8.17602,
                4.76519
            ],
            "to": [
                8.11828,
                9.37602,
                4.96519
            ],
            "rotation": {
                "angle": 22.5,
                "axis": "x",
                "origin": [
                    8.36241,
                    8.77602,
                    -2.8645
                ]
            },
            "faces": {
                "north": {
                    "uv": [
                        14.375,
                        6.75,
                        14.625,
                        6.825
                    ],
                    "rotation": 270,
                    "texture": "#1"
                },
                "east": {
                    "uv": [
                        14.375,
                        6.75,
                        14.625,
                        6.825
                    ],
                    "rotation": 180,
                    "texture": "#1"
                },
                "south": {
                    "uv": [
                        14.375,
                        6.75,
                        14.625,
                        6.825
                    ],
                    "rotation": 90,
                    "texture": "#1"
                },
                "west": {
                    "uv": [
                        14.375,
                        6.75,
                        14.625,
                        6.825
                    ],
                    "texture": "#1"
                },
                "up": {
                    "uv": [
                        14.375,
                        6.75,
                        14.625,
                        6.825
                    ],
                    "rotation": 90,
                    "texture": "#1"
                },
                "down": {
                    "uv": [
                        14.375,
                        6.75,
                        14.625,
                        6.825
                    ],
                    "rotation": 270,
                    "texture": "#1"
                }
            }
        },
        {
            "from": [
                8.61428,
                8.17602,
                4.76519
            ],
            "to": [
                9.01428,
                9.37602,
                4.96519
            ],
            "rotation": {
                "angle": 22.5,
                "axis": "x",
                "origin": [
                    8.36241,
                    8.77602,
                    -2.8645
                ]
            },
            "faces": {
                "north": {
                    "uv": [
                        14.375,
                        6.75,
                        14.625,
                        6.825
                    ],
                    "rotation": 270,
                    "texture": "#1"
                },
                "east": {
                    "uv": [
                        14.375,
                        6.75,
                        14.625,
                        6.825
                    ],
                    "rotation": 180,
                    "texture": "#1"
                },
                "south": {
                    "uv": [
                        14.375,
                        6.75,
                        14.625,
                        6.825
                    ],
                    "rotation": 90,
                    "texture": "#1"
                },
                "west": {
                    "uv": [
                        14.375,
                        6.75,
                        14.625,
                        6.825
                    ],
                    "texture": "#1"
                },
                "up": {
                    "uv": [
                        14.375,
                        6.75,
                        14.625,
                        6.825
                    ],
                    "rotation": 90,
                    "texture": "#1"
                },
                "down": {
                    "uv": [
                        14.375,
                        6.75,
                        14.625,
                        6.825
                    ],
                    "rotation": 270,
                    "texture": "#1"
                }
            }
        },
        {
            "from": [
                8.64315,
                8.66386,
                -2.996
            ],
            "to": [
                8.76715,
                8.91186,
                -2.252
            ],
            "rotation": {
                "angle": 0,
                "axis": "y",
                "origin": [
                    8.70515,
                    8.78786,
                    -18.31
                ]
            },
            "faces": {
                "north": {
                    "uv": [
                        14.375,
                        6.75,
                        14.625,
                        6.825
                    ],
                    "texture": "#1"
                },
                "east": {
                    "uv": [
                        14.375,
                        6.75,
                        14.625,
                        6.825
                    ],
                    "texture": "#1"
                },
                "south": {
                    "uv": [
                        14.375,
                        6.75,
                        14.625,
                        6.825
                    ],
                    "texture": "#1"
                },
                "west": {
                    "uv": [
                        14.375,
                        6.75,
                        14.625,
                        6.825
                    ],
                    "texture": "#1"
                },
                "up": {
                    "uv": [
                        14.375,
                        6.75,
                        14.625,
                        6.825
                    ],
                    "texture": "#1"
                },
                "down": {
                    "uv": [
                        14.375,
                        6.75,
                        14.625,
                        6.825
                    ],
                    "texture": "#1"
                }
            }
        },
        {
            "from": [
                7.92042,
                8.66386,
                -2.996
            ],
            "to": [
                8.04442,
                8.91186,
                -2.252
            ],
            "rotation": {
                "angle": 0,
                "axis": "y",
                "origin": [
                    7.98242,
                    8.78786,
                    -18.31
                ]
            },
            "faces": {
                "north": {
                    "uv": [
                        14.375,
                        6.75,
                        14.625,
                        6.825
                    ],
                    "texture": "#1"
                },
                "east": {
                    "uv": [
                        14.375,
                        6.75,
                        14.625,
                        6.825
                    ],
                    "texture": "#1"
                },
                "south": {
                    "uv": [
                        14.375,
                        6.75,
                        14.625,
                        6.825
                    ],
                    "texture": "#1"
                },
                "west": {
                    "uv": [
                        14.375,
                        6.75,
                        14.625,
                        6.825
                    ],
                    "texture": "#1"
                },
                "up": {
                    "uv": [
                        14.375,
                        6.75,
                        14.625,
                        6.825
                    ],
                    "texture": "#1"
                },
                "down": {
                    "uv": [
                        14.375,
                        6.75,
                        14.625,
                        6.825
                    ],
                    "texture": "#1"
                }
            }
        },
        {
            "from": [
                8.18347,
                9.05091,
                -2.996
            ],
            "to": [
                8.50575,
                9.17491,
                -2.252
            ],
            "rotation": {
                "angle": 0,
                "axis": "y",
                "origin": [
                    7.98683,
                    8.99955,
                    -34.12
                ]
            },
            "faces": {
                "north": {
                    "uv": [
                        14.375,
                        6.75,
                        14.625,
                        6.825
                    ],
                    "rotation": 270,
                    "texture": "#1"
                },
                "east": {
                    "uv": [
                        14.375,
                        6.75,
                        14.625,
                        6.825
                    ],
                    "rotation": 270,
                    "texture": "#1"
                },
                "south": {
                    "uv": [
                        14.375,
                        6.75,
                        14.625,
                        6.825
                    ],
                    "rotation": 270,
                    "texture": "#1"
                },
                "west": {
                    "uv": [
                        14.375,
                        6.75,
                        14.625,
                        6.825
                    ],
                    "rotation": 270,
                    "texture": "#1"
                },
                "up": {
                    "uv": [
                        14.375,
                        6.75,
                        14.625,
                        6.825
                    ],
                    "rotation": 270,
                    "texture": "#1"
                },
                "down": {
                    "uv": [
                        14.375,
                        6.75,
                        14.625,
                        6.825
                    ],
                    "rotation": 270,
                    "texture": "#1"
                }
            }
        },
        {
            "from": [
                8.18347,
                8.40082,
                -2.996
            ],
            "to": [
                8.50575,
                8.52482,
                -2.252
            ],
            "rotation": {
                "angle": 0,
                "axis": "y",
                "origin": [
                    7.98683,
                    8.34946,
                    -34.12
                ]
            },
            "faces": {
                "north": {
                    "uv": [
                        14.375,
                        6.75,
                        14.625,
                        6.825
                    ],
                    "rotation": 270,
                    "texture": "#1"
                },
                "east": {
                    "uv": [
                        14.375,
                        6.75,
                        14.625,
                        6.825
                    ],
                    "rotation": 270,
                    "texture": "#1"
                },
                "south": {
                    "uv": [
                        14.375,
                        6.75,
                        14.625,
                        6.825
                    ],
                    "rotation": 270,
                    "texture": "#1"
                },
                "west": {
                    "uv": [
                        14.375,
                        6.75,
                        14.625,
                        6.825
                    ],
                    "rotation": 270,
                    "texture": "#1"
                },
                "up": {
                    "uv": [
                        14.375,
                        6.75,
                        14.625,
                        6.825
                    ],
                    "rotation": 270,
                    "texture": "#1"
                },
                "down": {
                    "uv": [
                        14.375,
                        6.75,
                        14.625,
                        6.825
                    ],
                    "rotation": 270,
                    "texture": "#1"
                }
            }
        },
        {
            "from": [
                8.68401,
                8.28177,
                -2.996
            ],
            "to": [
                8.80801,
                8.65377,
                -2.252
            ],
            "rotation": {
                "angle": 45,
                "axis": "z",
                "origin": [
                    8.02698,
                    8.54749,
                    -18.23951
                ]
            },
            "faces": {
                "north": {
                    "uv": [
                        14.375,
                        6.75,
                        14.625,
                        6.825
                    ],
                    "rotation": 180,
                    "texture": "#1"
                },
                "east": {
                    "uv": [
                        14.375,
                        6.75,
                        14.625,
                        6.825
                    ],
                    "rotation": 180,
                    "texture": "#1"
                },
                "south": {
                    "uv": [
                        14.375,
                        6.75,
                        14.625,
                        6.825
                    ],
                    "rotation": 180,
                    "texture": "#1"
                },
                "west": {
                    "uv": [
                        14.375,
                        6.75,
                        14.625,
                        6.825
                    ],
                    "rotation": 180,
                    "texture": "#1"
                },
                "up": {
                    "uv": [
                        14.375,
                        6.75,
                        14.625,
                        6.825
                    ],
                    "rotation": 180,
                    "texture": "#1"
                },
                "down": {
                    "uv": [
                        14.375,
                        6.75,
                        14.625,
                        6.825
                    ],
                    "rotation": 180,
                    "texture": "#1"
                }
            }
        },
        {
            "from": [
                8.18801,
                7.8584,
                -2.996
            ],
            "to": [
                8.31201,
                8.2304,
                -2.252
            ],
            "rotation": {
                "angle": 45,
                "axis": "z",
                "origin": [
                    7.53098,
                    8.12412,
                    -12.41151
                ]
            },
            "faces": {
                "north": {
                    "uv": [
                        14.375,
                        6.75,
                        14.625,
                        6.825
                    ],
                    "rotation": 180,
                    "texture": "#1"
                },
                "east": {
                    "uv": [
                        14.375,
                        6.75,
                        14.625,
                        6.825
                    ],
                    "rotation": 180,
                    "texture": "#1"
                },
                "south": {
                    "uv": [
                        14.375,
                        6.75,
                        14.625,
                        6.825
                    ],
                    "rotation": 180,
                    "texture": "#1"
                },
                "west": {
                    "uv": [
                        14.375,
                        6.75,
                        14.625,
                        6.825
                    ],
                    "rotation": 180,
                    "texture": "#1"
                },
                "up": {
                    "uv": [
                        14.375,
                        6.75,
                        14.625,
                        6.825
                    ],
                    "rotation": 180,
                    "texture": "#1"
                },
                "down": {
                    "uv": [
                        14.375,
                        6.75,
                        14.625,
                        6.825
                    ],
                    "rotation": 180,
                    "texture": "#1"
                }
            }
        },
        {
            "from": [
                7.92795,
                8.89371,
                -2.996
            ],
            "to": [
                8.29995,
                9.01771,
                -2.252
            ],
            "rotation": {
                "angle": 45,
                "axis": "z",
                "origin": [
                    8.05195,
                    8.95571,
                    -18.31
                ]
            },
            "faces": {
                "north": {
                    "uv": [
                        14.375,
                        6.75,
                        14.625,
                        6.825
                    ],
                    "rotation": 90,
                    "texture": "#1"
                },
                "east": {
                    "uv": [
                        14.375,
                        6.75,
                        14.625,
                        6.825
                    ],
                    "rotation": 90,
                    "texture": "#1"
                },
                "south": {
                    "uv": [
                        14.375,
                        6.75,
                        14.625,
                        6.825
                    ],
                    "rotation": 90,
                    "texture": "#1"
                },
                "west": {
                    "uv": [
                        14.375,
                        6.75,
                        14.625,
                        6.825
                    ],
                    "rotation": 90,
                    "texture": "#1"
                },
                "up": {
                    "uv": [
                        14.375,
                        6.75,
                        14.625,
                        6.825
                    ],
                    "rotation": 90,
                    "texture": "#1"
                },
                "down": {
                    "uv": [
                        14.375,
                        6.75,
                        14.625,
                        6.825
                    ],
                    "rotation": 90,
                    "texture": "#1"
                }
            }
        },
        {
            "from": [
                8.42395,
                8.47034,
                -2.996
            ],
            "to": [
                8.79595,
                8.59434,
                -2.252
            ],
            "rotation": {
                "angle": 45,
                "axis": "z",
                "origin": [
                    8.54795,
                    8.53234,
                    -18.31
                ]
            },
            "faces": {
                "north": {
                    "uv": [
                        14.375,
                        6.75,
                        14.625,
                        6.825
                    ],
                    "rotation": 90,
                    "texture": "#1"
                },
                "east": {
                    "uv": [
                        14.375,
                        6.75,
                        14.625,
                        6.825
                    ],
                    "rotation": 90,
                    "texture": "#1"
                },
                "south": {
                    "uv": [
                        14.375,
                        6.75,
                        14.625,
                        6.825
                    ],
                    "rotation": 90,
                    "texture": "#1"
                },
                "west": {
                    "uv": [
                        14.375,
                        6.75,
                        14.625,
                        6.825
                    ],
                    "rotation": 90,
                    "texture": "#1"
                },
                "up": {
                    "uv": [
                        14.375,
                        6.75,
                        14.625,
                        6.825
                    ],
                    "rotation": 90,
                    "texture": "#1"
                },
                "down": {
                    "uv": [
                        14.375,
                        6.75,
                        14.625,
                        6.825
                    ],
                    "rotation": 90,
                    "texture": "#1"
                }
            }
        },
        {
            "from": [
                7.85853,
                8.57602,
                -2.66819
            ],
            "to": [
                8.05853,
                8.97602,
                4.77581
            ],
            "rotation": {
                "angle": 22.5,
                "axis": "x",
                "origin": [
                    8.36241,
                    8.77602,
                    -2.8645
                ]
            },
            "faces": {
                "north": {
                    "uv": [
                        14.375,
                        6.75,
                        14.625,
                        6.825
                    ],
                    "rotation": 270,
                    "texture": "#1"
                },
                "east": {
                    "uv": [
                        14.375,
                        6.75,
                        14.625,
                        6.825
                    ],
                    "rotation": 180,
                    "texture": "#1"
                },
                "south": {
                    "uv": [
                        14.375,
                        6.75,
                        14.625,
                        6.825
                    ],
                    "rotation": 90,
                    "texture": "#1"
                },
                "west": {
                    "uv": [
                        14.375,
                        6.75,
                        14.625,
                        6.825
                    ],
                    "texture": "#1"
                },
                "up": {
                    "uv": [
                        14.375,
                        6.75,
                        14.625,
                        6.825
                    ],
                    "rotation": 90,
                    "texture": "#1"
                },
                "down": {
                    "uv": [
                        14.375,
                        6.75,
                        14.625,
                        6.825
                    ],
                    "rotation": 270,
                    "texture": "#1"
                }
            }
        },
        {
            "from": [
                8.65853,
                8.57602,
                -2.66819
            ],
            "to": [
                8.85853,
                8.97602,
                4.77581
            ],
            "rotation": {
                "angle": 22.5,
                "axis": "x",
                "origin": [
                    8.36241,
                    8.77602,
                    -2.8645
                ]
            },
            "faces": {
                "north": {
                    "uv": [
                        14.375,
                        6.75,
                        14.625,
                        6.825
                    ],
                    "rotation": 270,
                    "texture": "#1"
                },
                "east": {
                    "uv": [
                        14.375,
                        6.75,
                        14.625,
                        6.825
                    ],
                    "rotation": 180,
                    "texture": "#1"
                },
                "south": {
                    "uv": [
                        14.375,
                        6.75,
                        14.625,
                        6.825
                    ],
                    "rotation": 90,
                    "texture": "#1"
                },
                "west": {
                    "uv": [
                        14.375,
                        6.75,
                        14.625,
                        6.825
                    ],
                    "texture": "#1"
                },
                "up": {
                    "uv": [
                        14.375,
                        6.75,
                        14.625,
                        6.825
                    ],
                    "rotation": 90,
                    "texture": "#1"
                },
                "down": {
                    "uv": [
                        14.375,
                        6.75,
                        14.625,
                        6.825
                    ],
                    "rotation": 270,
                    "texture": "#1"
                }
            }
        },
        {
            "from": [
                7.71828,
                8.17602,
                4.76519
            ],
            "to": [
                8.11828,
                9.37602,
                4.96519
            ],
            "rotation": {
                "angle": 22.5,
                "axis": "x",
                "origin": [
                    8.36241,
                    8.77602,
                    -2.8645
                ]
            },
            "faces": {
                "north": {
                    "uv": [
                        14.375,
                        6.75,
                        14.625,
                        6.825
                    ],
                    "rotation": 270,
                    "texture": "#1"
                },
                "east": {
                    "uv": [
                        14.375,
                        6.75,
                        14.625,
                        6.825
                    ],
                    "rotation": 180,
                    "texture": "#1"
                },
                "south": {
                    "uv": [
                        14.375,
                        6.75,
                        14.625,
                        6.825
                    ],
                    "rotation": 90,
                    "texture": "#1"
                },
                "west": {
                    "uv": [
                        14.375,
                        6.75,
                        14.625,
                        6.825
                    ],
                    "texture": "#1"
                },
                "up": {
                    "uv": [
                        14.375,
                        6.75,
                        14.625,
                        6.825
                    ],
                    "rotation": 90,
                    "texture": "#1"
                },
                "down": {
                    "uv": [
                        14.375,
                        6.75,
                        14.625,
                        6.825
                    ],
                    "rotation": 270,
                    "texture": "#1"
                }
            }
        },
        {
            "from": [
                8.61428,
                8.17602,
                4.76519
            ],
            "to": [
                9.01428,
                9.37602,
                4.96519
            ],
            "rotation": {
                "angle": 22.5,
                "axis": "x",
                "origin": [
                    8.36241,
                    8.77602,
                    -2.8645
                ]
            },
            "faces": {
                "north": {
                    "uv": [
                        14.375,
                        6.75,
                        14.625,
                        6.825
                    ],
                    "rotation": 270,
                    "texture": "#1"
                },
                "east": {
                    "uv": [
                        14.375,
                        6.75,
                        14.625,
                        6.825
                    ],
                    "rotation": 180,
                    "texture": "#1"
                },
                "south": {
                    "uv": [
                        14.375,
                        6.75,
                        14.625,
                        6.825
                    ],
                    "rotation": 90,
                    "texture": "#1"
                },
                "west": {
                    "uv": [
                        14.375,
                        6.75,
                        14.625,
                        6.825
                    ],
                    "texture": "#1"
                },
                "up": {
                    "uv": [
                        14.375,
                        6.75,
                        14.625,
                        6.825
                    ],
                    "rotation": 90,
                    "texture": "#1"
                },
                "down": {
                    "uv": [
                        14.375,
                        6.75,
                        14.625,
                        6.825
                    ],
                    "rotation": 270,
                    "texture": "#1"
                }
            }
        },
        {
            "from": [
                8.64315,
                8.66386,
                -2.996
            ],
            "to": [
                8.76715,
                8.91186,
                -2.252
            ],
            "rotation": {
                "angle": 0,
                "axis": "y",
                "origin": [
                    8.70515,
                    8.78786,
                    -18.31
                ]
            },
            "faces": {
                "north": {
                    "uv": [
                        14.375,
                        6.75,
                        14.625,
                        6.825
                    ],
                    "texture": "#1"
                },
                "east": {
                    "uv": [
                        14.375,
                        6.75,
                        14.625,
                        6.825
                    ],
                    "texture": "#1"
                },
                "south": {
                    "uv": [
                        14.375,
                        6.75,
                        14.625,
                        6.825
                    ],
                    "texture": "#1"
                },
                "west": {
                    "uv": [
                        14.375,
                        6.75,
                        14.625,
                        6.825
                    ],
                    "texture": "#1"
                },
                "up": {
                    "uv": [
                        14.375,
                        6.75,
                        14.625,
                        6.825
                    ],
                    "texture": "#1"
                },
                "down": {
                    "uv": [
                        14.375,
                        6.75,
                        14.625,
                        6.825
                    ],
                    "texture": "#1"
                }
            }
        },
        {
            "from": [
                7.92042,
                8.66386,
                -2.996
            ],
            "to": [
                8.04442,
                8.91186,
                -2.252
            ],
            "rotation": {
                "angle": 0,
                "axis": "y",
                "origin": [
                    7.98242,
                    8.78786,
                    -18.31
                ]
            },
            "faces": {
                "north": {
                    "uv": [
                        14.375,
                        6.75,
                        14.625,
                        6.825
                    ],
                    "texture": "#1"
                },
                "east": {
                    "uv": [
                        14.375,
                        6.75,
                        14.625,
                        6.825
                    ],
                    "texture": "#1"
                },
                "south": {
                    "uv": [
                        14.375,
                        6.75,
                        14.625,
                        6.825
                    ],
                    "texture": "#1"
                },
                "west": {
                    "uv": [
                        14.375,
                        6.75,
                        14.625,
                        6.825
                    ],
                    "texture": "#1"
                },
                "up": {
                    "uv": [
                        14.375,
                        6.75,
                        14.625,
                        6.825
                    ],
                    "texture": "#1"
                },
                "down": {
                    "uv": [
                        14.375,
                        6.75,
                        14.625,
                        6.825
                    ],
                    "texture": "#1"
                }
            }
        },
        {
            "from": [
                8.18347,
                9.05091,
                -2.996
            ],
            "to": [
                8.50575,
                9.17491,
                -2.252
            ],
            "rotation": {
                "angle": 0,
                "axis": "y",
                "origin": [
                    7.98683,
                    8.99955,
                    -34.12
                ]
            },
            "faces": {
                "north": {
                    "uv": [
                        14.375,
                        6.75,
                        14.625,
                        6.825
                    ],
                    "rotation": 270,
                    "texture": "#1"
                },
                "east": {
                    "uv": [
                        14.375,
                        6.75,
                        14.625,
                        6.825
                    ],
                    "rotation": 270,
                    "texture": "#1"
                },
                "south": {
                    "uv": [
                        14.375,
                        6.75,
                        14.625,
                        6.825
                    ],
                    "rotation": 270,
                    "texture": "#1"
                },
                "west": {
                    "uv": [
                        14.375,
                        6.75,
                        14.625,
                        6.825
                    ],
                    "rotation": 270,
                    "texture": "#1"
                },
                "up": {
                    "uv": [
                        14.375,
                        6.75,
                        14.625,
                        6.825
                    ],
                    "rotation": 270,
                    "texture": "#1"
                },
                "down": {
                    "uv": [
                        14.375,
                        6.75,
                        14.625,
                        6.825
                    ],
                    "rotation": 270,
                    "texture": "#1"
                }
            }
        },
        {
            "from": [
                8.18347,
                8.40082,
                -2.996
            ],
            "to": [
                8.50575,
                8.52482,
                -2.252
            ],
            "rotation": {
                "angle": 0,
                "axis": "y",
                "origin": [
                    7.98683,
                    8.34946,
                    -34.12
                ]
            },
            "faces": {
                "north": {
                    "uv": [
                        14.375,
                        6.75,
                        14.625,
                        6.825
                    ],
                    "rotation": 270,
                    "texture": "#1"
                },
                "east": {
                    "uv": [
                        14.375,
                        6.75,
                        14.625,
                        6.825
                    ],
                    "rotation": 270,
                    "texture": "#1"
                },
                "south": {
                    "uv": [
                        14.375,
                        6.75,
                        14.625,
                        6.825
                    ],
                    "rotation": 270,
                    "texture": "#1"
                },
                "west": {
                    "uv": [
                        14.375,
                        6.75,
                        14.625,
                        6.825
                    ],
                    "rotation": 270,
                    "texture": "#1"
                },
                "up": {
                    "uv": [
                        14.375,
                        6.75,
                        14.625,
                        6.825
                    ],
                    "rotation": 270,
                    "texture": "#1"
                },
                "down": {
                    "uv": [
                        14.375,
                        6.75,
                        14.625,
                        6.825
                    ],
                    "rotation": 270,
                    "texture": "#1"
                }
            }
        }
    ],
    "display": {
        "thirdperson_righthand": {
            "rotation": [
                0,
                0,
                7
            ],
            "translation": [
                -1.5,
                -0.25,
                -6.25
            ],
            "scale": [
                0.93,
                0.93,
                0.93
            ]
        },
        "thirdperson_lefthand": {
            "rotation": [
                0,
                0,
                7
            ],
            "translation": [
                -1.5,
                -1.75,
                -6.25
            ],
            "scale": [
                0.93,
                0.93,
                0.93
            ]
        },
        "firstperson_righthand": {
            "translation": [
                -5.25,
                3.5,
                -4.5
            ],
            "scale": [
                1.25,
                1.19,
                1.14
            ]
        },
        "firstperson_lefthand": {
            "translation": [
                -5.25,
                3.5,
                -6.25
            ],
            "scale": [
                1.25,
                1.19,
                1.14
            ]
        },
        "gui": {
            "rotation": [
                36.25,
                38,
                -16
            ],
            "translation": [
                -1.5,
                0.5,
                0
            ],
            "scale": [
                1,
                0.91797,
                0.76758
            ]
        },
        "head": {
            "rotation": [
                0,
                -139.5,
                -90
            ],
            "translation": [
                1.25,
                8,
                -0.5
            ],
            "scale": [
                1.3,
                1.3,
                1.3
            ]
        },
        "fixed": {
            "rotation": [
                90,
                45,
                -90
            ],
            "translation": [
                -2.75,
                1.75,
                -2.75
            ],
            "scale": [
                0.96,
                0.96,
                0.96
            ]
        }
    }
}