{
    "textures": {
        "0": "gci:items/common/mpz",
        "1": "gci:items/common/all_in_one",
        "particle": "gci:items/common/mpz"
    },
    "elements": [
        {
            "from": [
                8.14446,
                4.91299,
                4.13515
            ],
            "to": [
                8.24446,
                5.11299,
                5.57115
            ],
            "rotation": {
                "angle": 45,
                "axis": "z",
                "origin": [
                    8.00304,
                    5.01299,
                    6.50115
                ]
            },
            "faces": {
                "north": {
                    "uv": [
                        7.625,
                        12.375,
                        7.625,
                        12.5
                    ],
                    "rotation": 270,
                    "texture": "#1"
                },
                "east": {
                    "uv": [
                        4,
                        3,
                        4.625,
                        3
                    ],
                    "rotation": 180,
                    "texture": "#1"
                },
                "south": {
                    "uv": [
                        4,
                        3,
                        4.625,
                        3
                    ],
                    "rotation": 180,
                    "texture": "#1"
                },
                "west": {
                    "uv": [
                        7.625,
                        12.375,
                        7.625,
                        12.5
                    ],
                    "rotation": 270,
                    "texture": "#1"
                },
                "up": {
                    "uv": [
                        4,
                        3,
                        4.625,
                        3
                    ],
                    "rotation": 180,
                    "texture": "#1"
                },
                "down": {
                    "uv": [
                        4,
                        3,
                        4.625,
                        3
                    ],
                    "rotation": 180,
                    "texture": "#1"
                }
            }
        },
        {
            "from": [
                7.76161,
                4.91299,
                4.13515
            ],
            "to": [
                7.86161,
                5.11299,
                5.57115
            ],
            "rotation": {
                "angle": 45,
                "axis": "z",
                "origin": [
                    8.00304,
                    5.01299,
                    6.50115
                ]
            },
            "faces": {
                "north": {
                    "uv": [
                        7.625,
                        12.375,
                        7.625,
                        12.5
                    ],
                    "rotation": 270,
                    "texture": "#1"
                },
                "east": {
                    "uv": [
                        7.625,
                        12.375,
                        7.625,
                        12.5
                    ],
                    "rotation": 270,
                    "texture": "#1"
                },
                "south": {
                    "uv": [
                        4,
                        3,
                        4.625,
                        3
                    ],
                    "rotation": 180,
                    "texture": "#1"
                },
                "west": {
                    "uv": [
                        4,
                        3,
                        4.625,
                        3
                    ],
                    "rotation": 180,
                    "texture": "#1"
                },
                "up": {
                    "uv": [
                        4,
                        3,
                        4.625,
                        3
                    ],
                    "rotation": 180,
                    "texture": "#1"
                },
                "down": {
                    "uv": [
                        4,
                        3,
                        4.625,
                        3
                    ],
                    "rotation": 180,
                    "texture": "#1"
                }
            }
        },
        {
            "from": [
                7.90304,
                4.77157,
                4.13515
            ],
            "to": [
                8.10304,
                4.87157,
                5.57115
            ],
            "rotation": {
                "angle": 0,
                "axis": "y",
                "origin": [
                    7.74446,
                    4.73015,
                    -7.24885
                ]
            },
            "faces": {
                "north": {
                    "uv": [
                        7.625,
                        12.375,
                        7.625,
                        12.5
                    ],
                    "rotation": 270,
                    "texture": "#1"
                },
                "east": {
                    "uv": [
                        4,
                        3,
                        4.625,
                        3
                    ],
                    "rotation": 270,
                    "texture": "#1"
                },
                "south": {
                    "uv": [
                        4,
                        3,
                        4.625,
                        3
                    ],
                    "rotation": 270,
                    "texture": "#1"
                },
                "west": {
                    "uv": [
                        4,
                        3,
                        4.625,
                        3
                    ],
                    "rotation": 270,
                    "texture": "#1"
                },
                "up": {
                    "uv": [
                        7.625,
                        12.375,
                        7.625,
                        12.5
                    ],
                    "rotation": 270,
                    "texture": "#1"
                },
                "down": {
                    "uv": [
                        4,
                        3,
                        4.625,
                        3
                    ],
                    "rotation": 270,
                    "texture": "#1"
                }
            }
        },
        {
            "from": [
                7.90304,
                5.15442,
                4.13515
            ],
            "to": [
                8.10304,
                5.25442,
                5.57115
            ],
            "rotation": {
                "angle": 0,
                "axis": "y",
                "origin": [
                    7.74446,
                    5.11299,
                    -7.24885
                ]
            },
            "faces": {
                "north": {
                    "uv": [
                        7.625,
                        12.375,
                        7.625,
                        12.5
                    ],
                    "rotation": 270,
                    "texture": "#1"
                },
                "east": {
                    "uv": [
                        4,
                        3,
                        4.625,
                        3
                    ],
                    "rotation": 270,
                    "texture": "#1"
                },
                "south": {
                    "uv": [
                        4,
                        3,
                        4.625,
                        3
                    ],
                    "rotation": 270,
                    "texture": "#1"
                },
                "west": {
                    "uv": [
                        4,
                        3,
                        4.625,
                        3
                    ],
                    "rotation": 270,
                    "texture": "#1"
                },
                "up": {
                    "uv": [
                        4,
                        3,
                        4.625,
                        3
                    ],
                    "rotation": 270,
                    "texture": "#1"
                },
                "down": {
                    "uv": [
                        7.625,
                        12.375,
                        7.625,
                        12.5
                    ],
                    "rotation": 270,
                    "texture": "#1"
                }
            }
        },
        {
            "from": [
                8.15772,
                4.87975,
                4.10315
            ],
            "to": [
                8.32172,
                5.14375,
                5.31515
            ],
            "rotation": {
                "angle": 0,
                "axis": "y",
                "origin": [
                    8.21925,
                    5.01175,
                    5.04515
                ]
            },
            "faces": {
                "north": {
                    "uv": [
                        3,
                        2.75,
                        3,
                        2.875
                    ],
                    "texture": "#1"
                },
                "east": {
                    "uv": [
                        3,
                        2.75,
                        3,
                        2.875
                    ],
                    "rotation": 180,
                    "texture": "#1"
                },
                "south": {
                    "uv": [
                        3,
                        2.75,
                        3,
                        2.875
                    ],
                    "rotation": 180,
                    "texture": "#1"
                },
                "west": {
                    "uv": [
                        7.625,
                        12.375,
                        7.625,
                        12.5
                    ],
                    "rotation": 270,
                    "texture": "#1"
                },
                "up": {
                    "uv": [
                        3,
                        2.75,
                        3,
                        2.875
                    ],
                    "rotation": 180,
                    "texture": "#1"
                },
                "down": {
                    "uv": [
                        3,
                        2.75,
                        3,
                        2.875
                    ],
                    "rotation": 180,
                    "texture": "#1"
                }
            }
        },
        {
            "from": [
                7.68436,
                4.87975,
                4.10315
            ],
            "to": [
                7.84836,
                5.14375,
                5.31515
            ],
            "rotation": {
                "angle": 0,
                "axis": "y",
                "origin": [
                    7.84088,
                    4.94458,
                    5.04515
                ]
            },
            "faces": {
                "north": {
                    "uv": [
                        3,
                        2.75,
                        3,
                        2.875
                    ],
                    "rotation": 180,
                    "texture": "#1"
                },
                "east": {
                    "uv": [
                        7.625,
                        12.375,
                        7.625,
                        12.5
                    ],
                    "rotation": 270,
                    "texture": "#1"
                },
                "south": {
                    "uv": [
                        3,
                        2.75,
                        3,
                        2.875
                    ],
                    "texture": "#1"
                },
                "west": {
                    "uv": [
                        3,
                        2.75,
                        3,
                        2.875
                    ],
                    "texture": "#1"
                },
                "up": {
                    "uv": [
                        3,
                        2.75,
                        3,
                        2.875
                    ],
                    "texture": "#1"
                },
                "down": {
                    "uv": [
                        3,
                        2.75,
                        3,
                        2.875
                    ],
                    "texture": "#1"
                }
            }
        },
        {
            "from": [
                7.68436,
                5.07175,
                3.94715
            ],
            "to": [
                7.78436,
                5.14375,
                4.10315
            ],
            "rotation": {
                "angle": 0,
                "axis": "y",
                "origin": [
                    7.84088,
                    4.94458,
                    4.88915
                ]
            },
            "faces": {
                "north": {
                    "uv": [
                        3,
                        2.75,
                        3,
                        2.875
                    ],
                    "rotation": 180,
                    "texture": "#1"
                },
                "east": {
                    "uv": [
                        3,
                        2.75,
                        3,
                        2.875
                    ],
                    "texture": "#1"
                },
                "south": {
                    "uv": [
                        3,
                        2.75,
                        3,
                        2.875
                    ],
                    "texture": "#1"
                },
                "west": {
                    "uv": [
                        3,
                        2.75,
                        3,
                        2.875
                    ],
                    "texture": "#1"
                },
                "up": {
                    "uv": [
                        3,
                        2.75,
                        3,
                        2.875
                    ],
                    "texture": "#1"
                },
                "down": {
                    "uv": [
                        3,
                        2.75,
                        3,
                        2.875
                    ],
                    "texture": "#1"
                }
            }
        },
        {
            "from": [
                8.22836,
                5.07175,
                3.94715
            ],
            "to": [
                8.32836,
                5.14375,
                4.10315
            ],
            "rotation": {
                "angle": 0,
                "axis": "y",
                "origin": [
                    8.38488,
                    4.94458,
                    4.88915
                ]
            },
            "faces": {
                "north": {
                    "uv": [
                        3,
                        2.75,
                        3,
                        2.875
                    ],
                    "rotation": 180,
                    "texture": "#1"
                },
                "east": {
                    "uv": [
                        3,
                        2.75,
                        3,
                        2.875
                    ],
                    "texture": "#1"
                },
                "south": {
                    "uv": [
                        3,
                        2.75,
                        3,
                        2.875
                    ],
                    "texture": "#1"
                },
                "west": {
                    "uv": [
                        3,
                        2.75,
                        3,
                        2.875
                    ],
                    "texture": "#1"
                },
                "up": {
                    "uv": [
                        3,
                        2.75,
                        3,
                        2.875
                    ],
                    "texture": "#1"
                },
                "down": {
                    "uv": [
                        3,
                        2.75,
                        3,
                        2.875
                    ],
                    "texture": "#1"
                }
            }
        },
        {
            "from": [
                7.68436,
                4.87975,
                3.94715
            ],
            "to": [
                7.78436,
                4.95175,
                4.10315
            ],
            "rotation": {
                "angle": 0,
                "axis": "y",
                "origin": [
                    7.84088,
                    4.78458,
                    4.88915
                ]
            },
            "faces": {
                "north": {
                    "uv": [
                        3,
                        2.75,
                        3,
                        2.875
                    ],
                    "rotation": 180,
                    "texture": "#1"
                },
                "east": {
                    "uv": [
                        3,
                        2.75,
                        3,
                        2.875
                    ],
                    "texture": "#1"
                },
                "south": {
                    "uv": [
                        3,
                        2.75,
                        3,
                        2.875
                    ],
                    "texture": "#1"
                },
                "west": {
                    "uv": [
                        3,
                        2.75,
                        3,
                        2.875
                    ],
                    "texture": "#1"
                },
                "up": {
                    "uv": [
                        3,
                        2.75,
                        3,
                        2.875
                    ],
                    "texture": "#1"
                },
                "down": {
                    "uv": [
                        3,
                        2.75,
                        3,
                        2.875
                    ],
                    "texture": "#1"
                }
            }
        },
        {
            "from": [
                8.22836,
                4.87975,
                3.94715
            ],
            "to": [
                8.32836,
                4.95175,
                4.10315
            ],
            "rotation": {
                "angle": 0,
                "axis": "y",
                "origin": [
                    8.38488,
                    4.78458,
                    4.88915
                ]
            },
            "faces": {
                "north": {
                    "uv": [
                        3,
                        2.75,
                        3,
                        2.875
                    ],
                    "rotation": 180,
                    "texture": "#1"
                },
                "east": {
                    "uv": [
                        3,
                        2.75,
                        3,
                        2.875
                    ],
                    "texture": "#1"
                },
                "south": {
                    "uv": [
                        3,
                        2.75,
                        3,
                        2.875
                    ],
                    "texture": "#1"
                },
                "west": {
                    "uv": [
                        3,
                        2.75,
                        3,
                        2.875
                    ],
                    "texture": "#1"
                },
                "up": {
                    "uv": [
                        3,
                        2.75,
                        3,
                        2.875
                    ],
                    "texture": "#1"
                },
                "down": {
                    "uv": [
                        3,
                        2.75,
                        3,
                        2.875
                    ],
                    "texture": "#1"
                }
            }
        },
        {
            "from": [
                7.93437,
                5.01354,
                4.10315
            ],
            "to": [
                8.19837,
                5.17754,
                5.31515
            ],
            "rotation": {
                "angle": -45,
                "axis": "z",
                "origin": [
                    8.21925,
                    5.01175,
                    5.04515
                ]
            },
            "faces": {
                "north": {
                    "uv": [
                        3,
                        2.75,
                        3,
                        2.875
                    ],
                    "rotation": 270,
                    "texture": "#1"
                },
                "east": {
                    "uv": [
                        3,
                        2.75,
                        3,
                        2.875
                    ],
                    "rotation": 270,
                    "texture": "#1"
                },
                "south": {
                    "uv": [
                        3,
                        2.75,
                        3,
                        2.875
                    ],
                    "rotation": 270,
                    "texture": "#1"
                },
                "west": {
                    "uv": [
                        3,
                        2.75,
                        3,
                        2.875
                    ],
                    "rotation": 270,
                    "texture": "#1"
                },
                "up": {
                    "uv": [
                        3,
                        2.75,
                        3,
                        2.875
                    ],
                    "rotation": 270,
                    "texture": "#1"
                },
                "down": {
                    "uv": [
                        7.625,
                        12.375,
                        7.625,
                        12.5
                    ],
                    "rotation": 270,
                    "texture": "#1"
                }
            }
        },
        {
            "from": [
                7.93437,
                5.07754,
                3.94715
            ],
            "to": [
                8.19837,
                5.17754,
                4.10315
            ],
            "rotation": {
                "angle": -45,
                "axis": "z",
                "origin": [
                    8.21925,
                    5.01175,
                    4.88915
                ]
            },
            "faces": {
                "north": {
                    "uv": [
                        3,
                        2.75,
                        3,
                        2.875
                    ],
                    "rotation": 270,
                    "texture": "#1"
                },
                "east": {
                    "uv": [
                        3,
                        2.75,
                        3,
                        2.875
                    ],
                    "rotation": 270,
                    "texture": "#1"
                },
                "south": {
                    "uv": [
                        3,
                        2.75,
                        3,
                        2.875
                    ],
                    "rotation": 270,
                    "texture": "#1"
                },
                "west": {
                    "uv": [
                        3,
                        2.75,
                        3,
                        2.875
                    ],
                    "rotation": 270,
                    "texture": "#1"
                },
                "up": {
                    "uv": [
                        3,
                        2.75,
                        3,
                        2.875
                    ],
                    "rotation": 270,
                    "texture": "#1"
                },
                "down": {
                    "uv": [
                        3,
                        2.75,
                        3,
                        2.875
                    ],
                    "rotation": 270,
                    "texture": "#1"
                }
            }
        },
        {
            "from": [
                7.68436,
                4.74542,
                4.10315
            ],
            "to": [
                7.84836,
                5.00942,
                5.31515
            ],
            "rotation": {
                "angle": 45,
                "axis": "z",
                "origin": [
                    7.84088,
                    4.94458,
                    5.04515
                ]
            },
            "faces": {
                "north": {
                    "uv": [
                        3,
                        2.75,
                        3,
                        2.875
                    ],
                    "texture": "#1"
                },
                "east": {
                    "uv": [
                        7.625,
                        12.375,
                        7.625,
                        12.5
                    ],
                    "rotation": 270,
                    "texture": "#1"
                },
                "south": {
                    "uv": [
                        3,
                        2.75,
                        3,
                        2.875
                    ],
                    "rotation": 180,
                    "texture": "#1"
                },
                "west": {
                    "uv": [
                        3,
                        2.75,
                        3,
                        2.875
                    ],
                    "rotation": 180,
                    "texture": "#1"
                },
                "up": {
                    "uv": [
                        3,
                        2.75,
                        3,
                        2.875
                    ],
                    "rotation": 180,
                    "texture": "#1"
                },
                "down": {
                    "uv": [
                        3,
                        2.75,
                        3,
                        2.875
                    ],
                    "rotation": 180,
                    "texture": "#1"
                }
            }
        },
        {
            "from": [
                7.68436,
                4.74542,
                3.94715
            ],
            "to": [
                7.78436,
                5.00942,
                4.10315
            ],
            "rotation": {
                "angle": 45,
                "axis": "z",
                "origin": [
                    7.84088,
                    4.94458,
                    4.88915
                ]
            },
            "faces": {
                "north": {
                    "uv": [
                        3,
                        2.75,
                        3,
                        2.875
                    ],
                    "texture": "#1"
                },
                "east": {
                    "uv": [
                        3,
                        2.75,
                        3,
                        2.875
                    ],
                    "rotation": 180,
                    "texture": "#1"
                },
                "south": {
                    "uv": [
                        3,
                        2.75,
                        3,
                        2.875
                    ],
                    "rotation": 180,
                    "texture": "#1"
                },
                "west": {
                    "uv": [
                        3,
                        2.75,
                        3,
                        2.875
                    ],
                    "rotation": 180,
                    "texture": "#1"
                },
                "up": {
                    "uv": [
                        3,
                        2.75,
                        3,
                        2.875
                    ],
                    "rotation": 180,
                    "texture": "#1"
                },
                "down": {
                    "uv": [
                        3,
                        2.75,
                        3,
                        2.875
                    ],
                    "rotation": 180,
                    "texture": "#1"
                }
            }
        },
        {
            "from": [
                7.87104,
                5.16643,
                4.10315
            ],
            "to": [
                8.13504,
                5.33043,
                5.31515
            ],
            "rotation": {
                "angle": 0,
                "axis": "y",
                "origin": [
                    8.00304,
                    5.30042,
                    5.04515
                ]
            },
            "faces": {
                "north": {
                    "uv": [
                        3,
                        2.75,
                        3,
                        2.875
                    ],
                    "rotation": 270,
                    "texture": "#1"
                },
                "east": {
                    "uv": [
                        3,
                        2.75,
                        3,
                        2.875
                    ],
                    "rotation": 270,
                    "texture": "#1"
                },
                "south": {
                    "uv": [
                        3,
                        2.75,
                        3,
                        2.875
                    ],
                    "rotation": 270,
                    "texture": "#1"
                },
                "west": {
                    "uv": [
                        3,
                        2.75,
                        3,
                        2.875
                    ],
                    "rotation": 270,
                    "texture": "#1"
                },
                "up": {
                    "uv": [
                        3,
                        2.75,
                        3,
                        2.875
                    ],
                    "rotation": 270,
                    "texture": "#1"
                },
                "down": {
                    "uv": [
                        7.625,
                        12.375,
                        7.625,
                        12.5
                    ],
                    "rotation": 270,
                    "texture": "#1"
                }
            }
        },
        {
            "from": [
                7.87104,
                5.23043,
                3.94715
            ],
            "to": [
                8.13504,
                5.33043,
                4.10315
            ],
            "rotation": {
                "angle": 0,
                "axis": "y",
                "origin": [
                    8.00304,
                    5.30042,
                    4.88915
                ]
            },
            "faces": {
                "north": {
                    "uv": [
                        3,
                        2.75,
                        3,
                        2.875
                    ],
                    "rotation": 270,
                    "texture": "#1"
                },
                "east": {
                    "uv": [
                        3,
                        2.75,
                        3,
                        2.875
                    ],
                    "rotation": 270,
                    "texture": "#1"
                },
                "south": {
                    "uv": [
                        3,
                        2.75,
                        3,
                        2.875
                    ],
                    "rotation": 270,
                    "texture": "#1"
                },
                "west": {
                    "uv": [
                        3,
                        2.75,
                        3,
                        2.875
                    ],
                    "rotation": 270,
                    "texture": "#1"
                },
                "up": {
                    "uv": [
                        3,
                        2.75,
                        3,
                        2.875
                    ],
                    "rotation": 270,
                    "texture": "#1"
                },
                "down": {
                    "uv": [
                        3,
                        2.75,
                        3,
                        2.875
                    ],
                    "rotation": 270,
                    "texture": "#1"
                }
            }
        },
        {
            "from": [
                7.87104,
                4.69308,
                4.10315
            ],
            "to": [
                8.13504,
                4.85708,
                5.31515
            ],
            "rotation": {
                "angle": 0,
                "axis": "y",
                "origin": [
                    7.84088,
                    4.94458,
                    5.04515
                ]
            },
            "faces": {
                "north": {
                    "uv": [
                        3,
                        2.75,
                        3,
                        2.875
                    ],
                    "rotation": 90,
                    "texture": "#1"
                },
                "east": {
                    "uv": [
                        3,
                        2.75,
                        3,
                        2.875
                    ],
                    "rotation": 90,
                    "texture": "#1"
                },
                "south": {
                    "uv": [
                        3,
                        2.75,
                        3,
                        2.875
                    ],
                    "rotation": 90,
                    "texture": "#1"
                },
                "west": {
                    "uv": [
                        3,
                        2.75,
                        3,
                        2.875
                    ],
                    "rotation": 90,
                    "texture": "#1"
                },
                "up": {
                    "uv": [
                        7.625,
                        12.375,
                        7.625,
                        12.5
                    ],
                    "rotation": 270,
                    "texture": "#1"
                },
                "down": {
                    "uv": [
                        3,
                        2.75,
                        3,
                        2.875
                    ],
                    "rotation": 90,
                    "texture": "#1"
                }
            }
        },
        {
            "from": [
                7.87104,
                4.69308,
                3.94715
            ],
            "to": [
                8.13504,
                4.79308,
                4.10315
            ],
            "rotation": {
                "angle": 0,
                "axis": "y",
                "origin": [
                    7.84088,
                    4.94458,
                    4.88915
                ]
            },
            "faces": {
                "north": {
                    "uv": [
                        3,
                        2.75,
                        3,
                        2.875
                    ],
                    "rotation": 90,
                    "texture": "#1"
                },
                "east": {
                    "uv": [
                        3,
                        2.75,
                        3,
                        2.875
                    ],
                    "rotation": 90,
                    "texture": "#1"
                },
                "south": {
                    "uv": [
                        3,
                        2.75,
                        3,
                        2.875
                    ],
                    "rotation": 90,
                    "texture": "#1"
                },
                "west": {
                    "uv": [
                        3,
                        2.75,
                        3,
                        2.875
                    ],
                    "rotation": 90,
                    "texture": "#1"
                },
                "up": {
                    "uv": [
                        3,
                        2.75,
                        3,
                        2.875
                    ],
                    "rotation": 90,
                    "texture": "#1"
                },
                "down": {
                    "uv": [
                        3,
                        2.75,
                        3,
                        2.875
                    ],
                    "rotation": 90,
                    "texture": "#1"
                }
            }
        },
        {
            "from": [
                8.22104,
                4.72687,
                4.10315
            ],
            "to": [
                8.38504,
                4.99087,
                5.31515
            ],
            "rotation": {
                "angle": -45,
                "axis": "z",
                "origin": [
                    8.21925,
                    5.01175,
                    5.04515
                ]
            },
            "faces": {
                "north": {
                    "uv": [
                        3,
                        2.75,
                        3,
                        2.875
                    ],
                    "rotation": 180,
                    "texture": "#1"
                },
                "east": {
                    "uv": [
                        3,
                        2.75,
                        3,
                        2.875
                    ],
                    "texture": "#1"
                },
                "south": {
                    "uv": [
                        3,
                        2.75,
                        3,
                        2.875
                    ],
                    "texture": "#1"
                },
                "west": {
                    "uv": [
                        7.625,
                        12.375,
                        7.625,
                        12.5
                    ],
                    "rotation": 270,
                    "texture": "#1"
                },
                "up": {
                    "uv": [
                        3,
                        2.75,
                        3,
                        2.875
                    ],
                    "texture": "#1"
                },
                "down": {
                    "uv": [
                        3,
                        2.75,
                        3,
                        2.875
                    ],
                    "texture": "#1"
                }
            }
        },
        {
            "from": [
                8.28504,
                4.72687,
                3.94715
            ],
            "to": [
                8.38504,
                4.99087,
                4.10315
            ],
            "rotation": {
                "angle": -45,
                "axis": "z",
                "origin": [
                    8.21925,
                    5.01175,
                    4.88915
                ]
            },
            "faces": {
                "north": {
                    "uv": [
                        3,
                        2.75,
                        3,
                        2.875
                    ],
                    "rotation": 180,
                    "texture": "#1"
                },
                "east": {
                    "uv": [
                        3,
                        2.75,
                        3,
                        2.875
                    ],
                    "texture": "#1"
                },
                "south": {
                    "uv": [
                        3,
                        2.75,
                        3,
                        2.875
                    ],
                    "texture": "#1"
                },
                "west": {
                    "uv": [
                        3,
                        2.75,
                        3,
                        2.875
                    ],
                    "texture": "#1"
                },
                "up": {
                    "uv": [
                        3,
                        2.75,
                        3,
                        2.875
                    ],
                    "texture": "#1"
                },
                "down": {
                    "uv": [
                        3,
                        2.75,
                        3,
                        2.875
                    ],
                    "texture": "#1"
                }
            }
        },
        {
            "from": [
                7.87104,
                5.03209,
                4.10315
            ],
            "to": [
                8.13504,
                5.19609,
                5.31515
            ],
            "rotation": {
                "angle": 45,
                "axis": "z",
                "origin": [
                    7.84088,
                    4.94458,
                    5.04515
                ]
            },
            "faces": {
                "north": {
                    "uv": [
                        3,
                        2.75,
                        3,
                        2.875
                    ],
                    "rotation": 270,
                    "texture": "#1"
                },
                "east": {
                    "uv": [
                        3,
                        2.75,
                        3,
                        2.875
                    ],
                    "rotation": 270,
                    "texture": "#1"
                },
                "south": {
                    "uv": [
                        3,
                        2.75,
                        3,
                        2.875
                    ],
                    "rotation": 270,
                    "texture": "#1"
                },
                "west": {
                    "uv": [
                        3,
                        2.75,
                        3,
                        2.875
                    ],
                    "rotation": 270,
                    "texture": "#1"
                },
                "up": {
                    "uv": [
                        3,
                        2.75,
                        3,
                        2.875
                    ],
                    "rotation": 270,
                    "texture": "#1"
                },
                "down": {
                    "uv": [
                        7.625,
                        12.375,
                        7.625,
                        12.5
                    ],
                    "rotation": 270,
                    "texture": "#1"
                }
            }
        },
        {
            "from": [
                7.87104,
                5.09609,
                3.94715
            ],
            "to": [
                8.13504,
                5.19609,
                4.10315
            ],
            "rotation": {
                "angle": 45,
                "axis": "z",
                "origin": [
                    7.84088,
                    4.94458,
                    4.88915
                ]
            },
            "faces": {
                "north": {
                    "uv": [
                        3,
                        2.75,
                        3,
                        2.875
                    ],
                    "rotation": 270,
                    "texture": "#1"
                },
                "east": {
                    "uv": [
                        3,
                        2.75,
                        3,
                        2.875
                    ],
                    "rotation": 270,
                    "texture": "#1"
                },
                "south": {
                    "uv": [
                        3,
                        2.75,
                        3,
                        2.875
                    ],
                    "rotation": 270,
                    "texture": "#1"
                },
                "west": {
                    "uv": [
                        3,
                        2.75,
                        3,
                        2.875
                    ],
                    "rotation": 270,
                    "texture": "#1"
                },
                "up": {
                    "uv": [
                        3,
                        2.75,
                        3,
                        2.875
                    ],
                    "rotation": 270,
                    "texture": "#1"
                },
                "down": {
                    "uv": [
                        3,
                        2.75,
                        3,
                        2.875
                    ],
                    "rotation": 270,
                    "texture": "#1"
                }
            }
        },
        {
            "from": [
                7.76161,
                4.91299,
                4.13515
            ],
            "to": [
                7.86161,
                5.11299,
                5.57115
            ],
            "rotation": {
                "angle": 0,
                "axis": "y",
                "origin": [
                    7.81161,
                    5.01299,
                    5.50115
                ]
            },
            "faces": {
                "north": {
                    "uv": [
                        7.625,
                        12.375,
                        7.625,
                        12.5
                    ],
                    "rotation": 270,
                    "texture": "#1"
                },
                "east": {
                    "uv": [
                        7.625,
                        12.375,
                        7.625,
                        12.5
                    ],
                    "rotation": 270,
                    "texture": "#1"
                },
                "south": {
                    "uv": [
                        4,
                        3,
                        4.625,
                        3
                    ],
                    "texture": "#1"
                },
                "west": {
                    "uv": [
                        4,
                        3,
                        4.625,
                        3
                    ],
                    "texture": "#1"
                },
                "up": {
                    "uv": [
                        4,
                        3,
                        4.625,
                        3
                    ],
                    "texture": "#1"
                },
                "down": {
                    "uv": [
                        4,
                        3,
                        4.625,
                        3
                    ],
                    "texture": "#1"
                }
            }
        },
        {
            "from": [
                8.14446,
                4.91299,
                4.13515
            ],
            "to": [
                8.24446,
                5.11299,
                5.57115
            ],
            "rotation": {
                "angle": 0,
                "axis": "y",
                "origin": [
                    8.19446,
                    5.01299,
                    5.50115
                ]
            },
            "faces": {
                "north": {
                    "uv": [
                        7.625,
                        12.375,
                        7.625,
                        12.5
                    ],
                    "rotation": 270,
                    "texture": "#1"
                },
                "east": {
                    "uv": [
                        4,
                        3,
                        4.625,
                        3
                    ],
                    "texture": "#1"
                },
                "south": {
                    "uv": [
                        4,
                        3,
                        4.625,
                        3
                    ],
                    "texture": "#1"
                },
                "west": {
                    "uv": [
                        7.625,
                        12.375,
                        7.625,
                        12.5
                    ],
                    "rotation": 270,
                    "texture": "#1"
                },
                "up": {
                    "uv": [
                        4,
                        3,
                        4.625,
                        3
                    ],
                    "texture": "#1"
                },
                "down": {
                    "uv": [
                        4,
                        3,
                        4.625,
                        3
                    ],
                    "texture": "#1"
                }
            }
        },
        {
            "from": [
                7.90304,
                4.77157,
                4.13515
            ],
            "to": [
                8.10304,
                4.87157,
                5.57115
            ],
            "rotation": {
                "angle": 45,
                "axis": "z",
                "origin": [
                    8.00304,
                    5.01299,
                    6.50115
                ]
            },
            "faces": {
                "north": {
                    "uv": [
                        7.625,
                        12.375,
                        7.625,
                        12.5
                    ],
                    "rotation": 270,
                    "texture": "#1"
                },
                "east": {
                    "uv": [
                        4,
                        3,
                        4.625,
                        3
                    ],
                    "rotation": 90,
                    "texture": "#1"
                },
                "south": {
                    "uv": [
                        4,
                        3,
                        4.625,
                        3
                    ],
                    "rotation": 90,
                    "texture": "#1"
                },
                "west": {
                    "uv": [
                        4,
                        3,
                        4.625,
                        3
                    ],
                    "rotation": 90,
                    "texture": "#1"
                },
                "up": {
                    "uv": [
                        7.625,
                        12.375,
                        7.625,
                        12.5
                    ],
                    "rotation": 270,
                    "texture": "#1"
                },
                "down": {
                    "uv": [
                        4,
                        3,
                        4.625,
                        3
                    ],
                    "rotation": 90,
                    "texture": "#1"
                }
            }
        },
        {
            "from": [
                7.90304,
                5.15442,
                4.13515
            ],
            "to": [
                8.10304,
                5.25442,
                5.57115
            ],
            "rotation": {
                "angle": 45,
                "axis": "z",
                "origin": [
                    8.00304,
                    5.01299,
                    6.50115
                ]
            },
            "faces": {
                "north": {
                    "uv": [
                        7.625,
                        12.375,
                        7.625,
                        12.5
                    ],
                    "rotation": 270,
                    "texture": "#1"
                },
                "east": {
                    "uv": [
                        4,
                        3,
                        4.625,
                        3
                    ],
                    "rotation": 90,
                    "texture": "#1"
                },
                "south": {
                    "uv": [
                        4,
                        3,
                        4.625,
                        3
                    ],
                    "rotation": 90,
                    "texture": "#1"
                },
                "west": {
                    "uv": [
                        4,
                        3,
                        4.625,
                        3
                    ],
                    "rotation": 90,
                    "texture": "#1"
                },
                "up": {
                    "uv": [
                        4,
                        3,
                        4.625,
                        3
                    ],
                    "rotation": 90,
                    "texture": "#1"
                },
                "down": {
                    "uv": [
                        7.625,
                        12.375,
                        7.625,
                        12.5
                    ],
                    "rotation": 270,
                    "texture": "#1"
                }
            }
        }
    ],
    "display": {
        "thirdperson_righthand": {
            "translation": [
                -1.25,
                4,
                0.25
            ]
        },
        "thirdperson_lefthand": {
            "translation": [
                -0.75,
                3.75,
                0.25
            ]
        },
        "firstperson_righthand": {
            "translation": [
                -13.75,
                8.25,
                3
            ]
        },
        "firstperson_lefthand": {
            "translation": [
                -13.5,
                8.25,
                3.25
            ]
        },
        "ground": {
            "translation": [
                -0.25,
                6.25,
                0
            ]
        },
        "gui": {
            "rotation": [
                -12,
                -54,
                -16
            ],
            "translation": [
                3.75,
                6.75,
                0
            ],
            "scale": [
                1.7,
                1.7,
                1.7
            ]
        },
        "head": {
            "rotation": [
                0,
                0,
                90
            ],
            "translation": [
                -3.5,
                7.5,
                0
            ]
        },
        "fixed": {
            "rotation": [
                90,
                45,
                -90
            ],
            "translation": [
                3.5,
                5,
                -0.75
            ],
            "scale": [
                1.5,
                1.5,
                1.5
            ]
        }
    }
}