{
    "textures": {
        "0": "gci:items/common/mpz",
        "1": "gci:items/common/all_in_one",
        "particle": "gci:items/common/mpz"
    },
    "elements": [],
    "display": {
        "thirdperson_righthand": {
            "translation": [
                -1.25,
                4,
                0.25
            ]
        },
        "thirdperson_lefthand": {
            "translation": [
                -0.75,
                3.75,
                0.25
            ]
        },
        "firstperson_righthand": {
            "translation": [
                -13.75,
                8.25,
                3
            ]
        },
        "firstperson_lefthand": {
            "translation": [
                -13.5,
                8.25,
                3.25
            ]
        },
        "ground": {
            "translation": [
                -0.25,
                6.25,
                0
            ]
        },
        "gui": {
            "rotation": [
                -12,
                -54,
                -16
            ],
            "translation": [
                3.75,
                6.75,
                0
            ],
            "scale": [
                1.7,
                1.7,
                1.7
            ]
        },
        "head": {
            "rotation": [
                0,
                0,
                90
            ],
            "translation": [
                -3.5,
                7.5,
                0
            ]
        },
        "fixed": {
            "rotation": [
                90,
                45,
                -90
            ],
            "translation": [
                3.5,
                5,
                -0.75
            ],
            "scale": [
                1.5,
                1.5,
                1.5
            ]
        }
    }
}