{
	"credit": "Made with Blockbench",
	"textures": {
		"0": "gci:items/gun_mdr/all_in_one",
		"particle": "gci:items/gun_mdr/all_in_one"
	},
	"elements": [
		{
			"from": [8.07433, 10.11741, -0.728],
			"to": [8.37833, 10.21341, 0.548],
			"rotation": {"angle": 45, "axis": "z", "origin": [8.14659, 10.03896, -0.09]},
			"faces": {
				"north": {"uv": [3, 3.25, 3, 3.25], "rotation": 270, "texture": "#0"},
				"east": {"uv": [3, 3.25, 3, 3.25], "rotation": 270, "texture": "#0"},
				"south": {"uv": [3, 3.25, 3, 3.25], "rotation": 270, "texture": "#0"},
				"west": {"uv": [3, 3.25, 3, 3.25], "rotation": 270, "texture": "#0"},
				"up": {"uv": [3, 3.25, 3, 3.25], "rotation": 270, "texture": "#0"},
				"down": {"uv": [3, 3.25, 3, 3.25], "rotation": 270, "texture": "#0"}
			}
		},
		{
			"from": [8.1871, 10.23018, -0.728],
			"to": [8.4911, 10.32618, 0.548],
			"rotation": {"angle": 0, "axis": "y", "origin": [8.14659, 10.03896, -0.09]},
			"faces": {
				"north": {"uv": [3, 3.25, 3, 3.25], "rotation": 270, "texture": "#0"},
				"east": {"uv": [3, 3.25, 3, 3.25], "rotation": 270, "texture": "#0"},
				"south": {"uv": [3, 3.25, 3, 3.25], "rotation": 270, "texture": "#0"},
				"west": {"uv": [3, 3.25, 3, 3.25], "rotation": 270, "texture": "#0"},
				"up": {"uv": [3, 3.25, 3, 3.25], "rotation": 270, "texture": "#0"},
				"down": {"uv": [3, 3.25, 3, 3.25], "rotation": 270, "texture": "#0"}
			}
		},
		{
			"from": [8.41264, 10.13676, -0.728],
			"to": [8.71664, 10.23276, 0.548],
			"rotation": {"angle": -45, "axis": "z", "origin": [8.56464, 10.18476, -0.09]},
			"faces": {
				"north": {"uv": [3, 3.25, 3, 3.25], "rotation": 90, "texture": "#0"},
				"east": {"uv": [3, 3.25, 3, 3.25], "rotation": 90, "texture": "#0"},
				"south": {"uv": [3, 3.25, 3, 3.25], "rotation": 90, "texture": "#0"},
				"west": {"uv": [3, 3.25, 3, 3.25], "rotation": 90, "texture": "#0"},
				"up": {"uv": [3, 3.25, 3, 3.25], "rotation": 90, "texture": "#0"},
				"down": {"uv": [3, 3.25, 3, 3.25], "rotation": 90, "texture": "#0"}
			}
		},
		{
			"from": [8.61006, 9.80722, -0.728],
			"to": [8.70606, 10.11122, 0.548],
			"rotation": {"angle": 0, "axis": "y", "origin": [8.65806, 9.95922, -0.09]},
			"faces": {
				"north": {"uv": [3, 3.25, 3, 3.25], "rotation": 180, "texture": "#0"},
				"east": {"uv": [3, 3.25, 3, 3.25], "texture": "#0"},
				"south": {"uv": [3, 3.25, 3, 3.25], "texture": "#0"},
				"west": {"uv": [3, 3.25, 3, 3.25], "texture": "#0"},
				"up": {"uv": [3, 3.25, 3, 3.25], "texture": "#0"},
				"down": {"uv": [3, 3.25, 3, 3.25], "texture": "#0"}
			}
		},
		{
			"from": [8.51664, 9.58168, -0.728],
			"to": [8.61264, 9.88568, 0.548],
			"rotation": {"angle": -45, "axis": "z", "origin": [8.56464, 9.73368, -0.09]},
			"faces": {
				"north": {"uv": [3, 3.25, 3, 3.25], "rotation": 180, "texture": "#0"},
				"east": {"uv": [3, 3.25, 3, 3.25], "texture": "#0"},
				"south": {"uv": [3, 3.25, 3, 3.25], "texture": "#0"},
				"west": {"uv": [3, 3.25, 3, 3.25], "texture": "#0"},
				"up": {"uv": [3, 3.25, 3, 3.25], "texture": "#0"},
				"down": {"uv": [3, 3.25, 3, 3.25], "texture": "#0"}
			}
		},
		{
			"from": [8.1871, 9.59226, -0.728],
			"to": [8.4911, 9.68826, 0.548],
			"rotation": {"angle": 0, "axis": "y", "origin": [8.3391, 9.64026, -0.09]},
			"faces": {
				"north": {"uv": [3, 3.25, 3, 3.25], "rotation": 90, "texture": "#0"},
				"east": {"uv": [3, 3.25, 3, 3.25], "rotation": 90, "texture": "#0"},
				"south": {"uv": [3, 3.25, 3, 3.25], "rotation": 90, "texture": "#0"},
				"west": {"uv": [3, 3.25, 3, 3.25], "rotation": 90, "texture": "#0"},
				"up": {"uv": [3, 3.25, 3, 3.25], "rotation": 90, "texture": "#0"},
				"down": {"uv": [3, 3.25, 3, 3.25], "rotation": 90, "texture": "#0"}
			}
		},
		{
			"from": [7.85937, 9.69445, -0.728],
			"to": [7.95537, 9.99845, 0.548],
			"rotation": {"angle": 45, "axis": "z", "origin": [8.14659, 10.03896, -0.09]},
			"faces": {
				"north": {"uv": [3, 3.25, 3, 3.25], "rotation": 180, "texture": "#0"},
				"east": {"uv": [3, 3.25, 3, 3.25], "texture": "#0"},
				"south": {"uv": [3, 3.25, 3, 3.25], "texture": "#0"},
				"west": {"uv": [3, 3.25, 3, 3.25], "texture": "#0"},
				"up": {"uv": [3, 3.25, 3, 3.25], "texture": "#0"},
				"down": {"uv": [3, 3.25, 3, 3.25], "texture": "#0"}
			}
		},
		{
			"from": [7.97214, 9.80722, -0.728],
			"to": [8.06814, 10.11122, 0.548],
			"rotation": {"angle": 0, "axis": "y", "origin": [8.14659, 10.03896, -0.09]},
			"faces": {
				"north": {"uv": [3, 3.25, 3, 3.25], "texture": "#0"},
				"east": {"uv": [3, 3.25, 3, 3.25], "rotation": 180, "texture": "#0"},
				"south": {"uv": [3, 3.25, 3, 3.25], "rotation": 180, "texture": "#0"},
				"west": {"uv": [3, 3.25, 3, 3.25], "rotation": 180, "texture": "#0"},
				"up": {"uv": [3, 3.25, 3, 3.25], "rotation": 180, "texture": "#0"},
				"down": {"uv": [3, 3.25, 3, 3.25], "rotation": 180, "texture": "#0"}
			}
		},
		{
			"from": [8.1231, 9.68826, -0.696],
			"to": [8.5551, 10.23226, -0.636],
			"rotation": {"angle": 0, "axis": "y", "origin": [8.3391, 9.73626, -0.09]},
			"faces": {
				"north": {"uv": [0.875, 12.75, 0.875, 12.75], "rotation": 90, "texture": "#0"},
				"east": {"uv": [3, 3.25, 3, 3.25], "rotation": 90, "texture": "#0"},
				"south": {"uv": [3, 3.25, 3, 3.25], "rotation": 90, "texture": "#0"},
				"west": {"uv": [3, 3.25, 3, 3.25], "rotation": 90, "texture": "#0"},
				"up": {"uv": [3, 3.25, 3, 3.25], "rotation": 90, "texture": "#0"},
				"down": {"uv": [3, 3.25, 3, 3.25], "rotation": 90, "texture": "#0"}
			}
		},
		{
			"from": [8.0671, 9.74426, -0.696],
			"to": [8.6111, 10.17626, -0.636],
			"rotation": {"angle": 0, "axis": "y", "origin": [8.3391, 9.96026, -0.666]},
			"faces": {
				"north": {"uv": [0.875, 12.75, 0.875, 12.75], "rotation": 180, "texture": "#0"},
				"east": {"uv": [3, 3.25, 3, 3.25], "texture": "#0"},
				"south": {"uv": [3, 3.25, 3, 3.25], "texture": "#0"},
				"west": {"uv": [3, 3.25, 3, 3.25], "texture": "#0"},
				"up": {"uv": [3, 3.25, 3, 3.25], "texture": "#0"},
				"down": {"uv": [3, 3.25, 3, 3.25], "texture": "#0"}
			}
		},
		{
			"from": [8.1231, 9.68826, 0.456],
			"to": [8.5551, 10.23226, 0.548],
			"rotation": {"angle": 0, "axis": "y", "origin": [8.3391, 9.64026, -0.09]},
			"faces": {
				"north": {"uv": [3, 3.25, 3, 3.25], "rotation": 90, "texture": "#0"},
				"east": {"uv": [3, 3.25, 3, 3.25], "rotation": 90, "texture": "#0"},
				"south": {"uv": [3, 3.25, 3, 3.25], "rotation": 90, "texture": "#0"},
				"west": {"uv": [3, 3.25, 3, 3.25], "rotation": 90, "texture": "#0"},
				"up": {"uv": [3, 3.25, 3, 3.25], "rotation": 90, "texture": "#0"},
				"down": {"uv": [3, 3.25, 3, 3.25], "rotation": 90, "texture": "#0"}
			}
		},
		{
			"from": [8.0671, 9.74426, 0.456],
			"to": [8.6111, 10.17626, 0.548],
			"rotation": {"angle": 0, "axis": "y", "origin": [8.3391, 9.96026, 0.502]},
			"faces": {
				"north": {"uv": [3, 3.25, 3, 3.25], "texture": "#0"},
				"east": {"uv": [3, 3.25, 3, 3.25], "rotation": 180, "texture": "#0"},
				"south": {"uv": [3, 3.25, 3, 3.25], "rotation": 180, "texture": "#0"},
				"west": {"uv": [3, 3.25, 3, 3.25], "rotation": 180, "texture": "#0"},
				"up": {"uv": [3, 3.25, 3, 3.25], "rotation": 180, "texture": "#0"},
				"down": {"uv": [3, 3.25, 3, 3.25], "rotation": 180, "texture": "#0"}
			}
		},
		{
			"from": [8.70457, 7.22426, 0.21747],
			"to": [8.86057, 9.01626, 0.64947],
			"rotation": {"angle": 0, "axis": "y", "origin": [8.78257, 8.12026, 0.43347]},
			"faces": {
				"north": {"uv": [3, 3.25, 3, 3.25], "rotation": 90, "texture": "#0"},
				"east": {"uv": [3, 3.25, 3, 3.25], "rotation": 90, "texture": "#0"},
				"south": {"uv": [3, 3.25, 3, 3.25], "rotation": 90, "texture": "#0"},
				"west": {"uv": [3, 3.25, 3, 3.25], "rotation": 90, "texture": "#0"},
				"up": {"uv": [3, 3.25, 3, 3.25], "rotation": 180, "texture": "#0"},
				"down": {"uv": [3, 3.25, 3, 3.25], "texture": "#0"}
			}
		},
		{
			"from": [8.70457, 6.74426, 0.21747],
			"to": [8.86057, 7.12826, 0.64947],
			"rotation": {"angle": 0, "axis": "y", "origin": [8.78257, 6.16826, 0.43347]},
			"faces": {
				"north": {"uv": [2.875, 3.625, 2.875, 3.625], "rotation": 90, "texture": "#0"},
				"east": {"uv": [2.875, 3.625, 2.875, 3.625], "rotation": 90, "texture": "#0"},
				"south": {"uv": [2.875, 3.625, 2.875, 3.625], "rotation": 90, "texture": "#0"},
				"west": {"uv": [2.875, 3.625, 2.875, 3.625], "rotation": 90, "texture": "#0"},
				"up": {"uv": [2.875, 3.625, 2.875, 3.625], "rotation": 90, "texture": "#0"},
				"down": {"uv": [2.875, 3.625, 2.875, 3.625], "rotation": 90, "texture": "#0"}
			}
		},
		{
			"from": [8.43668, 7.22426, 0.04189],
			"to": [8.86868, 9.01626, 0.19789],
			"rotation": {"angle": -45, "axis": "y", "origin": [8.65268, 8.12026, 0.11989]},
			"faces": {
				"north": {"uv": [3, 3.25, 3, 3.25], "rotation": 90, "texture": "#0"},
				"east": {"uv": [3, 3.25, 3, 3.25], "rotation": 90, "texture": "#0"},
				"south": {"uv": [3, 3.25, 3, 3.25], "rotation": 90, "texture": "#0"},
				"west": {"uv": [3, 3.25, 3, 3.25], "rotation": 90, "texture": "#0"},
				"up": {"uv": [3, 3.25, 3, 3.25], "rotation": 90, "texture": "#0"},
				"down": {"uv": [3, 3.25, 3, 3.25], "rotation": 90, "texture": "#0"}
			}
		},
		{
			"from": [8.43668, 6.74426, 0.04189],
			"to": [8.86868, 7.12826, 0.19789],
			"rotation": {"angle": -45, "axis": "y", "origin": [8.65268, 6.16826, 0.11989]},
			"faces": {
				"north": {"uv": [2.875, 3.625, 2.875, 3.625], "rotation": 90, "texture": "#0"},
				"east": {"uv": [2.875, 3.625, 2.875, 3.625], "rotation": 90, "texture": "#0"},
				"south": {"uv": [2.875, 3.625, 2.875, 3.625], "rotation": 90, "texture": "#0"},
				"west": {"uv": [2.875, 3.625, 2.875, 3.625], "rotation": 90, "texture": "#0"},
				"up": {"uv": [2.875, 3.625, 2.875, 3.625], "rotation": 90, "texture": "#0"},
				"down": {"uv": [2.875, 3.625, 2.875, 3.625], "rotation": 90, "texture": "#0"}
			}
		},
		{
			"from": [7.87075, 7.22426, 0.90347],
			"to": [8.30275, 9.01626, 1.05947],
			"rotation": {"angle": -45, "axis": "y", "origin": [8.3391, 8.12026, 0.79035]},
			"faces": {
				"north": {"uv": [3, 3.25, 3, 3.25], "rotation": 90, "texture": "#0"},
				"east": {"uv": [3, 3.25, 3, 3.25], "rotation": 90, "texture": "#0"},
				"south": {"uv": [3, 3.25, 3, 3.25], "rotation": 90, "texture": "#0"},
				"west": {"uv": [3, 3.25, 3, 3.25], "rotation": 90, "texture": "#0"},
				"up": {"uv": [3, 3.25, 3, 3.25], "rotation": 270, "texture": "#0"},
				"down": {"uv": [3, 3.25, 3, 3.25], "rotation": 270, "texture": "#0"}
			}
		},
		{
			"from": [7.87075, 6.74426, 0.90347],
			"to": [8.30275, 7.12826, 1.05947],
			"rotation": {"angle": -45, "axis": "y", "origin": [8.3391, 6.16826, 0.79035]},
			"faces": {
				"north": {"uv": [2.875, 3.625, 2.875, 3.625], "rotation": 90, "texture": "#0"},
				"east": {"uv": [2.875, 3.625, 2.875, 3.625], "rotation": 90, "texture": "#0"},
				"south": {"uv": [2.875, 3.625, 2.875, 3.625], "rotation": 90, "texture": "#0"},
				"west": {"uv": [2.875, 3.625, 2.875, 3.625], "rotation": 90, "texture": "#0"},
				"up": {"uv": [2.875, 3.625, 2.875, 3.625], "rotation": 90, "texture": "#0"},
				"down": {"uv": [2.875, 3.625, 2.875, 3.625], "rotation": 90, "texture": "#0"}
			}
		},
		{
			"from": [8.1231, 7.22426, -0.088],
			"to": [8.5551, 9.01626, 0.068],
			"rotation": {"angle": 0, "axis": "y", "origin": [8.323, 9.21335, -1.79982]},
			"faces": {
				"north": {"uv": [3, 3.25, 3, 3.25], "rotation": 90, "texture": "#0"},
				"east": {"uv": [3, 3.25, 3, 3.25], "rotation": 90, "texture": "#0"},
				"south": {"uv": [3, 3.25, 3, 3.25], "rotation": 90, "texture": "#0"},
				"west": {"uv": [3, 3.25, 3, 3.25], "rotation": 90, "texture": "#0"},
				"up": {"uv": [3, 3.25, 3, 3.25], "rotation": 90, "texture": "#0"},
				"down": {"uv": [3, 3.25, 3, 3.25], "rotation": 90, "texture": "#0"}
			}
		},
		{
			"from": [8.1231, 6.74426, -0.088],
			"to": [8.5551, 7.12826, 0.068],
			"rotation": {"angle": 0, "axis": "y", "origin": [8.323, 7.26135, -1.79982]},
			"faces": {
				"north": {"uv": [2.875, 3.625, 2.875, 3.625], "rotation": 90, "texture": "#0"},
				"east": {"uv": [2.875, 3.625, 2.875, 3.625], "rotation": 90, "texture": "#0"},
				"south": {"uv": [2.875, 3.625, 2.875, 3.625], "rotation": 90, "texture": "#0"},
				"west": {"uv": [2.875, 3.625, 2.875, 3.625], "rotation": 90, "texture": "#0"},
				"up": {"uv": [2.875, 3.625, 2.875, 3.625], "rotation": 90, "texture": "#0"},
				"down": {"uv": [2.875, 3.625, 2.875, 3.625], "rotation": 90, "texture": "#0"}
			}
		},
		{
			"from": [8.1231, 7.22426, 0.79894],
			"to": [8.5551, 9.01626, 0.95494],
			"rotation": {"angle": 0, "axis": "y", "origin": [8.3391, 8.12026, 0.79035]},
			"faces": {
				"north": {"uv": [3, 3.25, 3, 3.25], "rotation": 90, "texture": "#0"},
				"east": {"uv": [3, 3.25, 3, 3.25], "rotation": 90, "texture": "#0"},
				"south": {"uv": [3, 3.25, 3, 3.25], "rotation": 90, "texture": "#0"},
				"west": {"uv": [3, 3.25, 3, 3.25], "rotation": 90, "texture": "#0"},
				"up": {"uv": [3, 3.25, 3, 3.25], "rotation": 270, "texture": "#0"},
				"down": {"uv": [3, 3.25, 3, 3.25], "rotation": 270, "texture": "#0"}
			}
		},
		{
			"from": [8.1231, 6.74426, 0.79894],
			"to": [8.5551, 7.12826, 0.95494],
			"rotation": {"angle": 0, "axis": "y", "origin": [8.3391, 6.16826, 0.79035]},
			"faces": {
				"north": {"uv": [2.875, 3.625, 2.875, 3.625], "rotation": 90, "texture": "#0"},
				"east": {"uv": [2.875, 3.625, 2.875, 3.625], "rotation": 90, "texture": "#0"},
				"south": {"uv": [2.875, 3.625, 2.875, 3.625], "rotation": 90, "texture": "#0"},
				"west": {"uv": [2.875, 3.625, 2.875, 3.625], "rotation": 90, "texture": "#0"},
				"up": {"uv": [2.875, 3.625, 2.875, 3.625], "rotation": 90, "texture": "#0"},
				"down": {"uv": [2.875, 3.625, 2.875, 3.625], "rotation": 90, "texture": "#0"}
			}
		},
		{
			"from": [7.81763, 7.22426, 0.21747],
			"to": [7.97363, 9.01626, 0.64947],
			"rotation": {"angle": 0, "axis": "y", "origin": [7.89563, 8.12026, 0.43347]},
			"faces": {
				"north": {"uv": [3, 3.25, 3, 3.25], "rotation": 90, "texture": "#0"},
				"east": {"uv": [3, 3.25, 3, 3.25], "rotation": 90, "texture": "#0"},
				"south": {"uv": [3, 3.25, 3, 3.25], "rotation": 90, "texture": "#0"},
				"west": {"uv": [3, 3.25, 3, 3.25], "rotation": 90, "texture": "#0"},
				"up": {"uv": [3, 3.25, 3, 3.25], "texture": "#0"},
				"down": {"uv": [3, 3.25, 3, 3.25], "rotation": 180, "texture": "#0"}
			}
		},
		{
			"from": [7.91363, 7.22426, 0.24947],
			"to": [8.06963, 9.01626, 0.61747],
			"rotation": {"angle": 0, "axis": "y", "origin": [7.99163, 8.12026, 0.40147]},
			"faces": {
				"north": {"uv": [3, 3.25, 3, 3.25], "rotation": 90, "texture": "#0"},
				"east": {"uv": [3, 3.25, 3, 3.25], "rotation": 90, "texture": "#0"},
				"south": {"uv": [3, 3.25, 3, 3.25], "rotation": 90, "texture": "#0"},
				"west": {"uv": [3, 3.25, 3, 3.25], "rotation": 90, "texture": "#0"},
				"up": {"uv": [3, 3.25, 3, 3.25], "texture": "#0"},
				"down": {"uv": [3, 3.25, 3, 3.25], "rotation": 180, "texture": "#0"}
			}
		},
		{
			"from": [8.04352, 6.84026, -0.00011],
			"to": [8.80752, 9.43226, 0.36789],
			"rotation": {"angle": -45, "axis": "y", "origin": [8.12152, 8.12026, 0.15189]},
			"faces": {
				"north": {"uv": [7.25, 12, 7.25, 12], "texture": "#0"},
				"east": {"uv": [7.25, 12, 7.25, 12], "texture": "#0"},
				"south": {"uv": [7.25, 12, 7.25, 12], "texture": "#0"},
				"west": {"uv": [7.25, 12, 7.25, 12], "texture": "#0"},
				"up": {"uv": [7.25, 12, 7.25, 12], "texture": "#0"},
				"down": {"uv": [7.25, 12, 7.25, 12], "texture": "#0"}
			}
		},
		{
			"from": [8.35695, 6.84026, 0.72169],
			"to": [8.72495, 9.43226, 0.87769],
			"rotation": {"angle": 45, "axis": "y", "origin": [8.4494, 8.12026, 0.6545]},
			"faces": {
				"north": {"uv": [7.25, 12, 7.25, 12], "rotation": 270, "texture": "#0"},
				"east": {"uv": [7.25, 12, 7.25, 12], "rotation": 270, "texture": "#0"},
				"south": {"uv": [7.25, 12, 7.25, 12], "rotation": 270, "texture": "#0"},
				"west": {"uv": [7.25, 12, 7.25, 12], "rotation": 270, "texture": "#0"},
				"up": {"uv": [7.25, 12, 7.25, 12], "rotation": 270, "texture": "#0"},
				"down": {"uv": [7.25, 12, 7.25, 12], "rotation": 270, "texture": "#0"}
			}
		},
		{
			"from": [7.94017, 6.84026, -0.00011],
			"to": [8.67217, 9.43226, 0.36789],
			"rotation": {"angle": 45, "axis": "y", "origin": [8.59417, 8.12026, 0.15189]},
			"faces": {
				"north": {"uv": [7.25, 12, 7.25, 12], "texture": "#0"},
				"east": {"uv": [7.25, 12, 7.25, 12], "texture": "#0"},
				"south": {"uv": [7.25, 12, 7.25, 12], "texture": "#0"},
				"west": {"uv": [7.25, 12, 7.25, 12], "texture": "#0"},
				"up": {"uv": [7.25, 12, 7.25, 12], "texture": "#0"},
				"down": {"uv": [7.25, 12, 7.25, 12], "texture": "#0"}
			}
		},
		{
			"from": [8.09674, 6.84026, 0.24947],
			"to": [8.25274, 9.43226, 0.61747],
			"rotation": {"angle": 45, "axis": "y", "origin": [8.4494, 8.12026, 0.6545]},
			"faces": {
				"north": {"uv": [7.25, 12, 7.25, 12], "rotation": 180, "texture": "#0"},
				"east": {"uv": [7.25, 12, 7.25, 12], "rotation": 180, "texture": "#0"},
				"south": {"uv": [7.25, 12, 7.25, 12], "rotation": 180, "texture": "#0"},
				"west": {"uv": [7.25, 12, 7.25, 12], "rotation": 180, "texture": "#0"},
				"up": {"uv": [7.25, 12, 7.25, 12], "rotation": 180, "texture": "#0"},
				"down": {"uv": [7.25, 12, 7.25, 12], "rotation": 180, "texture": "#0"}
			}
		},
		{
			"from": [7.91363, 6.84026, 0.24947],
			"to": [8.06963, 9.43226, 0.61747],
			"rotation": {"angle": 0, "axis": "y", "origin": [7.99163, 8.12026, 0.40147]},
			"faces": {
				"north": {"uv": [7.25, 12, 7.25, 12], "texture": "#0"},
				"east": {"uv": [7.25, 12, 7.25, 12], "texture": "#0"},
				"south": {"uv": [7.25, 12, 7.25, 12], "texture": "#0"},
				"west": {"uv": [7.25, 12, 7.25, 12], "texture": "#0"},
				"up": {"uv": [7.25, 12, 7.25, 12], "texture": "#0"},
				"down": {"uv": [7.25, 12, 7.25, 12], "texture": "#0"}
			}
		},
		{
			"from": [8.00606, 6.84026, 0.24947],
			"to": [8.80206, 9.43226, 0.61747],
			"rotation": {"angle": 0, "axis": "y", "origin": [8.4494, 8.12026, 0.6545]},
			"faces": {
				"north": {"uv": [7.25, 12, 7.25, 12], "rotation": 180, "texture": "#0"},
				"east": {"uv": [7.25, 12, 7.25, 12], "rotation": 180, "texture": "#0"},
				"south": {"uv": [7.25, 12, 7.25, 12], "rotation": 180, "texture": "#0"},
				"west": {"uv": [7.25, 12, 7.25, 12], "rotation": 180, "texture": "#0"},
				"up": {"uv": [7.25, 12, 7.25, 12], "rotation": 180, "texture": "#0"},
				"down": {"uv": [7.25, 12, 7.25, 12], "rotation": 180, "texture": "#0"}
			}
		},
		{
			"from": [8.17385, 6.84026, -0.01075],
			"to": [8.54185, 9.43226, 0.72125],
			"rotation": {"angle": 0, "axis": "y", "origin": [8.32585, 8.12026, 0.06725]},
			"faces": {
				"north": {"uv": [7.25, 12, 7.25, 12], "rotation": 270, "texture": "#0"},
				"east": {"uv": [7.25, 12, 7.25, 12], "rotation": 270, "texture": "#0"},
				"south": {"uv": [7.25, 12, 7.25, 12], "rotation": 270, "texture": "#0"},
				"west": {"uv": [7.25, 12, 7.25, 12], "rotation": 270, "texture": "#0"},
				"up": {"uv": [7.25, 12, 7.25, 12], "rotation": 270, "texture": "#0"},
				"down": {"uv": [7.25, 12, 7.25, 12], "rotation": 270, "texture": "#0"}
			}
		},
		{
			"from": [8.17385, 6.84026, 0.72169],
			"to": [8.54185, 9.43226, 0.87769],
			"rotation": {"angle": 0, "axis": "y", "origin": [8.4494, 8.12026, 0.6545]},
			"faces": {
				"north": {"uv": [7.25, 12, 7.25, 12], "rotation": 90, "texture": "#0"},
				"east": {"uv": [7.25, 12, 7.25, 12], "rotation": 90, "texture": "#0"},
				"south": {"uv": [7.25, 12, 7.25, 12], "rotation": 90, "texture": "#0"},
				"west": {"uv": [7.25, 12, 7.25, 12], "rotation": 90, "texture": "#0"},
				"up": {"uv": [7.25, 12, 7.25, 12], "rotation": 90, "texture": "#0"},
				"down": {"uv": [7.25, 12, 7.25, 12], "rotation": 90, "texture": "#0"}
			}
		},
		{
			"from": [7.81763, 6.74426, 0.21747],
			"to": [7.97363, 7.12826, 0.64947],
			"rotation": {"angle": 0, "axis": "y", "origin": [7.89563, 6.16826, 0.43347]},
			"faces": {
				"north": {"uv": [2.875, 3.625, 2.875, 3.625], "rotation": 90, "texture": "#0"},
				"east": {"uv": [2.875, 3.625, 2.875, 3.625], "rotation": 90, "texture": "#0"},
				"south": {"uv": [2.875, 3.625, 2.875, 3.625], "rotation": 90, "texture": "#0"},
				"west": {"uv": [2.875, 3.625, 2.875, 3.625], "rotation": 90, "texture": "#0"},
				"up": {"uv": [2.875, 3.625, 2.875, 3.625], "rotation": 90, "texture": "#0"},
				"down": {"uv": [2.875, 3.625, 2.875, 3.625], "rotation": 90, "texture": "#0"}
			}
		},
		{
			"from": [7.94752, 7.22426, -0.09611],
			"to": [8.10352, 9.01626, 0.33589],
			"rotation": {"angle": -45, "axis": "y", "origin": [8.02552, 8.12026, 0.11989]},
			"faces": {
				"north": {"uv": [3, 3.25, 3, 3.25], "rotation": 90, "texture": "#0"},
				"east": {"uv": [3, 3.25, 3, 3.25], "rotation": 90, "texture": "#0"},
				"south": {"uv": [3, 3.25, 3, 3.25], "rotation": 90, "texture": "#0"},
				"west": {"uv": [3, 3.25, 3, 3.25], "rotation": 90, "texture": "#0"},
				"up": {"uv": [3, 3.25, 3, 3.25], "texture": "#0"},
				"down": {"uv": [3, 3.25, 3, 3.25], "rotation": 180, "texture": "#0"}
			}
		},
		{
			"from": [7.94752, 6.74426, -0.09611],
			"to": [8.10352, 7.12826, 0.33589],
			"rotation": {"angle": -45, "axis": "y", "origin": [8.02552, 6.16826, 0.11989]},
			"faces": {
				"north": {"uv": [2.875, 3.625, 2.875, 3.625], "rotation": 90, "texture": "#0"},
				"east": {"uv": [2.875, 3.625, 2.875, 3.625], "rotation": 90, "texture": "#0"},
				"south": {"uv": [2.875, 3.625, 2.875, 3.625], "rotation": 90, "texture": "#0"},
				"west": {"uv": [2.875, 3.625, 2.875, 3.625], "rotation": 90, "texture": "#0"},
				"up": {"uv": [2.875, 3.625, 2.875, 3.625], "rotation": 90, "texture": "#0"},
				"down": {"uv": [2.875, 3.625, 2.875, 3.625], "rotation": 90, "texture": "#0"}
			}
		},
		{
			"from": [8.45222, 7.22426, 0.322],
			"to": [8.60822, 9.01626, 0.754],
			"rotation": {"angle": -45, "axis": "y", "origin": [8.3391, 8.12026, 0.79035]},
			"faces": {
				"north": {"uv": [3, 3.25, 3, 3.25], "rotation": 90, "texture": "#0"},
				"east": {"uv": [3, 3.25, 3, 3.25], "rotation": 90, "texture": "#0"},
				"south": {"uv": [3, 3.25, 3, 3.25], "rotation": 90, "texture": "#0"},
				"west": {"uv": [3, 3.25, 3, 3.25], "rotation": 90, "texture": "#0"},
				"up": {"uv": [3, 3.25, 3, 3.25], "rotation": 180, "texture": "#0"},
				"down": {"uv": [3, 3.25, 3, 3.25], "texture": "#0"}
			}
		},
		{
			"from": [8.45222, 6.74426, 0.322],
			"to": [8.60822, 7.12826, 0.754],
			"rotation": {"angle": -45, "axis": "y", "origin": [8.3391, 6.16826, 0.79035]},
			"faces": {
				"north": {"uv": [2.875, 3.625, 2.875, 3.625], "rotation": 90, "texture": "#0"},
				"east": {"uv": [2.875, 3.625, 2.875, 3.625], "rotation": 90, "texture": "#0"},
				"south": {"uv": [2.875, 3.625, 2.875, 3.625], "rotation": 90, "texture": "#0"},
				"west": {"uv": [2.875, 3.625, 2.875, 3.625], "rotation": 90, "texture": "#0"},
				"up": {"uv": [2.875, 3.625, 2.875, 3.625], "rotation": 90, "texture": "#0"},
				"down": {"uv": [2.875, 3.625, 2.875, 3.625], "rotation": 90, "texture": "#0"}
			}
		},
		{
			"from": [7.9631, 9.43226, -0.216],
			"to": [8.7151, 9.68826, 1.092],
			"rotation": {"angle": 0, "axis": "y", "origin": [8.323, 9.59735, -1.70382]},
			"faces": {
				"north": {"uv": [7.375, 12.375, 7.375, 12.375], "rotation": 90, "texture": "#0"},
				"east": {"uv": [7.375, 12.375, 7.375, 12.375], "rotation": 90, "texture": "#0"},
				"south": {"uv": [7.375, 12.375, 7.375, 12.375], "rotation": 90, "texture": "#0"},
				"west": {"uv": [7.375, 12.375, 7.375, 12.375], "rotation": 90, "texture": "#0"},
				"up": {"uv": [7.375, 12.375, 7.375, 12.375], "rotation": 90, "texture": "#0"},
				"down": {"uv": [7.375, 12.375, 7.375, 12.375], "rotation": 90, "texture": "#0"}
			}
		},
		{
			"from": [7.9631, 9.46426, 0.712],
			"to": [8.7151, 10.32826, 1.092],
			"rotation": {"angle": 0, "axis": "y", "origin": [8.323, 9.59735, -1.70382]},
			"faces": {
				"north": {"uv": [7.375, 12.375, 7.375, 12.375], "rotation": 90, "texture": "#0"},
				"east": {"uv": [7.375, 12.375, 7.375, 12.375], "rotation": 90, "texture": "#0"},
				"south": {"uv": [7.375, 12.375, 7.375, 12.375], "rotation": 90, "texture": "#0"},
				"west": {"uv": [7.375, 12.375, 7.375, 12.375], "rotation": 90, "texture": "#0"},
				"up": {"uv": [7.375, 12.375, 7.375, 12.375], "rotation": 90, "texture": "#0"},
				"down": {"uv": [7.375, 12.375, 7.375, 12.375], "rotation": 90, "texture": "#0"}
			}
		},
		{
			"from": [8.38757, 9.46103, -0.216],
			"to": [8.72357, 9.94103, 1.092],
			"rotation": {"angle": -22.5, "axis": "z", "origin": [8.65157, 9.47703, 0.422]},
			"faces": {
				"north": {"uv": [7.375, 12.375, 7.375, 12.375], "rotation": 90, "texture": "#0"},
				"east": {"uv": [7.375, 12.375, 7.375, 12.375], "rotation": 90, "texture": "#0"},
				"south": {"uv": [7.375, 12.375, 7.375, 12.375], "rotation": 90, "texture": "#0"},
				"west": {"uv": [7.375, 12.375, 7.375, 12.375], "rotation": 90, "texture": "#0"},
				"up": {"uv": [7.375, 12.375, 7.375, 12.375], "rotation": 90, "texture": "#0"},
				"down": {"uv": [7.375, 12.375, 7.375, 12.375], "rotation": 90, "texture": "#0"}
			}
		},
		{
			"from": [8.75166, 9.87816, -0.216],
			"to": [8.89566, 10.29416, 1.092],
			"rotation": {"angle": 0, "axis": "y", "origin": [8.82366, 10.34216, 0.422]},
			"faces": {
				"north": {"uv": [7.375, 12.375, 7.375, 12.375], "rotation": 90, "texture": "#0"},
				"east": {"uv": [7.375, 12.375, 7.375, 12.375], "rotation": 90, "texture": "#0"},
				"south": {"uv": [7.375, 12.375, 7.375, 12.375], "rotation": 90, "texture": "#0"},
				"west": {"uv": [7.375, 12.375, 7.375, 12.375], "rotation": 90, "texture": "#0"},
				"up": {"uv": [7.375, 12.375, 7.375, 12.375], "rotation": 90, "texture": "#0"},
				"down": {"uv": [7.375, 12.375, 7.375, 12.375], "rotation": 90, "texture": "#0"}
			}
		},
		{
			"from": [7.75966, 10.13416, -0.12],
			"to": [8.92766, 10.23016, 0.996],
			"rotation": {"angle": 0, "axis": "y", "origin": [8.85566, 10.34216, 0.422]},
			"faces": {
				"north": {"uv": [7.5, 10.75, 7.5, 10.75], "rotation": 90, "texture": "#0"},
				"east": {"uv": [7.5, 10.75, 7.5, 10.75], "rotation": 90, "texture": "#0"},
				"south": {"uv": [7.5, 10.75, 7.5, 10.75], "rotation": 90, "texture": "#0"},
				"west": {"uv": [7.5, 10.75, 7.5, 10.75], "rotation": 90, "texture": "#0"},
				"up": {"uv": [7.5, 10.75, 7.5, 10.75], "rotation": 90, "texture": "#0"},
				"down": {"uv": [7.5, 10.75, 7.5, 10.75], "rotation": 90, "texture": "#0"}
			}
		},
		{
			"from": [7.79166, 9.94216, -0.12],
			"to": [8.51166, 10.03816, 0.996],
			"rotation": {"angle": 22.5, "axis": "z", "origin": [8.37566, 9.89416, 0.438]},
			"faces": {
				"north": {"uv": [7.5, 10.75, 7.5, 10.75], "rotation": 90, "texture": "#0"},
				"east": {"uv": [7.5, 10.75, 7.5, 10.75], "rotation": 90, "texture": "#0"},
				"south": {"uv": [7.5, 10.75, 7.5, 10.75], "rotation": 90, "texture": "#0"},
				"west": {"uv": [7.5, 10.75, 7.5, 10.75], "rotation": 90, "texture": "#0"},
				"up": {"uv": [7.5, 10.75, 7.5, 10.75], "rotation": 90, "texture": "#0"},
				"down": {"uv": [7.5, 10.75, 7.5, 10.75], "rotation": 90, "texture": "#0"}
			}
		},
		{
			"from": [8.16071, 9.88844, -0.12],
			"to": [8.88071, 9.98444, 0.996],
			"rotation": {"angle": -22.5, "axis": "z", "origin": [8.52071, 9.84044, 0.438]},
			"faces": {
				"north": {"uv": [7.5, 10.75, 7.5, 10.75], "rotation": 90, "texture": "#0"},
				"east": {"uv": [7.5, 10.75, 7.5, 10.75], "rotation": 90, "texture": "#0"},
				"south": {"uv": [7.5, 10.75, 7.5, 10.75], "rotation": 90, "texture": "#0"},
				"west": {"uv": [7.5, 10.75, 7.5, 10.75], "rotation": 90, "texture": "#0"},
				"up": {"uv": [7.5, 10.75, 7.5, 10.75], "rotation": 90, "texture": "#0"},
				"down": {"uv": [7.5, 10.75, 7.5, 10.75], "rotation": 90, "texture": "#0"}
			}
		},
		{
			"from": [7.75966, 9.94216, -0.12],
			"to": [8.92766, 10.03816, 0.996],
			"rotation": {"angle": 0, "axis": "y", "origin": [8.85566, 10.15016, 0.422]},
			"faces": {
				"north": {"uv": [7.5, 10.75, 7.5, 10.75], "rotation": 90, "texture": "#0"},
				"east": {"uv": [7.5, 10.75, 7.5, 10.75], "rotation": 90, "texture": "#0"},
				"south": {"uv": [7.5, 10.75, 7.5, 10.75], "rotation": 90, "texture": "#0"},
				"west": {"uv": [7.5, 10.75, 7.5, 10.75], "rotation": 90, "texture": "#0"},
				"up": {"uv": [7.5, 10.75, 7.5, 10.75], "rotation": 90, "texture": "#0"},
				"down": {"uv": [7.5, 10.75, 7.5, 10.75], "rotation": 90, "texture": "#0"}
			}
		},
		{
			"from": [7.79166, 9.75016, -0.12],
			"to": [8.51166, 9.84616, 0.996],
			"rotation": {"angle": 22.5, "axis": "z", "origin": [8.37566, 9.89416, 0.438]},
			"faces": {
				"north": {"uv": [7.5, 10.75, 7.5, 10.75], "rotation": 90, "texture": "#0"},
				"east": {"uv": [7.5, 10.75, 7.5, 10.75], "rotation": 90, "texture": "#0"},
				"south": {"uv": [7.5, 10.75, 7.5, 10.75], "rotation": 90, "texture": "#0"},
				"west": {"uv": [7.5, 10.75, 7.5, 10.75], "rotation": 90, "texture": "#0"},
				"up": {"uv": [7.5, 10.75, 7.5, 10.75], "rotation": 90, "texture": "#0"},
				"down": {"uv": [7.5, 10.75, 7.5, 10.75], "rotation": 90, "texture": "#0"}
			}
		},
		{
			"from": [8.16071, 9.69644, -0.12],
			"to": [8.88071, 9.79244, 0.996],
			"rotation": {"angle": -22.5, "axis": "z", "origin": [8.52071, 9.84044, 0.438]},
			"faces": {
				"north": {"uv": [7.5, 10.75, 7.5, 10.75], "rotation": 90, "texture": "#0"},
				"east": {"uv": [7.5, 10.75, 7.5, 10.75], "rotation": 90, "texture": "#0"},
				"south": {"uv": [7.5, 10.75, 7.5, 10.75], "rotation": 90, "texture": "#0"},
				"west": {"uv": [7.5, 10.75, 7.5, 10.75], "rotation": 90, "texture": "#0"},
				"up": {"uv": [7.5, 10.75, 7.5, 10.75], "rotation": 90, "texture": "#0"},
				"down": {"uv": [7.5, 10.75, 7.5, 10.75], "rotation": 90, "texture": "#0"}
			}
		},
		{
			"from": [7.91545, 9.87539, -0.216],
			"to": [8.76345, 10.32339, 1.092],
			"rotation": {"angle": 0, "axis": "y", "origin": [8.81945, 10.33939, 0.422]},
			"faces": {
				"north": {"uv": [7.375, 12.375, 7.375, 12.375], "rotation": 90, "texture": "#0"},
				"east": {"uv": [7.375, 12.375, 7.375, 12.375], "rotation": 90, "texture": "#0"},
				"south": {"uv": [7.375, 12.375, 7.375, 12.375], "rotation": 90, "texture": "#0"},
				"west": {"uv": [7.375, 12.375, 7.375, 12.375], "rotation": 90, "texture": "#0"},
				"up": {"uv": [7.375, 12.375, 7.375, 12.375], "rotation": 90, "texture": "#0"},
				"down": {"uv": [7.375, 12.375, 7.375, 12.375], "rotation": 90, "texture": "#0"}
			}
		},
		{
			"from": [7.79166, 9.84616, -0.216],
			"to": [7.93566, 10.29416, 1.092],
			"rotation": {"angle": 0, "axis": "y", "origin": [7.86366, 10.31016, 0.422]},
			"faces": {
				"north": {"uv": [7.375, 12.375, 7.375, 12.375], "rotation": 90, "texture": "#0"},
				"east": {"uv": [7.375, 12.375, 7.375, 12.375], "rotation": 90, "texture": "#0"},
				"south": {"uv": [7.375, 12.375, 7.375, 12.375], "rotation": 90, "texture": "#0"},
				"west": {"uv": [7.375, 12.375, 7.375, 12.375], "rotation": 90, "texture": "#0"},
				"up": {"uv": [7.375, 12.375, 7.375, 12.375], "rotation": 90, "texture": "#0"},
				"down": {"uv": [7.375, 12.375, 7.375, 12.375], "rotation": 90, "texture": "#0"}
			}
		},
		{
			"from": [7.79166, 10.29416, -0.216],
			"to": [8.89566, 10.71016, 1.092],
			"rotation": {"angle": 0, "axis": "y", "origin": [7.86366, 10.31016, 0.422]},
			"faces": {
				"north": {"uv": [7.375, 12.375, 7.375, 12.375], "rotation": 90, "texture": "#0"},
				"east": {"uv": [7.375, 12.375, 7.375, 12.375], "rotation": 90, "texture": "#0"},
				"south": {"uv": [7.375, 12.375, 7.375, 12.375], "rotation": 90, "texture": "#0"},
				"west": {"uv": [7.375, 12.375, 7.375, 12.375], "rotation": 90, "texture": "#0"},
				"up": {"uv": [7.375, 12.375, 7.375, 12.375], "rotation": 90, "texture": "#0"},
				"down": {"uv": [7.375, 12.375, 7.375, 12.375], "rotation": 90, "texture": "#0"}
			}
		},
		{
			"from": [8.65566, 10.29416, -0.216],
			"to": [8.79966, 10.83816, 1.092],
			"rotation": {"angle": 0, "axis": "y", "origin": [7.86366, 10.31016, 0.422]},
			"faces": {
				"north": {"uv": [7.375, 12.375, 7.375, 12.375], "rotation": 90, "texture": "#0"},
				"east": {"uv": [7.375, 12.375, 7.375, 12.375], "rotation": 90, "texture": "#0"},
				"south": {"uv": [7.375, 12.375, 7.375, 12.375], "rotation": 90, "texture": "#0"},
				"west": {"uv": [7.375, 12.375, 7.375, 12.375], "rotation": 90, "texture": "#0"},
				"up": {"uv": [7.375, 12.375, 7.375, 12.375], "rotation": 90, "texture": "#0"},
				"down": {"uv": [7.375, 12.375, 7.375, 12.375], "rotation": 90, "texture": "#0"}
			}
		},
		{
			"from": [7.85566, 10.29416, -0.216],
			"to": [7.99966, 10.83816, 1.092],
			"rotation": {"angle": 0, "axis": "y", "origin": [7.06366, 10.31016, 0.422]},
			"faces": {
				"north": {"uv": [7.375, 12.375, 7.375, 12.375], "rotation": 90, "texture": "#0"},
				"east": {"uv": [7.375, 12.375, 7.375, 12.375], "rotation": 90, "texture": "#0"},
				"south": {"uv": [7.375, 12.375, 7.375, 12.375], "rotation": 90, "texture": "#0"},
				"west": {"uv": [7.375, 12.375, 7.375, 12.375], "rotation": 90, "texture": "#0"},
				"up": {"uv": [7.375, 12.375, 7.375, 12.375], "rotation": 90, "texture": "#0"},
				"down": {"uv": [7.375, 12.375, 7.375, 12.375], "rotation": 90, "texture": "#0"}
			}
		},
		{
			"from": [7.82366, 10.39016, 0.36],
			"to": [8.92766, 10.58216, 0.548],
			"rotation": {"angle": 45, "axis": "x", "origin": [8.34366, 10.47016, 0.438]},
			"faces": {
				"north": {"uv": [14.5, 6.875, 14.5, 6.875], "rotation": 90, "texture": "#0"},
				"east": {"uv": [14.5, 6.875, 14.5, 6.875], "rotation": 90, "texture": "#0"},
				"south": {"uv": [14.5, 6.875, 14.5, 6.875], "rotation": 90, "texture": "#0"},
				"west": {"uv": [14.5, 6.875, 14.5, 6.875], "rotation": 90, "texture": "#0"},
				"up": {"uv": [14.5, 6.875, 14.5, 6.875], "rotation": 90, "texture": "#0"},
				"down": {"uv": [14.5, 6.875, 14.5, 6.875], "rotation": 90, "texture": "#0"}
			}
		},
		{
			"from": [7.75966, 10.29416, 0.104],
			"to": [7.87166, 10.64616, 0.74],
			"rotation": {"angle": 0, "axis": "y", "origin": [7.86366, 10.31016, 0.422]},
			"faces": {
				"north": {"uv": [7.5, 10.25, 7.5, 10.25], "rotation": 90, "texture": "#0"},
				"east": {"uv": [7.5, 10.25, 7.5, 10.25], "rotation": 90, "texture": "#0"},
				"south": {"uv": [7.5, 10.25, 7.5, 10.25], "rotation": 90, "texture": "#0"},
				"west": {"uv": [7.75, 10.25, 7.75, 10.25], "rotation": 90, "texture": "#0"},
				"up": {"uv": [7.375, 10.5, 7.375, 10.5], "rotation": 90, "texture": "#0"},
				"down": {"uv": [7.5, 10.25, 7.5, 10.25], "rotation": 90, "texture": "#0"}
			}
		},
		{
			"from": [7.66366, 10.33046, 0.27987],
			"to": [7.77566, 10.42646, 0.56387],
			"rotation": {"angle": 0, "axis": "y", "origin": [7.86366, 10.28246, 0.43787]},
			"faces": {
				"north": {"uv": [6.75, 11.875, 6.75, 11.875], "rotation": 90, "texture": "#0"},
				"east": {"uv": [6.75, 11.875, 6.75, 11.875], "rotation": 90, "texture": "#0"},
				"south": {"uv": [6.75, 11.875, 6.75, 11.875], "rotation": 90, "texture": "#0"},
				"west": {"uv": [7.5, 10.5, 7.5, 10.5], "rotation": 90, "texture": "#0"},
				"up": {"uv": [6.75, 11.875, 6.75, 11.875], "rotation": 90, "texture": "#0"},
				"down": {"uv": [6.75, 11.875, 6.75, 11.875], "rotation": 90, "texture": "#0"}
			}
		},
		{
			"from": [7.66366, 10.51386, 0.27987],
			"to": [7.77566, 10.60986, 0.56387],
			"rotation": {"angle": 0, "axis": "y", "origin": [7.86366, 10.33786, 0.43787]},
			"faces": {
				"north": {"uv": [6.75, 11.875, 6.75, 11.875], "rotation": 90, "texture": "#0"},
				"east": {"uv": [6.75, 11.875, 6.75, 11.875], "rotation": 90, "texture": "#0"},
				"south": {"uv": [6.75, 11.875, 6.75, 11.875], "rotation": 90, "texture": "#0"},
				"west": {"uv": [7.5, 10.5, 7.5, 10.5], "rotation": 90, "texture": "#0"},
				"up": {"uv": [6.75, 11.875, 6.75, 11.875], "rotation": 90, "texture": "#0"},
				"down": {"uv": [6.75, 11.875, 6.75, 11.875], "rotation": 90, "texture": "#0"}
			}
		},
		{
			"from": [7.66366, 10.39016, 0.488],
			"to": [7.77566, 10.55016, 0.708],
			"rotation": {"angle": 0, "axis": "y", "origin": [7.86366, 10.31016, 0.422]},
			"faces": {
				"north": {"uv": [6.75, 11.875, 6.75, 11.875], "rotation": 90, "texture": "#0"},
				"east": {"uv": [6.75, 11.875, 6.75, 11.875], "rotation": 90, "texture": "#0"},
				"south": {"uv": [6.75, 11.875, 6.75, 11.875], "rotation": 90, "texture": "#0"},
				"west": {"uv": [7.5, 10.5, 7.5, 10.5], "rotation": 90, "texture": "#0"},
				"up": {"uv": [6.75, 11.875, 6.75, 11.875], "rotation": 90, "texture": "#0"},
				"down": {"uv": [6.75, 11.875, 6.75, 11.875], "rotation": 90, "texture": "#0"}
			}
		},
		{
			"from": [7.66366, 10.39016, 0.136],
			"to": [7.77566, 10.55016, 0.356],
			"rotation": {"angle": 0, "axis": "y", "origin": [7.86366, 10.31016, 0.422]},
			"faces": {
				"north": {"uv": [6.75, 11.875, 6.75, 11.875], "rotation": 90, "texture": "#0"},
				"east": {"uv": [6.75, 11.875, 6.75, 11.875], "rotation": 90, "texture": "#0"},
				"south": {"uv": [6.75, 11.875, 6.75, 11.875], "rotation": 90, "texture": "#0"},
				"west": {"uv": [7.5, 10.5, 7.5, 10.5], "rotation": 90, "texture": "#0"},
				"up": {"uv": [6.75, 11.875, 6.75, 11.875], "rotation": 90, "texture": "#0"},
				"down": {"uv": [6.75, 11.875, 6.75, 11.875], "rotation": 90, "texture": "#0"}
			}
		},
		{
			"from": [7.66366, 10.2868, 0.60439],
			"to": [7.77566, 10.4468, 0.76039],
			"rotation": {"angle": -22.5, "axis": "x", "origin": [7.86366, 10.2068, 0.47439]},
			"faces": {
				"north": {"uv": [6.75, 11.875, 6.75, 11.875], "rotation": 90, "texture": "#0"},
				"east": {"uv": [6.75, 11.875, 6.75, 11.875], "rotation": 90, "texture": "#0"},
				"south": {"uv": [6.75, 11.875, 6.75, 11.875], "rotation": 90, "texture": "#0"},
				"west": {"uv": [7.5, 10.5, 7.5, 10.5], "rotation": 90, "texture": "#0"},
				"up": {"uv": [6.75, 11.875, 6.75, 11.875], "rotation": 90, "texture": "#0"},
				"down": {"uv": [6.75, 11.875, 6.75, 11.875], "rotation": 90, "texture": "#0"}
			}
		},
		{
			"from": [7.66366, 10.47778, 0.57872],
			"to": [7.77566, 10.63778, 0.73472],
			"rotation": {"angle": 22.5, "axis": "x", "origin": [7.71966, 10.66114, 0.50111]},
			"faces": {
				"north": {"uv": [6.75, 11.875, 6.75, 11.875], "rotation": 90, "texture": "#0"},
				"east": {"uv": [6.75, 11.875, 6.75, 11.875], "rotation": 90, "texture": "#0"},
				"south": {"uv": [6.75, 11.875, 6.75, 11.875], "rotation": 90, "texture": "#0"},
				"west": {"uv": [7.5, 10.5, 7.5, 10.5], "rotation": 90, "texture": "#0"},
				"up": {"uv": [6.75, 11.875, 6.75, 11.875], "rotation": 90, "texture": "#0"},
				"down": {"uv": [6.75, 11.875, 6.75, 11.875], "rotation": 90, "texture": "#0"}
			}
		},
		{
			"from": [7.66366, 10.35868, 0.23774],
			"to": [7.77566, 10.51868, 0.39374],
			"rotation": {"angle": -22.5, "axis": "x", "origin": [7.86366, 10.27868, 0.10774]},
			"faces": {
				"north": {"uv": [6.75, 11.875, 6.75, 11.875], "rotation": 90, "texture": "#0"},
				"east": {"uv": [6.75, 11.875, 6.75, 11.875], "rotation": 90, "texture": "#0"},
				"south": {"uv": [6.75, 11.875, 6.75, 11.875], "rotation": 90, "texture": "#0"},
				"west": {"uv": [7.5, 10.5, 7.5, 10.5], "rotation": 90, "texture": "#0"},
				"up": {"uv": [6.75, 11.875, 6.75, 11.875], "rotation": 90, "texture": "#0"},
				"down": {"uv": [6.75, 11.875, 6.75, 11.875], "rotation": 90, "texture": "#0"}
			}
		},
		{
			"from": [7.66366, 10.30254, 0.10928],
			"to": [7.77566, 10.46254, 0.26528],
			"rotation": {"angle": 22.5, "axis": "x", "origin": [7.71966, 10.27918, 0.34289]},
			"faces": {
				"north": {"uv": [6.75, 11.875, 6.75, 11.875], "rotation": 90, "texture": "#0"},
				"east": {"uv": [6.75, 11.875, 6.75, 11.875], "rotation": 90, "texture": "#0"},
				"south": {"uv": [6.75, 11.875, 6.75, 11.875], "rotation": 90, "texture": "#0"},
				"west": {"uv": [7.5, 10.5, 7.5, 10.5], "rotation": 90, "texture": "#0"},
				"up": {"uv": [6.75, 11.875, 6.75, 11.875], "rotation": 90, "texture": "#0"},
				"down": {"uv": [6.75, 11.875, 6.75, 11.875], "rotation": 90, "texture": "#0"}
			}
		},
		{
			"from": [8.15148, 9.37103, -0.216],
			"to": [8.48748, 9.81903, 1.092],
			"rotation": {"angle": 22.5, "axis": "z", "origin": [7.90338, 8.92812, -1.70382]},
			"faces": {
				"north": {"uv": [7.375, 12.375, 7.375, 12.375], "rotation": 90, "texture": "#0"},
				"east": {"uv": [7.375, 12.375, 7.375, 12.375], "rotation": 90, "texture": "#0"},
				"south": {"uv": [7.375, 12.375, 7.375, 12.375], "rotation": 90, "texture": "#0"},
				"west": {"uv": [7.375, 12.375, 7.375, 12.375], "rotation": 90, "texture": "#0"},
				"up": {"uv": [7.375, 12.375, 7.375, 12.375], "rotation": 90, "texture": "#0"},
				"down": {"uv": [7.375, 12.375, 7.375, 12.375], "rotation": 90, "texture": "#0"}
			}
		}
	],
	"display": {
		"thirdperson_righthand": {
			"rotation": [0, 0, 7],
			"translation": [-0.75, -2.25, 2],
			"scale": [1.14, 1, 1]
		},
		"thirdperson_lefthand": {
			"rotation": [0, 0, 7],
			"translation": [-0.25, -1.75, 2.75],
			"scale": [1.14, 1, 1]
		},
		"firstperson_righthand": {
			"translation": [-5, 0.75, 2.75],
			"scale": [1.25, 1.19, 1.14]
		},
		"firstperson_lefthand": {
			"translation": [-5.25, 0.75, 2.75],
			"scale": [1.25, 1.19, 1.14]
		},
		"gui": {
			"rotation": [23, 38, -16],
			"translation": [-0.5, -2.75, 0],
			"scale": [1.64, 1.41461, 1.27094]
		},
		"head": {
			"rotation": [0, -139.5, 90],
			"translation": [-2.5, 6.5, 2.5],
			"scale": [1.89781, 1.89781, 1.89781]
		},
		"fixed": {
			"rotation": [0, 90, 0],
			"translation": [0, 0, -1.25],
			"scale": [1.22, 1.22, 1.22]
		}
	}
}