{
	"credit": "Made with Blockbench",
	"textures": {
		"2": "gci:items/gun_mdr/mpz2",
		"particle": "gci:items/gun_mdr/all_in_one"
	},
	"elements": [
		{
			"from": [8.262, 10.0909, -5.5399],
			"to": [8.3945, 10.2909, -1.2399],
			"rotation": {"angle": 0, "axis": "y", "origin": [8.362, 10.4034, -2.2899]},
			"faces": {
				"north": {"uv": [5.5, 5.5, 6.57, 7.188], "rotation": 180, "texture": "#2"},
				"east": {"uv": [5.5, 5.5, 6.57, 7.188], "rotation": 180, "texture": "#2"},
				"south": {"uv": [5.5, 5.5, 6.57, 7.188], "rotation": 180, "texture": "#2"},
				"west": {"uv": [5.5, 5.5, 6.57, 7.188], "rotation": 180, "texture": "#2"},
				"up": {"uv": [5.5, 5.5, 6.57, 7.188], "rotation": 180, "texture": "#2"},
				"down": {"uv": [5.5, 5.5, 6.57, 7.188], "rotation": 180, "texture": "#2"}
			}
		},
		{
			"from": [8.262, 9.8909, -3.3399],
			"to": [8.3945, 10.0909, -1.2399],
			"rotation": {"angle": 0, "axis": "y", "origin": [8.362, 10.2034, -2.2899]},
			"faces": {
				"north": {"uv": [8.5, 5, 11.076, 7.188], "rotation": 180, "texture": "#2"},
				"east": {"uv": [8.5, 5, 11.076, 7.188], "rotation": 180, "texture": "#2"},
				"south": {"uv": [8.5, 5, 11.076, 7.188], "rotation": 180, "texture": "#2"},
				"west": {"uv": [8.5, 5, 11.076, 7.188], "rotation": 180, "texture": "#2"},
				"up": {"uv": [8.5, 5, 11.076, 7.188], "rotation": 180, "texture": "#2"},
				"down": {"uv": [8.5, 5, 11.076, 7.188], "rotation": 180, "texture": "#2"}
			}
		},
		{
			"from": [8.262, 9.6909, -5.5399],
			"to": [8.3945, 9.8909, -1.2399],
			"rotation": {"angle": 0, "axis": "y", "origin": [8.362, 10.0034, -2.2899]},
			"faces": {
				"north": {"uv": [5.5, 5.5, 6.57, 7.188], "rotation": 180, "texture": "#2"},
				"east": {"uv": [5.5, 5.5, 6.57, 7.188], "rotation": 180, "texture": "#2"},
				"south": {"uv": [5.5, 5.5, 6.57, 7.188], "rotation": 180, "texture": "#2"},
				"west": {"uv": [5.5, 5.5, 6.57, 7.188], "rotation": 180, "texture": "#2"},
				"up": {"uv": [5.5, 5.5, 6.57, 7.188], "rotation": 180, "texture": "#2"},
				"down": {"uv": [5.5, 5.5, 6.57, 7.188], "rotation": 180, "texture": "#2"}
			}
		},
		{
			"from": [8.277, 9.8909, -5.7399],
			"to": [8.377, 10.0909, -3.3399],
			"rotation": {"angle": 0, "axis": "y", "origin": [8.362, 10.2034, -2.2899]},
			"faces": {
				"north": {"uv": [0.5, 4.5, 3.076, 6.688], "rotation": 180, "texture": "#2"},
				"east": {"uv": [0.5, 4.5, 3.076, 6.688], "rotation": 180, "texture": "#2"},
				"south": {"uv": [0.5, 4.5, 3.076, 6.688], "rotation": 180, "texture": "#2"},
				"west": {"uv": [0.5, 4.5, 3.076, 6.688], "rotation": 180, "texture": "#2"},
				"up": {"uv": [0.5, 4.5, 3.076, 6.688], "rotation": 180, "texture": "#2"},
				"down": {"uv": [0.5, 4.5, 3.076, 6.688], "rotation": 180, "texture": "#2"}
			}
		},
		{
			"from": [8.262, 9.98371, -5.9788],
			"to": [8.3945, 10.18371, -5.4788],
			"rotation": {"angle": -22.5, "axis": "x", "origin": [8.32825, 10.08371, -5.7788]},
			"faces": {
				"north": {"uv": [5.5, 5.5, 6.57, 7.188], "rotation": 180, "texture": "#2"},
				"east": {"uv": [5.5, 5.5, 6.57, 7.188], "rotation": 180, "texture": "#2"},
				"south": {"uv": [5.5, 5.5, 6.57, 7.188], "rotation": 180, "texture": "#2"},
				"west": {"uv": [5.5, 5.5, 6.57, 7.188], "rotation": 180, "texture": "#2"},
				"up": {"uv": [5.5, 5.5, 6.57, 7.188], "rotation": 180, "texture": "#2"},
				"down": {"uv": [5.5, 5.5, 6.57, 7.188], "rotation": 180, "texture": "#2"}
			}
		},
		{
			"from": [8.262, 9.79809, -5.9788],
			"to": [8.3945, 9.99809, -5.4788],
			"rotation": {"angle": 22.5, "axis": "x", "origin": [8.32825, 9.89809, -5.7788]},
			"faces": {
				"north": {"uv": [5.5, 5.5, 6.57, 7.188], "rotation": 180, "texture": "#2"},
				"east": {"uv": [5.5, 5.5, 6.57, 7.188], "rotation": 180, "texture": "#2"},
				"south": {"uv": [5.5, 5.5, 6.57, 7.188], "rotation": 180, "texture": "#2"},
				"west": {"uv": [5.5, 5.5, 6.57, 7.188], "rotation": 180, "texture": "#2"},
				"up": {"uv": [5.5, 5.5, 6.57, 7.188], "rotation": 180, "texture": "#2"},
				"down": {"uv": [5.5, 5.5, 6.57, 7.188], "rotation": 180, "texture": "#2"}
			}
		},
		{
			"from": [8.262, 9.7846, -6.04443],
			"to": [8.3945, 9.9386, -5.89043],
			"rotation": {"angle": -45, "axis": "x", "origin": [8.32825, 9.8846, -6.14043]},
			"faces": {
				"north": {"uv": [5.5, 5.5, 6.57, 7.188], "rotation": 180, "texture": "#2"},
				"east": {"uv": [5.5, 5.5, 6.57, 7.188], "rotation": 180, "texture": "#2"},
				"south": {"uv": [5.5, 5.5, 6.57, 7.188], "rotation": 180, "texture": "#2"},
				"west": {"uv": [5.5, 5.5, 6.57, 7.188], "rotation": 180, "texture": "#2"},
				"up": {"uv": [5.5, 5.5, 6.57, 7.188], "rotation": 180, "texture": "#2"},
				"down": {"uv": [5.5, 5.5, 6.57, 7.188], "rotation": 180, "texture": "#2"}
			}
		},
		{
			"from": [8.162, 9.6909, -1.1399],
			"to": [8.4945, 10.2159, 1.1601],
			"rotation": {"angle": 0, "axis": "y", "origin": [8.362, 10.3034, 0.1101]},
			"faces": {
				"north": {"uv": [4.5, 1, 7.076, 3.188], "rotation": 180, "texture": "#2"},
				"east": {"uv": [4.5, 1, 7.076, 3.188], "rotation": 180, "texture": "#2"},
				"south": {"uv": [4.5, 1, 7.076, 3.188], "rotation": 180, "texture": "#2"},
				"west": {"uv": [4.5, 1, 7.076, 3.188], "rotation": 180, "texture": "#2"},
				"up": {"uv": [4.5, 1, 7.076, 3.188], "rotation": 180, "texture": "#2"},
				"down": {"uv": [4.5, 1, 7.076, 3.188], "rotation": 180, "texture": "#2"}
			}
		},
		{
			"from": [8.37379, 9.6909, 1.1101],
			"to": [8.47379, 10.2159, 1.2101],
			"rotation": {"angle": 45, "axis": "y", "origin": [8.42379, 9.9534, 1.1601]},
			"faces": {
				"north": {"uv": [4.5, 1, 7.076, 3.188], "rotation": 180, "texture": "#2"},
				"east": {"uv": [4.5, 1, 7.076, 3.188], "rotation": 180, "texture": "#2"},
				"south": {"uv": [4.5, 1, 7.076, 3.188], "rotation": 180, "texture": "#2"},
				"west": {"uv": [4.5, 1, 7.076, 3.188], "rotation": 180, "texture": "#2"},
				"up": {"uv": [4.5, 1, 7.076, 3.188], "rotation": 180, "texture": "#2"},
				"down": {"uv": [4.5, 1, 7.076, 3.188], "rotation": 180, "texture": "#2"}
			}
		},
		{
			"from": [8.18271, 9.6909, 1.1101],
			"to": [8.28271, 10.2159, 1.2101],
			"rotation": {"angle": 45, "axis": "y", "origin": [8.23271, 9.9534, 1.1601]},
			"faces": {
				"north": {"uv": [4.5, 1, 7.076, 3.188], "rotation": 180, "texture": "#2"},
				"east": {"uv": [4.5, 1, 7.076, 3.188], "rotation": 180, "texture": "#2"},
				"south": {"uv": [4.5, 1, 7.076, 3.188], "rotation": 180, "texture": "#2"},
				"west": {"uv": [4.5, 1, 7.076, 3.188], "rotation": 180, "texture": "#2"},
				"up": {"uv": [4.5, 1, 7.076, 3.188], "rotation": 180, "texture": "#2"},
				"down": {"uv": [4.5, 1, 7.076, 3.188], "rotation": 180, "texture": "#2"}
			}
		},
		{
			"from": [8.19307, 10.1409, -1.1399],
			"to": [8.29307, 10.2409, 1.1601],
			"rotation": {"angle": -45, "axis": "z", "origin": [8.26807, 10.2159, 0.0101]},
			"faces": {
				"north": {"uv": [4.5, 1, 7.076, 3.188], "rotation": 180, "texture": "#2"},
				"east": {"uv": [4.5, 1, 7.076, 3.188], "rotation": 180, "texture": "#2"},
				"south": {"uv": [4.5, 1, 7.076, 3.188], "rotation": 180, "texture": "#2"},
				"west": {"uv": [4.5, 1, 7.076, 3.188], "rotation": 180, "texture": "#2"},
				"up": {"uv": [4.5, 1, 7.076, 3.188], "rotation": 180, "texture": "#2"},
				"down": {"uv": [4.5, 1, 7.076, 3.188], "rotation": 180, "texture": "#2"}
			}
		},
		{
			"from": [8.23271, 10.18661, -1.1399],
			"to": [8.42271, 10.28661, 1.1601],
			"rotation": {"angle": 0, "axis": "y", "origin": [8.28271, 10.23661, 0.0101]},
			"faces": {
				"north": {"uv": [4.5, 1, 7.076, 3.188], "texture": "#2"},
				"east": {"uv": [4.5, 1, 7.076, 3.188], "texture": "#2"},
				"south": {"uv": [4.5, 1, 7.076, 3.188], "texture": "#2"},
				"west": {"uv": [4.5, 1, 7.076, 3.188], "texture": "#2"},
				"up": {"uv": [4.5, 1, 7.076, 3.188], "texture": "#2"},
				"down": {"uv": [4.5, 1, 7.076, 3.188], "texture": "#2"}
			}
		},
		{
			"from": [8.23379, 9.6909, 1.13081],
			"to": [8.42379, 10.2159, 1.23081],
			"rotation": {"angle": 0, "axis": "y", "origin": [8.28379, 10.1409, 0.08081]},
			"faces": {
				"north": {"uv": [4.5, 1, 7.076, 3.188], "texture": "#2"},
				"east": {"uv": [4.5, 1, 7.076, 3.188], "texture": "#2"},
				"south": {"uv": [4.5, 1, 7.076, 3.188], "texture": "#2"},
				"west": {"uv": [4.5, 1, 7.076, 3.188], "texture": "#2"},
				"up": {"uv": [4.5, 1, 7.076, 3.188], "texture": "#2"},
				"down": {"uv": [4.5, 1, 7.076, 3.188], "texture": "#2"}
			}
		},
		{
			"from": [8.23271, 10.1659, 1.1101],
			"to": [8.42271, 10.2659, 1.2101],
			"rotation": {"angle": -45, "axis": "x", "origin": [8.32771, 10.2159, 1.1601]},
			"faces": {
				"north": {"uv": [4.5, 1, 7.076, 3.188], "texture": "#2"},
				"east": {"uv": [4.5, 1, 7.076, 3.188], "texture": "#2"},
				"south": {"uv": [4.5, 1, 7.076, 3.188], "texture": "#2"},
				"west": {"uv": [4.5, 1, 7.076, 3.188], "texture": "#2"},
				"up": {"uv": [4.5, 1, 7.076, 3.188], "texture": "#2"},
				"down": {"uv": [4.5, 1, 7.076, 3.188], "texture": "#2"}
			}
		},
		{
			"from": [8.04071, 9.55061, -0.4439],
			"to": [8.64671, 10.64661, 0.4881],
			"rotation": {"angle": 0, "axis": "y", "origin": [8.32771, 10.33661, 0.3421]},
			"faces": {
				"north": {"uv": [8.5, 1.5, 11.076, 3.688], "rotation": 270, "texture": "#2"},
				"east": {"uv": [8.5, 1.5, 11.076, 3.688], "rotation": 270, "texture": "#2"},
				"south": {"uv": [8.5, 1.5, 11.076, 3.688], "rotation": 270, "texture": "#2"},
				"west": {"uv": [8.5, 1.5, 11.076, 3.688], "rotation": 270, "texture": "#2"},
				"up": {"uv": [8.5, 1.5, 11.076, 3.688], "rotation": 270, "texture": "#2"},
				"down": {"uv": [8.5, 1.5, 11.076, 3.688], "rotation": 270, "texture": "#2"}
			}
		},
		{
			"from": [8.00871, 10.44661, -0.3799],
			"to": [8.67871, 10.55061, -0.2799],
			"rotation": {"angle": 45, "axis": "x", "origin": [8.34371, 10.45061, -0.2819]},
			"faces": {
				"north": {"uv": [8.5, 4.5, 11.076, 6.688], "rotation": 270, "texture": "#2"},
				"east": {"uv": [8.5, 4.5, 11.076, 6.688], "rotation": 270, "texture": "#2"},
				"south": {"uv": [8.5, 4.5, 11.076, 6.688], "rotation": 270, "texture": "#2"},
				"west": {"uv": [8.5, 4.5, 11.076, 6.688], "rotation": 270, "texture": "#2"},
				"up": {"uv": [8.5, 4.5, 11.076, 6.688], "rotation": 270, "texture": "#2"},
				"down": {"uv": [8.5, 4.5, 11.076, 6.688], "rotation": 270, "texture": "#2"}
			}
		},
		{
			"from": [8.00871, 10.44661, 0.2601],
			"to": [8.67871, 10.55061, 0.3601],
			"rotation": {"angle": 45, "axis": "x", "origin": [8.34371, 10.45061, 0.3581]},
			"faces": {
				"north": {"uv": [8.5, 4.5, 11.076, 6.688], "rotation": 270, "texture": "#2"},
				"east": {"uv": [8.5, 4.5, 11.076, 6.688], "rotation": 270, "texture": "#2"},
				"south": {"uv": [8.5, 4.5, 11.076, 6.688], "rotation": 270, "texture": "#2"},
				"west": {"uv": [8.5, 4.5, 11.076, 6.688], "rotation": 270, "texture": "#2"},
				"up": {"uv": [8.5, 4.5, 11.076, 6.688], "rotation": 270, "texture": "#2"},
				"down": {"uv": [8.5, 4.5, 11.076, 6.688], "rotation": 270, "texture": "#2"}
			}
		},
		{
			"from": [8.23379, 9.6409, 1.1101],
			"to": [8.42379, 9.7409, 1.2101],
			"rotation": {"angle": -45, "axis": "x", "origin": [8.32879, 9.6909, 1.1601]},
			"faces": {
				"north": {"uv": [4.5, 1, 7.076, 3.188], "texture": "#2"},
				"east": {"uv": [4.5, 1, 7.076, 3.188], "texture": "#2"},
				"south": {"uv": [4.5, 1, 7.076, 3.188], "texture": "#2"},
				"west": {"uv": [4.5, 1, 7.076, 3.188], "texture": "#2"},
				"up": {"uv": [4.5, 1, 7.076, 3.188], "texture": "#2"},
				"down": {"uv": [4.5, 1, 7.076, 3.188], "texture": "#2"}
			}
		},
		{
			"from": [8.23271, 9.62019, -1.1399],
			"to": [8.42271, 9.72019, 1.1601],
			"rotation": {"angle": 0, "axis": "y", "origin": [8.28271, 9.67019, 0.0101]},
			"faces": {
				"north": {"uv": [4.5, 1, 7.076, 3.188], "texture": "#2"},
				"east": {"uv": [4.5, 1, 7.076, 3.188], "texture": "#2"},
				"south": {"uv": [4.5, 1, 7.076, 3.188], "texture": "#2"},
				"west": {"uv": [4.5, 1, 7.076, 3.188], "texture": "#2"},
				"up": {"uv": [4.5, 1, 7.076, 3.188], "texture": "#2"},
				"down": {"uv": [4.5, 1, 7.076, 3.188], "texture": "#2"}
			}
		},
		{
			"from": [8.38414, 10.1409, -1.1399],
			"to": [8.48414, 10.2409, 1.1601],
			"rotation": {"angle": -45, "axis": "z", "origin": [8.45914, 10.2159, 0.0101]},
			"faces": {
				"north": {"uv": [4.5, 1, 7.076, 3.188], "rotation": 180, "texture": "#2"},
				"east": {"uv": [4.5, 1, 7.076, 3.188], "rotation": 180, "texture": "#2"},
				"south": {"uv": [4.5, 1, 7.076, 3.188], "rotation": 180, "texture": "#2"},
				"west": {"uv": [4.5, 1, 7.076, 3.188], "rotation": 180, "texture": "#2"},
				"up": {"uv": [4.5, 1, 7.076, 3.188], "rotation": 180, "texture": "#2"},
				"down": {"uv": [4.5, 1, 7.076, 3.188], "rotation": 180, "texture": "#2"}
			}
		},
		{
			"from": [8.38414, 9.6159, -1.1399],
			"to": [8.48414, 9.7159, 1.1601],
			"rotation": {"angle": -45, "axis": "z", "origin": [8.45914, 9.6909, 0.0101]},
			"faces": {
				"north": {"uv": [4.5, 1, 7.076, 3.188], "rotation": 180, "texture": "#2"},
				"east": {"uv": [4.5, 1, 7.076, 3.188], "rotation": 180, "texture": "#2"},
				"south": {"uv": [4.5, 1, 7.076, 3.188], "rotation": 180, "texture": "#2"},
				"west": {"uv": [4.5, 1, 7.076, 3.188], "rotation": 180, "texture": "#2"},
				"up": {"uv": [4.5, 1, 7.076, 3.188], "rotation": 180, "texture": "#2"},
				"down": {"uv": [4.5, 1, 7.076, 3.188], "rotation": 180, "texture": "#2"}
			}
		},
		{
			"from": [8.19307, 9.6159, -1.1399],
			"to": [8.29307, 9.7159, 1.1601],
			"rotation": {"angle": -45, "axis": "z", "origin": [8.26807, 9.6909, 0.0101]},
			"faces": {
				"north": {"uv": [4.5, 1, 7.076, 3.188], "rotation": 180, "texture": "#2"},
				"east": {"uv": [4.5, 1, 7.076, 3.188], "rotation": 180, "texture": "#2"},
				"south": {"uv": [4.5, 1, 7.076, 3.188], "rotation": 180, "texture": "#2"},
				"west": {"uv": [4.5, 1, 7.076, 3.188], "rotation": 180, "texture": "#2"},
				"up": {"uv": [4.5, 1, 7.076, 3.188], "rotation": 180, "texture": "#2"},
				"down": {"uv": [4.5, 1, 7.076, 3.188], "rotation": 180, "texture": "#2"}
			}
		},
		{
			"from": [8.062, 9.44, -1.2399],
			"to": [8.5945, 10.365, -1.1399],
			"rotation": {"angle": 0, "axis": "y", "origin": [8.362, 10.4034, -2.1899]},
			"faces": {
				"north": {"uv": [4.5, 1, 7.076, 3.188], "rotation": 180, "texture": "#2"},
				"east": {"uv": [4.5, 1, 7.076, 3.188], "rotation": 180, "texture": "#2"},
				"south": {"uv": [4.5, 1, 7.076, 3.188], "rotation": 180, "texture": "#2"},
				"west": {"uv": [4.5, 1, 7.076, 3.188], "rotation": 180, "texture": "#2"},
				"up": {"uv": [4.5, 1, 7.076, 3.188], "rotation": 180, "texture": "#2"},
				"down": {"uv": [4.5, 1, 7.076, 3.188], "rotation": 180, "texture": "#2"}
			}
		},
		{
			"from": [8.062, 10.34, -1.2399],
			"to": [8.5945, 10.976, -1.1399],
			"rotation": {"angle": 0, "axis": "y", "origin": [8.362, 11.3034, -2.1899]},
			"faces": {
				"north": {"uv": [4.5, 1, 7.076, 3.188], "rotation": 180, "texture": "#2"},
				"east": {"uv": [4.5, 1, 7.076, 3.188], "rotation": 180, "texture": "#2"},
				"south": {"uv": [4.5, 1, 7.076, 3.188], "rotation": 180, "texture": "#2"},
				"west": {"uv": [4.5, 1, 7.076, 3.188], "rotation": 180, "texture": "#2"},
				"up": {"uv": [4.5, 1, 7.076, 3.188], "rotation": 180, "texture": "#2"},
				"down": {"uv": [4.5, 1, 7.076, 3.188], "rotation": 180, "texture": "#2"}
			}
		}
	],
	"display": {
		"thirdperson_righthand": {
			"rotation": [0, 0, 7],
			"translation": [-0.75, -2.25, 2],
			"scale": [1.14, 1, 1]
		},
		"thirdperson_lefthand": {
			"rotation": [0, 0, 7],
			"translation": [-0.25, -1.75, 2.75],
			"scale": [1.14, 1, 1]
		},
		"firstperson_righthand": {
			"translation": [-5, 0.75, 2.75],
			"scale": [1.25, 1.19, 1.14]
		},
		"firstperson_lefthand": {
			"translation": [-5.25, 0.75, 2.75],
			"scale": [1.25, 1.19, 1.14]
		},
		"gui": {
			"rotation": [23, 38, -16],
			"translation": [-0.5, -2.75, 0],
			"scale": [1.64, 1.41461, 1.27094]
		},
		"head": {
			"rotation": [0, -139.5, 90],
			"translation": [-2.5, 6.5, 2.5],
			"scale": [1.89781, 1.89781, 1.89781]
		},
		"fixed": {
			"rotation": [0, 90, 0],
			"translation": [0, 0, -1.25],
			"scale": [1.22, 1.22, 1.22]
		}
	}
}