{
	"credit": "Made with Blockbench",
	"textures": {
		"0": "gci:items/gun_sar/texture",
		"1": "gci:items/gun_sar/texture2",
		"2": "gci:items/gun_sar/texture3",
		"4": "gci:items/gun_sar/texture23",
		"5": "gci:items/gun_sar/texture44",
		"particle": "gci:items/gun_sar/texture"
	},
	"elements": [
		{
			"from": [7.73355, 6.13837, 4.01366],
			"to": [8.32283, 6.24637, 4.22628],
			"rotation": {"angle": 0, "axis": "y", "origin": [7.9993, 6.19666, 1.97533]},
			"faces": {
				"north": {"uv": [3.75, 3.375, 4.375, 3.375], "rotation": 90, "texture": "#4"},
				"east": {"uv": [3.75, 3.375, 4.375, 3.375], "rotation": 90, "texture": "#4"},
				"south": {"uv": [3.75, 3.375, 4.375, 3.375], "rotation": 90, "texture": "#4"},
				"west": {"uv": [3.75, 3.375, 4.375, 3.375], "rotation": 90, "texture": "#4"},
				"up": {"uv": [3.75, 3.375, 4.375, 3.375], "rotation": 90, "texture": "#4"},
				"down": {"uv": [3.75, 3.375, 4.375, 3.375], "rotation": 90, "texture": "#4"}
			}
		},
		{
			"from": [7.73355, 6.13837, 4.44565],
			"to": [8.32283, 6.24637, 4.65828],
			"rotation": {"angle": 0, "axis": "y", "origin": [7.9993, 6.19666, 1.97533]},
			"faces": {
				"north": {"uv": [3.75, 3.375, 4.375, 3.375], "rotation": 90, "texture": "#4"},
				"east": {"uv": [3.75, 3.375, 4.375, 3.375], "rotation": 90, "texture": "#4"},
				"south": {"uv": [3.75, 3.375, 4.375, 3.375], "rotation": 90, "texture": "#4"},
				"west": {"uv": [3.75, 3.375, 4.375, 3.375], "rotation": 90, "texture": "#4"},
				"up": {"uv": [3.75, 3.375, 4.375, 3.375], "rotation": 90, "texture": "#4"},
				"down": {"uv": [3.75, 3.375, 4.375, 3.375], "rotation": 90, "texture": "#4"}
			}
		},
		{
			"from": [7.73355, 6.13837, 5.28264],
			"to": [8.32283, 6.24637, 5.49527],
			"rotation": {"angle": 0, "axis": "y", "origin": [7.9993, 6.19666, 1.97533]},
			"faces": {
				"north": {"uv": [3.75, 3.375, 4.375, 3.375], "rotation": 90, "texture": "#4"},
				"east": {"uv": [3.75, 3.375, 4.375, 3.375], "rotation": 90, "texture": "#4"},
				"south": {"uv": [3.75, 3.375, 4.375, 3.375], "rotation": 90, "texture": "#4"},
				"west": {"uv": [3.75, 3.375, 4.375, 3.375], "rotation": 90, "texture": "#4"},
				"up": {"uv": [3.75, 3.375, 4.375, 3.375], "rotation": 90, "texture": "#4"},
				"down": {"uv": [3.75, 3.375, 4.375, 3.375], "rotation": 90, "texture": "#4"}
			}
		},
		{
			"from": [7.73355, 6.13837, 1.44868],
			"to": [8.32283, 6.24637, 1.66131],
			"rotation": {"angle": 0, "axis": "y", "origin": [7.9993, 6.19666, 1.97533]},
			"faces": {
				"north": {"uv": [3.75, 3.375, 4.375, 3.375], "rotation": 90, "texture": "#4"},
				"east": {"uv": [3.75, 3.375, 4.375, 3.375], "rotation": 90, "texture": "#4"},
				"south": {"uv": [3.75, 3.375, 4.375, 3.375], "rotation": 90, "texture": "#4"},
				"west": {"uv": [3.75, 3.375, 4.375, 3.375], "rotation": 90, "texture": "#4"},
				"up": {"uv": [3.75, 3.375, 4.375, 3.375], "rotation": 90, "texture": "#4"},
				"down": {"uv": [3.75, 3.375, 4.375, 3.375], "rotation": 90, "texture": "#4"}
			}
		},
		{
			"from": [7.73355, 6.13837, 5.71464],
			"to": [8.32283, 6.24637, 5.92726],
			"rotation": {"angle": 0, "axis": "y", "origin": [7.9993, 6.19666, 1.97533]},
			"faces": {
				"north": {"uv": [3.75, 3.375, 4.375, 3.375], "rotation": 90, "texture": "#4"},
				"east": {"uv": [3.75, 3.375, 4.375, 3.375], "rotation": 90, "texture": "#4"},
				"south": {"uv": [3.75, 3.375, 4.375, 3.375], "rotation": 90, "texture": "#4"},
				"west": {"uv": [3.75, 3.375, 4.375, 3.375], "rotation": 90, "texture": "#4"},
				"up": {"uv": [3.75, 3.375, 4.375, 3.375], "rotation": 90, "texture": "#4"},
				"down": {"uv": [3.75, 3.375, 4.375, 3.375], "rotation": 90, "texture": "#4"}
			}
		},
		{
			"from": [7.73355, 6.13837, 3.58166],
			"to": [8.32283, 6.24637, 3.79429],
			"rotation": {"angle": 0, "axis": "y", "origin": [7.9993, 6.19666, 1.97533]},
			"faces": {
				"north": {"uv": [3.75, 3.375, 4.375, 3.375], "rotation": 90, "texture": "#4"},
				"east": {"uv": [3.75, 3.375, 4.375, 3.375], "rotation": 90, "texture": "#4"},
				"south": {"uv": [3.75, 3.375, 4.375, 3.375], "rotation": 90, "texture": "#4"},
				"west": {"uv": [3.75, 3.375, 4.375, 3.375], "rotation": 90, "texture": "#4"},
				"up": {"uv": [3.75, 3.375, 4.375, 3.375], "rotation": 90, "texture": "#4"},
				"down": {"uv": [3.75, 3.375, 4.375, 3.375], "rotation": 90, "texture": "#4"}
			}
		},
		{
			"from": [7.73355, 6.13837, 4.85065],
			"to": [8.32283, 6.24637, 5.06327],
			"rotation": {"angle": 0, "axis": "y", "origin": [7.9993, 6.19666, 1.97533]},
			"faces": {
				"north": {"uv": [3.75, 3.375, 4.375, 3.375], "rotation": 90, "texture": "#4"},
				"east": {"uv": [3.75, 3.375, 4.375, 3.375], "rotation": 90, "texture": "#4"},
				"south": {"uv": [3.75, 3.375, 4.375, 3.375], "rotation": 90, "texture": "#4"},
				"west": {"uv": [3.75, 3.375, 4.375, 3.375], "rotation": 90, "texture": "#4"},
				"up": {"uv": [3.75, 3.375, 4.375, 3.375], "rotation": 90, "texture": "#4"},
				"down": {"uv": [3.75, 3.375, 4.375, 3.375], "rotation": 90, "texture": "#4"}
			}
		},
		{
			"from": [7.73355, 9.66514, 7.11005],
			"to": [8.32283, 9.74614, 10.72609],
			"rotation": {"angle": 0, "axis": "y", "origin": [7.9993, 9.79585, 6.76992]},
			"faces": {
				"north": {"uv": [4.375, 3.375, 3.75, 3.375], "rotation": 90, "texture": "#4"},
				"east": {"uv": [4.375, 3.375, 3.75, 3.375], "rotation": 90, "texture": "#4"},
				"south": {"uv": [4.375, 3.375, 3.75, 3.375], "rotation": 90, "texture": "#4"},
				"west": {"uv": [4.375, 3.375, 3.75, 3.375], "rotation": 90, "texture": "#4"},
				"up": {"uv": [4.375, 3.375, 3.75, 3.375], "rotation": 90, "texture": "#4"},
				"down": {"uv": [4.375, 3.375, 3.75, 3.375], "rotation": 90, "texture": "#4"}
			}
		},
		{
			"from": [7.73355, 9.74614, 8.80825],
			"to": [8.32283, 9.85414, 9.02087],
			"rotation": {"angle": 0, "axis": "y", "origin": [7.9993, 9.79585, 6.76992]},
			"faces": {
				"north": {"uv": [4.375, 3.375, 3.75, 3.375], "rotation": 90, "texture": "#4"},
				"east": {"uv": [4.375, 3.375, 3.75, 3.375], "rotation": 90, "texture": "#4"},
				"south": {"uv": [4.375, 3.375, 3.75, 3.375], "rotation": 90, "texture": "#4"},
				"west": {"uv": [4.375, 3.375, 3.75, 3.375], "rotation": 90, "texture": "#4"},
				"up": {"uv": [4.375, 3.375, 3.75, 3.375], "rotation": 90, "texture": "#4"},
				"down": {"uv": [4.375, 3.375, 3.75, 3.375], "rotation": 90, "texture": "#4"}
			}
		},
		{
			"from": [7.73355, 9.74614, 9.24025],
			"to": [8.32283, 9.85414, 9.45287],
			"rotation": {"angle": 0, "axis": "y", "origin": [7.9993, 9.79585, 6.76992]},
			"faces": {
				"north": {"uv": [4.375, 3.375, 3.75, 3.375], "rotation": 90, "texture": "#4"},
				"east": {"uv": [4.375, 3.375, 3.75, 3.375], "rotation": 90, "texture": "#4"},
				"south": {"uv": [4.375, 3.375, 3.75, 3.375], "rotation": 90, "texture": "#4"},
				"west": {"uv": [4.375, 3.375, 3.75, 3.375], "rotation": 90, "texture": "#4"},
				"up": {"uv": [4.375, 3.375, 3.75, 3.375], "rotation": 90, "texture": "#4"},
				"down": {"uv": [4.375, 3.375, 3.75, 3.375], "rotation": 90, "texture": "#4"}
			}
		},
		{
			"from": [7.73355, 9.74614, 7.10727],
			"to": [8.32283, 9.85414, 7.31989],
			"rotation": {"angle": 0, "axis": "y", "origin": [7.9993, 9.79585, 6.76992]},
			"faces": {
				"north": {"uv": [4.375, 3.375, 3.75, 3.375], "rotation": 90, "texture": "#4"},
				"east": {"uv": [4.375, 3.375, 3.75, 3.375], "rotation": 90, "texture": "#4"},
				"south": {"uv": [4.375, 3.375, 3.75, 3.375], "rotation": 90, "texture": "#4"},
				"west": {"uv": [4.375, 3.375, 3.75, 3.375], "rotation": 90, "texture": "#4"},
				"up": {"uv": [4.375, 3.375, 3.75, 3.375], "rotation": 90, "texture": "#4"},
				"down": {"uv": [4.375, 3.375, 3.75, 3.375], "rotation": 90, "texture": "#4"}
			}
		},
		{
			"from": [7.73355, 9.74614, 10.07724],
			"to": [8.32283, 9.85414, 10.28986],
			"rotation": {"angle": 0, "axis": "y", "origin": [7.9993, 9.79585, 6.76992]},
			"faces": {
				"north": {"uv": [4.375, 3.375, 3.75, 3.375], "rotation": 90, "texture": "#4"},
				"east": {"uv": [4.375, 3.375, 3.75, 3.375], "rotation": 90, "texture": "#4"},
				"south": {"uv": [4.375, 3.375, 3.75, 3.375], "rotation": 90, "texture": "#4"},
				"west": {"uv": [4.375, 3.375, 3.75, 3.375], "rotation": 90, "texture": "#4"},
				"up": {"uv": [4.375, 3.375, 3.75, 3.375], "rotation": 90, "texture": "#4"},
				"down": {"uv": [4.375, 3.375, 3.75, 3.375], "rotation": 90, "texture": "#4"}
			}
		},
		{
			"from": [7.73355, 9.74614, 7.94426],
			"to": [8.32283, 9.85414, 8.15688],
			"rotation": {"angle": 0, "axis": "y", "origin": [7.9993, 9.79585, 6.76992]},
			"faces": {
				"north": {"uv": [4.375, 3.375, 3.75, 3.375], "rotation": 90, "texture": "#4"},
				"east": {"uv": [4.375, 3.375, 3.75, 3.375], "rotation": 90, "texture": "#4"},
				"south": {"uv": [4.375, 3.375, 3.75, 3.375], "rotation": 90, "texture": "#4"},
				"west": {"uv": [4.375, 3.375, 3.75, 3.375], "rotation": 90, "texture": "#4"},
				"up": {"uv": [4.375, 3.375, 3.75, 3.375], "rotation": 90, "texture": "#4"},
				"down": {"uv": [4.375, 3.375, 3.75, 3.375], "rotation": 90, "texture": "#4"}
			}
		},
		{
			"from": [7.73355, 9.74614, 10.50923],
			"to": [8.32283, 9.85414, 10.72186],
			"rotation": {"angle": 0, "axis": "y", "origin": [7.9993, 9.79585, 6.76992]},
			"faces": {
				"north": {"uv": [4.375, 3.375, 3.75, 3.375], "rotation": 90, "texture": "#4"},
				"east": {"uv": [4.375, 3.375, 3.75, 3.375], "rotation": 90, "texture": "#4"},
				"south": {"uv": [4.375, 3.375, 3.75, 3.375], "rotation": 90, "texture": "#4"},
				"west": {"uv": [4.375, 3.375, 3.75, 3.375], "rotation": 90, "texture": "#4"},
				"up": {"uv": [4.375, 3.375, 3.75, 3.375], "rotation": 90, "texture": "#4"},
				"down": {"uv": [4.375, 3.375, 3.75, 3.375], "rotation": 90, "texture": "#4"}
			}
		},
		{
			"from": [7.73355, 9.74614, 8.37626],
			"to": [8.32283, 9.85414, 8.58888],
			"rotation": {"angle": 0, "axis": "y", "origin": [7.9993, 9.79585, 6.76992]},
			"faces": {
				"north": {"uv": [4.375, 3.375, 3.75, 3.375], "rotation": 90, "texture": "#4"},
				"east": {"uv": [4.375, 3.375, 3.75, 3.375], "rotation": 90, "texture": "#4"},
				"south": {"uv": [4.375, 3.375, 3.75, 3.375], "rotation": 90, "texture": "#4"},
				"west": {"uv": [4.375, 3.375, 3.75, 3.375], "rotation": 90, "texture": "#4"},
				"up": {"uv": [4.375, 3.375, 3.75, 3.375], "rotation": 90, "texture": "#4"},
				"down": {"uv": [4.375, 3.375, 3.75, 3.375], "rotation": 90, "texture": "#4"}
			}
		},
		{
			"from": [7.73355, 9.74614, 9.64524],
			"to": [8.32283, 9.85414, 9.85787],
			"rotation": {"angle": 0, "axis": "y", "origin": [7.9993, 9.79585, 6.76992]},
			"faces": {
				"north": {"uv": [4.375, 3.375, 3.75, 3.375], "rotation": 90, "texture": "#4"},
				"east": {"uv": [4.375, 3.375, 3.75, 3.375], "rotation": 90, "texture": "#4"},
				"south": {"uv": [4.375, 3.375, 3.75, 3.375], "rotation": 90, "texture": "#4"},
				"west": {"uv": [4.375, 3.375, 3.75, 3.375], "rotation": 90, "texture": "#4"},
				"up": {"uv": [4.375, 3.375, 3.75, 3.375], "rotation": 90, "texture": "#4"},
				"down": {"uv": [4.375, 3.375, 3.75, 3.375], "rotation": 90, "texture": "#4"}
			}
		},
		{
			"from": [7.73355, 9.74614, 7.51227],
			"to": [8.32283, 9.85414, 7.72489],
			"rotation": {"angle": 0, "axis": "y", "origin": [7.9993, 9.79585, 6.76992]},
			"faces": {
				"north": {"uv": [4.375, 3.375, 3.75, 3.375], "rotation": 90, "texture": "#4"},
				"east": {"uv": [4.375, 3.375, 3.75, 3.375], "rotation": 90, "texture": "#4"},
				"south": {"uv": [4.375, 3.375, 3.75, 3.375], "rotation": 90, "texture": "#4"},
				"west": {"uv": [4.375, 3.375, 3.75, 3.375], "rotation": 90, "texture": "#4"},
				"up": {"uv": [4.375, 3.375, 3.75, 3.375], "rotation": 90, "texture": "#4"},
				"down": {"uv": [4.375, 3.375, 3.75, 3.375], "rotation": 90, "texture": "#4"}
			}
		},
		{
			"from": [7.73355, 6.24637, -1.12272],
			"to": [8.32283, 6.32736, 5.92726],
			"rotation": {"angle": 0, "axis": "y", "origin": [7.9993, 6.19666, -0.59607]},
			"faces": {
				"north": {"uv": [3.75, 3.375, 4.375, 3.375], "rotation": 90, "texture": "#4"},
				"east": {"uv": [3.75, 3.375, 4.375, 3.375], "rotation": 90, "texture": "#4"},
				"south": {"uv": [3.75, 3.375, 4.375, 3.375], "rotation": 90, "texture": "#4"},
				"west": {"uv": [3.75, 3.375, 4.375, 3.375], "rotation": 90, "texture": "#4"},
				"up": {"uv": [3.75, 3.375, 4.375, 3.375], "rotation": 90, "texture": "#4"},
				"down": {"uv": [3.75, 3.375, 4.375, 3.375], "rotation": 90, "texture": "#4"}
			}
		},
		{
			"from": [7.73355, 6.13837, 1.87425],
			"to": [8.32283, 6.24637, 2.08687],
			"rotation": {"angle": 0, "axis": "y", "origin": [7.9993, 6.19666, -0.59607]},
			"faces": {
				"north": {"uv": [3.75, 3.375, 4.375, 3.375], "rotation": 90, "texture": "#4"},
				"east": {"uv": [3.75, 3.375, 4.375, 3.375], "rotation": 90, "texture": "#4"},
				"south": {"uv": [3.75, 3.375, 4.375, 3.375], "rotation": 90, "texture": "#4"},
				"west": {"uv": [3.75, 3.375, 4.375, 3.375], "rotation": 90, "texture": "#4"},
				"up": {"uv": [3.75, 3.375, 4.375, 3.375], "rotation": 90, "texture": "#4"},
				"down": {"uv": [3.75, 3.375, 4.375, 3.375], "rotation": 90, "texture": "#4"}
			}
		},
		{
			"from": [7.73355, 6.13837, -0.25873],
			"to": [8.32283, 6.24637, -0.0461],
			"rotation": {"angle": 0, "axis": "y", "origin": [7.9993, 6.19666, -0.59607]},
			"faces": {
				"north": {"uv": [3.75, 3.375, 4.375, 3.375], "rotation": 90, "texture": "#4"},
				"east": {"uv": [3.75, 3.375, 4.375, 3.375], "rotation": 90, "texture": "#4"},
				"south": {"uv": [3.75, 3.375, 4.375, 3.375], "rotation": 90, "texture": "#4"},
				"west": {"uv": [3.75, 3.375, 4.375, 3.375], "rotation": 90, "texture": "#4"},
				"up": {"uv": [3.75, 3.375, 4.375, 3.375], "rotation": 90, "texture": "#4"},
				"down": {"uv": [3.75, 3.375, 4.375, 3.375], "rotation": 90, "texture": "#4"}
			}
		},
		{
			"from": [7.73355, 6.13837, 2.71124],
			"to": [8.32283, 6.24637, 2.92387],
			"rotation": {"angle": 0, "axis": "y", "origin": [7.9993, 6.19666, -0.59607]},
			"faces": {
				"north": {"uv": [3.75, 3.375, 4.375, 3.375], "rotation": 90, "texture": "#4"},
				"east": {"uv": [3.75, 3.375, 4.375, 3.375], "rotation": 90, "texture": "#4"},
				"south": {"uv": [3.75, 3.375, 4.375, 3.375], "rotation": 90, "texture": "#4"},
				"west": {"uv": [3.75, 3.375, 4.375, 3.375], "rotation": 90, "texture": "#4"},
				"up": {"uv": [3.75, 3.375, 4.375, 3.375], "rotation": 90, "texture": "#4"},
				"down": {"uv": [3.75, 3.375, 4.375, 3.375], "rotation": 90, "texture": "#4"}
			}
		},
		{
			"from": [7.73355, 6.13837, -1.12272],
			"to": [8.32283, 6.24637, -0.9101],
			"rotation": {"angle": 0, "axis": "y", "origin": [7.9993, 6.19666, -0.59607]},
			"faces": {
				"north": {"uv": [3.75, 3.375, 4.375, 3.375], "rotation": 90, "texture": "#4"},
				"east": {"uv": [3.75, 3.375, 4.375, 3.375], "rotation": 90, "texture": "#4"},
				"south": {"uv": [3.75, 3.375, 4.375, 3.375], "rotation": 90, "texture": "#4"},
				"west": {"uv": [3.75, 3.375, 4.375, 3.375], "rotation": 90, "texture": "#4"},
				"up": {"uv": [3.75, 3.375, 4.375, 3.375], "rotation": 90, "texture": "#4"},
				"down": {"uv": [3.75, 3.375, 4.375, 3.375], "rotation": 90, "texture": "#4"}
			}
		},
		{
			"from": [7.73355, 6.13837, 0.57826],
			"to": [8.32283, 6.24637, 0.79089],
			"rotation": {"angle": 0, "axis": "y", "origin": [7.9993, 6.19666, -0.59607]},
			"faces": {
				"north": {"uv": [3.75, 3.375, 4.375, 3.375], "rotation": 90, "texture": "#4"},
				"east": {"uv": [3.75, 3.375, 4.375, 3.375], "rotation": 90, "texture": "#4"},
				"south": {"uv": [3.75, 3.375, 4.375, 3.375], "rotation": 90, "texture": "#4"},
				"west": {"uv": [3.75, 3.375, 4.375, 3.375], "rotation": 90, "texture": "#4"},
				"up": {"uv": [3.75, 3.375, 4.375, 3.375], "rotation": 90, "texture": "#4"},
				"down": {"uv": [3.75, 3.375, 4.375, 3.375], "rotation": 90, "texture": "#4"}
			}
		},
		{
			"from": [7.73355, 6.13837, 3.14324],
			"to": [8.32283, 6.24637, 3.35586],
			"rotation": {"angle": 0, "axis": "y", "origin": [7.9993, 6.19666, -0.59607]},
			"faces": {
				"north": {"uv": [3.75, 3.375, 4.375, 3.375], "rotation": 90, "texture": "#4"},
				"east": {"uv": [3.75, 3.375, 4.375, 3.375], "rotation": 90, "texture": "#4"},
				"south": {"uv": [3.75, 3.375, 4.375, 3.375], "rotation": 90, "texture": "#4"},
				"west": {"uv": [3.75, 3.375, 4.375, 3.375], "rotation": 90, "texture": "#4"},
				"up": {"uv": [3.75, 3.375, 4.375, 3.375], "rotation": 90, "texture": "#4"},
				"down": {"uv": [3.75, 3.375, 4.375, 3.375], "rotation": 90, "texture": "#4"}
			}
		},
		{
			"from": [7.73355, 6.13837, 1.01026],
			"to": [8.32283, 6.24637, 1.22288],
			"rotation": {"angle": 0, "axis": "y", "origin": [7.9993, 6.19666, -0.59607]},
			"faces": {
				"north": {"uv": [3.75, 3.375, 4.375, 3.375], "rotation": 90, "texture": "#4"},
				"east": {"uv": [3.75, 3.375, 4.375, 3.375], "rotation": 90, "texture": "#4"},
				"south": {"uv": [3.75, 3.375, 4.375, 3.375], "rotation": 90, "texture": "#4"},
				"west": {"uv": [3.75, 3.375, 4.375, 3.375], "rotation": 90, "texture": "#4"},
				"up": {"uv": [3.75, 3.375, 4.375, 3.375], "rotation": 90, "texture": "#4"},
				"down": {"uv": [3.75, 3.375, 4.375, 3.375], "rotation": 90, "texture": "#4"}
			}
		},
		{
			"from": [7.73355, 6.13837, -0.69072],
			"to": [8.32283, 6.24637, -0.4781],
			"rotation": {"angle": 0, "axis": "y", "origin": [7.9993, 6.19666, -0.59607]},
			"faces": {
				"north": {"uv": [3.75, 3.375, 4.375, 3.375], "rotation": 90, "texture": "#4"},
				"east": {"uv": [3.75, 3.375, 4.375, 3.375], "rotation": 90, "texture": "#4"},
				"south": {"uv": [3.75, 3.375, 4.375, 3.375], "rotation": 90, "texture": "#4"},
				"west": {"uv": [3.75, 3.375, 4.375, 3.375], "rotation": 90, "texture": "#4"},
				"up": {"uv": [3.75, 3.375, 4.375, 3.375], "rotation": 90, "texture": "#4"},
				"down": {"uv": [3.75, 3.375, 4.375, 3.375], "rotation": 90, "texture": "#4"}
			}
		},
		{
			"from": [7.73355, 6.13837, 2.27925],
			"to": [8.32283, 6.24637, 2.49187],
			"rotation": {"angle": 0, "axis": "y", "origin": [7.9993, 6.19666, -0.59607]},
			"faces": {
				"north": {"uv": [3.75, 3.375, 4.375, 3.375], "rotation": 90, "texture": "#4"},
				"east": {"uv": [3.75, 3.375, 4.375, 3.375], "rotation": 90, "texture": "#4"},
				"south": {"uv": [3.75, 3.375, 4.375, 3.375], "rotation": 90, "texture": "#4"},
				"west": {"uv": [3.75, 3.375, 4.375, 3.375], "rotation": 90, "texture": "#4"},
				"up": {"uv": [3.75, 3.375, 4.375, 3.375], "rotation": 90, "texture": "#4"},
				"down": {"uv": [3.75, 3.375, 4.375, 3.375], "rotation": 90, "texture": "#4"}
			}
		},
		{
			"from": [7.73355, 6.13837, 0.14627],
			"to": [8.32283, 6.24637, 0.35889],
			"rotation": {"angle": 0, "axis": "y", "origin": [7.9993, 6.19666, -0.59607]},
			"faces": {
				"north": {"uv": [3.75, 3.375, 4.375, 3.375], "rotation": 90, "texture": "#4"},
				"east": {"uv": [3.75, 3.375, 4.375, 3.375], "rotation": 90, "texture": "#4"},
				"south": {"uv": [3.75, 3.375, 4.375, 3.375], "rotation": 90, "texture": "#4"},
				"west": {"uv": [3.75, 3.375, 4.375, 3.375], "rotation": 90, "texture": "#4"},
				"up": {"uv": [3.75, 3.375, 4.375, 3.375], "rotation": 90, "texture": "#4"},
				"down": {"uv": [3.75, 3.375, 4.375, 3.375], "rotation": 90, "texture": "#4"}
			}
		},
		{
			"from": [7.14427, 6.05431, 0.17932],
			"to": [7.55676, 7.92929, 6.87568],
			"rotation": {"angle": 0, "axis": "y", "origin": [17.7513, 16.76848, 10.8935]},
			"faces": {
				"north": {"uv": [0, 0, 9, 10.4], "texture": "#1"},
				"east": {"uv": [0, 0, 9, 10.4], "texture": "#1"},
				"south": {"uv": [0, 0, 9, 10.4], "texture": "#1"},
				"west": {"uv": [0, 0, 9, 10.4], "texture": "#1"},
				"up": {"uv": [0, 0, 9, 10.4], "texture": "#1"},
				"down": {"uv": [0, 0, 9, 10.4], "texture": "#1"}
			}
		},
		{
			"from": [7.14309, 6.38913, 0.84896],
			"to": [7.55558, 6.52305, 4.86677],
			"rotation": {"angle": 0, "axis": "y", "origin": [17.7513, 16.76848, 10.8935]},
			"faces": {
				"north": {"uv": [0, 0, 0.35, 0.1], "texture": "#0"},
				"east": {"uv": [0, 0, 3, 0.1], "texture": "#0"},
				"south": {"uv": [0, 0, 0.35, 0.1], "texture": "#0"},
				"west": {"uv": [0, 0, 3, 0.1], "texture": "#4"},
				"up": {"uv": [0, 0, 0.35, 3], "texture": "#0"},
				"down": {"uv": [0, 0, 0.35, 3], "texture": "#0"}
			}
		},
		{
			"from": [7.14309, 6.72394, 0.84896],
			"to": [7.55558, 6.85787, 4.86677],
			"rotation": {"angle": 0, "axis": "y", "origin": [17.7513, 16.76848, 10.8935]},
			"faces": {
				"north": {"uv": [0, 0, 0.35, 0.1], "texture": "#0"},
				"east": {"uv": [0, 0, 3, 0.1], "texture": "#0"},
				"south": {"uv": [0, 0, 0.35, 0.1], "texture": "#0"},
				"west": {"uv": [0, 0, 3, 0.1], "texture": "#4"},
				"up": {"uv": [0, 0, 0.35, 3], "texture": "#0"},
				"down": {"uv": [0, 0, 0.35, 3], "texture": "#0"}
			}
		},
		{
			"from": [7.14309, 7.05876, 0.84896],
			"to": [7.55558, 7.19269, 4.86677],
			"rotation": {"angle": 0, "axis": "y", "origin": [17.7513, 16.76848, 10.8935]},
			"faces": {
				"north": {"uv": [0, 0, 0.35, 0.1], "texture": "#0"},
				"east": {"uv": [0, 0, 3, 0.1], "texture": "#0"},
				"south": {"uv": [0, 0, 0.35, 0.1], "texture": "#0"},
				"west": {"uv": [0, 0, 3, 0.1], "texture": "#4"},
				"up": {"uv": [0, 0, 0.35, 3], "texture": "#0"},
				"down": {"uv": [0, 0, 0.35, 3], "texture": "#0"}
			}
		},
		{
			"from": [7.14309, 7.39358, 0.84896],
			"to": [7.55558, 7.52751, 4.86677],
			"rotation": {"angle": 0, "axis": "y", "origin": [17.7513, 16.76848, 10.8935]},
			"faces": {
				"north": {"uv": [0, 0, 0.35, 0.1], "texture": "#0"},
				"east": {"uv": [0, 0, 3, 0.1], "texture": "#0"},
				"south": {"uv": [0, 0, 0.35, 0.1], "texture": "#0"},
				"west": {"uv": [0, 0, 3, 0.1], "texture": "#4"},
				"up": {"uv": [0, 0, 0.35, 3], "texture": "#0"},
				"down": {"uv": [0, 0, 0.35, 3], "texture": "#0"}
			}
		},
		{
			"from": [8.50079, 7.39358, 0.84896],
			"to": [8.91329, 7.52751, 4.86677],
			"rotation": {"angle": 0, "axis": "y", "origin": [-1.10565, 16.76848, 10.8935]},
			"faces": {
				"north": {"uv": [0.35, 0, 0.7, 0.1], "texture": "#4"},
				"east": {"uv": [4, 0, 7, 0.1], "texture": "#4"},
				"south": {"uv": [0.35, 0, 0.7, 0.1], "texture": "#4"},
				"west": {"uv": [4, 0, 7, 0.1], "texture": "#4"},
				"up": {"uv": [0.35, 0, 0.7, 3], "texture": "#4"},
				"down": {"uv": [0.35, 0, 0.7, 3], "texture": "#4"}
			}
		},
		{
			"from": [8.50079, 7.05876, 0.84896],
			"to": [8.91329, 7.19269, 4.86677],
			"rotation": {"angle": 0, "axis": "y", "origin": [-1.10565, 16.76848, 10.8935]},
			"faces": {
				"north": {"uv": [0.35, 0, 0.7, 0.1], "texture": "#4"},
				"east": {"uv": [4, 0, 7, 0.1], "texture": "#4"},
				"south": {"uv": [0.35, 0, 0.7, 0.1], "texture": "#4"},
				"west": {"uv": [4, 0, 7, 0.1], "texture": "#4"},
				"up": {"uv": [0.35, 0, 0.7, 3], "texture": "#4"},
				"down": {"uv": [0.35, 0, 0.7, 3], "texture": "#4"}
			}
		},
		{
			"from": [8.50079, 6.72394, 0.84896],
			"to": [8.91329, 6.85787, 4.86677],
			"rotation": {"angle": 0, "axis": "y", "origin": [-1.10565, 16.76848, 10.8935]},
			"faces": {
				"north": {"uv": [0.35, 0, 0.7, 0.1], "texture": "#4"},
				"east": {"uv": [4, 0, 7, 0.1], "texture": "#4"},
				"south": {"uv": [0.35, 0, 0.7, 0.1], "texture": "#4"},
				"west": {"uv": [4, 0, 7, 0.1], "texture": "#4"},
				"up": {"uv": [0.35, 0, 0.7, 3], "texture": "#4"},
				"down": {"uv": [0.35, 0, 0.7, 3], "texture": "#4"}
			}
		},
		{
			"from": [8.50079, 6.38913, 0.84896],
			"to": [8.91329, 6.52305, 4.86677],
			"rotation": {"angle": 0, "axis": "y", "origin": [-1.10565, 16.76848, 10.8935]},
			"faces": {
				"north": {"uv": [0.35, 0, 0.7, 0.1], "texture": "#4"},
				"east": {"uv": [4, 0, 7, 0.1], "texture": "#4"},
				"south": {"uv": [0.35, 0, 0.7, 0.1], "texture": "#4"},
				"west": {"uv": [4, 0, 7, 0.1], "texture": "#4"},
				"up": {"uv": [0.35, 0, 0.7, 3], "texture": "#4"},
				"down": {"uv": [0.35, 0, 0.7, 3], "texture": "#4"}
			}
		},
		{
			"from": [8.50079, 6.45609, 5.53641],
			"to": [8.91329, 7.46054, 6.20605],
			"rotation": {"angle": 0, "axis": "y", "origin": [8.70704, 6.72394, 5.87123]},
			"faces": {
				"north": {"uv": [0.35, 0, 0.7, 0.75], "rotation": 180, "texture": "#4"},
				"east": {"uv": [4, 0, 4.75, 0.5], "rotation": 270, "texture": "#4"},
				"south": {"uv": [0.35, 0, 0.7, 0.75], "texture": "#4"},
				"west": {"uv": [4, 0, 4.75, 0.5], "rotation": 90, "texture": "#4"},
				"up": {"uv": [0.35, 0, 0.7, 0.5], "rotation": 180, "texture": "#4"},
				"down": {"uv": [0.35, 0, 0.7, 0.5], "texture": "#4"}
			}
		},
		{
			"from": [7.14309, 6.45609, 5.53641],
			"to": [7.55558, 7.46054, 6.20605],
			"rotation": {"angle": 0, "axis": "y", "origin": [6.76006, 6.72394, 5.87123]},
			"faces": {
				"north": {"uv": [0.7, 0, 1.05, 0.75], "rotation": 180, "texture": "#0"},
				"east": {"uv": [4, 0.5, 4.75, 1], "rotation": 90, "texture": "#0"},
				"south": {"uv": [0.7, 0, 1.05, 0.75], "texture": "#0"},
				"west": {"uv": [4, 0.5, 4.75, 1], "rotation": 270, "texture": "#4"},
				"up": {"uv": [0.7, 0, 1.05, 0.5], "rotation": 180, "texture": "#0"},
				"down": {"uv": [0.7, 0, 1.05, 0.5], "texture": "#0"}
			}
		},
		{
			"from": [7.14427, 6.05431, -1.15995],
			"to": [7.55676, 7.92929, -1.02602],
			"rotation": {"angle": 0, "axis": "y", "origin": [17.7513, 16.76848, 9.55423]},
			"faces": {
				"north": {"uv": [0, 0, 0.35, 1.4], "texture": "#1"},
				"east": {"uv": [0, 0, 0.1, 1.4], "texture": "#1"},
				"south": {"uv": [0, 0, 0.35, 1.4], "texture": "#1"},
				"west": {"uv": [0, 0, 13.1, 14.4], "texture": "#1"},
				"up": {"uv": [0, 0, 0.35, 0.1], "texture": "#1"},
				"down": {"uv": [0, 0, 0.35, 0.1], "texture": "#1"}
			}
		},
		{
			"from": [7.37998, 6.05431, -0.49031],
			"to": [7.55676, 7.92929, -0.35639],
			"rotation": {"angle": 0, "axis": "y", "origin": [17.7513, 16.76848, 9.55423]},
			"faces": {
				"north": {"uv": [0, 0, 0.15, 1.4], "texture": "#1"},
				"east": {"uv": [0, 0, 0.1, 1.4], "texture": "#1"},
				"south": {"uv": [0, 0, 0.15, 1.4], "texture": "#1"},
				"west": {"uv": [0, 0, 11.1, 11.4], "texture": "#1"},
				"up": {"uv": [0, 0, 0.15, 0.1], "texture": "#1"},
				"down": {"uv": [0, 0, 0.15, 0.1], "texture": "#1"}
			}
		},
		{
			"from": [7.14427, 6.05431, -1.15995],
			"to": [7.55676, 6.59002, 0.17932],
			"rotation": {"angle": 0, "axis": "y", "origin": [17.7513, 16.76848, 4.19714]},
			"faces": {
				"north": {"uv": [0, 0, 1, 0.4], "texture": "#1"},
				"east": {"uv": [0, 0, 1, 0.4], "texture": "#1"},
				"south": {"uv": [0, 0, 1, 0.4], "texture": "#1"},
				"west": {"uv": [0, 0, 16, 16], "texture": "#1"},
				"up": {"uv": [0, 0, 1, 0.4], "texture": "#1"},
				"down": {"uv": [0, 0, 1, 0.4], "texture": "#1"}
			}
		},
		{
			"from": [7.14427, 7.39358, -1.15995],
			"to": [7.55676, 7.92929, 0.17932],
			"rotation": {"angle": 0, "axis": "y", "origin": [17.7513, 18.10776, 4.19714]},
			"faces": {
				"north": {"uv": [0, 0, 8.35, 9.4], "texture": "#1"},
				"east": {"uv": [0, 0, 1, 0.4], "texture": "#1"},
				"south": {"uv": [0, 0, 0.35, 0.4], "texture": "#1"},
				"west": {"uv": [0, 0, 1, 0.4], "texture": "#1"},
				"up": {"uv": [0, 0, 0.35, 1], "texture": "#1"},
				"down": {"uv": [0, 0, 0.35, 1], "texture": "#1"}
			}
		},
		{
			"from": [8.49961, 6.05431, 0.17932],
			"to": [8.91211, 7.92929, 6.87568],
			"rotation": {"angle": 0, "axis": "y", "origin": [-1.10565, 16.76848, 10.8935]},
			"faces": {
				"north": {"uv": [0.2, 0, 0.55, 1.4], "texture": "#1"},
				"east": {"uv": [6, 0, 11, 1.4], "texture": "#1"},
				"south": {"uv": [0.2, 0, 0.55, 1.4], "texture": "#1"},
				"west": {"uv": [6, 0, 11, 1.4], "texture": "#1"},
				"up": {"uv": [0.2, 0, 0.55, 5], "texture": "#1"},
				"down": {"uv": [0.2, 0, 0.55, 5], "texture": "#1"}
			}
		},
		{
			"from": [8.49961, 6.05431, -1.15995],
			"to": [8.91211, 7.92929, -1.02602],
			"rotation": {"angle": 0, "axis": "y", "origin": [-1.10565, 16.76848, 9.55423]},
			"faces": {
				"north": {"uv": [0.2, 0, 10.55, 12.4], "texture": "#1"},
				"east": {"uv": [6, 0, 6.1, 1.4], "texture": "#1"},
				"south": {"uv": [0.2, 0, 0.55, 1.4], "texture": "#1"},
				"west": {"uv": [6, 0, 6.1, 1.4], "texture": "#1"},
				"up": {"uv": [0.2, 0, 0.55, 0.1], "texture": "#1"},
				"down": {"uv": [0.2, 0, 0.55, 0.1], "texture": "#1"}
			}
		},
		{
			"from": [8.49961, 6.05431, -0.49031],
			"to": [8.67639, 7.92929, -0.35639],
			"rotation": {"angle": 0, "axis": "y", "origin": [-1.10565, 16.76848, 9.55423]},
			"faces": {
				"north": {"uv": [0.2, 0, 0.35, 1.4], "texture": "#1"},
				"east": {"uv": [6, 0, 6.1, 1.4], "texture": "#1"},
				"south": {"uv": [0.2, 0, 0.35, 1.4], "texture": "#1"},
				"west": {"uv": [6, 0, 6.1, 1.4], "texture": "#1"},
				"up": {"uv": [0.2, 0, 0.35, 0.1], "texture": "#1"},
				"down": {"uv": [0.2, 0, 0.35, 0.1], "texture": "#1"}
			}
		},
		{
			"from": [8.49961, 6.05431, -1.15995],
			"to": [8.91211, 6.59002, 0.17932],
			"rotation": {"angle": 0, "axis": "y", "origin": [-1.10565, 16.76848, 10.8935]},
			"faces": {
				"north": {"uv": [0.2, 0, 11.55, 11.4], "texture": "#1"},
				"east": {"uv": [6, 0, 7, 0.4], "texture": "#1"},
				"south": {"uv": [0.2, 0, 0.55, 0.4], "texture": "#1"},
				"west": {"uv": [6, 0, 7, 0.4], "texture": "#1"},
				"up": {"uv": [0.2, 0, 0.55, 1], "texture": "#1"},
				"down": {"uv": [0.2, 0, 0.55, 1], "texture": "#1"}
			}
		},
		{
			"from": [8.49961, 7.39358, -1.15995],
			"to": [8.91211, 7.92929, 0.17932],
			"rotation": {"angle": 0, "axis": "y", "origin": [-1.10565, 18.10776, 10.8935]},
			"faces": {
				"north": {"uv": [0.2, 0, 0.55, 0.4], "texture": "#1"},
				"east": {"uv": [6, 0, 7, 0.4], "texture": "#1"},
				"south": {"uv": [0.2, 0, 0.55, 0.4], "texture": "#1"},
				"west": {"uv": [6, 0, 7, 0.4], "texture": "#1"},
				"up": {"uv": [0.2, 0, 0.55, 1], "texture": "#1"},
				"down": {"uv": [0.2, 0, 0.55, 1], "texture": "#1"}
			}
		},
		{
			"from": [7.37998, 6.05565, 6.20605],
			"to": [8.67639, 6.3235, 8.88459],
			"rotation": {"angle": 0, "axis": "y", "origin": [17.7513, 16.76848, 17.58986]},
			"faces": {
				"north": {"uv": [0, 0, 1.1, 0.2], "texture": "#4"},
				"east": {"uv": [0, 0, 2, 0.2], "texture": "#4"},
				"south": {"uv": [0, 0, 1.1, 0.2], "texture": "#4"},
				"west": {"uv": [0, 0, 2, 0.2], "texture": "#4"},
				"up": {"uv": [0, 0, 1.1, 2], "texture": "#4"},
				"down": {"uv": [0, 0, 1.1, 2], "texture": "#4"}
			}
		},
		{
			"from": [7.49784, 6.32216, -1.15995],
			"to": [8.55854, 7.66144, 9.55423],
			"rotation": {"angle": 0, "axis": "y", "origin": [17.7513, 16.76848, 9.55423]},
			"faces": {
				"north": {"uv": [0, 0, 8.9, 12], "texture": "#1"},
				"east": {"uv": [0, 0, 8, 1], "texture": "#4"},
				"south": {"uv": [0, 0, 0.9, 1], "texture": "#1"},
				"west": {"uv": [0, 0, 8, 1], "texture": "#4"},
				"up": {"uv": [0, 0, 0.9, 8], "texture": "#1"},
				"down": {"uv": [0, 0, 0.9, 8], "texture": "#1"}
			}
		},
		{
			"from": [7.73355, 7.66144, -1.15995],
			"to": [7.8514, 8.19714, 9.55423],
			"rotation": {"angle": 0, "axis": "y", "origin": [17.7513, 18.10776, 9.55423]},
			"faces": {
				"north": {"uv": [0, 0, 0.1, 0.4], "texture": "#1"},
				"east": {"uv": [0, 0, 8, 0.4], "texture": "#1"},
				"south": {"uv": [0, 0, 0.1, 0.4], "texture": "#1"},
				"west": {"uv": [0, 0, 8, 8.4], "texture": "#1"},
				"up": {"uv": [0, 0, 0.1, 8], "texture": "#1"},
				"down": {"uv": [0, 0, 0.1, 8], "texture": "#1"}
			}
		},
		{
			"from": [8.20497, 7.66144, -1.15995],
			"to": [8.32283, 8.19714, 9.55423],
			"rotation": {"angle": 0, "axis": "y", "origin": [16.57274, 18.10776, 9.55423]},
			"faces": {
				"north": {"uv": [0, 0, 8.1, 7.4], "texture": "#1"},
				"east": {"uv": [0, 0, 8, 0.4], "texture": "#1"},
				"south": {"uv": [0, 0, 0.1, 0.4], "texture": "#1"},
				"west": {"uv": [0, 0, 8, 0.4], "texture": "#1"},
				"up": {"uv": [0, 0, 0.1, 8], "texture": "#1"},
				"down": {"uv": [0, 0, 0.1, 8], "texture": "#1"}
			}
		},
		{
			"from": [7.91033, 7.02528, -1.22691],
			"to": [8.14604, 7.28424, 6.80872],
			"rotation": {"angle": 0, "axis": "y", "origin": [8.15194, 7.19269, 2.7909]},
			"faces": {
				"north": {"uv": [0, 0, 0.05, 0.2], "rotation": 270, "texture": "#0"},
				"east": {"uv": [0, 0, 0.05, 6], "rotation": 90, "texture": "#0"},
				"south": {"uv": [0, 0, 0.05, 0.2], "rotation": 90, "texture": "#0"},
				"west": {"uv": [0, 0, 0.05, 6], "rotation": 90, "texture": "#0"},
				"up": {"uv": [0, 0, 6, 0.2], "rotation": 90, "texture": "#0"},
				"down": {"uv": [0, 0, 6, 0.2], "rotation": 90, "texture": "#0"}
			}
		},
		{
			"from": [7.61569, 5.65253, 8.08103],
			"to": [8.44068, 6.72394, 9.15244],
			"rotation": {"angle": 22.5, "axis": "x", "origin": [8.02819, 5.92038, 8.75066]},
			"faces": {
				"north": {"uv": [0, 0, 0.7, 0.8], "texture": "#4"},
				"east": {"uv": [0, 0, 0.8, 0.8], "texture": "#4"},
				"south": {"uv": [0, 0, 0.7, 0.8], "texture": "#4"},
				"west": {"uv": [0, 0, 0.8, 0.8], "texture": "#4"},
				"up": {"uv": [0, 0, 0.7, 0.8], "texture": "#4"},
				"down": {"uv": [0, 0, 0.7, 0.8], "texture": "#4"}
			}
		},
		{
			"from": [7.61569, 5.71949, 7.88014],
			"to": [8.44068, 6.79091, 8.95155],
			"rotation": {"angle": 0, "axis": "y", "origin": [8.02819, 5.92038, 8.75066]},
			"faces": {
				"north": {"uv": [0, 0, 0.7, 0.8], "rotation": 180, "texture": "#4"},
				"east": {"uv": [0, 0, 0.8, 0.8], "rotation": 270, "texture": "#4"},
				"south": {"uv": [0, 0, 0.7, 0.8], "texture": "#4"},
				"west": {"uv": [0, 0, 0.8, 0.8], "rotation": 90, "texture": "#4"},
				"up": {"uv": [0, 0, 0.7, 0.8], "rotation": 180, "texture": "#4"},
				"down": {"uv": [0, 0, 0.7, 0.8], "texture": "#4"}
			}
		},
		{
			"from": [7.61569, 5.11682, 8.01406],
			"to": [8.44068, 5.5186, 8.41585],
			"rotation": {"angle": 0, "axis": "y", "origin": [8.02819, 5.58556, 8.21495]},
			"faces": {
				"north": {"uv": [0, 0, 0.7, 0.3], "rotation": 180, "texture": "#4"},
				"east": {"uv": [0, 0, 0.3, 0.3], "rotation": 270, "texture": "#4"},
				"south": {"uv": [0, 0, 0.7, 0.3], "texture": "#4"},
				"west": {"uv": [0, 0, 0.3, 0.3], "rotation": 90, "texture": "#4"},
				"up": {"uv": [0, 0, 0.7, 0.3], "rotation": 180, "texture": "#4"},
				"down": {"uv": [0, 0, 0.7, 0.3], "texture": "#4"}
			}
		},
		{
			"from": [7.26212, 6.18824, 8.34888],
			"to": [8.79425, 6.52305, 8.6837],
			"rotation": {"angle": 0, "axis": "y", "origin": [5.67107, 5.58556, 8.21495]},
			"faces": {
				"north": {"uv": [0, 0, 1.3, 0.25], "rotation": 180, "texture": "#0"},
				"east": {"uv": [0, 0, 0.25, 0.25], "rotation": 270, "texture": "#0"},
				"south": {"uv": [0, 0, 1.3, 0.25], "texture": "#0"},
				"west": {"uv": [0, 0, 0.25, 0.25], "rotation": 90, "texture": "#0"},
				"up": {"uv": [0, 0, 1.3, 0.25], "rotation": 180, "texture": "#0"},
				"down": {"uv": [0, 0, 1.3, 0.25], "texture": "#0"}
			}
		},
		{
			"from": [7.26224, 6.29538, 8.08103],
			"to": [8.79437, 6.42931, 8.41585],
			"rotation": {"angle": 0, "axis": "y", "origin": [5.67107, 5.58556, 8.21495]},
			"faces": {
				"north": {"uv": [0, 0, 1.3, 0.1], "rotation": 180, "texture": "#5"},
				"east": {"uv": [0, 0, 0.1, 0.25], "rotation": 270, "texture": "#5"},
				"south": {"uv": [0, 0, 1.3, 0.1], "texture": "#5"},
				"west": {"uv": [0, 0, 0.1, 0.25], "rotation": 90, "texture": "#5"},
				"up": {"uv": [0, 0, 1.3, 0.25], "rotation": 180, "texture": "#5"},
				"down": {"uv": [0, 0, 1.3, 0.25], "texture": "#5"}
			}
		},
		{
			"from": [7.79248, 5.11682, 6.67479],
			"to": [8.2639, 5.21057, 7.74621],
			"rotation": {"angle": 0, "axis": "y", "origin": [8.02819, 5.58556, 6.87568]},
			"faces": {
				"north": {"uv": [0, 0, 0.4, 0.07], "rotation": 180, "texture": "#4"},
				"east": {"uv": [0, 0, 0.07, 0.8], "rotation": 270, "texture": "#4"},
				"south": {"uv": [0, 0, 0.4, 0.07], "texture": "#4"},
				"west": {"uv": [0, 0, 0.07, 0.8], "rotation": 90, "texture": "#4"},
				"up": {"uv": [0, 0, 0.4, 0.8], "rotation": 180, "texture": "#4"},
				"down": {"uv": [0, 0, 0.4, 0.8], "texture": "#4"}
			}
		},
		{
			"from": [7.79248, 5.157, 7.71808],
			"to": [8.2639, 5.25075, 8.11987],
			"rotation": {"angle": -22.5, "axis": "x", "origin": [8.02819, 5.16369, 7.82657]},
			"faces": {
				"north": {"uv": [0, 0, 0.4, 0.07], "rotation": 180, "texture": "#4"},
				"east": {"uv": [0, 0, 0.07, 0.3], "rotation": 270, "texture": "#4"},
				"south": {"uv": [0, 0, 0.4, 0.07], "texture": "#4"},
				"west": {"uv": [0, 0, 0.07, 0.3], "rotation": 90, "texture": "#4"},
				"up": {"uv": [0, 0, 0.4, 0.3], "rotation": 180, "texture": "#4"},
				"down": {"uv": [0, 0, 0.4, 0.3], "texture": "#4"}
			}
		},
		{
			"from": [7.79248, 5.11682, 6.67479],
			"to": [8.2639, 6.18824, 6.76854],
			"rotation": {"angle": 0, "axis": "y", "origin": [8.02819, 5.16369, 7.2105]},
			"faces": {
				"north": {"uv": [0, 0, 0.4, 0.8], "texture": "#4"},
				"east": {"uv": [0, 0, 0.07, 0.8], "texture": "#4"},
				"south": {"uv": [0, 0, 0.4, 0.8], "texture": "#4"},
				"west": {"uv": [0, 0, 0.07, 0.8], "texture": "#4"},
				"up": {"uv": [0, 0, 0.4, 0.07], "texture": "#4"},
				"down": {"uv": [0, 0, 0.4, 0.07], "texture": "#4"}
			}
		},
		{
			"from": [7.91033, 5.71949, 7.17702],
			"to": [8.14604, 6.12127, 7.38461],
			"rotation": {"angle": 0, "axis": "y", "origin": [8.02819, 5.58556, 8.21495]},
			"faces": {
				"north": {"uv": [0, 0, 0.2, 0.3], "rotation": 180, "texture": "#1"},
				"east": {"uv": [0, 0, 0.3, 0.155], "rotation": 270, "texture": "#1"},
				"south": {"uv": [0, 0, 0.2, 0.3], "texture": "#1"},
				"west": {"uv": [0, 0, 0.3, 0.155], "rotation": 90, "texture": "#1"},
				"up": {"uv": [0, 0, 0.2, 0.155], "rotation": 180, "texture": "#1"},
				"down": {"uv": [0, 0, 0.2, 0.155], "texture": "#1"}
			}
		},
		{
			"from": [7.91033, 5.45164, 7.25068],
			"to": [8.14604, 5.71949, 7.38461],
			"rotation": {"angle": 0, "axis": "y", "origin": [8.02819, 5.58556, 8.21495]},
			"faces": {
				"north": {"uv": [0, 0, 0.2, 0.2], "rotation": 180, "texture": "#1"},
				"east": {"uv": [0, 0, 0.2, 0.1], "rotation": 270, "texture": "#1"},
				"south": {"uv": [0, 0, 0.2, 0.2], "texture": "#1"},
				"west": {"uv": [0, 0, 0.2, 0.1], "rotation": 90, "texture": "#1"},
				"up": {"uv": [0, 0, 0.2, 0.1], "rotation": 180, "texture": "#1"},
				"down": {"uv": [0, 0, 0.2, 0.1], "texture": "#1"}
			}
		},
		{
			"from": [7.91033, 5.27887, 7.19711],
			"to": [8.14604, 5.47976, 7.33103],
			"rotation": {"angle": 45, "axis": "x", "origin": [8.02819, 5.38467, 7.31764]},
			"faces": {
				"north": {"uv": [0, 0, 0.2, 0.15], "rotation": 180, "texture": "#1"},
				"east": {"uv": [0, 0, 0.15, 0.1], "rotation": 270, "texture": "#1"},
				"south": {"uv": [0, 0, 0.2, 0.15], "texture": "#1"},
				"west": {"uv": [0, 0, 0.15, 0.1], "rotation": 90, "texture": "#1"},
				"up": {"uv": [0, 0, 0.2, 0.1], "rotation": 180, "texture": "#1"},
				"down": {"uv": [0, 0, 0.2, 0.1], "texture": "#1"}
			}
		},
		{
			"from": [7.91033, 5.31101, 7.10336],
			"to": [8.14604, 5.37798, 7.23729],
			"rotation": {"angle": -22.5, "axis": "x", "origin": [8.02819, 5.39509, 7.2523]},
			"faces": {
				"north": {"uv": [0, 0, 0.2, 0.05], "rotation": 180, "texture": "#1"},
				"east": {"uv": [0, 0, 0.05, 0.1], "rotation": 270, "texture": "#1"},
				"south": {"uv": [0, 0, 0.2, 0.05], "texture": "#1"},
				"west": {"uv": [0, 0, 0.05, 0.1], "rotation": 90, "texture": "#1"},
				"up": {"uv": [0, 0, 0.2, 0.1], "rotation": 180, "texture": "#1"},
				"down": {"uv": [0, 0, 0.2, 0.1], "texture": "#1"}
			}
		},
		{
			"from": [7.91033, 5.39539, 7.08997],
			"to": [8.14604, 5.46235, 7.22389],
			"rotation": {"angle": -45, "axis": "x", "origin": [8.02819, 5.39509, 7.2523]},
			"faces": {
				"north": {"uv": [0, 0, 0.2, 0.05], "rotation": 180, "texture": "#1"},
				"east": {"uv": [0, 0, 0.05, 0.1], "rotation": 270, "texture": "#1"},
				"south": {"uv": [0, 0, 0.2, 0.05], "texture": "#1"},
				"west": {"uv": [0, 0, 0.05, 0.1], "rotation": 90, "texture": "#1"},
				"up": {"uv": [0, 0, 0.2, 0.1], "rotation": 180, "texture": "#1"},
				"down": {"uv": [0, 0, 0.2, 0.1], "texture": "#1"}
			}
		},
		{
			"from": [7.91033, 5.26414, 7.06318],
			"to": [8.14604, 5.3311, 7.17032],
			"rotation": {"angle": 0, "axis": "y", "origin": [8.02819, 5.39509, 7.2523]},
			"faces": {
				"north": {"uv": [0, 0, 0.2, 0.05], "rotation": 180, "texture": "#1"},
				"east": {"uv": [0, 0, 0.05, 0.08], "rotation": 270, "texture": "#1"},
				"south": {"uv": [0, 0, 0.2, 0.05], "texture": "#1"},
				"west": {"uv": [0, 0, 0.05, 0.08], "rotation": 90, "texture": "#1"},
				"up": {"uv": [0, 0, 0.2, 0.08], "rotation": 180, "texture": "#1"},
				"down": {"uv": [0, 0, 0.2, 0.08], "texture": "#1"}
			}
		},
		{
			"from": [7.91033, 5.58556, 7.19979],
			"to": [8.14604, 5.78645, 7.33371],
			"rotation": {"angle": -22.5, "axis": "x", "origin": [8.02819, 5.69459, 7.26123]},
			"faces": {
				"north": {"uv": [0, 0, 0.2, 0.15], "rotation": 180, "texture": "#1"},
				"east": {"uv": [0, 0, 0.1, 0.15], "rotation": 180, "texture": "#1"},
				"south": {"uv": [0, 0, 0.2, 0.15], "rotation": 180, "texture": "#1"},
				"west": {"uv": [0, 0, 0.1, 0.15], "rotation": 180, "texture": "#1"},
				"up": {"uv": [0, 0, 0.2, 0.1], "texture": "#1"},
				"down": {"uv": [0, 0, 0.2, 0.1], "texture": "#1"}
			}
		},
		{
			"from": [7.61569, 4.84896, 8.14799],
			"to": [8.44068, 5.25075, 8.54977],
			"rotation": {"angle": -22.5, "axis": "x", "origin": [8.02819, 4.91593, 8.41585]},
			"faces": {
				"north": {"uv": [0, 0, 0.7, 0.3], "rotation": 180, "texture": "#4"},
				"east": {"uv": [0, 0, 0.3, 0.3], "rotation": 270, "texture": "#4"},
				"south": {"uv": [0, 0, 0.7, 0.3], "texture": "#4"},
				"west": {"uv": [0, 0, 0.3, 0.3], "rotation": 90, "texture": "#4"},
				"up": {"uv": [0, 0, 0.7, 0.3], "rotation": 180, "texture": "#4"},
				"down": {"uv": [0, 0, 0.7, 0.3], "texture": "#4"}
			}
		},
		{
			"from": [7.61569, 5.38467, 7.96049],
			"to": [8.44068, 5.85342, 8.36227],
			"rotation": {"angle": -22.5, "axis": "x", "origin": [8.02819, 5.58556, 8.21495]},
			"faces": {
				"north": {"uv": [0, 0, 0.7, 0.35], "rotation": 180, "texture": "#4"},
				"east": {"uv": [0, 0, 0.35, 0.3], "rotation": 270, "texture": "#4"},
				"south": {"uv": [0, 0, 0.7, 0.35], "texture": "#4"},
				"west": {"uv": [0, 0, 0.35, 0.3], "rotation": 90, "texture": "#4"},
				"up": {"uv": [0, 0, 0.7, 0.3], "rotation": 180, "texture": "#4"},
				"down": {"uv": [0, 0, 0.7, 0.3], "texture": "#4"}
			}
		},
		{
			"from": [7.61569, 3.64362, 8.34888],
			"to": [8.44068, 4.31326, 9.4203],
			"rotation": {"angle": 0, "axis": "y", "origin": [8.02819, 4.58111, 8.75066]},
			"faces": {
				"north": {"uv": [0, 0, 0.7, 0.5], "rotation": 180, "texture": "#4"},
				"east": {"uv": [0, 0, 0.5, 0.8], "rotation": 270, "texture": "#4"},
				"south": {"uv": [0, 0, 0.7, 0.5], "texture": "#4"},
				"west": {"uv": [0, 0, 0.5, 0.8], "rotation": 90, "texture": "#4"},
				"up": {"uv": [0, 0, 0.7, 0.8], "rotation": 180, "texture": "#4"},
				"down": {"uv": [0, 0, 0.7, 0.8], "texture": "#4"}
			}
		},
		{
			"from": [7.61569, 4.31326, 8.34888],
			"to": [8.44068, 4.98289, 9.01852],
			"rotation": {"angle": -22.5, "axis": "x", "origin": [8.02819, 4.38022, 8.6837]},
			"faces": {
				"north": {"uv": [0, 0, 0.7, 0.5], "rotation": 180, "texture": "#4"},
				"east": {"uv": [0, 0, 0.5, 0.5], "rotation": 270, "texture": "#4"},
				"south": {"uv": [0, 0, 0.7, 0.5], "texture": "#4"},
				"west": {"uv": [0, 0, 0.5, 0.5], "rotation": 90, "texture": "#4"},
				"up": {"uv": [0, 0, 0.7, 0.5], "rotation": 180, "texture": "#4"},
				"down": {"uv": [0, 0, 0.7, 0.5], "texture": "#4"}
			}
		},
		{
			"from": [7.61569, 3.64362, 8.14799],
			"to": [8.44068, 6.32216, 8.81763],
			"rotation": {"angle": -22.5, "axis": "x", "origin": [8.02819, 5.65253, 8.6837]},
			"faces": {
				"north": {"uv": [0, 0, 0.7, 2], "rotation": 180, "texture": "#4"},
				"east": {"uv": [0, 0, 2, 0.5], "rotation": 270, "texture": "#4"},
				"south": {"uv": [0, 0, 0.7, 2], "texture": "#4"},
				"west": {"uv": [0, 0, 2, 0.5], "rotation": 90, "texture": "#4"},
				"up": {"uv": [0, 0, 0.7, 0.5], "rotation": 180, "texture": "#4"},
				"down": {"uv": [0, 0, 0.7, 0.5], "texture": "#4"}
			}
		},
		{
			"from": [7.61569, 3.60344, 8.42924],
			"to": [8.44068, 4.00522, 8.88325],
			"rotation": {"angle": 22.5, "axis": "x", "origin": [8.02819, 3.84451, 8.54977]},
			"faces": {
				"north": {"uv": [0, 0, 0.7, 0.3], "texture": "#4"},
				"east": {"uv": [0, 0, 0.339, 0.3], "texture": "#4"},
				"south": {"uv": [0, 0, 0.7, 0.3], "texture": "#4"},
				"west": {"uv": [0, 0, 0.339, 0.3], "texture": "#4"},
				"up": {"uv": [0, 0, 0.7, 0.339], "texture": "#4"},
				"down": {"uv": [0, 0, 0.7, 0.339], "texture": "#4"}
			}
		},
		{
			"from": [7.61569, 3.53648, 8.6837],
			"to": [8.44068, 3.96504, 9.08548],
			"rotation": {"angle": -22.5, "axis": "x", "origin": [8.02819, 3.73652, 8.81763]},
			"faces": {
				"north": {"uv": [0, 0, 0.7, 0.32], "rotation": 180, "texture": "#4"},
				"east": {"uv": [0, 0, 0.32, 0.3], "rotation": 90, "texture": "#4"},
				"south": {"uv": [0, 0, 0.7, 0.32], "texture": "#4"},
				"west": {"uv": [0, 0, 0.32, 0.3], "rotation": 270, "texture": "#4"},
				"up": {"uv": [0, 0, 0.7, 0.3], "texture": "#4"},
				"down": {"uv": [0, 0, 0.7, 0.3], "rotation": 180, "texture": "#4"}
			}
		},
		{
			"from": [7.61569, 3.24184, 8.88459],
			"to": [8.44068, 5.25075, 9.28637],
			"rotation": {"angle": -22.5, "axis": "x", "origin": [8.02819, 4.71504, 8.14799]},
			"faces": {
				"north": {"uv": [0, 0, 0.7, 1.5], "rotation": 180, "texture": "#4"},
				"east": {"uv": [0, 0, 1.5, 0.3], "rotation": 270, "texture": "#4"},
				"south": {"uv": [0, 0, 0.7, 1.5], "texture": "#4"},
				"west": {"uv": [0, 0, 1.5, 0.3], "rotation": 90, "texture": "#4"},
				"up": {"uv": [0, 0, 0.7, 0.3], "rotation": 180, "texture": "#4"},
				"down": {"uv": [0, 0, 0.7, 0.3], "texture": "#4"}
			}
		},
		{
			"from": [6.99695, 6.05431, 10.8935],
			"to": [9.05943, 8.06322, 16.25059],
			"rotation": {"angle": 0, "axis": "y", "origin": [8.02819, 7.05876, 13.57204]},
			"faces": {
				"north": {"uv": [0, 0, 1.75, 1.5], "texture": "#1"},
				"east": {"uv": [0, 0, 4, 1.5], "texture": "#1"},
				"south": {"uv": [0, 0, 1.75, 1.5], "texture": "#1"},
				"west": {"uv": [0, 0, 4, 1.5], "texture": "#1"},
				"up": {"uv": [0, 0, 1.75, 4], "texture": "#1"},
				"down": {"uv": [0, 0, 1.75, 4], "texture": "#1"}
			}
		},
		{
			"from": [7.1148, 6.72394, 16.13005],
			"to": [7.23266, 7.7284, 16.26398],
			"rotation": {"angle": 0, "axis": "y", "origin": [6.76006, 6.72394, 16.5854]},
			"faces": {
				"north": {"uv": [0.7, 0, 0.8, 0.75], "rotation": 180, "texture": "#0"},
				"east": {"uv": [4, 0.5, 4.75, 0.6], "rotation": 90, "texture": "#0"},
				"south": {"uv": [0.7, 0, 0.8, 0.75], "texture": "#0"},
				"west": {"uv": [4, 0.5, 4.75, 0.6], "rotation": 270, "texture": "#0"},
				"up": {"uv": [0.7, 0, 0.8, 0.1], "rotation": 180, "texture": "#0"},
				"down": {"uv": [0.7, 0, 0.8, 0.1], "texture": "#0"}
			}
		},
		{
			"from": [8.82371, 6.72394, 16.13005],
			"to": [8.94157, 7.7284, 16.26398],
			"rotation": {"angle": 0, "axis": "y", "origin": [7.93862, 6.72394, 16.5854]},
			"faces": {
				"north": {"uv": [0.7, 0, 0.8, 0.75], "rotation": 180, "texture": "#0"},
				"east": {"uv": [4, 0.5, 4.75, 0.6], "rotation": 90, "texture": "#0"},
				"south": {"uv": [0.7, 0, 0.8, 0.75], "texture": "#0"},
				"west": {"uv": [4, 0.5, 4.75, 0.6], "rotation": 270, "texture": "#0"},
				"up": {"uv": [0.7, 0, 0.8, 0.1], "rotation": 180, "texture": "#0"},
				"down": {"uv": [0.7, 0, 0.8, 0.1], "texture": "#0"}
			}
		},
		{
			"from": [8.94628, 6.72394, 15.98273],
			"to": [9.06414, 7.7284, 16.11666],
			"rotation": {"angle": 0, "axis": "y", "origin": [10.29574, 6.72394, 16.5854]},
			"faces": {
				"north": {"uv": [0.7, 0, 0.8, 0.75], "rotation": 180, "texture": "#0"},
				"east": {"uv": [4, 0.5, 4.75, 0.6], "rotation": 90, "texture": "#0"},
				"south": {"uv": [0.7, 0, 0.8, 0.75], "texture": "#0"},
				"west": {"uv": [4, 0.5, 4.75, 0.6], "rotation": 270, "texture": "#0"},
				"up": {"uv": [0.7, 0, 0.8, 0.1], "rotation": 180, "texture": "#0"},
				"down": {"uv": [0.7, 0, 0.8, 0.1], "texture": "#0"}
			}
		},
		{
			"from": [6.99459, 6.72394, 15.98273],
			"to": [7.11245, 7.7284, 16.11666],
			"rotation": {"angle": 0, "axis": "y", "origin": [6.76006, 6.72394, 17.92468]},
			"faces": {
				"north": {"uv": [0.7, 0, 0.8, 0.75], "rotation": 180, "texture": "#0"},
				"east": {"uv": [4, 0.5, 4.75, 0.6], "rotation": 90, "texture": "#0"},
				"south": {"uv": [0.7, 0, 0.8, 0.75], "texture": "#0"},
				"west": {"uv": [4, 0.5, 4.75, 0.6], "rotation": 270, "texture": "#0"},
				"up": {"uv": [0.7, 0, 0.8, 0.1], "rotation": 180, "texture": "#0"},
				"down": {"uv": [0.7, 0, 0.8, 0.1], "texture": "#0"}
			}
		},
		{
			"from": [6.96748, 6.38913, 10.22386],
			"to": [7.08534, 7.7284, 11.56313],
			"rotation": {"angle": 45, "axis": "x", "origin": [7.05588, 7.05876, 10.8935]},
			"faces": {
				"north": {"uv": [0, 0, 0.1, 1], "texture": "#2"},
				"east": {"uv": [0, 0, 1, 1], "texture": "#2"},
				"south": {"uv": [0, 0, 0.1, 1], "texture": "#2"},
				"west": {"uv": [0, 0, 1, 1], "texture": "#2"},
				"up": {"uv": [0, 0, 0.1, 1], "texture": "#2"},
				"down": {"uv": [0, 0, 0.1, 1], "texture": "#2"}
			}
		},
		{
			"from": [6.96631, 6.52305, 10.35779],
			"to": [7.08416, 7.59447, 11.42921],
			"rotation": {"angle": 45, "axis": "x", "origin": [7.05588, 7.05876, 10.8935]},
			"faces": {
				"north": {"uv": [0, 0, 0.1, 0.8], "texture": "#4"},
				"east": {"uv": [0, 0, 0.8, 0.8], "texture": "#4"},
				"south": {"uv": [0, 0, 0.1, 0.8], "texture": "#4"},
				"west": {"uv": [0, 0, 0.8, 0.8], "texture": "#4"},
				"up": {"uv": [0, 0, 0.1, 0.8], "texture": "#4"},
				"down": {"uv": [0, 0, 0.1, 0.8], "texture": "#4"}
			}
		},
		{
			"from": [7.55676, 5.85342, 13.57204],
			"to": [8.49961, 6.2552, 14.64346],
			"rotation": {"angle": -45, "axis": "y", "origin": [8.02819, 5.98735, 14.10775]},
			"faces": {
				"north": {"uv": [0, 0, 0.3, 0.8], "rotation": 270, "texture": "#4"},
				"east": {"uv": [0, 0, 0.3, 0.8], "rotation": 90, "texture": "#4"},
				"south": {"uv": [0, 0, 0.3, 0.8], "rotation": 90, "texture": "#4"},
				"west": {"uv": [0, 0, 0.3, 0.8], "rotation": 90, "texture": "#4"},
				"up": {"uv": [0, 0, 0.8, 0.8], "rotation": 90, "texture": "#4"},
				"down": {"uv": [0, 0, 0.8, 0.8], "rotation": 90, "texture": "#4"}
			}
		},
		{
			"from": [6.90856, 6.45609, 10.22386],
			"to": [6.96748, 7.05876, 11.56313],
			"rotation": {"angle": 0, "axis": "y", "origin": [7.02641, 7.05876, 10.8935]},
			"faces": {
				"north": {"uv": [0, 0, 0.05, 0.45], "texture": "#1"},
				"east": {"uv": [0, 0, 1, 0.45], "texture": "#1"},
				"south": {"uv": [0, 0, 0.05, 0.45], "texture": "#1"},
				"west": {"uv": [0, 0, 1, 0.45], "texture": "#1"},
				"up": {"uv": [0, 0, 0.05, 1], "texture": "#1"},
				"down": {"uv": [0, 0, 0.05, 1], "texture": "#1"}
			}
		},
		{
			"from": [7.14427, 6.05431, 9.55423],
			"to": [8.91211, 8.73285, 16.25059],
			"rotation": {"angle": 0, "axis": "y", "origin": [17.7513, 16.76848, 24.28622]},
			"faces": {
				"north": {"uv": [0, 0, 1.5, 2], "texture": "#1"},
				"east": {"uv": [0, 0, 5, 2], "texture": "#1"},
				"south": {"uv": [0, 0, 1.5, 2], "texture": "#1"},
				"west": {"uv": [0, 0, 5, 2], "texture": "#1"},
				"up": {"uv": [0, 0, 1.5, 5], "texture": "#1"},
				"down": {"uv": [0, 0, 1.5, 5], "texture": "#1"}
			}
		},
		{
			"from": [7.49784, 6.59002, 10.8935],
			"to": [8.55854, 9.26856, 16.25059],
			"rotation": {"angle": 0, "axis": "y", "origin": [17.7513, 16.76848, 24.28622]},
			"faces": {
				"north": {"uv": [0, 0, 0.9, 2], "texture": "#1"},
				"east": {"uv": [0, 0, 4, 2], "texture": "#1"},
				"south": {"uv": [0, 0, 0.9, 2], "texture": "#1"},
				"west": {"uv": [0, 0, 4, 2], "texture": "#1"},
				"up": {"uv": [0, 0, 0.9, 4], "texture": "#1"},
				"down": {"uv": [0, 0, 0.9, 4], "texture": "#1"}
			}
		},
		{
			"from": [7.41534, 8.79982, 10.8935],
			"to": [8.65282, 9.46945, 16.25059],
			"rotation": {"angle": 0, "axis": "y", "origin": [17.7513, 16.76848, 24.28622]},
			"faces": {
				"north": {"uv": [0, 0, 1.05, 0.5], "texture": "#1"},
				"east": {"uv": [0, 0, 4, 0.5], "texture": "#1"},
				"south": {"uv": [0, 0, 1.05, 0.5], "texture": "#1"},
				"west": {"uv": [0, 0, 4, 0.5], "texture": "#1"},
				"up": {"uv": [0, 0, 1.05, 4], "texture": "#1"},
				"down": {"uv": [0, 0, 1.05, 4], "texture": "#1"}
			}
		},
		{
			"from": [7.48369, 8.8333, 10.69261],
			"to": [8.57975, 9.50293, 11.36224],
			"rotation": {"angle": 22.5, "axis": "x", "origin": [8.03408, 9.13463, 11.22832]},
			"faces": {
				"north": {"uv": [0, 0, 0.93, 0.5], "texture": "#1"},
				"east": {"uv": [0, 0, 0.5, 0.5], "texture": "#1"},
				"south": {"uv": [0, 0, 0.93, 0.5], "texture": "#1"},
				"west": {"uv": [0, 0, 0.5, 0.5], "texture": "#1"},
				"up": {"uv": [0, 0, 0.93, 0.5], "texture": "#1"},
				"down": {"uv": [0, 0, 0.93, 0.5], "texture": "#1"}
			}
		},
		{
			"from": [7.48369, 9.00071, 6.87568],
			"to": [8.57975, 9.67034, 10.8935],
			"rotation": {"angle": 0, "axis": "y", "origin": [8.03408, 9.13463, 7.2105]},
			"faces": {
				"north": {"uv": [0, 0, 0.93, 0.5], "texture": "#1"},
				"east": {"uv": [0, 0, 3, 0.5], "texture": "#1"},
				"south": {"uv": [0, 0, 0.93, 0.5], "texture": "#1"},
				"west": {"uv": [0, 0, 3, 0.5], "texture": "#1"},
				"up": {"uv": [0, 0, 0.93, 3], "texture": "#1"},
				"down": {"uv": [0, 0, 0.93, 3], "texture": "#1"}
			}
		},
		{
			"from": [7.32105, 6.72394, 10.8935],
			"to": [8.73532, 9.00071, 16.25059],
			"rotation": {"angle": 0, "axis": "y", "origin": [17.7513, 16.76848, 24.28622]},
			"faces": {
				"north": {"uv": [0, 0, 1.2, 1.7], "texture": "#1"},
				"east": {"uv": [0, 0, 4, 1.7], "texture": "#1"},
				"south": {"uv": [0, 0, 1.2, 1.7], "texture": "#1"},
				"west": {"uv": [0, 0, 4, 1.7], "texture": "#1"},
				"up": {"uv": [0, 0, 1.2, 4], "texture": "#1"},
				"down": {"uv": [0, 0, 1.2, 4], "texture": "#1"}
			}
		},
		{
			"from": [7.3623, 8.63241, 10.8935],
			"to": [7.59801, 9.43597, 16.25059],
			"rotation": {"angle": -22.5, "axis": "z", "origin": [7.44571, 9.29345, 13.57204]},
			"faces": {
				"north": {"uv": [0, 0, 0.2, 0.6], "texture": "#1"},
				"east": {"uv": [0, 0, 4, 0.6], "texture": "#1"},
				"south": {"uv": [0, 0, 0.2, 0.6], "texture": "#1"},
				"west": {"uv": [0, 0, 4, 0.6], "texture": "#1"},
				"up": {"uv": [0, 0, 0.2, 4], "texture": "#1"},
				"down": {"uv": [0, 0, 0.2, 4], "texture": "#1"}
			}
		},
		{
			"from": [7.3623, 8.63241, 6.873],
			"to": [7.59801, 9.63686, 10.89082],
			"rotation": {"angle": -22.5, "axis": "z", "origin": [7.44571, 9.29345, 9.55423]},
			"faces": {
				"north": {"uv": [0, 0, 0.2, 0.75], "texture": "#1"},
				"east": {"uv": [0, 0, 3, 0.75], "texture": "#1"},
				"south": {"uv": [0, 0, 0.2, 0.75], "texture": "#1"},
				"west": {"uv": [0, 0, 3, 0.75], "texture": "#1"},
				"up": {"uv": [0, 0, 0.2, 3], "texture": "#1"},
				"down": {"uv": [0, 0, 0.2, 3], "texture": "#1"}
			}
		},
		{
			"from": [8.51022, 8.89357, 10.8935],
			"to": [8.74593, 9.69713, 16.25059],
			"rotation": {"angle": 22.5, "axis": "z", "origin": [9.19995, 9.29345, 13.57204]},
			"faces": {
				"north": {"uv": [0.2, 0, 0.4, 0.6], "texture": "#1"},
				"east": {"uv": [4, 0, 8, 0.6], "texture": "#1"},
				"south": {"uv": [0.2, 0, 0.4, 0.6], "texture": "#1"},
				"west": {"uv": [4, 0, 8, 0.6], "texture": "#1"},
				"up": {"uv": [0.2, 0, 0.4, 4], "texture": "#1"},
				"down": {"uv": [0.2, 0, 0.4, 4], "texture": "#1"}
			}
		},
		{
			"from": [8.51022, 8.89357, 6.873],
			"to": [8.74593, 9.89802, 10.89082],
			"rotation": {"angle": 22.5, "axis": "z", "origin": [9.19995, 9.29345, 9.55423]},
			"faces": {
				"north": {"uv": [0.2, 0, 0.4, 0.75], "texture": "#1"},
				"east": {"uv": [4, 0, 7, 0.75], "texture": "#1"},
				"south": {"uv": [0.2, 0, 0.4, 0.75], "texture": "#1"},
				"west": {"uv": [4, 0, 7, 0.75], "texture": "#1"},
				"up": {"uv": [0.2, 0, 0.4, 3], "texture": "#1"},
				"down": {"uv": [0.2, 0, 0.4, 3], "texture": "#1"}
			}
		},
		{
			"from": [7.14427, 6.85787, 6.87702],
			"to": [8.91211, 8.73285, 9.55557],
			"rotation": {"angle": 0, "axis": "y", "origin": [17.7513, 16.76848, 17.58986]},
			"faces": {
				"north": {"uv": [0, 0, 1.5, 1.4], "texture": "#1"},
				"east": {"uv": [0, 0, 2, 1.4], "texture": "#1"},
				"south": {"uv": [0, 0, 1.5, 1.4], "texture": "#1"},
				"west": {"uv": [0, 0, 2, 1.4], "texture": "#1"},
				"up": {"uv": [0, 0, 1.5, 2], "texture": "#1"},
				"down": {"uv": [0, 0, 1.5, 2], "texture": "#1"}
			}
		},
		{
			"from": [7.32105, 6.05431, 6.87568],
			"to": [8.73532, 9.00071, 9.55423],
			"rotation": {"angle": 0, "axis": "y", "origin": [17.7513, 16.76848, 17.58986]},
			"faces": {
				"north": {"uv": [0, 0, 1.2, 2.2], "texture": "#4"},
				"east": {"uv": [0, 0, 2, 2.2], "texture": "#4"},
				"south": {"uv": [0, 0, 1.2, 2.2], "texture": "#4"},
				"west": {"uv": [0, 0, 2, 2.2], "texture": "#4"},
				"up": {"uv": [0, 0, 1.2, 2], "texture": "#4"},
				"down": {"uv": [0, 0, 1.2, 2], "texture": "#4"}
			}
		},
		{
			"from": [7.14427, 6.18824, 9.35334],
			"to": [7.32105, 8.19714, 10.02297],
			"rotation": {"angle": -45, "axis": "x", "origin": [7.23266, 6.38913, 9.55423]},
			"faces": {
				"north": {"uv": [0, 0, 0.15, 1.5], "texture": "#1"},
				"east": {"uv": [0, 0, 0.5, 1.5], "texture": "#1"},
				"south": {"uv": [0, 0, 0.15, 1.5], "texture": "#1"},
				"west": {"uv": [0, 0, 0.5, 1.5], "texture": "#1"},
				"up": {"uv": [0, 0, 0.15, 0.5], "texture": "#1"},
				"down": {"uv": [0, 0, 0.15, 0.5], "texture": "#1"}
			}
		},
		{
			"from": [8.72943, 6.18824, 9.35334],
			"to": [8.90621, 8.19714, 10.02297],
			"rotation": {"angle": -45, "axis": "x", "origin": [9.41299, 6.38913, 9.55423]},
			"faces": {
				"north": {"uv": [0.15, 0, 0.3, 1.5], "texture": "#1"},
				"east": {"uv": [0.5, 0, 1, 1.5], "texture": "#1"},
				"south": {"uv": [0.15, 0, 0.3, 1.5], "texture": "#1"},
				"west": {"uv": [0.5, 0, 1, 1.5], "texture": "#1"},
				"up": {"uv": [0.15, 0, 0.3, 0.5], "texture": "#1"},
				"down": {"uv": [0.15, 0, 0.3, 0.5], "texture": "#1"}
			}
		},
		{
			"from": [7.14427, 5.78645, 7.14354],
			"to": [7.32105, 7.79536, 7.81317],
			"rotation": {"angle": 45, "axis": "x", "origin": [7.23266, 7.05203, 7.74145]},
			"faces": {
				"north": {"uv": [0, 0, 0.15, 1.5], "texture": "#1"},
				"east": {"uv": [0, 0, 0.5, 1.5], "texture": "#1"},
				"south": {"uv": [0, 0, 0.15, 1.5], "texture": "#1"},
				"west": {"uv": [0, 0, 0.5, 1.5], "texture": "#1"},
				"up": {"uv": [0, 0, 0.15, 0.5], "texture": "#1"},
				"down": {"uv": [0, 0, 0.15, 0.5], "texture": "#1"}
			}
		},
		{
			"from": [8.72943, 5.78645, 7.14354],
			"to": [8.90621, 7.79536, 7.81317],
			"rotation": {"angle": 45, "axis": "x", "origin": [9.41299, 7.05203, 7.74145]},
			"faces": {
				"north": {"uv": [0.15, 0, 0.3, 1.5], "texture": "#1"},
				"east": {"uv": [0.5, 0, 1, 1.5], "texture": "#1"},
				"south": {"uv": [0.15, 0, 0.3, 1.5], "texture": "#1"},
				"west": {"uv": [0.5, 0, 1, 1.5], "texture": "#1"},
				"up": {"uv": [0.15, 0, 0.3, 0.5], "texture": "#1"},
				"down": {"uv": [0.15, 0, 0.3, 0.5], "texture": "#1"}
			}
		},
		{
			"from": [7.95277, 6.97699, -1.5285],
			"to": [8.10277, 7.04999, -0.8845],
			"rotation": {"angle": 0, "axis": "y", "origin": [0.28277, -0.25011, 5.184]},
			"faces": {
				"north": {"uv": [2.125, 0, 2.925, 0.875], "rotation": 90, "texture": "#2"},
				"east": {"uv": [2.125, 0, 2.925, 0.875], "rotation": 90, "texture": "#2"},
				"south": {"uv": [2.125, 0, 2.925, 0.875], "rotation": 90, "texture": "#2"},
				"west": {"uv": [2.125, 0, 2.925, 0.875], "rotation": 90, "texture": "#2"},
				"up": {"uv": [2.125, 0, 2.925, 0.875], "rotation": 180, "texture": "#2"},
				"down": {"uv": [2.125, 0, 2.925, 0.875], "texture": "#2"}
			}
		},
		{
			"from": [7.95277, 7.26499, -1.5285],
			"to": [8.10277, 7.33799, -0.8845],
			"rotation": {"angle": 0, "axis": "y", "origin": [0.28277, -0.25011, 5.184]},
			"faces": {
				"north": {"uv": [2.125, 0, 2.925, 0.875], "rotation": 90, "texture": "#2"},
				"east": {"uv": [2.125, 0, 2.925, 0.875], "rotation": 90, "texture": "#2"},
				"south": {"uv": [2.125, 0, 2.925, 0.875], "rotation": 90, "texture": "#2"},
				"west": {"uv": [2.125, 0, 2.925, 0.875], "rotation": 90, "texture": "#2"},
				"up": {"uv": [2.125, 0, 2.925, 0.875], "rotation": 180, "texture": "#2"},
				"down": {"uv": [2.125, 0, 2.925, 0.875], "texture": "#2"}
			}
		},
		{
			"from": [7.8467, 7.08193, -1.5285],
			"to": [7.9197, 7.23193, -0.8845],
			"rotation": {"angle": 0, "axis": "y", "origin": [0.69058, 15.13193, 5.184]},
			"faces": {
				"north": {"uv": [2.125, 0, 2.925, 0.875], "texture": "#2"},
				"east": {"uv": [2.125, 0, 2.925, 0.875], "texture": "#2"},
				"south": {"uv": [2.125, 0, 2.925, 0.875], "texture": "#2"},
				"west": {"uv": [2.125, 0, 2.925, 0.875], "texture": "#2"},
				"up": {"uv": [2.125, 0, 2.925, 0.875], "rotation": 90, "texture": "#2"},
				"down": {"uv": [2.125, 0, 2.925, 0.875], "rotation": 270, "texture": "#2"}
			}
		},
		{
			"from": [8.1347, 7.08193, -1.5285],
			"to": [8.2077, 7.23193, -0.8845],
			"rotation": {"angle": 0, "axis": "y", "origin": [0.69058, 15.13193, 5.184]},
			"faces": {
				"north": {"uv": [2.125, 0, 2.925, 0.875], "texture": "#2"},
				"east": {"uv": [2.125, 0, 2.925, 0.875], "texture": "#2"},
				"south": {"uv": [2.125, 0, 2.925, 0.875], "texture": "#2"},
				"west": {"uv": [2.125, 0, 2.925, 0.875], "texture": "#2"},
				"up": {"uv": [2.125, 0, 2.925, 0.875], "rotation": 90, "texture": "#2"},
				"down": {"uv": [2.125, 0, 2.925, 0.875], "rotation": 270, "texture": "#2"}
			}
		},
		{
			"from": [5.11114, 14.76074, -1.5285],
			"to": [5.26114, 14.83374, -0.8845],
			"rotation": {"angle": -45, "axis": "z", "origin": [-2.78886, 7.61864, 5.184]},
			"faces": {
				"north": {"uv": [2.125, 0, 2.925, 0.875], "rotation": 90, "texture": "#2"},
				"east": {"uv": [2.125, 0, 2.925, 0.875], "rotation": 90, "texture": "#2"},
				"south": {"uv": [2.125, 0, 2.925, 0.875], "rotation": 90, "texture": "#2"},
				"west": {"uv": [2.125, 0, 2.925, 0.875], "rotation": 90, "texture": "#2"},
				"up": {"uv": [2.125, 0, 2.925, 0.875], "rotation": 180, "texture": "#2"},
				"down": {"uv": [2.125, 0, 2.925, 0.875], "texture": "#2"}
			}
		},
		{
			"from": [5.11114, 15.04874, -1.5285],
			"to": [5.26114, 15.12174, -0.8845],
			"rotation": {"angle": -45, "axis": "z", "origin": [-2.78886, 7.61864, 5.184]},
			"faces": {
				"north": {"uv": [2.125, 0, 2.925, 0.875], "rotation": 90, "texture": "#2"},
				"east": {"uv": [2.125, 0, 2.925, 0.875], "rotation": 90, "texture": "#2"},
				"south": {"uv": [2.125, 0, 2.925, 0.875], "rotation": 90, "texture": "#2"},
				"west": {"uv": [2.125, 0, 2.925, 0.875], "rotation": 90, "texture": "#2"},
				"up": {"uv": [2.125, 0, 2.925, 0.875], "rotation": 180, "texture": "#2"},
				"down": {"uv": [2.125, 0, 2.925, 0.875], "texture": "#2"}
			}
		},
		{
			"from": [15.63049, 9.92365, -1.5285],
			"to": [15.70349, 10.07365, -0.8845],
			"rotation": {"angle": -45, "axis": "z", "origin": [8.4894, 17.97365, 5.184]},
			"faces": {
				"north": {"uv": [2.125, 0, 2.925, 0.875], "texture": "#2"},
				"east": {"uv": [2.125, 0, 2.925, 0.875], "texture": "#2"},
				"south": {"uv": [2.125, 0, 2.925, 0.875], "texture": "#2"},
				"west": {"uv": [2.125, 0, 2.925, 0.875], "texture": "#2"},
				"up": {"uv": [2.125, 0, 2.925, 0.875], "rotation": 90, "texture": "#2"},
				"down": {"uv": [2.125, 0, 2.925, 0.875], "rotation": 270, "texture": "#2"}
			}
		},
		{
			"from": [15.91849, 9.92365, -1.5285],
			"to": [15.99149, 10.07365, -0.8845],
			"rotation": {"angle": -45, "axis": "z", "origin": [8.4894, 17.97365, 5.184]},
			"faces": {
				"north": {"uv": [2.125, 0, 2.925, 0.875], "texture": "#2"},
				"east": {"uv": [2.125, 0, 2.925, 0.875], "texture": "#2"},
				"south": {"uv": [2.125, 0, 2.925, 0.875], "texture": "#2"},
				"west": {"uv": [2.125, 0, 2.925, 0.875], "texture": "#2"},
				"up": {"uv": [2.125, 0, 2.925, 0.875], "rotation": 90, "texture": "#2"},
				"down": {"uv": [2.125, 0, 2.925, 0.875], "rotation": 270, "texture": "#2"}
			}
		}
	],
	"display": {
		"thirdperson_righthand": {
			"rotation": [0, -0.5, 4.5],
			"translation": [-0.75, 2, 1]
		},
		"thirdperson_lefthand": {
			"rotation": [0, -0.5, 4.5],
			"translation": [-0.75, 2, 1]
		},
		"firstperson_righthand": {
			"rotation": [0, 5.25, 0.5],
			"translation": [-3.75, 5.5, 2.25]
		},
		"firstperson_lefthand": {
			"rotation": [0, 5.25, 0.5],
			"translation": [-3.75, 5.5, 2.25]
		},
		"ground": {
			"rotation": [0, 0, -90],
			"translation": [3.5, -2.5, 0]
		},
		"gui": {
			"rotation": [23, 31, -13],
			"translation": [1, 2.25, 0],
			"scale": [1.4043, 1.49805, 1.39063]
		},
		"head": {
			"rotation": [0, 0, 90],
			"translation": [-0.5, 9.25, 0],
			"scale": [1.5, 1.5, 1.5]
		},
		"fixed": {
			"rotation": [90, 45, -90],
			"translation": [0, 0, -1.5]
		}
	},
	"groups": [
		{
			"name": "base",
			"origin": [8, 8, 8],
			"children": [
				{
					"name": "пикапика",
					"origin": [8, 8, 8],
					"children": [0, 1, 2, 3, 4, 5, 6]
				},
				{
					"name": "пикапика2",
					"origin": [8, 8, 8],
					"children": [7, 8, 9, 10, 11, 12, 13, 14, 15, 16]
				},
				{
					"name": "пикапика",
					"origin": [8, 8, 8],
					"children": [17, 18, 19, 20, 21, 22, 23, 24, 25, 26, 27]
				},
				{
					"name": "Передняя часть",
					"origin": [16, 13, 15],
					"children": [28, 29, 30, 31, 32, 33, 34, 35, 36, 37, 38, 39, 40, 41, 42, 43, 44, 45, 46, 47, 48, 49, 50, 51, 52]
				},
				{
					"name": "Рукоять и примыкающее",
					"origin": [8, 8, 8],
					"children": [53, 54, 55, 56, 57, 58, 59, 60, 61, 62, 63, 64, 65, 66, 67, 68, 69, 70, 71, 72, 73, 74, 75]
				},
				{
					"name": "Коробочка",
					"origin": [8, 8, 8],
					"children": [76, 77, 78, 79, 80, 81, 82, 83, 84, 85, 86, 87, 88, 89, 90, 91, 92, 93, 94, 95, 96, 97, 98, 99, 100]
				},
				{
					"name": "ствол",
					"origin": [8.4894, 17.97365, 5.184],
					"children": [101, 102, 103, 104, 105, 106, 107, 108]
				}
			]
		}
	]
}