{
    "textures": {
        "6": "gci:items/common/mpz",
        "7": "gci:items/common/all_in_one",
        "particle": "gci:items/gun_sar/texture"
    },
    "elements": [
        {
            "from": [
                7.7605,
                9.857,
                8.51
            ],
            "to": [
                8.2805,
                10.007,
                9.9
            ],
            "rotation": {
                "angle": 0,
                "axis": "y",
                "origin": [
                    7.7735,
                    9.8631,
                    8.705
                ]
            },
            "faces": {
                "north": {
                    "uv": [
                        9,
                        0.66667,
                        10.33333,
                        2
                    ],
                    "rotation": 180,
                    "texture": "#6"
                },
                "east": {
                    "uv": [
                        9,
                        0.66667,
                        10.33333,
                        2
                    ],
                    "rotation": 180,
                    "texture": "#6"
                },
                "south": {
                    "uv": [
                        9,
                        0.66667,
                        10.33333,
                        2
                    ],
                    "rotation": 180,
                    "texture": "#6"
                },
                "west": {
                    "uv": [
                        9,
                        0.66667,
                        10.33333,
                        2
                    ],
                    "rotation": 180,
                    "texture": "#6"
                },
                "up": {
                    "uv": [
                        9,
                        0.66667,
                        10.33333,
                        2
                    ],
                    "rotation": 180,
                    "texture": "#6"
                },
                "down": {
                    "uv": [
                        9,
                        0.66667,
                        10.33333,
                        2
                    ],
                    "rotation": 180,
                    "texture": "#6"
                }
            }
        },
        {
            "from": [
                7.7605,
                9.96307,
                8.61607
            ],
            "to": [
                8.2805,
                10.11307,
                9.90607
            ],
            "rotation": {
                "angle": 0,
                "axis": "y",
                "origin": [
                    7.7735,
                    9.96917,
                    8.71107
                ]
            },
            "faces": {
                "north": {
                    "uv": [
                        9,
                        0.66667,
                        10.33333,
                        2
                    ],
                    "rotation": 180,
                    "texture": "#6"
                },
                "east": {
                    "uv": [
                        9,
                        0.66667,
                        10.33333,
                        2
                    ],
                    "rotation": 180,
                    "texture": "#6"
                },
                "south": {
                    "uv": [
                        9,
                        0.66667,
                        10.33333,
                        2
                    ],
                    "rotation": 180,
                    "texture": "#6"
                },
                "west": {
                    "uv": [
                        9,
                        0.66667,
                        10.33333,
                        2
                    ],
                    "rotation": 180,
                    "texture": "#6"
                },
                "up": {
                    "uv": [
                        9,
                        0.66667,
                        10.33333,
                        2
                    ],
                    "rotation": 180,
                    "texture": "#6"
                },
                "down": {
                    "uv": [
                        9,
                        0.66667,
                        10.33333,
                        2
                    ],
                    "rotation": 180,
                    "texture": "#6"
                }
            }
        },
        {
            "from": [
                7.7605,
                9.932,
                8.54107
            ],
            "to": [
                8.2805,
                10.082,
                8.69107
            ],
            "rotation": {
                "angle": 45,
                "axis": "x",
                "origin": [
                    8.0205,
                    10.007,
                    8.61607
                ]
            },
            "faces": {
                "north": {
                    "uv": [
                        9,
                        0.66667,
                        10.33333,
                        2
                    ],
                    "rotation": 180,
                    "texture": "#6"
                },
                "east": {
                    "uv": [
                        9,
                        0.66667,
                        10.33333,
                        2
                    ],
                    "rotation": 180,
                    "texture": "#6"
                },
                "south": {
                    "uv": [
                        9,
                        0.66667,
                        10.33333,
                        2
                    ],
                    "rotation": 180,
                    "texture": "#6"
                },
                "west": {
                    "uv": [
                        9,
                        0.66667,
                        10.33333,
                        2
                    ],
                    "rotation": 180,
                    "texture": "#6"
                },
                "up": {
                    "uv": [
                        9,
                        0.66667,
                        10.33333,
                        2
                    ],
                    "rotation": 180,
                    "texture": "#6"
                },
                "down": {
                    "uv": [
                        9,
                        0.66667,
                        10.33333,
                        2
                    ],
                    "rotation": 180,
                    "texture": "#6"
                }
            }
        },
        {
            "from": [
                7.7605,
                9.84993,
                9.10707
            ],
            "to": [
                7.7735,
                10.39993,
                9.40707
            ],
            "rotation": {
                "angle": 45,
                "axis": "x",
                "origin": [
                    7.767,
                    10.12493,
                    9.26207
                ]
            },
            "faces": {
                "north": {
                    "uv": [
                        9,
                        0.66667,
                        10.33333,
                        2
                    ],
                    "rotation": 180,
                    "texture": "#6"
                },
                "east": {
                    "uv": [
                        9,
                        0.66667,
                        10.33333,
                        2
                    ],
                    "rotation": 180,
                    "texture": "#6"
                },
                "south": {
                    "uv": [
                        9,
                        0.66667,
                        10.33333,
                        2
                    ],
                    "rotation": 180,
                    "texture": "#6"
                },
                "west": {
                    "uv": [
                        9,
                        0.66667,
                        10.33333,
                        2
                    ],
                    "rotation": 180,
                    "texture": "#6"
                },
                "up": {
                    "uv": [
                        9,
                        0.66667,
                        10.33333,
                        2
                    ],
                    "rotation": 180,
                    "texture": "#6"
                },
                "down": {
                    "uv": [
                        9,
                        0.66667,
                        10.33333,
                        2
                    ],
                    "rotation": 180,
                    "texture": "#6"
                }
            }
        },
        {
            "from": [
                7.7605,
                9.87898,
                9.34692
            ],
            "to": [
                7.7735,
                10.42898,
                9.63692
            ],
            "rotation": {
                "angle": 0,
                "axis": "y",
                "origin": [
                    7.767,
                    10.15398,
                    9.49192
                ]
            },
            "faces": {
                "north": {
                    "uv": [
                        9,
                        0.66667,
                        10.33333,
                        2
                    ],
                    "rotation": 180,
                    "texture": "#6"
                },
                "east": {
                    "uv": [
                        9,
                        0.66667,
                        10.33333,
                        2
                    ],
                    "rotation": 180,
                    "texture": "#6"
                },
                "south": {
                    "uv": [
                        9,
                        0.66667,
                        10.33333,
                        2
                    ],
                    "rotation": 180,
                    "texture": "#6"
                },
                "west": {
                    "uv": [
                        9,
                        0.66667,
                        10.33333,
                        2
                    ],
                    "rotation": 180,
                    "texture": "#6"
                },
                "up": {
                    "uv": [
                        9,
                        0.66667,
                        10.33333,
                        2
                    ],
                    "rotation": 180,
                    "texture": "#6"
                },
                "down": {
                    "uv": [
                        9,
                        0.66667,
                        10.33333,
                        2
                    ],
                    "rotation": 180,
                    "texture": "#6"
                }
            }
        },
        {
            "from": [
                8.2675,
                9.87898,
                9.34692
            ],
            "to": [
                8.2805,
                10.42898,
                9.63692
            ],
            "rotation": {
                "angle": 0,
                "axis": "y",
                "origin": [
                    8.274,
                    10.15398,
                    9.49192
                ]
            },
            "faces": {
                "north": {
                    "uv": [
                        9,
                        0.66667,
                        10.33333,
                        2
                    ],
                    "rotation": 180,
                    "texture": "#6"
                },
                "east": {
                    "uv": [
                        9,
                        0.66667,
                        10.33333,
                        2
                    ],
                    "rotation": 180,
                    "texture": "#6"
                },
                "south": {
                    "uv": [
                        9,
                        0.66667,
                        10.33333,
                        2
                    ],
                    "rotation": 180,
                    "texture": "#6"
                },
                "west": {
                    "uv": [
                        9,
                        0.66667,
                        10.33333,
                        2
                    ],
                    "rotation": 180,
                    "texture": "#6"
                },
                "up": {
                    "uv": [
                        9,
                        0.66667,
                        10.33333,
                        2
                    ],
                    "rotation": 180,
                    "texture": "#6"
                },
                "down": {
                    "uv": [
                        9,
                        0.66667,
                        10.33333,
                        2
                    ],
                    "rotation": 180,
                    "texture": "#6"
                }
            }
        },
        {
            "from": [
                7.7605,
                10.41898,
                9.34692
            ],
            "to": [
                8.2675,
                10.42898,
                9.63692
            ],
            "rotation": {
                "angle": 0,
                "axis": "y",
                "origin": [
                    7.767,
                    10.69398,
                    9.49192
                ]
            },
            "faces": {
                "north": {
                    "uv": [
                        9,
                        0.66667,
                        10.33333,
                        2
                    ],
                    "rotation": 180,
                    "texture": "#6"
                },
                "east": {
                    "uv": [
                        9,
                        0.66667,
                        10.33333,
                        2
                    ],
                    "rotation": 180,
                    "texture": "#6"
                },
                "south": {
                    "uv": [
                        9,
                        0.66667,
                        10.33333,
                        2
                    ],
                    "rotation": 180,
                    "texture": "#6"
                },
                "west": {
                    "uv": [
                        9,
                        0.66667,
                        10.33333,
                        2
                    ],
                    "rotation": 180,
                    "texture": "#6"
                },
                "up": {
                    "uv": [
                        9,
                        0.66667,
                        10.33333,
                        2
                    ],
                    "rotation": 180,
                    "texture": "#6"
                },
                "down": {
                    "uv": [
                        9,
                        0.66667,
                        10.33333,
                        2
                    ],
                    "rotation": 180,
                    "texture": "#6"
                }
            }
        },
        {
            "from": [
                7.7605,
                9.94008,
                8.95802
            ],
            "to": [
                7.7735,
                10.04008,
                9.24802
            ],
            "rotation": {
                "angle": 0,
                "axis": "y",
                "origin": [
                    7.767,
                    10.21508,
                    9.10302
                ]
            },
            "faces": {
                "north": {
                    "uv": [
                        9,
                        0.66667,
                        10.33333,
                        2
                    ],
                    "rotation": 180,
                    "texture": "#6"
                },
                "east": {
                    "uv": [
                        9,
                        0.66667,
                        10.33333,
                        2
                    ],
                    "rotation": 180,
                    "texture": "#6"
                },
                "south": {
                    "uv": [
                        9,
                        0.66667,
                        10.33333,
                        2
                    ],
                    "rotation": 180,
                    "texture": "#6"
                },
                "west": {
                    "uv": [
                        9,
                        0.66667,
                        10.33333,
                        2
                    ],
                    "rotation": 180,
                    "texture": "#6"
                },
                "up": {
                    "uv": [
                        9,
                        0.66667,
                        10.33333,
                        2
                    ],
                    "rotation": 180,
                    "texture": "#6"
                },
                "down": {
                    "uv": [
                        9,
                        0.66667,
                        10.33333,
                        2
                    ],
                    "rotation": 180,
                    "texture": "#6"
                }
            }
        },
        {
            "from": [
                8.2675,
                9.94008,
                8.95802
            ],
            "to": [
                8.2805,
                10.04008,
                9.24802
            ],
            "rotation": {
                "angle": 0,
                "axis": "y",
                "origin": [
                    8.274,
                    10.21508,
                    9.10302
                ]
            },
            "faces": {
                "north": {
                    "uv": [
                        9,
                        0.66667,
                        10.33333,
                        2
                    ],
                    "rotation": 180,
                    "texture": "#6"
                },
                "east": {
                    "uv": [
                        9,
                        0.66667,
                        10.33333,
                        2
                    ],
                    "rotation": 180,
                    "texture": "#6"
                },
                "south": {
                    "uv": [
                        9,
                        0.66667,
                        10.33333,
                        2
                    ],
                    "rotation": 180,
                    "texture": "#6"
                },
                "west": {
                    "uv": [
                        9,
                        0.66667,
                        10.33333,
                        2
                    ],
                    "rotation": 180,
                    "texture": "#6"
                },
                "up": {
                    "uv": [
                        9,
                        0.66667,
                        10.33333,
                        2
                    ],
                    "rotation": 180,
                    "texture": "#6"
                },
                "down": {
                    "uv": [
                        9,
                        0.66667,
                        10.33333,
                        2
                    ],
                    "rotation": 180,
                    "texture": "#6"
                }
            }
        },
        {
            "from": [
                8.2675,
                9.84993,
                9.10707
            ],
            "to": [
                8.2805,
                10.39993,
                9.40707
            ],
            "rotation": {
                "angle": 45,
                "axis": "x",
                "origin": [
                    8.287,
                    10.12493,
                    9.26207
                ]
            },
            "faces": {
                "north": {
                    "uv": [
                        9,
                        0.66667,
                        10.33333,
                        2
                    ],
                    "rotation": 180,
                    "texture": "#6"
                },
                "east": {
                    "uv": [
                        9,
                        0.66667,
                        10.33333,
                        2
                    ],
                    "rotation": 180,
                    "texture": "#6"
                },
                "south": {
                    "uv": [
                        9,
                        0.66667,
                        10.33333,
                        2
                    ],
                    "rotation": 180,
                    "texture": "#6"
                },
                "west": {
                    "uv": [
                        9,
                        0.66667,
                        10.33333,
                        2
                    ],
                    "rotation": 180,
                    "texture": "#6"
                },
                "up": {
                    "uv": [
                        9,
                        0.66667,
                        10.33333,
                        2
                    ],
                    "rotation": 180,
                    "texture": "#6"
                },
                "down": {
                    "uv": [
                        9,
                        0.66667,
                        10.33333,
                        2
                    ],
                    "rotation": 180,
                    "texture": "#6"
                }
            }
        },
        {
            "from": [
                7.73744,
                9.85865,
                8.51
            ],
            "to": [
                7.84144,
                9.93865,
                9.9
            ],
            "rotation": {
                "angle": -22.5,
                "axis": "z",
                "origin": [
                    7.78944,
                    9.89865,
                    9.205
                ]
            },
            "faces": {
                "north": {
                    "uv": [
                        9,
                        0.66667,
                        10.33333,
                        2
                    ],
                    "rotation": 180,
                    "texture": "#6"
                },
                "east": {
                    "uv": [
                        9,
                        0.66667,
                        10.33333,
                        2
                    ],
                    "rotation": 180,
                    "texture": "#6"
                },
                "south": {
                    "uv": [
                        9,
                        0.66667,
                        10.33333,
                        2
                    ],
                    "rotation": 180,
                    "texture": "#6"
                },
                "west": {
                    "uv": [
                        9,
                        0.66667,
                        10.33333,
                        2
                    ],
                    "rotation": 180,
                    "texture": "#6"
                },
                "up": {
                    "uv": [
                        9,
                        0.66667,
                        10.33333,
                        2
                    ],
                    "rotation": 180,
                    "texture": "#6"
                },
                "down": {
                    "uv": [
                        9,
                        0.66667,
                        10.33333,
                        2
                    ],
                    "rotation": 180,
                    "texture": "#6"
                }
            }
        },
        {
            "from": [
                7.7605,
                9.877,
                8.51
            ],
            "to": [
                8.2805,
                9.957,
                9.9
            ],
            "rotation": {
                "angle": 0,
                "axis": "y",
                "origin": [
                    7.7735,
                    9.8831,
                    8.705
                ]
            },
            "faces": {
                "north": {
                    "uv": [
                        9,
                        0.66667,
                        10.33333,
                        2
                    ],
                    "rotation": 180,
                    "texture": "#6"
                },
                "east": {
                    "uv": [
                        9,
                        0.66667,
                        10.33333,
                        2
                    ],
                    "rotation": 180,
                    "texture": "#6"
                },
                "south": {
                    "uv": [
                        9,
                        0.66667,
                        10.33333,
                        2
                    ],
                    "rotation": 180,
                    "texture": "#6"
                },
                "west": {
                    "uv": [
                        9,
                        0.66667,
                        10.33333,
                        2
                    ],
                    "rotation": 180,
                    "texture": "#6"
                },
                "up": {
                    "uv": [
                        9,
                        0.66667,
                        10.33333,
                        2
                    ],
                    "rotation": 180,
                    "texture": "#6"
                },
                "down": {
                    "uv": [
                        9,
                        0.66667,
                        10.33333,
                        2
                    ],
                    "rotation": 180,
                    "texture": "#6"
                }
            }
        },
        {
            "from": [
                7.7215,
                9.777,
                8.51
            ],
            "to": [
                8.3195,
                9.877,
                9.9
            ],
            "rotation": {
                "angle": 0,
                "axis": "y",
                "origin": [
                    7.7735,
                    9.7831,
                    8.705
                ]
            },
            "faces": {
                "north": {
                    "uv": [
                        9,
                        0.66667,
                        10.33333,
                        2
                    ],
                    "rotation": 180,
                    "texture": "#6"
                },
                "east": {
                    "uv": [
                        9,
                        0.66667,
                        10.33333,
                        2
                    ],
                    "rotation": 180,
                    "texture": "#6"
                },
                "south": {
                    "uv": [
                        9,
                        0.66667,
                        10.33333,
                        2
                    ],
                    "rotation": 180,
                    "texture": "#6"
                },
                "west": {
                    "uv": [
                        9,
                        0.66667,
                        10.33333,
                        2
                    ],
                    "rotation": 180,
                    "texture": "#6"
                },
                "up": {
                    "uv": [
                        9,
                        0.66667,
                        10.33333,
                        2
                    ],
                    "rotation": 180,
                    "texture": "#6"
                },
                "down": {
                    "uv": [
                        9,
                        0.66667,
                        10.33333,
                        2
                    ],
                    "rotation": 180,
                    "texture": "#6"
                }
            }
        },
        {
            "from": [
                8.19956,
                9.85865,
                8.51
            ],
            "to": [
                8.30356,
                9.93865,
                9.9
            ],
            "rotation": {
                "angle": 22.5,
                "axis": "z",
                "origin": [
                    8.25156,
                    9.89865,
                    9.205
                ]
            },
            "faces": {
                "north": {
                    "uv": [
                        9,
                        0.66667,
                        10.33333,
                        2
                    ],
                    "rotation": 180,
                    "texture": "#6"
                },
                "east": {
                    "uv": [
                        9,
                        0.66667,
                        10.33333,
                        2
                    ],
                    "rotation": 180,
                    "texture": "#6"
                },
                "south": {
                    "uv": [
                        9,
                        0.66667,
                        10.33333,
                        2
                    ],
                    "rotation": 180,
                    "texture": "#6"
                },
                "west": {
                    "uv": [
                        9,
                        0.66667,
                        10.33333,
                        2
                    ],
                    "rotation": 180,
                    "texture": "#6"
                },
                "up": {
                    "uv": [
                        9,
                        0.66667,
                        10.33333,
                        2
                    ],
                    "rotation": 180,
                    "texture": "#6"
                },
                "down": {
                    "uv": [
                        9,
                        0.66667,
                        10.33333,
                        2
                    ],
                    "rotation": 180,
                    "texture": "#6"
                }
            }
        },
        {
            "from": [
                8.0205,
                9.947,
                8.488
            ],
            "to": [
                8.0335,
                9.957,
                8.588
            ],
            "rotation": {
                "angle": 0,
                "axis": "y",
                "origin": [
                    8.00191,
                    9.92771,
                    8.50056
                ]
            },
            "faces": {
                "north": {
                    "uv": [
                        9,
                        0.66667,
                        10.33333,
                        2
                    ],
                    "rotation": 180,
                    "texture": "#6"
                },
                "east": {
                    "uv": [
                        9,
                        0.66667,
                        10.33333,
                        2
                    ],
                    "rotation": 180,
                    "texture": "#6"
                },
                "south": {
                    "uv": [
                        9,
                        0.66667,
                        10.33333,
                        2
                    ],
                    "rotation": 180,
                    "texture": "#6"
                },
                "west": {
                    "uv": [
                        9,
                        0.66667,
                        10.33333,
                        2
                    ],
                    "rotation": 180,
                    "texture": "#6"
                },
                "up": {
                    "uv": [
                        9,
                        0.66667,
                        10.33333,
                        2
                    ],
                    "rotation": 180,
                    "texture": "#6"
                },
                "down": {
                    "uv": [
                        9,
                        0.66667,
                        10.33333,
                        2
                    ],
                    "rotation": 180,
                    "texture": "#6"
                }
            }
        },
        {
            "from": [
                8.01,
                10.235,
                9.603
            ],
            "to": [
                8.045,
                10.27,
                9.603
            ],
            "rotation": {
                "angle": 0,
                "axis": "y",
                "origin": [
                    8.0207,
                    10.22771,
                    9.52556
                ]
            },
            "faces": {
                "north": {
                    "uv": [
                        6,
                        15,
                        6.66667,
                        13.66667
                    ],
                    "rotation": 90,
                    "texture": "#6"
                },
                "east": {
                    "uv": [
                        6,
                        15,
                        6.66667,
                        13.66667
                    ],
                    "rotation": 90,
                    "texture": "#6"
                },
                "south": {
                    "uv": [
                        6,
                        15,
                        6.66667,
                        13.66667
                    ],
                    "rotation": 90,
                    "texture": "#6"
                },
                "west": {
                    "uv": [
                        6,
                        15,
                        6.66667,
                        13.66667
                    ],
                    "rotation": 90,
                    "texture": "#6"
                },
                "up": {
                    "uv": [
                        6,
                        15,
                        6.66667,
                        13.66667
                    ],
                    "rotation": 90,
                    "texture": "#6"
                },
                "down": {
                    "uv": [
                        6,
                        15,
                        6.66667,
                        13.66667
                    ],
                    "rotation": 90,
                    "texture": "#6"
                }
            }
        },
        {
            "from": [
                7.6305,
                9.7431,
                9.61
            ],
            "to": [
                8.4105,
                9.8231,
                9.8
            ],
            "rotation": {
                "angle": 0,
                "axis": "y",
                "origin": [
                    7.7735,
                    9.7831,
                    9.705
                ]
            },
            "faces": {
                "north": {
                    "uv": [
                        6,
                        0.66667,
                        7.66667,
                        1.66667
                    ],
                    "rotation": 90,
                    "texture": "#6"
                },
                "east": {
                    "uv": [
                        6,
                        0.66667,
                        7.66667,
                        1.66667
                    ],
                    "rotation": 90,
                    "texture": "#6"
                },
                "south": {
                    "uv": [
                        6,
                        0.66667,
                        7.66667,
                        1.66667
                    ],
                    "rotation": 90,
                    "texture": "#6"
                },
                "west": {
                    "uv": [
                        6,
                        0.66667,
                        7.66667,
                        1.66667
                    ],
                    "rotation": 90,
                    "texture": "#6"
                },
                "up": {
                    "uv": [
                        6,
                        0.66667,
                        7.66667,
                        1.66667
                    ],
                    "rotation": 90,
                    "texture": "#6"
                },
                "down": {
                    "uv": [
                        6,
                        0.66667,
                        7.66667,
                        1.66667
                    ],
                    "rotation": 90,
                    "texture": "#6"
                }
            }
        },
        {
            "from": [
                7.6305,
                9.6881,
                9.665
            ],
            "to": [
                8.4105,
                9.8781,
                9.745
            ],
            "rotation": {
                "angle": 45,
                "axis": "x",
                "origin": [
                    7.7735,
                    9.7831,
                    9.705
                ]
            },
            "faces": {
                "north": {
                    "uv": [
                        6,
                        0.66667,
                        7.66667,
                        1.66667
                    ],
                    "rotation": 90,
                    "texture": "#6"
                },
                "east": {
                    "uv": [
                        6,
                        0.66667,
                        7.66667,
                        1.66667
                    ],
                    "rotation": 90,
                    "texture": "#6"
                },
                "south": {
                    "uv": [
                        6,
                        0.66667,
                        7.66667,
                        1.66667
                    ],
                    "rotation": 90,
                    "texture": "#6"
                },
                "west": {
                    "uv": [
                        6,
                        0.66667,
                        7.66667,
                        1.66667
                    ],
                    "rotation": 90,
                    "texture": "#6"
                },
                "up": {
                    "uv": [
                        6,
                        0.66667,
                        7.66667,
                        1.66667
                    ],
                    "rotation": 90,
                    "texture": "#6"
                },
                "down": {
                    "uv": [
                        6,
                        0.66667,
                        7.66667,
                        1.66667
                    ],
                    "rotation": 90,
                    "texture": "#6"
                }
            }
        },
        {
            "from": [
                7.6305,
                9.6881,
                9.665
            ],
            "to": [
                8.4105,
                9.8781,
                9.745
            ],
            "rotation": {
                "angle": -45,
                "axis": "x",
                "origin": [
                    7.7735,
                    9.7831,
                    9.705
                ]
            },
            "faces": {
                "north": {
                    "uv": [
                        6,
                        0.66667,
                        7.66667,
                        1.66667
                    ],
                    "rotation": 90,
                    "texture": "#6"
                },
                "east": {
                    "uv": [
                        6,
                        0.66667,
                        7.66667,
                        1.66667
                    ],
                    "rotation": 90,
                    "texture": "#6"
                },
                "south": {
                    "uv": [
                        6,
                        0.66667,
                        7.66667,
                        1.66667
                    ],
                    "rotation": 90,
                    "texture": "#6"
                },
                "west": {
                    "uv": [
                        6,
                        0.66667,
                        7.66667,
                        1.66667
                    ],
                    "rotation": 90,
                    "texture": "#6"
                },
                "up": {
                    "uv": [
                        6,
                        0.66667,
                        7.66667,
                        1.66667
                    ],
                    "rotation": 90,
                    "texture": "#6"
                },
                "down": {
                    "uv": [
                        6,
                        0.66667,
                        7.66667,
                        1.66667
                    ],
                    "rotation": 90,
                    "texture": "#6"
                }
            }
        },
        {
            "from": [
                7.6305,
                9.6881,
                9.665
            ],
            "to": [
                8.4105,
                9.8781,
                9.745
            ],
            "rotation": {
                "angle": 0,
                "axis": "y",
                "origin": [
                    7.7735,
                    9.7831,
                    9.705
                ]
            },
            "faces": {
                "north": {
                    "uv": [
                        6,
                        0.66667,
                        7.66667,
                        1.66667
                    ],
                    "rotation": 90,
                    "texture": "#6"
                },
                "east": {
                    "uv": [
                        6,
                        0.66667,
                        7.66667,
                        1.66667
                    ],
                    "rotation": 90,
                    "texture": "#6"
                },
                "south": {
                    "uv": [
                        6,
                        0.66667,
                        7.66667,
                        1.66667
                    ],
                    "rotation": 90,
                    "texture": "#6"
                },
                "west": {
                    "uv": [
                        6,
                        0.66667,
                        7.66667,
                        1.66667
                    ],
                    "rotation": 90,
                    "texture": "#6"
                },
                "up": {
                    "uv": [
                        6,
                        0.66667,
                        7.66667,
                        1.66667
                    ],
                    "rotation": 90,
                    "texture": "#6"
                },
                "down": {
                    "uv": [
                        6,
                        0.66667,
                        7.66667,
                        1.66667
                    ],
                    "rotation": 90,
                    "texture": "#6"
                }
            }
        },
        {
            "from": [
                7.6305,
                9.6881,
                8.665
            ],
            "to": [
                8.4105,
                9.8781,
                8.745
            ],
            "rotation": {
                "angle": -45,
                "axis": "x",
                "origin": [
                    7.7735,
                    9.7831,
                    8.705
                ]
            },
            "faces": {
                "north": {
                    "uv": [
                        6,
                        0.66667,
                        7.66667,
                        1.66667
                    ],
                    "rotation": 90,
                    "texture": "#6"
                },
                "east": {
                    "uv": [
                        6,
                        0.66667,
                        7.66667,
                        1.66667
                    ],
                    "rotation": 90,
                    "texture": "#6"
                },
                "south": {
                    "uv": [
                        6,
                        0.66667,
                        7.66667,
                        1.66667
                    ],
                    "rotation": 90,
                    "texture": "#6"
                },
                "west": {
                    "uv": [
                        6,
                        0.66667,
                        7.66667,
                        1.66667
                    ],
                    "rotation": 90,
                    "texture": "#6"
                },
                "up": {
                    "uv": [
                        6,
                        0.66667,
                        7.66667,
                        1.66667
                    ],
                    "rotation": 90,
                    "texture": "#6"
                },
                "down": {
                    "uv": [
                        6,
                        0.66667,
                        7.66667,
                        1.66667
                    ],
                    "rotation": 90,
                    "texture": "#6"
                }
            }
        },
        {
            "from": [
                7.6305,
                9.7431,
                8.61
            ],
            "to": [
                8.4105,
                9.8231,
                8.8
            ],
            "rotation": {
                "angle": 0,
                "axis": "y",
                "origin": [
                    7.7735,
                    9.7831,
                    8.705
                ]
            },
            "faces": {
                "north": {
                    "uv": [
                        6,
                        0.66667,
                        7.66667,
                        1.66667
                    ],
                    "rotation": 90,
                    "texture": "#6"
                },
                "east": {
                    "uv": [
                        6,
                        0.66667,
                        7.66667,
                        1.66667
                    ],
                    "rotation": 90,
                    "texture": "#6"
                },
                "south": {
                    "uv": [
                        6,
                        0.66667,
                        7.66667,
                        1.66667
                    ],
                    "rotation": 90,
                    "texture": "#6"
                },
                "west": {
                    "uv": [
                        6,
                        0.66667,
                        7.66667,
                        1.66667
                    ],
                    "rotation": 90,
                    "texture": "#6"
                },
                "up": {
                    "uv": [
                        6,
                        0.66667,
                        7.66667,
                        1.66667
                    ],
                    "rotation": 90,
                    "texture": "#6"
                },
                "down": {
                    "uv": [
                        6,
                        0.66667,
                        7.66667,
                        1.66667
                    ],
                    "rotation": 90,
                    "texture": "#6"
                }
            }
        },
        {
            "from": [
                7.6305,
                9.6881,
                8.665
            ],
            "to": [
                8.4105,
                9.8781,
                8.745
            ],
            "rotation": {
                "angle": 45,
                "axis": "x",
                "origin": [
                    7.7735,
                    9.7831,
                    8.705
                ]
            },
            "faces": {
                "north": {
                    "uv": [
                        6,
                        0.66667,
                        7.66667,
                        1.66667
                    ],
                    "rotation": 90,
                    "texture": "#6"
                },
                "east": {
                    "uv": [
                        6,
                        0.66667,
                        7.66667,
                        1.66667
                    ],
                    "rotation": 90,
                    "texture": "#6"
                },
                "south": {
                    "uv": [
                        6,
                        0.66667,
                        7.66667,
                        1.66667
                    ],
                    "rotation": 90,
                    "texture": "#6"
                },
                "west": {
                    "uv": [
                        6,
                        0.66667,
                        7.66667,
                        1.66667
                    ],
                    "rotation": 90,
                    "texture": "#6"
                },
                "up": {
                    "uv": [
                        6,
                        0.66667,
                        7.66667,
                        1.66667
                    ],
                    "rotation": 90,
                    "texture": "#6"
                },
                "down": {
                    "uv": [
                        6,
                        0.66667,
                        7.66667,
                        1.66667
                    ],
                    "rotation": 90,
                    "texture": "#6"
                }
            }
        },
        {
            "from": [
                7.6305,
                9.6881,
                8.665
            ],
            "to": [
                8.4105,
                9.8781,
                8.745
            ],
            "rotation": {
                "angle": 0,
                "axis": "y",
                "origin": [
                    7.7735,
                    9.7831,
                    8.705
                ]
            },
            "faces": {
                "north": {
                    "uv": [
                        6,
                        0.66667,
                        7.66667,
                        1.66667
                    ],
                    "rotation": 90,
                    "texture": "#6"
                },
                "east": {
                    "uv": [
                        6,
                        0.66667,
                        7.66667,
                        1.66667
                    ],
                    "rotation": 90,
                    "texture": "#6"
                },
                "south": {
                    "uv": [
                        6,
                        0.66667,
                        7.66667,
                        1.66667
                    ],
                    "rotation": 90,
                    "texture": "#6"
                },
                "west": {
                    "uv": [
                        6,
                        0.66667,
                        7.66667,
                        1.66667
                    ],
                    "rotation": 90,
                    "texture": "#6"
                },
                "up": {
                    "uv": [
                        6,
                        0.66667,
                        7.66667,
                        1.66667
                    ],
                    "rotation": 90,
                    "texture": "#6"
                },
                "down": {
                    "uv": [
                        6,
                        0.66667,
                        7.66667,
                        1.66667
                    ],
                    "rotation": 90,
                    "texture": "#6"
                }
            }
        }
    ],
    "display": {
        "thirdperson_righthand": {
            "rotation": [
                0,
                -0.5,
                4.5
            ],
            "translation": [
                -0.75,
                2,
                1
            ]
        },
        "thirdperson_lefthand": {
            "rotation": [
                0,
                -0.5,
                4.5
            ],
            "translation": [
                -0.75,
                2,
                1
            ]
        },
        "firstperson_righthand": {
            "rotation": [
                0,
                5.25,
                0.5
            ],
            "translation": [
                -3.75,
                5.5,
                2.25
            ]
        },
        "firstperson_lefthand": {
            "rotation": [
                0,
                5.25,
                0.5
            ],
            "translation": [
                -3.75,
                5.5,
                2.25
            ]
        },
        "ground": {
            "rotation": [
                0,
                0,
                -90
            ],
            "translation": [
                3.5,
                -2.5,
                0
            ]
        },
        "gui": {
            "rotation": [
                23,
                31,
                -13
            ],
            "translation": [
                1,
                2.25,
                0
            ],
            "scale": [
                1.4043,
                1.49805,
                1.39063
            ]
        },
        "head": {
            "rotation": [
                0,
                0,
                90
            ],
            "translation": [
                -0.5,
                9.25,
                0
            ],
            "scale": [
                1.5,
                1.5,
                1.5
            ]
        },
        "fixed": {
            "rotation": [
                90,
                45,
                -90
            ],
            "translation": [
                0,
                0,
                -1.5
            ]
        }
    }
}