{
    "textures": {
        "1": "gci:items/common/mpz", 
        "0": "gci:items/common/all_in_one", 
        "particle": "gci:items/common/all_in_one"
    }, 
    "elements": [
        {
            "to": [
                8.34883, 
                10.41234, 
                11.12358
            ], 
            "rotation": {
                "origin": [
                    7.73986, 
                    10.14643, 
                    -19.36282
                ], 
                "angle": 0, 
                "axis": "y"
            }, 
            "from": [
                7.67427, 
                9.08178, 
                10.29862
            ], 
            "faces": {
                "north": {
                    "rotation": 270, 
                    "uv": [
                        1.25, 
                        1.125, 
                        1.375, 
                        1.125
                    ], 
                    "texture": "#0"
                }, 
                "west": {
                    "rotation": 270, 
                    "uv": [
                        1.25, 
                        1.125, 
                        1.375, 
                        1.125
                    ], 
                    "texture": "#0"
                }, 
                "up": {
                    "rotation": 270, 
                    "uv": [
                        1.25, 
                        1.125, 
                        1.375, 
                        1.125
                    ], 
                    "texture": "#0"
                }, 
                "down": {
                    "rotation": 270, 
                    "uv": [
                        1.25, 
                        1.125, 
                        1.375, 
                        1.125
                    ], 
                    "texture": "#0"
                }, 
                "east": {
                    "rotation": 270, 
                    "uv": [
                        1.25, 
                        1.125, 
                        1.375, 
                        1.125
                    ], 
                    "texture": "#0"
                }, 
                "south": {
                    "rotation": 270, 
                    "uv": [
                        1.25, 
                        1.125, 
                        1.375, 
                        1.125
                    ], 
                    "texture": "#0"
                }
            }
        }, 
        {
            "to": [
                8.32067, 
                10.48402, 
                11.55366
            ], 
            "rotation": {
                "origin": [
                    7.70402, 
                    10.14643, 
                    -19.36282
                ], 
                "angle": 0, 
                "axis": "y"
            }, 
            "from": [
                7.70243, 
                9.0101, 
                11.05638
            ], 
            "faces": {
                "north": {
                    "rotation": 270, 
                    "uv": [
                        4.375, 
                        3.625, 
                        4.375, 
                        3.625
                    ], 
                    "texture": "#0"
                }, 
                "west": {
                    "rotation": 270, 
                    "uv": [
                        4.375, 
                        3.625, 
                        4.375, 
                        3.625
                    ], 
                    "texture": "#0"
                }, 
                "up": {
                    "rotation": 270, 
                    "uv": [
                        4.375, 
                        3.625, 
                        4.375, 
                        3.625
                    ], 
                    "texture": "#0"
                }, 
                "down": {
                    "rotation": 270, 
                    "uv": [
                        4.375, 
                        3.625, 
                        4.375, 
                        3.625
                    ], 
                    "texture": "#0"
                }, 
                "east": {
                    "rotation": 270, 
                    "uv": [
                        4.375, 
                        3.625, 
                        4.375, 
                        3.625
                    ], 
                    "texture": "#0"
                }, 
                "south": {
                    "rotation": 270, 
                    "uv": [
                        4.375, 
                        3.625, 
                        4.375, 
                        3.625
                    ], 
                    "texture": "#0"
                }
            }
        }, 
        {
            "to": [
                8.14147, 
                10.5557, 
                11.55366
            ], 
            "rotation": {
                "origin": [
                    7.70402, 
                    10.14643, 
                    -19.36282
                ], 
                "angle": 0, 
                "axis": "y"
            }, 
            "from": [
                7.88163, 
                8.93842, 
                11.05638
            ], 
            "faces": {
                "north": {
                    "rotation": 270, 
                    "uv": [
                        4.375, 
                        3.625, 
                        4.375, 
                        3.625
                    ], 
                    "texture": "#0"
                }, 
                "west": {
                    "rotation": 270, 
                    "uv": [
                        4.375, 
                        3.625, 
                        4.375, 
                        3.625
                    ], 
                    "texture": "#0"
                }, 
                "up": {
                    "rotation": 270, 
                    "uv": [
                        4.375, 
                        3.625, 
                        4.375, 
                        3.625
                    ], 
                    "texture": "#0"
                }, 
                "down": {
                    "rotation": 270, 
                    "uv": [
                        4.375, 
                        3.625, 
                        4.375, 
                        3.625
                    ], 
                    "texture": "#0"
                }, 
                "east": {
                    "rotation": 270, 
                    "uv": [
                        4.375, 
                        3.625, 
                        4.375, 
                        3.625
                    ], 
                    "texture": "#0"
                }, 
                "south": {
                    "rotation": 270, 
                    "uv": [
                        4.375, 
                        3.625, 
                        4.375, 
                        3.625
                    ], 
                    "texture": "#0"
                }
            }
        }, 
        {
            "to": [
                8.11146, 
                10.78529, 
                17.38136
            ], 
            "rotation": {
                "origin": [
                    7.7345, 
                    10.37602, 
                    -13.67848
                ], 
                "angle": 0, 
                "axis": "y"
            }, 
            "from": [
                7.9121, 
                9.16801, 
                16.74072
            ], 
            "faces": {
                "north": {
                    "rotation": 270, 
                    "uv": [
                        4.25, 
                        2.125, 
                        4.25, 
                        2.125
                    ], 
                    "texture": "#0"
                }, 
                "west": {
                    "rotation": 270, 
                    "uv": [
                        4.25, 
                        2.125, 
                        4.25, 
                        2.125
                    ], 
                    "texture": "#0"
                }, 
                "up": {
                    "rotation": 270, 
                    "uv": [
                        4.25, 
                        2.125, 
                        4.25, 
                        2.125
                    ], 
                    "texture": "#0"
                }, 
                "down": {
                    "rotation": 270, 
                    "uv": [
                        4.25, 
                        2.125, 
                        4.25, 
                        2.125
                    ], 
                    "texture": "#0"
                }, 
                "east": {
                    "rotation": 270, 
                    "uv": [
                        4.25, 
                        2.125, 
                        4.25, 
                        2.125
                    ], 
                    "texture": "#0"
                }, 
                "south": {
                    "rotation": 270, 
                    "uv": [
                        4.25, 
                        2.125, 
                        4.25, 
                        2.125
                    ], 
                    "texture": "#0"
                }
            }
        }, 
        {
            "to": [
                8.11146, 
                10.51425, 
                17.5964
            ], 
            "rotation": {
                "origin": [
                    8.01178, 
                    10.41457, 
                    17.31192
                ], 
                "angle": -45, 
                "axis": "z"
            }, 
            "from": [
                7.9121, 
                10.31489, 
                16.9916
            ], 
            "faces": {
                "north": {
                    "rotation": 270, 
                    "uv": [
                        13.875, 
                        4.75, 
                        13.875, 
                        5
                    ], 
                    "texture": "#0"
                }, 
                "west": {
                    "rotation": 270, 
                    "uv": [
                        13.875, 
                        4.75, 
                        13.875, 
                        5
                    ], 
                    "texture": "#0"
                }, 
                "up": {
                    "rotation": 270, 
                    "uv": [
                        13.875, 
                        4.75, 
                        13.875, 
                        5
                    ], 
                    "texture": "#0"
                }, 
                "down": {
                    "rotation": 270, 
                    "uv": [
                        13.875, 
                        4.75, 
                        13.875, 
                        5
                    ], 
                    "texture": "#0"
                }, 
                "east": {
                    "rotation": 270, 
                    "uv": [
                        13.875, 
                        4.75, 
                        13.875, 
                        5
                    ], 
                    "texture": "#0"
                }, 
                "south": {
                    "rotation": 270, 
                    "uv": [
                        13.875, 
                        4.75, 
                        13.875, 
                        5
                    ], 
                    "texture": "#0"
                }
            }
        }, 
        {
            "to": [
                8.11146, 
                7.86209, 
                17.5964
            ], 
            "rotation": {
                "origin": [
                    8.01178, 
                    7.76241, 
                    17.31192
                ], 
                "angle": -45, 
                "axis": "z"
            }, 
            "from": [
                7.9121, 
                7.66273, 
                17.09912
            ], 
            "faces": {
                "north": {
                    "rotation": 270, 
                    "uv": [
                        13.875, 
                        4.75, 
                        13.875, 
                        5
                    ], 
                    "texture": "#0"
                }, 
                "west": {
                    "rotation": 270, 
                    "uv": [
                        13.875, 
                        4.75, 
                        13.875, 
                        5
                    ], 
                    "texture": "#0"
                }, 
                "up": {
                    "rotation": 270, 
                    "uv": [
                        13.875, 
                        4.75, 
                        13.875, 
                        5
                    ], 
                    "texture": "#0"
                }, 
                "down": {
                    "rotation": 270, 
                    "uv": [
                        13.875, 
                        4.75, 
                        13.875, 
                        5
                    ], 
                    "texture": "#0"
                }, 
                "east": {
                    "rotation": 270, 
                    "uv": [
                        13.875, 
                        4.75, 
                        13.875, 
                        5
                    ], 
                    "texture": "#0"
                }, 
                "south": {
                    "rotation": 270, 
                    "uv": [
                        13.875, 
                        4.75, 
                        13.875, 
                        5
                    ], 
                    "texture": "#0"
                }
            }
        }, 
        {
            "to": [
                8.01029, 
                10.56754, 
                11.55366
            ], 
            "rotation": {
                "origin": [
                    7.95205, 
                    9.7589, 
                    11.30502
                ], 
                "angle": -22.5, 
                "axis": "z"
            }, 
            "from": [
                7.82213, 
                9.55954, 
                11.05638
            ], 
            "faces": {
                "north": {
                    "rotation": 270, 
                    "uv": [
                        4.375, 
                        3.625, 
                        4.375, 
                        3.625
                    ], 
                    "texture": "#0"
                }, 
                "west": {
                    "rotation": 270, 
                    "uv": [
                        4.375, 
                        3.625, 
                        4.375, 
                        3.625
                    ], 
                    "texture": "#0"
                }, 
                "up": {
                    "rotation": 270, 
                    "uv": [
                        4.375, 
                        3.625, 
                        4.375, 
                        3.625
                    ], 
                    "texture": "#0"
                }, 
                "down": {
                    "rotation": 270, 
                    "uv": [
                        4.375, 
                        3.625, 
                        4.375, 
                        3.625
                    ], 
                    "texture": "#0"
                }, 
                "east": {
                    "rotation": 270, 
                    "uv": [
                        4.375, 
                        3.625, 
                        4.375, 
                        3.625
                    ], 
                    "texture": "#0"
                }, 
                "south": {
                    "rotation": 270, 
                    "uv": [
                        4.375, 
                        3.625, 
                        4.375, 
                        3.625
                    ], 
                    "texture": "#0"
                }
            }
        }, 
        {
            "to": [
                7.97981, 
                10.79713, 
                17.38136
            ], 
            "rotation": {
                "origin": [
                    7.92157, 
                    9.98849, 
                    16.98936
                ], 
                "angle": -22.5, 
                "axis": "z"
            }, 
            "from": [
                7.79165, 
                9.93249, 
                16.74072
            ], 
            "faces": {
                "north": {
                    "rotation": 270, 
                    "uv": [
                        4.25, 
                        2.125, 
                        4.25, 
                        2.125
                    ], 
                    "texture": "#0"
                }, 
                "west": {
                    "rotation": 270, 
                    "uv": [
                        4.25, 
                        2.125, 
                        4.25, 
                        2.125
                    ], 
                    "texture": "#0"
                }, 
                "up": {
                    "rotation": 270, 
                    "uv": [
                        4.25, 
                        2.125, 
                        4.25, 
                        2.125
                    ], 
                    "texture": "#0"
                }, 
                "down": {
                    "rotation": 270, 
                    "uv": [
                        4.25, 
                        2.125, 
                        4.25, 
                        2.125
                    ], 
                    "texture": "#0"
                }, 
                "east": {
                    "rotation": 270, 
                    "uv": [
                        4.25, 
                        2.125, 
                        4.25, 
                        2.125
                    ], 
                    "texture": "#0"
                }, 
                "south": {
                    "rotation": 270, 
                    "uv": [
                        4.25, 
                        2.125, 
                        4.25, 
                        2.125
                    ], 
                    "texture": "#0"
                }
            }
        }, 
        {
            "to": [
                8.07813, 
                9.93456, 
                11.55366
            ], 
            "rotation": {
                "origin": [
                    8.00619, 
                    9.43973, 
                    11.30502
                ], 
                "angle": -22.5, 
                "axis": "z"
            }, 
            "from": [
                7.88997, 
                8.92656, 
                11.05638
            ], 
            "faces": {
                "north": {
                    "rotation": 90, 
                    "uv": [
                        4.375, 
                        3.625, 
                        4.375, 
                        3.625
                    ], 
                    "texture": "#0"
                }, 
                "west": {
                    "rotation": 90, 
                    "uv": [
                        4.375, 
                        3.625, 
                        4.375, 
                        3.625
                    ], 
                    "texture": "#0"
                }, 
                "up": {
                    "rotation": 90, 
                    "uv": [
                        4.375, 
                        3.625, 
                        4.375, 
                        3.625
                    ], 
                    "texture": "#0"
                }, 
                "down": {
                    "rotation": 90, 
                    "uv": [
                        4.375, 
                        3.625, 
                        4.375, 
                        3.625
                    ], 
                    "texture": "#0"
                }, 
                "east": {
                    "rotation": 90, 
                    "uv": [
                        4.375, 
                        3.625, 
                        4.375, 
                        3.625
                    ], 
                    "texture": "#0"
                }, 
                "south": {
                    "rotation": 90, 
                    "uv": [
                        4.375, 
                        3.625, 
                        4.375, 
                        3.625
                    ], 
                    "texture": "#0"
                }
            }
        }, 
        {
            "to": [
                8.19553, 
                10.59497, 
                11.55366
            ], 
            "rotation": {
                "origin": [
                    8.13729, 
                    9.78633, 
                    11.30502
                ], 
                "angle": 22.5, 
                "axis": "z"
            }, 
            "from": [
                8.00737, 
                9.58697, 
                11.05638
            ], 
            "faces": {
                "north": {
                    "rotation": 270, 
                    "uv": [
                        4.375, 
                        3.625, 
                        4.375, 
                        3.625
                    ], 
                    "texture": "#0"
                }, 
                "west": {
                    "rotation": 270, 
                    "uv": [
                        4.375, 
                        3.625, 
                        4.375, 
                        3.625
                    ], 
                    "texture": "#0"
                }, 
                "up": {
                    "rotation": 270, 
                    "uv": [
                        4.375, 
                        3.625, 
                        4.375, 
                        3.625
                    ], 
                    "texture": "#0"
                }, 
                "down": {
                    "rotation": 270, 
                    "uv": [
                        4.375, 
                        3.625, 
                        4.375, 
                        3.625
                    ], 
                    "texture": "#0"
                }, 
                "east": {
                    "rotation": 270, 
                    "uv": [
                        4.375, 
                        3.625, 
                        4.375, 
                        3.625
                    ], 
                    "texture": "#0"
                }, 
                "south": {
                    "rotation": 270, 
                    "uv": [
                        4.375, 
                        3.625, 
                        4.375, 
                        3.625
                    ], 
                    "texture": "#0"
                }
            }
        }, 
        {
            "to": [
                8.226, 
                10.82456, 
                17.38136
            ], 
            "rotation": {
                "origin": [
                    8.16776, 
                    10.01592, 
                    16.98936
                ], 
                "angle": 22.5, 
                "axis": "z"
            }, 
            "from": [
                8.03784, 
                9.92408, 
                16.74072
            ], 
            "faces": {
                "north": {
                    "rotation": 270, 
                    "uv": [
                        4.25, 
                        2.125, 
                        4.25, 
                        2.125
                    ], 
                    "texture": "#0"
                }, 
                "west": {
                    "rotation": 270, 
                    "uv": [
                        4.25, 
                        2.125, 
                        4.25, 
                        2.125
                    ], 
                    "texture": "#0"
                }, 
                "up": {
                    "rotation": 270, 
                    "uv": [
                        4.25, 
                        2.125, 
                        4.25, 
                        2.125
                    ], 
                    "texture": "#0"
                }, 
                "down": {
                    "rotation": 270, 
                    "uv": [
                        4.25, 
                        2.125, 
                        4.25, 
                        2.125
                    ], 
                    "texture": "#0"
                }, 
                "east": {
                    "rotation": 270, 
                    "uv": [
                        4.25, 
                        2.125, 
                        4.25, 
                        2.125
                    ], 
                    "texture": "#0"
                }, 
                "south": {
                    "rotation": 270, 
                    "uv": [
                        4.25, 
                        2.125, 
                        4.25, 
                        2.125
                    ], 
                    "texture": "#0"
                }
            }
        }, 
        {
            "to": [
                8.12241, 
                9.93456, 
                11.55366
            ], 
            "rotation": {
                "origin": [
                    8.00619, 
                    9.43973, 
                    11.30502
                ], 
                "angle": 22.5, 
                "axis": "z"
            }, 
            "from": [
                7.93425, 
                8.92656, 
                11.05638
            ], 
            "faces": {
                "north": {
                    "rotation": 90, 
                    "uv": [
                        4.375, 
                        3.625, 
                        4.375, 
                        3.625
                    ], 
                    "texture": "#0"
                }, 
                "west": {
                    "rotation": 90, 
                    "uv": [
                        4.375, 
                        3.625, 
                        4.375, 
                        3.625
                    ], 
                    "texture": "#0"
                }, 
                "up": {
                    "rotation": 90, 
                    "uv": [
                        4.375, 
                        3.625, 
                        4.375, 
                        3.625
                    ], 
                    "texture": "#0"
                }, 
                "down": {
                    "rotation": 90, 
                    "uv": [
                        4.375, 
                        3.625, 
                        4.375, 
                        3.625
                    ], 
                    "texture": "#0"
                }, 
                "east": {
                    "rotation": 90, 
                    "uv": [
                        4.375, 
                        3.625, 
                        4.375, 
                        3.625
                    ], 
                    "texture": "#0"
                }, 
                "south": {
                    "rotation": 90, 
                    "uv": [
                        4.375, 
                        3.625, 
                        4.375, 
                        3.625
                    ], 
                    "texture": "#0"
                }
            }
        }, 
        {
            "to": [
                8.21315, 
                10.41234, 
                17.3239
            ], 
            "rotation": {
                "origin": [
                    7.70402, 
                    10.14643, 
                    -18.28762
                ], 
                "angle": 0, 
                "axis": "y"
            }, 
            "from": [
                7.80995, 
                10.0853, 
                11.55814
            ], 
            "faces": {
                "north": {
                    "rotation": 270, 
                    "uv": [
                        4.25, 
                        3.5, 
                        4.25, 
                        3.5
                    ], 
                    "texture": "#0"
                }, 
                "west": {
                    "rotation": 270, 
                    "uv": [
                        4.25, 
                        3.5, 
                        4.25, 
                        3.5
                    ], 
                    "texture": "#0"
                }, 
                "up": {
                    "rotation": 270, 
                    "uv": [
                        4.25, 
                        3.5, 
                        4.25, 
                        3.5
                    ], 
                    "texture": "#0"
                }, 
                "down": {
                    "rotation": 270, 
                    "uv": [
                        4.25, 
                        3.5, 
                        4.25, 
                        3.5
                    ], 
                    "texture": "#0"
                }, 
                "east": {
                    "rotation": 270, 
                    "uv": [
                        4.25, 
                        3.5, 
                        4.25, 
                        3.5
                    ], 
                    "texture": "#0"
                }, 
                "south": {
                    "rotation": 270, 
                    "uv": [
                        4.25, 
                        3.5, 
                        4.25, 
                        3.5
                    ], 
                    "texture": "#0"
                }
            }
        }, 
        {
            "to": [
                8.28483, 
                10.71328, 
                17.4172
            ], 
            "rotation": {
                "origin": [
                    7.70402, 
                    10.16065, 
                    -18.30184
                ], 
                "angle": 0, 
                "axis": "y"
            }, 
            "from": [
                7.73827, 
                8.05664, 
                16.74072
            ], 
            "faces": {
                "north": {
                    "rotation": 270, 
                    "uv": [
                        4.25, 
                        2.125, 
                        4.25, 
                        2.125
                    ], 
                    "texture": "#0"
                }, 
                "west": {
                    "rotation": 270, 
                    "uv": [
                        4.25, 
                        2.125, 
                        4.25, 
                        2.125
                    ], 
                    "texture": "#0"
                }, 
                "up": {
                    "rotation": 270, 
                    "uv": [
                        4.25, 
                        2.125, 
                        4.25, 
                        2.125
                    ], 
                    "texture": "#0"
                }, 
                "down": {
                    "rotation": 270, 
                    "uv": [
                        4.25, 
                        2.125, 
                        4.25, 
                        2.125
                    ], 
                    "texture": "#0"
                }, 
                "east": {
                    "rotation": 270, 
                    "uv": [
                        4.25, 
                        2.125, 
                        4.25, 
                        2.125
                    ], 
                    "texture": "#0"
                }, 
                "south": {
                    "rotation": 270, 
                    "uv": [
                        4.25, 
                        2.125, 
                        4.25, 
                        2.125
                    ], 
                    "texture": "#0"
                }
            }
        }, 
        {
            "to": [
                8.14147, 
                10.42656, 
                17.4172
            ], 
            "rotation": {
                "origin": [
                    7.70402, 
                    10.16065, 
                    -18.30184
                ], 
                "angle": 0, 
                "axis": "y"
            }, 
            "from": [
                7.91747, 
                8.0208, 
                16.48984
            ], 
            "faces": {
                "north": {
                    "rotation": 270, 
                    "uv": [
                        4.25, 
                        2.125, 
                        4.25, 
                        2.125
                    ], 
                    "texture": "#0"
                }, 
                "west": {
                    "rotation": 270, 
                    "uv": [
                        4.25, 
                        2.125, 
                        4.25, 
                        2.125
                    ], 
                    "texture": "#0"
                }, 
                "up": {
                    "rotation": 270, 
                    "uv": [
                        4.25, 
                        2.125, 
                        4.25, 
                        2.125
                    ], 
                    "texture": "#0"
                }, 
                "down": {
                    "rotation": 270, 
                    "uv": [
                        4.25, 
                        2.125, 
                        4.25, 
                        2.125
                    ], 
                    "texture": "#0"
                }, 
                "east": {
                    "rotation": 270, 
                    "uv": [
                        4.25, 
                        2.125, 
                        4.25, 
                        2.125
                    ], 
                    "texture": "#0"
                }, 
                "south": {
                    "rotation": 270, 
                    "uv": [
                        4.25, 
                        2.125, 
                        4.25, 
                        2.125
                    ], 
                    "texture": "#0"
                }
            }
        }, 
        {
            "to": [
                8.14147, 
                11.41294, 
                16.82827
            ], 
            "rotation": {
                "origin": [
                    8.02947, 
                    10.94926, 
                    17.66827
                ], 
                "angle": -45, 
                "axis": "x"
            }, 
            "from": [
                7.91747, 
                10.48558, 
                16.46539
            ], 
            "faces": {
                "north": {
                    "uv": [
                        4.25, 
                        2.125, 
                        4.25, 
                        2.125
                    ], 
                    "texture": "#0"
                }, 
                "west": {
                    "uv": [
                        4.25, 
                        2.125, 
                        4.25, 
                        2.125
                    ], 
                    "texture": "#0"
                }, 
                "up": {
                    "uv": [
                        4.25, 
                        2.125, 
                        4.25, 
                        2.125
                    ], 
                    "texture": "#0"
                }, 
                "down": {
                    "uv": [
                        4.25, 
                        2.125, 
                        4.25, 
                        2.125
                    ], 
                    "texture": "#0"
                }, 
                "east": {
                    "uv": [
                        4.25, 
                        2.125, 
                        4.25, 
                        2.125
                    ], 
                    "texture": "#0"
                }, 
                "south": {
                    "uv": [
                        4.25, 
                        2.125, 
                        4.25, 
                        2.125
                    ], 
                    "texture": "#0"
                }
            }
        }, 
        {
            "to": [
                8.28483, 
                10.66322, 
                17.43142
            ], 
            "rotation": {
                "origin": [
                    7.70402, 
                    10.14643, 
                    -18.28762
                ], 
                "angle": 0, 
                "axis": "y"
            }, 
            "from": [
                7.73827, 
                7.46898, 
                17.04166
            ], 
            "faces": {
                "north": {
                    "rotation": 270, 
                    "uv": [
                        4.25, 
                        2.125, 
                        4.25, 
                        2.125
                    ], 
                    "texture": "#0"
                }, 
                "west": {
                    "rotation": 270, 
                    "uv": [
                        4.25, 
                        2.125, 
                        4.25, 
                        2.125
                    ], 
                    "texture": "#0"
                }, 
                "up": {
                    "rotation": 270, 
                    "uv": [
                        4.25, 
                        2.125, 
                        4.25, 
                        2.125
                    ], 
                    "texture": "#0"
                }, 
                "down": {
                    "rotation": 270, 
                    "uv": [
                        4.25, 
                        2.125, 
                        4.25, 
                        2.125
                    ], 
                    "texture": "#0"
                }, 
                "east": {
                    "rotation": 270, 
                    "uv": [
                        4.25, 
                        2.125, 
                        4.25, 
                        2.125
                    ], 
                    "texture": "#0"
                }, 
                "south": {
                    "rotation": 270, 
                    "uv": [
                        4.25, 
                        2.125, 
                        4.25, 
                        2.125
                    ], 
                    "texture": "#0"
                }
            }
        }, 
        {
            "to": [
                8.32067, 
                10.80658, 
                17.57478
            ], 
            "rotation": {
                "origin": [
                    7.70402, 
                    10.14643, 
                    -18.14426
                ], 
                "angle": 0, 
                "axis": "y"
            }, 
            "from": [
                7.70243, 
                7.3973, 
                17.32838
            ], 
            "faces": {
                "north": {
                    "rotation": 270, 
                    "uv": [
                        3, 
                        2.875, 
                        3, 
                        3.125
                    ], 
                    "texture": "#0"
                }, 
                "west": {
                    "rotation": 270, 
                    "uv": [
                        3, 
                        2.875, 
                        3, 
                        3.125
                    ], 
                    "texture": "#0"
                }, 
                "up": {
                    "rotation": 270, 
                    "uv": [
                        3, 
                        2.875, 
                        3, 
                        3.125
                    ], 
                    "texture": "#0"
                }, 
                "down": {
                    "rotation": 270, 
                    "uv": [
                        3, 
                        2.875, 
                        3, 
                        3.125
                    ], 
                    "texture": "#0"
                }, 
                "east": {
                    "rotation": 270, 
                    "uv": [
                        3, 
                        2.875, 
                        3, 
                        3.125
                    ], 
                    "texture": "#0"
                }, 
                "south": {
                    "rotation": 270, 
                    "uv": [
                        3, 
                        2.875, 
                        3, 
                        3.125
                    ], 
                    "texture": "#0"
                }
            }
        }, 
        {
            "to": [
                8.28483, 
                8.17264, 
                17.21437
            ], 
            "rotation": {
                "origin": [
                    8.01155, 
                    8.00912, 
                    17.01949
                ], 
                "angle": 45, 
                "axis": "x"
            }, 
            "from": [
                7.73827, 
                7.8456, 
                16.78877
            ], 
            "faces": {
                "north": {
                    "rotation": 270, 
                    "uv": [
                        4.25, 
                        2.125, 
                        4.25, 
                        2.125
                    ], 
                    "texture": "#0"
                }, 
                "west": {
                    "rotation": 270, 
                    "uv": [
                        4.25, 
                        2.125, 
                        4.25, 
                        2.125
                    ], 
                    "texture": "#0"
                }, 
                "up": {
                    "rotation": 270, 
                    "uv": [
                        4.25, 
                        2.125, 
                        4.25, 
                        2.125
                    ], 
                    "texture": "#0"
                }, 
                "down": {
                    "rotation": 270, 
                    "uv": [
                        4.25, 
                        2.125, 
                        4.25, 
                        2.125
                    ], 
                    "texture": "#0"
                }, 
                "east": {
                    "rotation": 270, 
                    "uv": [
                        4.25, 
                        2.125, 
                        4.25, 
                        2.125
                    ], 
                    "texture": "#0"
                }, 
                "south": {
                    "rotation": 270, 
                    "uv": [
                        4.25, 
                        2.125, 
                        4.25, 
                        2.125
                    ], 
                    "texture": "#0"
                }
            }
        }, 
        {
            "to": [
                8.14147, 
                8.1368, 
                17.32189
            ], 
            "rotation": {
                "origin": [
                    8.19075, 
                    7.97328, 
                    16.76861
                ], 
                "angle": 45, 
                "axis": "x"
            }, 
            "from": [
                7.91747, 
                7.80976, 
                16.53789
            ], 
            "faces": {
                "north": {
                    "rotation": 270, 
                    "uv": [
                        4.25, 
                        2.125, 
                        4.25, 
                        2.125
                    ], 
                    "texture": "#0"
                }, 
                "west": {
                    "rotation": 270, 
                    "uv": [
                        4.25, 
                        2.125, 
                        4.25, 
                        2.125
                    ], 
                    "texture": "#0"
                }, 
                "up": {
                    "rotation": 270, 
                    "uv": [
                        4.25, 
                        2.125, 
                        4.25, 
                        2.125
                    ], 
                    "texture": "#0"
                }, 
                "down": {
                    "rotation": 270, 
                    "uv": [
                        4.25, 
                        2.125, 
                        4.25, 
                        2.125
                    ], 
                    "texture": "#0"
                }, 
                "east": {
                    "rotation": 270, 
                    "uv": [
                        4.25, 
                        2.125, 
                        4.25, 
                        2.125
                    ], 
                    "texture": "#0"
                }, 
                "south": {
                    "rotation": 270, 
                    "uv": [
                        4.25, 
                        2.125, 
                        4.25, 
                        2.125
                    ], 
                    "texture": "#0"
                }
            }
        }, 
        {
            "to": [
                8.21315, 
                9.44687, 
                14.19181
            ], 
            "rotation": {
                "origin": [
                    7.70402, 
                    9.18096, 
                    -19.62771
                ], 
                "angle": 0, 
                "axis": "y"
            }, 
            "from": [
                7.80995, 
                9.11983, 
                11.40077
            ], 
            "faces": {
                "north": {
                    "rotation": 270, 
                    "uv": [
                        4.25, 
                        3.5, 
                        4.25, 
                        3.5
                    ], 
                    "texture": "#0"
                }, 
                "west": {
                    "rotation": 270, 
                    "uv": [
                        4.25, 
                        3.5, 
                        4.25, 
                        3.5
                    ], 
                    "texture": "#0"
                }, 
                "up": {
                    "rotation": 270, 
                    "uv": [
                        4.25, 
                        3.5, 
                        4.25, 
                        3.5
                    ], 
                    "texture": "#0"
                }, 
                "down": {
                    "rotation": 270, 
                    "uv": [
                        4.25, 
                        3.5, 
                        4.25, 
                        3.5
                    ], 
                    "texture": "#0"
                }, 
                "east": {
                    "rotation": 270, 
                    "uv": [
                        4.25, 
                        3.5, 
                        4.25, 
                        3.5
                    ], 
                    "texture": "#0"
                }, 
                "south": {
                    "rotation": 270, 
                    "uv": [
                        4.25, 
                        3.5, 
                        4.25, 
                        3.5
                    ], 
                    "texture": "#0"
                }
            }
        }, 
        {
            "to": [
                8.21315, 
                9.18041, 
                17.39507
            ], 
            "rotation": {
                "origin": [
                    7.99363, 
                    9.08857, 
                    14.81683
                ], 
                "angle": 22.5, 
                "axis": "x"
            }, 
            "from": [
                7.80995, 
                8.85337, 
                14.10227
            ], 
            "faces": {
                "north": {
                    "rotation": 270, 
                    "uv": [
                        4.25, 
                        3.5, 
                        4.25, 
                        3.5
                    ], 
                    "texture": "#0"
                }, 
                "west": {
                    "rotation": 270, 
                    "uv": [
                        4.25, 
                        3.5, 
                        4.25, 
                        3.5
                    ], 
                    "texture": "#0"
                }, 
                "up": {
                    "rotation": 270, 
                    "uv": [
                        4.25, 
                        3.5, 
                        4.25, 
                        3.5
                    ], 
                    "texture": "#0"
                }, 
                "down": {
                    "rotation": 270, 
                    "uv": [
                        4.25, 
                        3.5, 
                        4.25, 
                        3.5
                    ], 
                    "texture": "#0"
                }, 
                "east": {
                    "rotation": 270, 
                    "uv": [
                        4.25, 
                        3.5, 
                        4.25, 
                        3.5
                    ], 
                    "texture": "#0"
                }, 
                "south": {
                    "rotation": 270, 
                    "uv": [
                        4.25, 
                        3.5, 
                        4.25, 
                        3.5
                    ], 
                    "texture": "#0"
                }
            }
        }
    ], 
    "display": {
        "thirdperson_righthand": {
            "rotation": [
                0, 
                0, 
                1
            ], 
            "scale": [
                1.14, 
                1, 
                1
            ], 
            "translation": [
                -0.75, 
                -0.75, 
                2
            ]
        }, 
        "head": {
            "rotation": [
                0, 
                125, 
                90
            ], 
            "scale": [
                1.64, 
                1.58, 
                1.61
            ], 
            "translation": [
                1.75, 
                6.5, 
                -2.75
            ]
        }, 
        "thirdperson_lefthand": {
            "rotation": [
                0, 
                0, 
                1
            ], 
            "scale": [
                1.14, 
                1, 
                1
            ], 
            "translation": [
                -0.25, 
                -0.75, 
                2
            ]
        }, 
        "gui": {
            "rotation": [
                16, 
                26, 
                -16
            ], 
            "scale": [
                1.61, 
                1.78, 
                1.86
            ], 
            "translation": [
                0.25, 
                0.25, 
                0
            ]
        }, 
        "firstperson_righthand": {
            "translation": [
                -5.25, 
                3.5, 
                5.25
            ]
        }, 
        "firstperson_lefthand": {
            "translation": [
                -5.25, 
                3.5, 
                5.25
            ]
        }, 
        "fixed": {
            "rotation": [
                0, 
                90, 
                0
            ], 
            "scale": [
                1.43289, 
                1.54227, 
                1.39117
            ], 
            "translation": [
                2, 
                0, 
                -0.75
            ]
        }
    }
}