{
    "textures": {
        "0": "gci:items/common/all_in_one",
        "1": "gci:items/common/mpz",
        "particle": "gci:items/common/all_in_one"
    },
    "elements": [
        {
            "name": "hexadecagon",
            "from": [
                7.43,
                7.66328,
                7.32
            ],
            "to": [
                8.17,
                13.15328,
                8.58
            ],
            "rotation": {
                "angle": 0,
                "axis": "y",
                "origin": [
                    7.8,
                    7.3,
                    10.2
                ]
            },
            "faces": {
                "north": {
                    "uv": [
                        5.66667,
                        3.33333,
                        7.33333,
                        5
                    ],
                    "rotation": 270,
                    "texture": "#1"
                },
                "east": {
                    "uv": [
                        5.66667,
                        3.33333,
                        7.33333,
                        5
                    ],
                    "rotation": 90,
                    "texture": "#1"
                },
                "south": {
                    "uv": [
                        5.66667,
                        3.33333,
                        7.33333,
                        5
                    ],
                    "rotation": 270,
                    "texture": "#1"
                },
                "west": {
                    "uv": [
                        5.66667,
                        3.33333,
                        7.33333,
                        5
                    ],
                    "rotation": 270,
                    "texture": "#1"
                },
                "up": {
                    "uv": [
                        5.66667,
                        3.33333,
                        7.33333,
                        5
                    ],
                    "texture": "#1"
                },
                "down": {
                    "uv": [
                        5.66667,
                        3.33333,
                        7.33333,
                        5
                    ],
                    "rotation": 180,
                    "texture": "#1"
                }
            }
        },
        {
            "name": "hexadecagon",
            "from": [
                7.33,
                8.46328,
                7.57
            ],
            "to": [
                8.27,
                12.90328,
                7.83
            ],
            "rotation": {
                "angle": 0,
                "axis": "y",
                "origin": [
                    7.8,
                    7.3,
                    10.2
                ]
            },
            "faces": {
                "north": {
                    "uv": [
                        5.66667,
                        3.33333,
                        7.33333,
                        5
                    ],
                    "rotation": 270,
                    "texture": "#1"
                },
                "east": {
                    "uv": [
                        5.66667,
                        3.33333,
                        7.33333,
                        5
                    ],
                    "rotation": 90,
                    "texture": "#1"
                },
                "south": {
                    "uv": [
                        5.66667,
                        3.33333,
                        7.33333,
                        5
                    ],
                    "rotation": 270,
                    "texture": "#1"
                },
                "west": {
                    "uv": [
                        5.66667,
                        3.33333,
                        7.33333,
                        5
                    ],
                    "rotation": 270,
                    "texture": "#1"
                },
                "up": {
                    "uv": [
                        5.66667,
                        3.33333,
                        7.33333,
                        5
                    ],
                    "texture": "#1"
                },
                "down": {
                    "uv": [
                        5.66667,
                        3.33333,
                        7.33333,
                        5
                    ],
                    "rotation": 180,
                    "texture": "#1"
                }
            }
        },
        {
            "name": "hexadecagon",
            "from": [
                7.33,
                8.46328,
                8.07
            ],
            "to": [
                8.27,
                12.90328,
                8.33
            ],
            "rotation": {
                "angle": 0,
                "axis": "y",
                "origin": [
                    7.8,
                    7.3,
                    10.7
                ]
            },
            "faces": {
                "north": {
                    "uv": [
                        5.66667,
                        3.33333,
                        7.33333,
                        5
                    ],
                    "rotation": 270,
                    "texture": "#1"
                },
                "east": {
                    "uv": [
                        5.66667,
                        3.33333,
                        7.33333,
                        5
                    ],
                    "rotation": 90,
                    "texture": "#1"
                },
                "south": {
                    "uv": [
                        5.66667,
                        3.33333,
                        7.33333,
                        5
                    ],
                    "rotation": 270,
                    "texture": "#1"
                },
                "west": {
                    "uv": [
                        5.66667,
                        3.33333,
                        7.33333,
                        5
                    ],
                    "rotation": 270,
                    "texture": "#1"
                },
                "up": {
                    "uv": [
                        5.66667,
                        3.33333,
                        7.33333,
                        5
                    ],
                    "texture": "#1"
                },
                "down": {
                    "uv": [
                        5.66667,
                        3.33333,
                        7.33333,
                        5
                    ],
                    "rotation": 180,
                    "texture": "#1"
                }
            }
        },
        {
            "name": "hexadecagon",
            "from": [
                7.33,
                13.15328,
                7.22
            ],
            "to": [
                8.27,
                13.25328,
                8.68
            ],
            "rotation": {
                "angle": 0,
                "axis": "y",
                "origin": [
                    7.8,
                    7.3,
                    10.2
                ]
            },
            "faces": {
                "north": {
                    "uv": [
                        5.66667,
                        3.33333,
                        7.33333,
                        5
                    ],
                    "rotation": 270,
                    "texture": "#1"
                },
                "east": {
                    "uv": [
                        5.66667,
                        3.33333,
                        7.33333,
                        5
                    ],
                    "rotation": 90,
                    "texture": "#1"
                },
                "south": {
                    "uv": [
                        5.66667,
                        3.33333,
                        7.33333,
                        5
                    ],
                    "rotation": 270,
                    "texture": "#1"
                },
                "west": {
                    "uv": [
                        5.66667,
                        3.33333,
                        7.33333,
                        5
                    ],
                    "rotation": 270,
                    "texture": "#1"
                },
                "up": {
                    "uv": [
                        5.66667,
                        3.33333,
                        7.33333,
                        5
                    ],
                    "texture": "#1"
                },
                "down": {
                    "uv": [
                        5.66667,
                        3.33333,
                        7.33333,
                        5
                    ],
                    "rotation": 180,
                    "texture": "#1"
                }
            }
        }
    ],
    "display": {
        "thirdperson_righthand": {
            "translation": [
                0,
                2.75,
                -1.25
            ],
            "scale": [
                0.8,
                0.8,
                0.8
            ]
        },
        "thirdperson_lefthand": {
            "translation": [
                0,
                2.75,
                -1.25
            ],
            "scale": [
                0.8,
                0.8,
                0.8
            ]
        },
        "firstperson_righthand": {
            "translation": [
                -3,
                4.5,
                2
            ]
        },
        "firstperson_lefthand": {
            "translation": [
                -3,
                4.5,
                2
            ]
        },
        "ground": {
            "translation": [
                0,
                1.75,
                0
            ]
        },
        "gui": {
            "rotation": [
                90,
                -45,
                90
            ],
            "translation": [
                -1.5,
                1.25,
                0
            ]
        },
        "fixed": {
            "rotation": [
                90,
                45,
                -90
            ],
            "translation": [
                0.5,
                2.75,
                -0.75
            ]
        }
    }
}