{
    "textures": {
        "0": "gci:items/common/all_in_one",
        "2": "gci:items/common/mpz",
        "particle": "gci:items/common/all_in_one"
    },
    "elements": [
        {
            "from": [
                7.1,
                2.5,
                0.5
            ],
            "to": [
                7.9,
                3,
                1.5
            ],
            "rotation": {
                "angle": 0,
                "axis": "y",
                "origin": [
                    15,
                    10,
                    8.5
                ]
            },
            "faces": {
                "north": {
                    "uv": [
                        7,
                        10.25,
                        7.125,
                        10.375
                    ],
                    "texture": "#0"
                },
                "east": {
                    "uv": [
                        7,
                        10.25,
                        7.125,
                        10.375
                    ],
                    "texture": "#0"
                },
                "south": {
                    "uv": [
                        7,
                        10.25,
                        7.125,
                        10.375
                    ],
                    "texture": "#0"
                },
                "west": {
                    "uv": [
                        7,
                        10.25,
                        7.125,
                        10.375
                    ],
                    "texture": "#0"
                },
                "up": {
                    "uv": [
                        7,
                        10.25,
                        7.125,
                        10.375
                    ],
                    "texture": "#0"
                },
                "down": {
                    "uv": [
                        7,
                        10.25,
                        7.125,
                        10.375
                    ],
                    "texture": "#0"
                }
            }
        },
        {
            "from": [
                6.5,
                -1.5,
                0.75
            ],
            "to": [
                6.75,
                3.25,
                1.25
            ],
            "rotation": {
                "angle": -22.5,
                "axis": "z",
                "origin": [
                    6.25,
                    1,
                    1.25
                ]
            },
            "faces": {
                "north": {
                    "uv": [
                        2,
                        3.25,
                        2.25,
                        3.5
                    ],
                    "texture": "#0"
                },
                "east": {
                    "uv": [
                        2,
                        3.25,
                        2.25,
                        3.5
                    ],
                    "texture": "#0"
                },
                "south": {
                    "uv": [
                        2,
                        3.25,
                        2.25,
                        3.5
                    ],
                    "texture": "#0"
                },
                "west": {
                    "uv": [
                        2,
                        3.25,
                        2.25,
                        3.5
                    ],
                    "texture": "#0"
                },
                "up": {
                    "uv": [
                        2,
                        3.25,
                        2.25,
                        3.5
                    ],
                    "texture": "#0"
                },
                "down": {
                    "uv": [
                        2,
                        3.25,
                        2.25,
                        3.5
                    ],
                    "texture": "#0"
                }
            }
        },
        {
            "from": [
                8.25,
                -1.5,
                0.75
            ],
            "to": [
                8.5,
                3.25,
                1.25
            ],
            "rotation": {
                "angle": 22.5,
                "axis": "z",
                "origin": [
                    8.75,
                    1,
                    0.75
                ]
            },
            "faces": {
                "north": {
                    "uv": [
                        2,
                        3.25,
                        2.25,
                        3.5
                    ],
                    "texture": "#0"
                },
                "east": {
                    "uv": [
                        2,
                        3.25,
                        2.25,
                        3.5
                    ],
                    "texture": "#0"
                },
                "south": {
                    "uv": [
                        2,
                        3.25,
                        2.25,
                        3.5
                    ],
                    "texture": "#0"
                },
                "west": {
                    "uv": [
                        2,
                        3.25,
                        2.25,
                        3.5
                    ],
                    "texture": "#0"
                },
                "up": {
                    "uv": [
                        2,
                        3.25,
                        2.25,
                        3.5
                    ],
                    "texture": "#0"
                },
                "down": {
                    "uv": [
                        2,
                        3.25,
                        2.25,
                        3.5
                    ],
                    "texture": "#0"
                }
            }
        },
        {
            "from": [
                5.45,
                -1.65,
                0.7
            ],
            "to": [
                5.9,
                -1.4,
                1.3
            ],
            "rotation": {
                "angle": 0,
                "axis": "y",
                "origin": [
                    13.15,
                    6.35,
                    8.5
                ]
            },
            "faces": {
                "north": {
                    "uv": [
                        2.25,
                        3.75,
                        2.5,
                        4
                    ],
                    "texture": "#0"
                },
                "east": {
                    "uv": [
                        2.25,
                        3.75,
                        2.5,
                        4
                    ],
                    "texture": "#0"
                },
                "south": {
                    "uv": [
                        2.25,
                        3.75,
                        2.5,
                        4
                    ],
                    "texture": "#0"
                },
                "west": {
                    "uv": [
                        2.25,
                        3.75,
                        2.5,
                        4
                    ],
                    "texture": "#0"
                },
                "up": {
                    "uv": [
                        2.25,
                        3.75,
                        2.5,
                        4
                    ],
                    "texture": "#0"
                },
                "down": {
                    "uv": [
                        2.25,
                        3.75,
                        2.5,
                        4
                    ],
                    "texture": "#0"
                }
            }
        },
        {
            "from": [
                9.05,
                -1.65,
                0.7
            ],
            "to": [
                9.55,
                -1.4,
                1.3
            ],
            "rotation": {
                "angle": 0,
                "axis": "y",
                "origin": [
                    16.85,
                    6.35,
                    8.5
                ]
            },
            "faces": {
                "north": {
                    "uv": [
                        2.25,
                        3.75,
                        2.5,
                        4
                    ],
                    "texture": "#0"
                },
                "east": {
                    "uv": [
                        2.25,
                        3.75,
                        2.5,
                        4
                    ],
                    "texture": "#0"
                },
                "south": {
                    "uv": [
                        2.25,
                        3.75,
                        2.5,
                        4
                    ],
                    "texture": "#0"
                },
                "west": {
                    "uv": [
                        2.25,
                        3.75,
                        2.5,
                        4
                    ],
                    "texture": "#0"
                },
                "up": {
                    "uv": [
                        2.25,
                        3.75,
                        2.5,
                        4
                    ],
                    "texture": "#0"
                },
                "down": {
                    "uv": [
                        2.25,
                        3.75,
                        2.5,
                        4
                    ],
                    "texture": "#0"
                }
            }
        }
    ],
    "display": {
        "thirdperson_righthand": {
            "translation": [
                -0.75,
                4.25,
                -0.25
            ],
            "scale": [
                0.8,
                0.8,
                0.8
            ]
        },
        "thirdperson_lefthand": {
            "translation": [
                -0.75,
                4,
                -0.25
            ],
            "scale": [
                0.8,
                0.8,
                0.8
            ]
        },
        "firstperson_righthand": {
            "translation": [
                -5.5,
                8.5,
                1.75
            ],
            "scale": [
                1,
                1,
                0.9
            ]
        },
        "firstperson_lefthand": {
            "translation": [
                -5.5,
                8.5,
                1.75
            ],
            "scale": [
                1,
                1,
                0.9
            ]
        },
        "ground": {
            "translation": [
                0,
                1.75,
                0
            ],
            "scale": [
                0.88,
                0.88,
                0.88
            ]
        },
        "gui": {
            "rotation": [
                47,
                27,
                -14
            ],
            "translation": [
                5,
                3.5,
                0
            ],
            "scale": [
                0.85,
                0.85,
                0.85
            ]
        },
        "head": {
            "rotation": [
                0,
                122,
                90
            ],
            "translation": [
                -3.25,
                7.25,
                1.75
            ]
        },
        "fixed": {
            "rotation": [
                90,
                -45,
                90
            ],
            "translation": [
                -4.25,
                3,
                -2
            ]
        }
    }
}