{
    "textures": {
        "0": "gci:items/common/all_in_one",
        "2": "gci:items/common/mpz",
        "particle": "gci:items/common/all_in_one"
    },
    "elements": [
        {
            "from": [
                7.36801,
                1.4684,
                1.194
            ],
            "to": [
                7.49201,
                1.8404,
                1.938
            ],
            "rotation": {
                "angle": 45,
                "axis": "z",
                "origin": [
                    6.71098,
                    1.73412,
                    -8.22151
                ]
            },
            "faces": {
                "north": {
                    "uv": [
                        14.375,
                        6.75,
                        14.625,
                        6.825
                    ],
                    "rotation": 180,
                    "texture": "#0"
                },
                "east": {
                    "uv": [
                        14.375,
                        6.75,
                        14.625,
                        6.825
                    ],
                    "rotation": 180,
                    "texture": "#0"
                },
                "south": {
                    "uv": [
                        14.375,
                        6.75,
                        14.625,
                        6.825
                    ],
                    "rotation": 180,
                    "texture": "#0"
                },
                "west": {
                    "uv": [
                        14.375,
                        6.75,
                        14.625,
                        6.825
                    ],
                    "rotation": 180,
                    "texture": "#0"
                },
                "up": {
                    "uv": [
                        14.375,
                        6.75,
                        14.625,
                        6.825
                    ],
                    "rotation": 180,
                    "texture": "#0"
                },
                "down": {
                    "uv": [
                        14.375,
                        6.75,
                        14.625,
                        6.825
                    ],
                    "rotation": 180,
                    "texture": "#0"
                }
            }
        },
        {
            "from": [
                7.10795,
                2.50371,
                1.194
            ],
            "to": [
                7.47995,
                2.62771,
                1.938
            ],
            "rotation": {
                "angle": 45,
                "axis": "z",
                "origin": [
                    7.23195,
                    2.56571,
                    -14.12
                ]
            },
            "faces": {
                "north": {
                    "uv": [
                        14.375,
                        6.75,
                        14.625,
                        6.825
                    ],
                    "rotation": 90,
                    "texture": "#0"
                },
                "east": {
                    "uv": [
                        14.375,
                        6.75,
                        14.625,
                        6.825
                    ],
                    "rotation": 90,
                    "texture": "#0"
                },
                "south": {
                    "uv": [
                        14.375,
                        6.75,
                        14.625,
                        6.825
                    ],
                    "rotation": 90,
                    "texture": "#0"
                },
                "west": {
                    "uv": [
                        14.375,
                        6.75,
                        14.625,
                        6.825
                    ],
                    "rotation": 90,
                    "texture": "#0"
                },
                "up": {
                    "uv": [
                        14.375,
                        6.75,
                        14.625,
                        6.825
                    ],
                    "rotation": 90,
                    "texture": "#0"
                },
                "down": {
                    "uv": [
                        14.375,
                        6.75,
                        14.625,
                        6.825
                    ],
                    "rotation": 90,
                    "texture": "#0"
                }
            }
        },
        {
            "from": [
                7.60395,
                2.08034,
                1.194
            ],
            "to": [
                7.97595,
                2.20434,
                1.938
            ],
            "rotation": {
                "angle": 45,
                "axis": "z",
                "origin": [
                    7.72795,
                    2.14234,
                    -14.12
                ]
            },
            "faces": {
                "north": {
                    "uv": [
                        14.375,
                        6.75,
                        14.625,
                        6.825
                    ],
                    "rotation": 90,
                    "texture": "#0"
                },
                "east": {
                    "uv": [
                        14.375,
                        6.75,
                        14.625,
                        6.825
                    ],
                    "rotation": 90,
                    "texture": "#0"
                },
                "south": {
                    "uv": [
                        14.375,
                        6.75,
                        14.625,
                        6.825
                    ],
                    "rotation": 90,
                    "texture": "#0"
                },
                "west": {
                    "uv": [
                        14.375,
                        6.75,
                        14.625,
                        6.825
                    ],
                    "rotation": 90,
                    "texture": "#0"
                },
                "up": {
                    "uv": [
                        14.375,
                        6.75,
                        14.625,
                        6.825
                    ],
                    "rotation": 90,
                    "texture": "#0"
                },
                "down": {
                    "uv": [
                        14.375,
                        6.75,
                        14.625,
                        6.825
                    ],
                    "rotation": 90,
                    "texture": "#0"
                }
            }
        },
        {
            "from": [
                7.03853,
                2.18602,
                1.52181
            ],
            "to": [
                7.23853,
                2.58602,
                8.96581
            ],
            "rotation": {
                "angle": 22.5,
                "axis": "x",
                "origin": [
                    7.54241,
                    2.38602,
                    1.3255
                ]
            },
            "faces": {
                "north": {
                    "uv": [
                        14.375,
                        6.75,
                        14.625,
                        6.825
                    ],
                    "rotation": 270,
                    "texture": "#0"
                },
                "east": {
                    "uv": [
                        14.375,
                        6.75,
                        14.625,
                        6.825
                    ],
                    "rotation": 180,
                    "texture": "#0"
                },
                "south": {
                    "uv": [
                        14.375,
                        6.75,
                        14.625,
                        6.825
                    ],
                    "rotation": 90,
                    "texture": "#0"
                },
                "west": {
                    "uv": [
                        14.375,
                        6.75,
                        14.625,
                        6.825
                    ],
                    "texture": "#0"
                },
                "up": {
                    "uv": [
                        14.375,
                        6.75,
                        14.625,
                        6.825
                    ],
                    "rotation": 90,
                    "texture": "#0"
                },
                "down": {
                    "uv": [
                        14.375,
                        6.75,
                        14.625,
                        6.825
                    ],
                    "rotation": 270,
                    "texture": "#0"
                }
            }
        },
        {
            "from": [
                7.83853,
                2.18602,
                1.52181
            ],
            "to": [
                8.03853,
                2.58602,
                8.96581
            ],
            "rotation": {
                "angle": 22.5,
                "axis": "x",
                "origin": [
                    7.54241,
                    2.38602,
                    1.3255
                ]
            },
            "faces": {
                "north": {
                    "uv": [
                        14.375,
                        6.75,
                        14.625,
                        6.825
                    ],
                    "rotation": 270,
                    "texture": "#0"
                },
                "east": {
                    "uv": [
                        14.375,
                        6.75,
                        14.625,
                        6.825
                    ],
                    "rotation": 180,
                    "texture": "#0"
                },
                "south": {
                    "uv": [
                        14.375,
                        6.75,
                        14.625,
                        6.825
                    ],
                    "rotation": 90,
                    "texture": "#0"
                },
                "west": {
                    "uv": [
                        14.375,
                        6.75,
                        14.625,
                        6.825
                    ],
                    "texture": "#0"
                },
                "up": {
                    "uv": [
                        14.375,
                        6.75,
                        14.625,
                        6.825
                    ],
                    "rotation": 90,
                    "texture": "#0"
                },
                "down": {
                    "uv": [
                        14.375,
                        6.75,
                        14.625,
                        6.825
                    ],
                    "rotation": 270,
                    "texture": "#0"
                }
            }
        },
        {
            "from": [
                6.89828,
                1.78602,
                8.95519
            ],
            "to": [
                7.29828,
                2.98602,
                9.15519
            ],
            "rotation": {
                "angle": 22.5,
                "axis": "x",
                "origin": [
                    7.54241,
                    2.38602,
                    1.3255
                ]
            },
            "faces": {
                "north": {
                    "uv": [
                        14.375,
                        6.75,
                        14.625,
                        6.825
                    ],
                    "rotation": 270,
                    "texture": "#0"
                },
                "east": {
                    "uv": [
                        14.375,
                        6.75,
                        14.625,
                        6.825
                    ],
                    "rotation": 180,
                    "texture": "#0"
                },
                "south": {
                    "uv": [
                        14.375,
                        6.75,
                        14.625,
                        6.825
                    ],
                    "rotation": 90,
                    "texture": "#0"
                },
                "west": {
                    "uv": [
                        14.375,
                        6.75,
                        14.625,
                        6.825
                    ],
                    "texture": "#0"
                },
                "up": {
                    "uv": [
                        14.375,
                        6.75,
                        14.625,
                        6.825
                    ],
                    "rotation": 90,
                    "texture": "#0"
                },
                "down": {
                    "uv": [
                        14.375,
                        6.75,
                        14.625,
                        6.825
                    ],
                    "rotation": 270,
                    "texture": "#0"
                }
            }
        },
        {
            "from": [
                7.79428,
                1.78602,
                8.95519
            ],
            "to": [
                8.19428,
                2.98602,
                9.15519
            ],
            "rotation": {
                "angle": 22.5,
                "axis": "x",
                "origin": [
                    7.54241,
                    2.38602,
                    1.3255
                ]
            },
            "faces": {
                "north": {
                    "uv": [
                        14.375,
                        6.75,
                        14.625,
                        6.825
                    ],
                    "rotation": 270,
                    "texture": "#0"
                },
                "east": {
                    "uv": [
                        14.375,
                        6.75,
                        14.625,
                        6.825
                    ],
                    "rotation": 180,
                    "texture": "#0"
                },
                "south": {
                    "uv": [
                        14.375,
                        6.75,
                        14.625,
                        6.825
                    ],
                    "rotation": 90,
                    "texture": "#0"
                },
                "west": {
                    "uv": [
                        14.375,
                        6.75,
                        14.625,
                        6.825
                    ],
                    "texture": "#0"
                },
                "up": {
                    "uv": [
                        14.375,
                        6.75,
                        14.625,
                        6.825
                    ],
                    "rotation": 90,
                    "texture": "#0"
                },
                "down": {
                    "uv": [
                        14.375,
                        6.75,
                        14.625,
                        6.825
                    ],
                    "rotation": 270,
                    "texture": "#0"
                }
            }
        },
        {
            "from": [
                7.82315,
                2.27386,
                1.194
            ],
            "to": [
                7.94715,
                2.52186,
                1.938
            ],
            "rotation": {
                "angle": 0,
                "axis": "y",
                "origin": [
                    7.88515,
                    2.39786,
                    -14.12
                ]
            },
            "faces": {
                "north": {
                    "uv": [
                        14.375,
                        6.75,
                        14.625,
                        6.825
                    ],
                    "texture": "#0"
                },
                "east": {
                    "uv": [
                        14.375,
                        6.75,
                        14.625,
                        6.825
                    ],
                    "texture": "#0"
                },
                "south": {
                    "uv": [
                        14.375,
                        6.75,
                        14.625,
                        6.825
                    ],
                    "texture": "#0"
                },
                "west": {
                    "uv": [
                        14.375,
                        6.75,
                        14.625,
                        6.825
                    ],
                    "texture": "#0"
                },
                "up": {
                    "uv": [
                        14.375,
                        6.75,
                        14.625,
                        6.825
                    ],
                    "texture": "#0"
                },
                "down": {
                    "uv": [
                        14.375,
                        6.75,
                        14.625,
                        6.825
                    ],
                    "texture": "#0"
                }
            }
        },
        {
            "from": [
                7.10042,
                2.27386,
                1.194
            ],
            "to": [
                7.22442,
                2.52186,
                1.938
            ],
            "rotation": {
                "angle": 0,
                "axis": "y",
                "origin": [
                    7.16242,
                    2.39786,
                    -14.12
                ]
            },
            "faces": {
                "north": {
                    "uv": [
                        14.375,
                        6.75,
                        14.625,
                        6.825
                    ],
                    "texture": "#0"
                },
                "east": {
                    "uv": [
                        14.375,
                        6.75,
                        14.625,
                        6.825
                    ],
                    "texture": "#0"
                },
                "south": {
                    "uv": [
                        14.375,
                        6.75,
                        14.625,
                        6.825
                    ],
                    "texture": "#0"
                },
                "west": {
                    "uv": [
                        14.375,
                        6.75,
                        14.625,
                        6.825
                    ],
                    "texture": "#0"
                },
                "up": {
                    "uv": [
                        14.375,
                        6.75,
                        14.625,
                        6.825
                    ],
                    "texture": "#0"
                },
                "down": {
                    "uv": [
                        14.375,
                        6.75,
                        14.625,
                        6.825
                    ],
                    "texture": "#0"
                }
            }
        },
        {
            "from": [
                7.36347,
                2.66091,
                1.194
            ],
            "to": [
                7.68575,
                2.78491,
                1.938
            ],
            "rotation": {
                "angle": 0,
                "axis": "y",
                "origin": [
                    7.16683,
                    2.60955,
                    -29.93
                ]
            },
            "faces": {
                "north": {
                    "uv": [
                        14.375,
                        6.75,
                        14.625,
                        6.825
                    ],
                    "rotation": 270,
                    "texture": "#0"
                },
                "east": {
                    "uv": [
                        14.375,
                        6.75,
                        14.625,
                        6.825
                    ],
                    "rotation": 270,
                    "texture": "#0"
                },
                "south": {
                    "uv": [
                        14.375,
                        6.75,
                        14.625,
                        6.825
                    ],
                    "rotation": 270,
                    "texture": "#0"
                },
                "west": {
                    "uv": [
                        14.375,
                        6.75,
                        14.625,
                        6.825
                    ],
                    "rotation": 270,
                    "texture": "#0"
                },
                "up": {
                    "uv": [
                        14.375,
                        6.75,
                        14.625,
                        6.825
                    ],
                    "rotation": 270,
                    "texture": "#0"
                },
                "down": {
                    "uv": [
                        14.375,
                        6.75,
                        14.625,
                        6.825
                    ],
                    "rotation": 270,
                    "texture": "#0"
                }
            }
        },
        {
            "from": [
                7.36347,
                2.01082,
                1.194
            ],
            "to": [
                7.68575,
                2.13482,
                1.938
            ],
            "rotation": {
                "angle": 0,
                "axis": "y",
                "origin": [
                    7.16683,
                    1.95946,
                    -29.93
                ]
            },
            "faces": {
                "north": {
                    "uv": [
                        14.375,
                        6.75,
                        14.625,
                        6.825
                    ],
                    "rotation": 270,
                    "texture": "#0"
                },
                "east": {
                    "uv": [
                        14.375,
                        6.75,
                        14.625,
                        6.825
                    ],
                    "rotation": 270,
                    "texture": "#0"
                },
                "south": {
                    "uv": [
                        14.375,
                        6.75,
                        14.625,
                        6.825
                    ],
                    "rotation": 270,
                    "texture": "#0"
                },
                "west": {
                    "uv": [
                        14.375,
                        6.75,
                        14.625,
                        6.825
                    ],
                    "rotation": 270,
                    "texture": "#0"
                },
                "up": {
                    "uv": [
                        14.375,
                        6.75,
                        14.625,
                        6.825
                    ],
                    "rotation": 270,
                    "texture": "#0"
                },
                "down": {
                    "uv": [
                        14.375,
                        6.75,
                        14.625,
                        6.825
                    ],
                    "rotation": 270,
                    "texture": "#0"
                }
            }
        },
        {
            "from": [
                7.86401,
                1.89177,
                1.194
            ],
            "to": [
                7.98801,
                2.26377,
                1.938
            ],
            "rotation": {
                "angle": 45,
                "axis": "z",
                "origin": [
                    7.20698,
                    2.15749,
                    -14.04951
                ]
            },
            "faces": {
                "north": {
                    "uv": [
                        14.375,
                        6.75,
                        14.625,
                        6.825
                    ],
                    "rotation": 180,
                    "texture": "#0"
                },
                "east": {
                    "uv": [
                        14.375,
                        6.75,
                        14.625,
                        6.825
                    ],
                    "rotation": 180,
                    "texture": "#0"
                },
                "south": {
                    "uv": [
                        14.375,
                        6.75,
                        14.625,
                        6.825
                    ],
                    "rotation": 180,
                    "texture": "#0"
                },
                "west": {
                    "uv": [
                        14.375,
                        6.75,
                        14.625,
                        6.825
                    ],
                    "rotation": 180,
                    "texture": "#0"
                },
                "up": {
                    "uv": [
                        14.375,
                        6.75,
                        14.625,
                        6.825
                    ],
                    "rotation": 180,
                    "texture": "#0"
                },
                "down": {
                    "uv": [
                        14.375,
                        6.75,
                        14.625,
                        6.825
                    ],
                    "rotation": 180,
                    "texture": "#0"
                }
            }
        },
        {
            "from": [
                7.36801,
                1.4684,
                1.194
            ],
            "to": [
                7.49201,
                1.8404,
                1.938
            ],
            "rotation": {
                "angle": 45,
                "axis": "z",
                "origin": [
                    6.71098,
                    1.73412,
                    -8.22151
                ]
            },
            "faces": {
                "north": {
                    "uv": [
                        14.375,
                        6.75,
                        14.625,
                        6.825
                    ],
                    "rotation": 180,
                    "texture": "#0"
                },
                "east": {
                    "uv": [
                        14.375,
                        6.75,
                        14.625,
                        6.825
                    ],
                    "rotation": 180,
                    "texture": "#0"
                },
                "south": {
                    "uv": [
                        14.375,
                        6.75,
                        14.625,
                        6.825
                    ],
                    "rotation": 180,
                    "texture": "#0"
                },
                "west": {
                    "uv": [
                        14.375,
                        6.75,
                        14.625,
                        6.825
                    ],
                    "rotation": 180,
                    "texture": "#0"
                },
                "up": {
                    "uv": [
                        14.375,
                        6.75,
                        14.625,
                        6.825
                    ],
                    "rotation": 180,
                    "texture": "#0"
                },
                "down": {
                    "uv": [
                        14.375,
                        6.75,
                        14.625,
                        6.825
                    ],
                    "rotation": 180,
                    "texture": "#0"
                }
            }
        },
        {
            "from": [
                7.10795,
                2.50371,
                1.194
            ],
            "to": [
                7.47995,
                2.62771,
                1.938
            ],
            "rotation": {
                "angle": 45,
                "axis": "z",
                "origin": [
                    7.23195,
                    2.56571,
                    -14.12
                ]
            },
            "faces": {
                "north": {
                    "uv": [
                        14.375,
                        6.75,
                        14.625,
                        6.825
                    ],
                    "rotation": 90,
                    "texture": "#0"
                },
                "east": {
                    "uv": [
                        14.375,
                        6.75,
                        14.625,
                        6.825
                    ],
                    "rotation": 90,
                    "texture": "#0"
                },
                "south": {
                    "uv": [
                        14.375,
                        6.75,
                        14.625,
                        6.825
                    ],
                    "rotation": 90,
                    "texture": "#0"
                },
                "west": {
                    "uv": [
                        14.375,
                        6.75,
                        14.625,
                        6.825
                    ],
                    "rotation": 90,
                    "texture": "#0"
                },
                "up": {
                    "uv": [
                        14.375,
                        6.75,
                        14.625,
                        6.825
                    ],
                    "rotation": 90,
                    "texture": "#0"
                },
                "down": {
                    "uv": [
                        14.375,
                        6.75,
                        14.625,
                        6.825
                    ],
                    "rotation": 90,
                    "texture": "#0"
                }
            }
        },
        {
            "from": [
                7.60395,
                2.08034,
                1.194
            ],
            "to": [
                7.97595,
                2.20434,
                1.938
            ],
            "rotation": {
                "angle": 45,
                "axis": "z",
                "origin": [
                    7.72795,
                    2.14234,
                    -14.12
                ]
            },
            "faces": {
                "north": {
                    "uv": [
                        14.375,
                        6.75,
                        14.625,
                        6.825
                    ],
                    "rotation": 90,
                    "texture": "#0"
                },
                "east": {
                    "uv": [
                        14.375,
                        6.75,
                        14.625,
                        6.825
                    ],
                    "rotation": 90,
                    "texture": "#0"
                },
                "south": {
                    "uv": [
                        14.375,
                        6.75,
                        14.625,
                        6.825
                    ],
                    "rotation": 90,
                    "texture": "#0"
                },
                "west": {
                    "uv": [
                        14.375,
                        6.75,
                        14.625,
                        6.825
                    ],
                    "rotation": 90,
                    "texture": "#0"
                },
                "up": {
                    "uv": [
                        14.375,
                        6.75,
                        14.625,
                        6.825
                    ],
                    "rotation": 90,
                    "texture": "#0"
                },
                "down": {
                    "uv": [
                        14.375,
                        6.75,
                        14.625,
                        6.825
                    ],
                    "rotation": 90,
                    "texture": "#0"
                }
            }
        },
        {
            "from": [
                7.03853,
                2.18602,
                1.52181
            ],
            "to": [
                7.23853,
                2.58602,
                8.96581
            ],
            "rotation": {
                "angle": 22.5,
                "axis": "x",
                "origin": [
                    7.54241,
                    2.38602,
                    1.3255
                ]
            },
            "faces": {
                "north": {
                    "uv": [
                        14.375,
                        6.75,
                        14.625,
                        6.825
                    ],
                    "rotation": 270,
                    "texture": "#0"
                },
                "east": {
                    "uv": [
                        14.375,
                        6.75,
                        14.625,
                        6.825
                    ],
                    "rotation": 180,
                    "texture": "#0"
                },
                "south": {
                    "uv": [
                        14.375,
                        6.75,
                        14.625,
                        6.825
                    ],
                    "rotation": 90,
                    "texture": "#0"
                },
                "west": {
                    "uv": [
                        14.375,
                        6.75,
                        14.625,
                        6.825
                    ],
                    "texture": "#0"
                },
                "up": {
                    "uv": [
                        14.375,
                        6.75,
                        14.625,
                        6.825
                    ],
                    "rotation": 90,
                    "texture": "#0"
                },
                "down": {
                    "uv": [
                        14.375,
                        6.75,
                        14.625,
                        6.825
                    ],
                    "rotation": 270,
                    "texture": "#0"
                }
            }
        },
        {
            "from": [
                7.83853,
                2.18602,
                1.52181
            ],
            "to": [
                8.03853,
                2.58602,
                8.96581
            ],
            "rotation": {
                "angle": 22.5,
                "axis": "x",
                "origin": [
                    7.54241,
                    2.38602,
                    1.3255
                ]
            },
            "faces": {
                "north": {
                    "uv": [
                        14.375,
                        6.75,
                        14.625,
                        6.825
                    ],
                    "rotation": 270,
                    "texture": "#0"
                },
                "east": {
                    "uv": [
                        14.375,
                        6.75,
                        14.625,
                        6.825
                    ],
                    "rotation": 180,
                    "texture": "#0"
                },
                "south": {
                    "uv": [
                        14.375,
                        6.75,
                        14.625,
                        6.825
                    ],
                    "rotation": 90,
                    "texture": "#0"
                },
                "west": {
                    "uv": [
                        14.375,
                        6.75,
                        14.625,
                        6.825
                    ],
                    "texture": "#0"
                },
                "up": {
                    "uv": [
                        14.375,
                        6.75,
                        14.625,
                        6.825
                    ],
                    "rotation": 90,
                    "texture": "#0"
                },
                "down": {
                    "uv": [
                        14.375,
                        6.75,
                        14.625,
                        6.825
                    ],
                    "rotation": 270,
                    "texture": "#0"
                }
            }
        },
        {
            "from": [
                6.89828,
                1.78602,
                8.95519
            ],
            "to": [
                7.29828,
                2.98602,
                9.15519
            ],
            "rotation": {
                "angle": 22.5,
                "axis": "x",
                "origin": [
                    7.54241,
                    2.38602,
                    1.3255
                ]
            },
            "faces": {
                "north": {
                    "uv": [
                        14.375,
                        6.75,
                        14.625,
                        6.825
                    ],
                    "rotation": 270,
                    "texture": "#0"
                },
                "east": {
                    "uv": [
                        14.375,
                        6.75,
                        14.625,
                        6.825
                    ],
                    "rotation": 180,
                    "texture": "#0"
                },
                "south": {
                    "uv": [
                        14.375,
                        6.75,
                        14.625,
                        6.825
                    ],
                    "rotation": 90,
                    "texture": "#0"
                },
                "west": {
                    "uv": [
                        14.375,
                        6.75,
                        14.625,
                        6.825
                    ],
                    "texture": "#0"
                },
                "up": {
                    "uv": [
                        14.375,
                        6.75,
                        14.625,
                        6.825
                    ],
                    "rotation": 90,
                    "texture": "#0"
                },
                "down": {
                    "uv": [
                        14.375,
                        6.75,
                        14.625,
                        6.825
                    ],
                    "rotation": 270,
                    "texture": "#0"
                }
            }
        },
        {
            "from": [
                7.79428,
                1.78602,
                8.95519
            ],
            "to": [
                8.19428,
                2.98602,
                9.15519
            ],
            "rotation": {
                "angle": 22.5,
                "axis": "x",
                "origin": [
                    7.54241,
                    2.38602,
                    1.3255
                ]
            },
            "faces": {
                "north": {
                    "uv": [
                        14.375,
                        6.75,
                        14.625,
                        6.825
                    ],
                    "rotation": 270,
                    "texture": "#0"
                },
                "east": {
                    "uv": [
                        14.375,
                        6.75,
                        14.625,
                        6.825
                    ],
                    "rotation": 180,
                    "texture": "#0"
                },
                "south": {
                    "uv": [
                        14.375,
                        6.75,
                        14.625,
                        6.825
                    ],
                    "rotation": 90,
                    "texture": "#0"
                },
                "west": {
                    "uv": [
                        14.375,
                        6.75,
                        14.625,
                        6.825
                    ],
                    "texture": "#0"
                },
                "up": {
                    "uv": [
                        14.375,
                        6.75,
                        14.625,
                        6.825
                    ],
                    "rotation": 90,
                    "texture": "#0"
                },
                "down": {
                    "uv": [
                        14.375,
                        6.75,
                        14.625,
                        6.825
                    ],
                    "rotation": 270,
                    "texture": "#0"
                }
            }
        },
        {
            "from": [
                7.82315,
                2.27386,
                1.194
            ],
            "to": [
                7.94715,
                2.52186,
                1.938
            ],
            "rotation": {
                "angle": 0,
                "axis": "y",
                "origin": [
                    7.88515,
                    2.39786,
                    -14.12
                ]
            },
            "faces": {
                "north": {
                    "uv": [
                        14.375,
                        6.75,
                        14.625,
                        6.825
                    ],
                    "texture": "#0"
                },
                "east": {
                    "uv": [
                        14.375,
                        6.75,
                        14.625,
                        6.825
                    ],
                    "texture": "#0"
                },
                "south": {
                    "uv": [
                        14.375,
                        6.75,
                        14.625,
                        6.825
                    ],
                    "texture": "#0"
                },
                "west": {
                    "uv": [
                        14.375,
                        6.75,
                        14.625,
                        6.825
                    ],
                    "texture": "#0"
                },
                "up": {
                    "uv": [
                        14.375,
                        6.75,
                        14.625,
                        6.825
                    ],
                    "texture": "#0"
                },
                "down": {
                    "uv": [
                        14.375,
                        6.75,
                        14.625,
                        6.825
                    ],
                    "texture": "#0"
                }
            }
        },
        {
            "from": [
                7.10042,
                2.27386,
                1.194
            ],
            "to": [
                7.22442,
                2.52186,
                1.938
            ],
            "rotation": {
                "angle": 0,
                "axis": "y",
                "origin": [
                    7.16242,
                    2.39786,
                    -14.12
                ]
            },
            "faces": {
                "north": {
                    "uv": [
                        14.375,
                        6.75,
                        14.625,
                        6.825
                    ],
                    "texture": "#0"
                },
                "east": {
                    "uv": [
                        14.375,
                        6.75,
                        14.625,
                        6.825
                    ],
                    "texture": "#0"
                },
                "south": {
                    "uv": [
                        14.375,
                        6.75,
                        14.625,
                        6.825
                    ],
                    "texture": "#0"
                },
                "west": {
                    "uv": [
                        14.375,
                        6.75,
                        14.625,
                        6.825
                    ],
                    "texture": "#0"
                },
                "up": {
                    "uv": [
                        14.375,
                        6.75,
                        14.625,
                        6.825
                    ],
                    "texture": "#0"
                },
                "down": {
                    "uv": [
                        14.375,
                        6.75,
                        14.625,
                        6.825
                    ],
                    "texture": "#0"
                }
            }
        },
        {
            "from": [
                7.36347,
                2.66091,
                1.194
            ],
            "to": [
                7.68575,
                2.78491,
                1.938
            ],
            "rotation": {
                "angle": 0,
                "axis": "y",
                "origin": [
                    7.16683,
                    2.60955,
                    -29.93
                ]
            },
            "faces": {
                "north": {
                    "uv": [
                        14.375,
                        6.75,
                        14.625,
                        6.825
                    ],
                    "rotation": 270,
                    "texture": "#0"
                },
                "east": {
                    "uv": [
                        14.375,
                        6.75,
                        14.625,
                        6.825
                    ],
                    "rotation": 270,
                    "texture": "#0"
                },
                "south": {
                    "uv": [
                        14.375,
                        6.75,
                        14.625,
                        6.825
                    ],
                    "rotation": 270,
                    "texture": "#0"
                },
                "west": {
                    "uv": [
                        14.375,
                        6.75,
                        14.625,
                        6.825
                    ],
                    "rotation": 270,
                    "texture": "#0"
                },
                "up": {
                    "uv": [
                        14.375,
                        6.75,
                        14.625,
                        6.825
                    ],
                    "rotation": 270,
                    "texture": "#0"
                },
                "down": {
                    "uv": [
                        14.375,
                        6.75,
                        14.625,
                        6.825
                    ],
                    "rotation": 270,
                    "texture": "#0"
                }
            }
        },
        {
            "from": [
                7.36347,
                2.01082,
                1.194
            ],
            "to": [
                7.68575,
                2.13482,
                1.938
            ],
            "rotation": {
                "angle": 0,
                "axis": "y",
                "origin": [
                    7.16683,
                    1.95946,
                    -29.93
                ]
            },
            "faces": {
                "north": {
                    "uv": [
                        14.375,
                        6.75,
                        14.625,
                        6.825
                    ],
                    "rotation": 270,
                    "texture": "#0"
                },
                "east": {
                    "uv": [
                        14.375,
                        6.75,
                        14.625,
                        6.825
                    ],
                    "rotation": 270,
                    "texture": "#0"
                },
                "south": {
                    "uv": [
                        14.375,
                        6.75,
                        14.625,
                        6.825
                    ],
                    "rotation": 270,
                    "texture": "#0"
                },
                "west": {
                    "uv": [
                        14.375,
                        6.75,
                        14.625,
                        6.825
                    ],
                    "rotation": 270,
                    "texture": "#0"
                },
                "up": {
                    "uv": [
                        14.375,
                        6.75,
                        14.625,
                        6.825
                    ],
                    "rotation": 270,
                    "texture": "#0"
                },
                "down": {
                    "uv": [
                        14.375,
                        6.75,
                        14.625,
                        6.825
                    ],
                    "rotation": 270,
                    "texture": "#0"
                }
            }
        }
    ],
    "display": {
        "thirdperson_righthand": {
            "translation": [
                -0.75,
                4.25,
                -0.25
            ],
            "scale": [
                0.8,
                0.8,
                0.8
            ]
        },
        "thirdperson_lefthand": {
            "translation": [
                -0.75,
                4,
                -0.25
            ],
            "scale": [
                0.8,
                0.8,
                0.8
            ]
        },
        "firstperson_righthand": {
            "translation": [
                -5.5,
                8.5,
                1.75
            ],
            "scale": [
                1,
                1,
                0.9
            ]
        },
        "firstperson_lefthand": {
            "translation": [
                -5.5,
                8.5,
                1.75
            ],
            "scale": [
                1,
                1,
                0.9
            ]
        },
        "ground": {
            "translation": [
                0,
                1.75,
                0
            ],
            "scale": [
                0.88,
                0.88,
                0.88
            ]
        },
        "gui": {
            "rotation": [
                47,
                27,
                -14
            ],
            "translation": [
                5,
                3.5,
                0
            ],
            "scale": [
                0.85,
                0.85,
                0.85
            ]
        },
        "head": {
            "rotation": [
                0,
                122,
                90
            ],
            "translation": [
                -3.25,
                7.25,
                1.75
            ]
        },
        "fixed": {
            "rotation": [
                90,
                -45,
                90
            ],
            "translation": [
                -4.25,
                3,
                -2
            ]
        }
    }
}