{
	"credit": "Made with Blockbench",
	"textures": {
		"0": "gci:items/common/mpz",
		"particle": "gci:items/common/mpz"
	},
	"elements": [
		{
			"from": [5.93209, 6.291, 9.11142],
			"to": [6.36209, 17.609, 9.97142],
			"rotation": {"angle": 0, "axis": "y", "origin": [6.4, 6.45, 9.54142]},
			"faces": {
				"north": {"uv": [6, 11.66667, 7, 12], "texture": "#0"},
				"east": {"uv": [6, 11.66667, 7, 12], "texture": "#0"},
				"south": {"uv": [6, 11.66667, 7, 12], "texture": "#0"},
				"west": {"uv": [6, 11.66667, 7, 12], "texture": "#0"},
				"up": {"uv": [6, 11.66667, 7, 12], "texture": "#0"},
				"down": {"uv": [6, 11.66667, 7, 12], "texture": "#0"}
			}
		},
		{
			"from": [6.44391, 6.291, 8.93579],
			"to": [6.65591, 17.609, 9.14779],
			"rotation": {"angle": 45, "axis": "y", "origin": [6.4, 6.45, 9.64142]},
			"faces": {
				"north": {"uv": [6, 11.66667, 7, 12], "texture": "#0"},
				"east": {"uv": [6, 11.66667, 7, 12], "texture": "#0"},
				"south": {"uv": [6, 11.66667, 7, 12], "texture": "#0"},
				"west": {"uv": [6, 11.66667, 7, 12], "texture": "#0"},
				"up": {"uv": [6, 11.66667, 7, 12], "texture": "#0"},
				"down": {"uv": [6, 11.66667, 7, 12], "texture": "#0"}
			}
		},
		{
			"from": [6.082, 6.291, 8.96151],
			"to": [6.318, 17.609, 9.07351],
			"rotation": {"angle": 0, "axis": "y", "origin": [6.2, 6.45, 9.54142]},
			"faces": {
				"north": {"uv": [6, 11.66667, 7, 12], "texture": "#0"},
				"east": {"uv": [6, 11.66667, 7, 12], "texture": "#0"},
				"south": {"uv": [6, 11.66667, 7, 12], "texture": "#0"},
				"west": {"uv": [6, 11.66667, 7, 12], "texture": "#0"},
				"up": {"uv": [6, 11.66667, 7, 12], "texture": "#0"},
				"down": {"uv": [6, 11.66667, 7, 12], "texture": "#0"}
			}
		},
		{
			"from": [5.69437, 6.291, 9.48533],
			"to": [5.90637, 17.609, 9.69733],
			"rotation": {"angle": 45, "axis": "y", "origin": [6.4, 6.45, 9.44142]},
			"faces": {
				"north": {"uv": [6, 11.66667, 7, 12], "texture": "#0"},
				"east": {"uv": [6, 11.66667, 7, 12], "texture": "#0"},
				"south": {"uv": [6, 11.66667, 7, 12], "texture": "#0"},
				"west": {"uv": [6, 11.66667, 7, 12], "texture": "#0"},
				"up": {"uv": [6, 11.66667, 7, 12], "texture": "#0"},
				"down": {"uv": [6, 11.66667, 7, 12], "texture": "#0"}
			}
		},
		{
			"from": [6.082, 6.291, 10.00933],
			"to": [6.318, 17.609, 10.12133],
			"rotation": {"angle": 0, "axis": "y", "origin": [6.2, 6.45, 9.54142]},
			"faces": {
				"north": {"uv": [6, 11.66667, 7, 12], "texture": "#0"},
				"east": {"uv": [6, 11.66667, 7, 12], "texture": "#0"},
				"south": {"uv": [6, 11.66667, 7, 12], "texture": "#0"},
				"west": {"uv": [6, 11.66667, 7, 12], "texture": "#0"},
				"up": {"uv": [6, 11.66667, 7, 12], "texture": "#0"},
				"down": {"uv": [6, 11.66667, 7, 12], "texture": "#0"}
			}
		},
		{
			"from": [6.49363, 6.291, 9.38551],
			"to": [6.70563, 17.609, 9.59751],
			"rotation": {"angle": 45, "axis": "y", "origin": [6, 6.45, 9.64142]},
			"faces": {
				"north": {"uv": [6, 11.66667, 7, 12], "texture": "#0"},
				"east": {"uv": [6, 11.66667, 7, 12], "texture": "#0"},
				"south": {"uv": [6, 11.66667, 7, 12], "texture": "#0"},
				"west": {"uv": [6, 11.66667, 7, 12], "texture": "#0"},
				"up": {"uv": [6, 11.66667, 7, 12], "texture": "#0"},
				"down": {"uv": [6, 11.66667, 7, 12], "texture": "#0"}
			}
		},
		{
			"from": [6.03791, 6.291, 9.11142],
			"to": [6.46791, 17.609, 9.97142],
			"rotation": {"angle": 0, "axis": "y", "origin": [6, 6.45, 9.54142]},
			"faces": {
				"north": {"uv": [6, 11.66667, 7, 12], "texture": "#0"},
				"east": {"uv": [6, 11.66667, 7, 12], "texture": "#0"},
				"south": {"uv": [6, 11.66667, 7, 12], "texture": "#0"},
				"west": {"uv": [6, 11.66667, 7, 12], "texture": "#0"},
				"up": {"uv": [6, 11.66667, 7, 12], "texture": "#0"},
				"down": {"uv": [6, 11.66667, 7, 12], "texture": "#0"}
			}
		},
		{
			"from": [5.74409, 6.291, 9.93505],
			"to": [5.95609, 17.609, 10.14705],
			"rotation": {"angle": 45, "axis": "y", "origin": [6, 6.45, 9.44142]},
			"faces": {
				"north": {"uv": [6, 11.66667, 7, 12], "texture": "#0"},
				"east": {"uv": [6, 11.66667, 7, 12], "texture": "#0"},
				"south": {"uv": [6, 11.66667, 7, 12], "texture": "#0"},
				"west": {"uv": [6, 11.66667, 7, 12], "texture": "#0"},
				"up": {"uv": [6, 11.66667, 7, 12], "texture": "#0"},
				"down": {"uv": [6, 11.66667, 7, 12], "texture": "#0"}
			}
		},
		{
			"from": [6.20663, 7.80145, 10.2598],
			"to": [6.30263, 8.05145, 10.3558],
			"rotation": {"angle": 45, "axis": "x", "origin": [6.25463, 7.92645, 10.3078]},
			"faces": {
				"north": {"uv": [4, 4, 4.33333, 4.33333], "texture": "#0"},
				"east": {"uv": [4, 4, 4.33333, 4.33333], "texture": "#0"},
				"south": {"uv": [4, 4, 4.33333, 4.33333], "texture": "#0"},
				"west": {"uv": [4, 4, 4.33333, 4.33333], "texture": "#0"},
				"up": {"uv": [4, 4, 4.33333, 4.33333], "texture": "#0"},
				"down": {"uv": [4, 4, 4.33333, 4.33333], "texture": "#0"}
			}
		},
		{
			"from": [6.20663, 7.95278, 10.36225],
			"to": [6.30263, 8.04878, 10.61225],
			"rotation": {"angle": 0, "axis": "x", "origin": [6.25463, 8.00078, 10.48725]},
			"faces": {
				"north": {"uv": [4, 4, 4.33333, 4.33333], "rotation": 90, "texture": "#0"},
				"east": {"uv": [4, 4, 4.33333, 4.33333], "rotation": 90, "texture": "#0"},
				"south": {"uv": [4, 4, 4.33333, 4.33333], "rotation": 90, "texture": "#0"},
				"west": {"uv": [4, 4, 4.33333, 4.33333], "rotation": 90, "texture": "#0"},
				"up": {"uv": [4, 4, 4.33333, 4.33333], "rotation": 90, "texture": "#0"},
				"down": {"uv": [4, 4, 4.33333, 4.33333], "rotation": 90, "texture": "#0"}
			}
		},
		{
			"from": [6.20663, 7.87845, 10.54169],
			"to": [6.30263, 7.97445, 10.79169],
			"rotation": {"angle": 45, "axis": "x", "origin": [6.25463, 7.92645, 10.66669]},
			"faces": {
				"north": {"uv": [4, 4, 4.33333, 4.33333], "rotation": 90, "texture": "#0"},
				"east": {"uv": [4, 4, 4.33333, 4.33333], "rotation": 90, "texture": "#0"},
				"south": {"uv": [4, 4, 4.33333, 4.33333], "rotation": 90, "texture": "#0"},
				"west": {"uv": [4, 4, 4.33333, 4.33333], "rotation": 90, "texture": "#0"},
				"up": {"uv": [4, 4, 4.33333, 4.33333], "rotation": 90, "texture": "#0"},
				"down": {"uv": [4, 4, 4.33333, 4.33333], "rotation": 90, "texture": "#0"}
			}
		},
		{
			"from": [6.20663, 7.622, 10.31236],
			"to": [6.30263, 7.872, 10.40836],
			"rotation": {"angle": -45, "axis": "x", "origin": [6.25463, 7.59383, 10.55069]},
			"faces": {
				"north": {"uv": [4, 4, 4.33333, 4.33333], "texture": "#0"},
				"east": {"uv": [4, 4, 4.33333, 4.33333], "texture": "#0"},
				"south": {"uv": [4, 4, 4.33333, 4.33333], "texture": "#0"},
				"west": {"uv": [4, 4, 4.33333, 4.33333], "texture": "#0"},
				"up": {"uv": [4, 4, 4.33333, 4.33333], "texture": "#0"},
				"down": {"uv": [4, 4, 4.33333, 4.33333], "texture": "#0"}
			}
		},
		{
			"from": [6.20663, 7.44522, 10.36225],
			"to": [6.30263, 7.54122, 10.61225],
			"rotation": {"angle": 0, "axis": "x", "origin": [6.25463, 7.59383, 10.55069]},
			"faces": {
				"north": {"uv": [4, 4, 4.33333, 4.33333], "rotation": 270, "texture": "#0"},
				"east": {"uv": [4, 4, 4.33333, 4.33333], "rotation": 270, "texture": "#0"},
				"south": {"uv": [4, 4, 4.33333, 4.33333], "rotation": 270, "texture": "#0"},
				"west": {"uv": [4, 4, 4.33333, 4.33333], "rotation": 270, "texture": "#0"},
				"up": {"uv": [4, 4, 4.33333, 4.33333], "rotation": 270, "texture": "#0"},
				"down": {"uv": [4, 4, 4.33333, 4.33333], "rotation": 270, "texture": "#0"}
			}
		},
		{
			"from": [6.20663, 7.44522, 10.48914],
			"to": [6.30263, 7.54122, 10.73914],
			"rotation": {"angle": -45, "axis": "x", "origin": [6.25463, 7.59383, 10.55069]},
			"faces": {
				"north": {"uv": [4, 4, 4.33333, 4.33333], "rotation": 270, "texture": "#0"},
				"east": {"uv": [4, 4, 4.33333, 4.33333], "rotation": 270, "texture": "#0"},
				"south": {"uv": [4, 4, 4.33333, 4.33333], "rotation": 270, "texture": "#0"},
				"west": {"uv": [4, 4, 4.33333, 4.33333], "rotation": 270, "texture": "#0"},
				"up": {"uv": [4, 4, 4.33333, 4.33333], "rotation": 270, "texture": "#0"},
				"down": {"uv": [4, 4, 4.33333, 4.33333], "rotation": 270, "texture": "#0"}
			}
		},
		{
			"from": [6.20663, 7.622, 10.69302],
			"to": [6.30263, 7.872, 10.78902],
			"rotation": {"angle": 0, "axis": "x", "origin": [6.25463, 7.59383, 10.55069]},
			"faces": {
				"north": {"uv": [4, 4, 4.33333, 4.33333], "rotation": 180, "texture": "#0"},
				"east": {"uv": [4, 4, 4.33333, 4.33333], "rotation": 180, "texture": "#0"},
				"south": {"uv": [4, 4, 4.33333, 4.33333], "rotation": 180, "texture": "#0"},
				"west": {"uv": [4, 4, 4.33333, 4.33333], "rotation": 180, "texture": "#0"},
				"up": {"uv": [4, 4, 4.33333, 4.33333], "rotation": 180, "texture": "#0"},
				"down": {"uv": [4, 4, 4.33333, 4.33333], "rotation": 180, "texture": "#0"}
			}
		},
		{
			"from": [5.93209, 6.291, 9.11142],
			"to": [6.36209, 17.609, 9.97142],
			"rotation": {"angle": 0, "axis": "y", "origin": [6.4, 6.45, 9.54142]},
			"faces": {
				"north": {"uv": [6, 11.66667, 7, 12], "texture": "#0"},
				"east": {"uv": [6, 11.66667, 7, 12], "texture": "#0"},
				"south": {"uv": [6, 11.66667, 7, 12], "texture": "#0"},
				"west": {"uv": [6, 11.66667, 7, 12], "texture": "#0"},
				"up": {"uv": [6, 11.66667, 7, 12], "texture": "#0"},
				"down": {"uv": [6, 11.66667, 7, 12], "texture": "#0"}
			}
		},
		{
			"from": [6.44391, 6.291, 8.93579],
			"to": [6.65591, 17.609, 9.14779],
			"rotation": {"angle": 45, "axis": "y", "origin": [6.4, 6.45, 9.64142]},
			"faces": {
				"north": {"uv": [6, 11.66667, 7, 12], "texture": "#0"},
				"east": {"uv": [6, 11.66667, 7, 12], "texture": "#0"},
				"south": {"uv": [6, 11.66667, 7, 12], "texture": "#0"},
				"west": {"uv": [6, 11.66667, 7, 12], "texture": "#0"},
				"up": {"uv": [6, 11.66667, 7, 12], "texture": "#0"},
				"down": {"uv": [6, 11.66667, 7, 12], "texture": "#0"}
			}
		},
		{
			"from": [6.082, 6.291, 8.96151],
			"to": [6.318, 17.609, 9.07351],
			"rotation": {"angle": 0, "axis": "y", "origin": [6.2, 6.45, 9.54142]},
			"faces": {
				"north": {"uv": [6, 11.66667, 7, 12], "texture": "#0"},
				"east": {"uv": [6, 11.66667, 7, 12], "texture": "#0"},
				"south": {"uv": [6, 11.66667, 7, 12], "texture": "#0"},
				"west": {"uv": [6, 11.66667, 7, 12], "texture": "#0"},
				"up": {"uv": [6, 11.66667, 7, 12], "texture": "#0"},
				"down": {"uv": [6, 11.66667, 7, 12], "texture": "#0"}
			}
		},
		{
			"from": [5.69437, 6.291, 9.48533],
			"to": [5.90637, 17.609, 9.69733],
			"rotation": {"angle": 45, "axis": "y", "origin": [6.4, 6.45, 9.44142]},
			"faces": {
				"north": {"uv": [6, 11.66667, 7, 12], "texture": "#0"},
				"east": {"uv": [6, 11.66667, 7, 12], "texture": "#0"},
				"south": {"uv": [6, 11.66667, 7, 12], "texture": "#0"},
				"west": {"uv": [6, 11.66667, 7, 12], "texture": "#0"},
				"up": {"uv": [6, 11.66667, 7, 12], "texture": "#0"},
				"down": {"uv": [6, 11.66667, 7, 12], "texture": "#0"}
			}
		},
		{
			"from": [6.082, 6.291, 10.00933],
			"to": [6.318, 17.609, 10.12133],
			"rotation": {"angle": 0, "axis": "y", "origin": [6.2, 6.45, 9.54142]},
			"faces": {
				"north": {"uv": [6, 11.66667, 7, 12], "texture": "#0"},
				"east": {"uv": [6, 11.66667, 7, 12], "texture": "#0"},
				"south": {"uv": [6, 11.66667, 7, 12], "texture": "#0"},
				"west": {"uv": [6, 11.66667, 7, 12], "texture": "#0"},
				"up": {"uv": [6, 11.66667, 7, 12], "texture": "#0"},
				"down": {"uv": [6, 11.66667, 7, 12], "texture": "#0"}
			}
		},
		{
			"from": [6.49363, 6.291, 9.38551],
			"to": [6.70563, 17.609, 9.59751],
			"rotation": {"angle": 45, "axis": "y", "origin": [6, 6.45, 9.64142]},
			"faces": {
				"north": {"uv": [6, 11.66667, 7, 12], "texture": "#0"},
				"east": {"uv": [6, 11.66667, 7, 12], "texture": "#0"},
				"south": {"uv": [6, 11.66667, 7, 12], "texture": "#0"},
				"west": {"uv": [6, 11.66667, 7, 12], "texture": "#0"},
				"up": {"uv": [6, 11.66667, 7, 12], "texture": "#0"},
				"down": {"uv": [6, 11.66667, 7, 12], "texture": "#0"}
			}
		},
		{
			"from": [6.03791, 6.291, 9.11142],
			"to": [6.46791, 17.609, 9.97142],
			"rotation": {"angle": 0, "axis": "y", "origin": [6, 6.45, 9.54142]},
			"faces": {
				"north": {"uv": [6, 11.66667, 7, 12], "texture": "#0"},
				"east": {"uv": [6, 11.66667, 7, 12], "texture": "#0"},
				"south": {"uv": [6, 11.66667, 7, 12], "texture": "#0"},
				"west": {"uv": [6, 11.66667, 7, 12], "texture": "#0"},
				"up": {"uv": [6, 11.66667, 7, 12], "texture": "#0"},
				"down": {"uv": [6, 11.66667, 7, 12], "texture": "#0"}
			}
		},
		{
			"from": [5.74409, 6.291, 9.93505],
			"to": [5.95609, 17.609, 10.14705],
			"rotation": {"angle": 45, "axis": "y", "origin": [6, 6.45, 9.44142]},
			"faces": {
				"north": {"uv": [6, 11.66667, 7, 12], "texture": "#0"},
				"east": {"uv": [6, 11.66667, 7, 12], "texture": "#0"},
				"south": {"uv": [6, 11.66667, 7, 12], "texture": "#0"},
				"west": {"uv": [6, 11.66667, 7, 12], "texture": "#0"},
				"up": {"uv": [6, 11.66667, 7, 12], "texture": "#0"},
				"down": {"uv": [6, 11.66667, 7, 12], "texture": "#0"}
			}
		},
		{
			"from": [6.20663, 7.622, 10.18547],
			"to": [6.30263, 7.872, 10.28147],
			"rotation": {"angle": 0, "axis": "y", "origin": [6.25463, 10.3, 10.16944]},
			"faces": {
				"north": {"uv": [4, 4, 4.33333, 4.33333], "texture": "#0"},
				"east": {"uv": [4, 4, 4.33333, 4.33333], "texture": "#0"},
				"south": {"uv": [4, 4, 4.33333, 4.33333], "texture": "#0"},
				"west": {"uv": [4, 4, 4.33333, 4.33333], "texture": "#0"},
				"up": {"uv": [4, 4, 4.33333, 4.33333], "texture": "#0"},
				"down": {"uv": [4, 4, 4.33333, 4.33333], "texture": "#0"}
			}
		},
		{
			"from": [6.20663, 7.80145, 10.2598],
			"to": [6.30263, 8.05145, 10.3558],
			"rotation": {"angle": 45, "axis": "x", "origin": [6.25463, 7.92645, 10.3078]},
			"faces": {
				"north": {"uv": [4, 4, 4.33333, 4.33333], "texture": "#0"},
				"east": {"uv": [4, 4, 4.33333, 4.33333], "texture": "#0"},
				"south": {"uv": [4, 4, 4.33333, 4.33333], "texture": "#0"},
				"west": {"uv": [4, 4, 4.33333, 4.33333], "texture": "#0"},
				"up": {"uv": [4, 4, 4.33333, 4.33333], "texture": "#0"},
				"down": {"uv": [4, 4, 4.33333, 4.33333], "texture": "#0"}
			}
		},
		{
			"from": [6.20663, 7.95278, 10.36225],
			"to": [6.30263, 8.04878, 10.61225],
			"rotation": {"angle": 0, "axis": "x", "origin": [6.25463, 8.00078, 10.48725]},
			"faces": {
				"north": {"uv": [4, 4, 4.33333, 4.33333], "rotation": 90, "texture": "#0"},
				"east": {"uv": [4, 4, 4.33333, 4.33333], "rotation": 90, "texture": "#0"},
				"south": {"uv": [4, 4, 4.33333, 4.33333], "rotation": 90, "texture": "#0"},
				"west": {"uv": [4, 4, 4.33333, 4.33333], "rotation": 90, "texture": "#0"},
				"up": {"uv": [4, 4, 4.33333, 4.33333], "rotation": 90, "texture": "#0"},
				"down": {"uv": [4, 4, 4.33333, 4.33333], "rotation": 90, "texture": "#0"}
			}
		},
		{
			"from": [6.20663, 7.87845, 10.54169],
			"to": [6.30263, 7.97445, 10.79169],
			"rotation": {"angle": 45, "axis": "x", "origin": [6.25463, 7.92645, 10.66669]},
			"faces": {
				"north": {"uv": [4, 4, 4.33333, 4.33333], "rotation": 90, "texture": "#0"},
				"east": {"uv": [4, 4, 4.33333, 4.33333], "rotation": 90, "texture": "#0"},
				"south": {"uv": [4, 4, 4.33333, 4.33333], "rotation": 90, "texture": "#0"},
				"west": {"uv": [4, 4, 4.33333, 4.33333], "rotation": 90, "texture": "#0"},
				"up": {"uv": [4, 4, 4.33333, 4.33333], "rotation": 90, "texture": "#0"},
				"down": {"uv": [4, 4, 4.33333, 4.33333], "rotation": 90, "texture": "#0"}
			}
		},
		{
			"from": [6.20663, 7.622, 10.31236],
			"to": [6.30263, 7.872, 10.40836],
			"rotation": {"angle": -45, "axis": "x", "origin": [6.25463, 7.59383, 10.55069]},
			"faces": {
				"north": {"uv": [4, 4, 4.33333, 4.33333], "texture": "#0"},
				"east": {"uv": [4, 4, 4.33333, 4.33333], "texture": "#0"},
				"south": {"uv": [4, 4, 4.33333, 4.33333], "texture": "#0"},
				"west": {"uv": [4, 4, 4.33333, 4.33333], "texture": "#0"},
				"up": {"uv": [4, 4, 4.33333, 4.33333], "texture": "#0"},
				"down": {"uv": [4, 4, 4.33333, 4.33333], "texture": "#0"}
			}
		},
		{
			"from": [6.20663, 7.44522, 10.36225],
			"to": [6.30263, 7.54122, 10.61225],
			"rotation": {"angle": 0, "axis": "x", "origin": [6.25463, 7.59383, 10.55069]},
			"faces": {
				"north": {"uv": [4, 4, 4.33333, 4.33333], "rotation": 270, "texture": "#0"},
				"east": {"uv": [4, 4, 4.33333, 4.33333], "rotation": 270, "texture": "#0"},
				"south": {"uv": [4, 4, 4.33333, 4.33333], "rotation": 270, "texture": "#0"},
				"west": {"uv": [4, 4, 4.33333, 4.33333], "rotation": 270, "texture": "#0"},
				"up": {"uv": [4, 4, 4.33333, 4.33333], "rotation": 270, "texture": "#0"},
				"down": {"uv": [4, 4, 4.33333, 4.33333], "rotation": 270, "texture": "#0"}
			}
		},
		{
			"from": [6.20663, 7.44522, 10.48914],
			"to": [6.30263, 7.54122, 10.73914],
			"rotation": {"angle": -45, "axis": "x", "origin": [6.25463, 7.59383, 10.55069]},
			"faces": {
				"north": {"uv": [4, 4, 4.33333, 4.33333], "rotation": 270, "texture": "#0"},
				"east": {"uv": [4, 4, 4.33333, 4.33333], "rotation": 270, "texture": "#0"},
				"south": {"uv": [4, 4, 4.33333, 4.33333], "rotation": 270, "texture": "#0"},
				"west": {"uv": [4, 4, 4.33333, 4.33333], "rotation": 270, "texture": "#0"},
				"up": {"uv": [4, 4, 4.33333, 4.33333], "rotation": 270, "texture": "#0"},
				"down": {"uv": [4, 4, 4.33333, 4.33333], "rotation": 270, "texture": "#0"}
			}
		},
		{
			"from": [6.20663, 7.622, 10.69302],
			"to": [6.30263, 7.872, 10.78902],
			"rotation": {"angle": 0, "axis": "x", "origin": [6.25463, 7.59383, 10.55069]},
			"faces": {
				"north": {"uv": [4, 4, 4.33333, 4.33333], "rotation": 180, "texture": "#0"},
				"east": {"uv": [4, 4, 4.33333, 4.33333], "rotation": 180, "texture": "#0"},
				"south": {"uv": [4, 4, 4.33333, 4.33333], "rotation": 180, "texture": "#0"},
				"west": {"uv": [4, 4, 4.33333, 4.33333], "rotation": 180, "texture": "#0"},
				"up": {"uv": [4, 4, 4.33333, 4.33333], "rotation": 180, "texture": "#0"},
				"down": {"uv": [4, 4, 4.33333, 4.33333], "rotation": 180, "texture": "#0"}
			}
		},
		{
			"from": [5.8246, 7.632, 8.95945],
			"to": [6.0566, 7.864, 9.19145],
			"rotation": {"angle": 45, "axis": "y", "origin": [5.8246, 10.3, 9.07545]},
			"faces": {
				"north": {"uv": [3.66667, 11, 4.33333, 12], "texture": "#0"},
				"east": {"uv": [3.66667, 11, 4.33333, 12], "texture": "#0"},
				"south": {"uv": [3.66667, 11, 4.33333, 12], "texture": "#0"},
				"west": {"uv": [3.66667, 11, 4.33333, 12], "texture": "#0"},
				"up": {"uv": [3.66667, 11, 4.33333, 12], "texture": "#0"},
				"down": {"uv": [3.66667, 11, 4.33333, 12], "texture": "#0"}
			}
		},
		{
			"from": [5.90663, 7.632, 8.82937],
			"to": [6.60263, 7.864, 9.06137],
			"rotation": {"angle": 0, "axis": "y", "origin": [15.30263, 17.26, 18.10937]},
			"faces": {
				"north": {"uv": [3.66667, 11, 4.33333, 12], "texture": "#0"},
				"east": {"uv": [3.66667, 11, 4.33333, 12], "texture": "#0"},
				"south": {"uv": [3.66667, 11, 4.33333, 12], "texture": "#0"},
				"west": {"uv": [3.66667, 11, 4.33333, 12], "texture": "#0"},
				"up": {"uv": [3.66667, 11, 4.33333, 12], "texture": "#0"},
				"down": {"uv": [3.66667, 11, 4.33333, 12], "texture": "#0"}
			}
		},
		{
			"from": [5.8699, 7.632, 9.87806],
			"to": [6.1019, 7.864, 10.11006],
			"rotation": {"angle": 45, "axis": "y", "origin": [6.13863, 10.3, 10.16944]},
			"faces": {
				"north": {"uv": [3.66667, 11, 4.33333, 12], "texture": "#0"},
				"east": {"uv": [3.66667, 11, 4.33333, 12], "texture": "#0"},
				"south": {"uv": [3.66667, 11, 4.33333, 12], "texture": "#0"},
				"west": {"uv": [3.66667, 11, 4.33333, 12], "texture": "#0"},
				"up": {"uv": [3.66667, 11, 4.33333, 12], "texture": "#0"},
				"down": {"uv": [3.66667, 11, 4.33333, 12], "texture": "#0"}
			}
		},
		{
			"from": [5.90663, 7.632, 10.08547],
			"to": [6.60263, 7.864, 10.31747],
			"rotation": {"angle": 0, "axis": "y", "origin": [6.25463, 10.3, 10.16944]},
			"faces": {
				"north": {"uv": [3.66667, 11, 4.33333, 12], "texture": "#0"},
				"east": {"uv": [3.66667, 11, 4.33333, 12], "texture": "#0"},
				"south": {"uv": [3.66667, 11, 4.33333, 12], "texture": "#0"},
				"west": {"uv": [3.66667, 11, 4.33333, 12], "texture": "#0"},
				"up": {"uv": [3.66667, 11, 4.33333, 12], "texture": "#0"},
				"down": {"uv": [3.66667, 11, 4.33333, 12], "texture": "#0"}
			}
		},
		{
			"from": [6.56865, 7.632, 8.84345],
			"to": [6.80065, 7.864, 9.07545],
			"rotation": {"angle": 45, "axis": "y", "origin": [6.68465, 10.3, 9.07545]},
			"faces": {
				"north": {"uv": [3.66667, 11, 4.33333, 12], "texture": "#0"},
				"east": {"uv": [3.66667, 11, 4.33333, 12], "texture": "#0"},
				"south": {"uv": [3.66667, 11, 4.33333, 12], "texture": "#0"},
				"west": {"uv": [3.66667, 11, 4.33333, 12], "texture": "#0"},
				"up": {"uv": [3.66667, 11, 4.33333, 12], "texture": "#0"},
				"down": {"uv": [3.66667, 11, 4.33333, 12], "texture": "#0"}
			}
		},
		{
			"from": [6.18668, 7.632, 8.99342],
			"to": [6.76668, 7.864, 10.15342],
			"rotation": {"angle": 0, "axis": "y", "origin": [6.65068, 10.3, 9.34142]},
			"faces": {
				"north": {"uv": [3.66667, 11, 4.33333, 12], "texture": "#0"},
				"east": {"uv": [3.66667, 11, 4.33333, 12], "texture": "#0"},
				"south": {"uv": [3.66667, 11, 4.33333, 12], "texture": "#0"},
				"west": {"uv": [3.66667, 11, 4.33333, 12], "texture": "#0"},
				"up": {"uv": [3.66667, 11, 4.33333, 12], "texture": "#0"},
				"down": {"uv": [3.66667, 11, 4.33333, 12], "texture": "#0"}
			}
		},
		{
			"from": [6.43, 7.632, 10.20616],
			"to": [6.662, 7.864, 10.43816],
			"rotation": {"angle": 45, "axis": "y", "origin": [6.37063, 10.3, 10.16944]},
			"faces": {
				"north": {"uv": [3.66667, 11, 4.33333, 12], "texture": "#0"},
				"east": {"uv": [3.66667, 11, 4.33333, 12], "texture": "#0"},
				"south": {"uv": [3.66667, 11, 4.33333, 12], "texture": "#0"},
				"west": {"uv": [3.66667, 11, 4.33333, 12], "texture": "#0"},
				"up": {"uv": [3.66667, 11, 4.33333, 12], "texture": "#0"},
				"down": {"uv": [3.66667, 11, 4.33333, 12], "texture": "#0"}
			}
		},
		{
			"from": [5.93209, 6.291, 9.11142],
			"to": [6.36209, 17.609, 9.97142],
			"rotation": {"angle": 0, "axis": "y", "origin": [6.4, 6.45, 9.54142]},
			"faces": {
				"north": {"uv": [6, 11.66667, 7, 12], "texture": "#0"},
				"east": {"uv": [6, 11.66667, 7, 12], "texture": "#0"},
				"south": {"uv": [6, 11.66667, 7, 12], "texture": "#0"},
				"west": {"uv": [6, 11.66667, 7, 12], "texture": "#0"},
				"up": {"uv": [6, 11.66667, 7, 12], "texture": "#0"},
				"down": {"uv": [6, 11.66667, 7, 12], "texture": "#0"}
			}
		},
		{
			"from": [6.44391, 6.291, 8.93579],
			"to": [6.65591, 17.609, 9.14779],
			"rotation": {"angle": 45, "axis": "y", "origin": [6.4, 6.45, 9.64142]},
			"faces": {
				"north": {"uv": [6, 11.66667, 7, 12], "texture": "#0"},
				"east": {"uv": [6, 11.66667, 7, 12], "texture": "#0"},
				"south": {"uv": [6, 11.66667, 7, 12], "texture": "#0"},
				"west": {"uv": [6, 11.66667, 7, 12], "texture": "#0"},
				"up": {"uv": [6, 11.66667, 7, 12], "texture": "#0"},
				"down": {"uv": [6, 11.66667, 7, 12], "texture": "#0"}
			}
		},
		{
			"from": [6.082, 6.291, 8.96151],
			"to": [6.318, 17.609, 9.07351],
			"rotation": {"angle": 0, "axis": "y", "origin": [6.2, 6.45, 9.54142]},
			"faces": {
				"north": {"uv": [6, 11.66667, 7, 12], "texture": "#0"},
				"east": {"uv": [6, 11.66667, 7, 12], "texture": "#0"},
				"south": {"uv": [6, 11.66667, 7, 12], "texture": "#0"},
				"west": {"uv": [6, 11.66667, 7, 12], "texture": "#0"},
				"up": {"uv": [6, 11.66667, 7, 12], "texture": "#0"},
				"down": {"uv": [6, 11.66667, 7, 12], "texture": "#0"}
			}
		},
		{
			"from": [5.69437, 6.291, 9.48533],
			"to": [5.90637, 17.609, 9.69733],
			"rotation": {"angle": 45, "axis": "y", "origin": [6.4, 6.45, 9.44142]},
			"faces": {
				"north": {"uv": [6, 11.66667, 7, 12], "texture": "#0"},
				"east": {"uv": [6, 11.66667, 7, 12], "texture": "#0"},
				"south": {"uv": [6, 11.66667, 7, 12], "texture": "#0"},
				"west": {"uv": [6, 11.66667, 7, 12], "texture": "#0"},
				"up": {"uv": [6, 11.66667, 7, 12], "texture": "#0"},
				"down": {"uv": [6, 11.66667, 7, 12], "texture": "#0"}
			}
		},
		{
			"from": [6.082, 6.291, 10.00933],
			"to": [6.318, 17.609, 10.12133],
			"rotation": {"angle": 0, "axis": "y", "origin": [6.2, 6.45, 9.54142]},
			"faces": {
				"north": {"uv": [6, 11.66667, 7, 12], "texture": "#0"},
				"east": {"uv": [6, 11.66667, 7, 12], "texture": "#0"},
				"south": {"uv": [6, 11.66667, 7, 12], "texture": "#0"},
				"west": {"uv": [6, 11.66667, 7, 12], "texture": "#0"},
				"up": {"uv": [6, 11.66667, 7, 12], "texture": "#0"},
				"down": {"uv": [6, 11.66667, 7, 12], "texture": "#0"}
			}
		},
		{
			"from": [6.49363, 6.291, 9.38551],
			"to": [6.70563, 17.609, 9.59751],
			"rotation": {"angle": 45, "axis": "y", "origin": [6, 6.45, 9.64142]},
			"faces": {
				"north": {"uv": [6, 11.66667, 7, 12], "texture": "#0"},
				"east": {"uv": [6, 11.66667, 7, 12], "texture": "#0"},
				"south": {"uv": [6, 11.66667, 7, 12], "texture": "#0"},
				"west": {"uv": [6, 11.66667, 7, 12], "texture": "#0"},
				"up": {"uv": [6, 11.66667, 7, 12], "texture": "#0"},
				"down": {"uv": [6, 11.66667, 7, 12], "texture": "#0"}
			}
		},
		{
			"from": [6.03791, 6.291, 9.11142],
			"to": [6.46791, 17.609, 9.97142],
			"rotation": {"angle": 0, "axis": "y", "origin": [6, 6.45, 9.54142]},
			"faces": {
				"north": {"uv": [6, 11.66667, 7, 12], "texture": "#0"},
				"east": {"uv": [6, 11.66667, 7, 12], "texture": "#0"},
				"south": {"uv": [6, 11.66667, 7, 12], "texture": "#0"},
				"west": {"uv": [6, 11.66667, 7, 12], "texture": "#0"},
				"up": {"uv": [6, 11.66667, 7, 12], "texture": "#0"},
				"down": {"uv": [6, 11.66667, 7, 12], "texture": "#0"}
			}
		},
		{
			"from": [5.74409, 6.291, 9.93505],
			"to": [5.95609, 17.609, 10.14705],
			"rotation": {"angle": 45, "axis": "y", "origin": [6, 6.45, 9.44142]},
			"faces": {
				"north": {"uv": [6, 11.66667, 7, 12], "texture": "#0"},
				"east": {"uv": [6, 11.66667, 7, 12], "texture": "#0"},
				"south": {"uv": [6, 11.66667, 7, 12], "texture": "#0"},
				"west": {"uv": [6, 11.66667, 7, 12], "texture": "#0"},
				"up": {"uv": [6, 11.66667, 7, 12], "texture": "#0"},
				"down": {"uv": [6, 11.66667, 7, 12], "texture": "#0"}
			}
		},
		{
			"from": [6.20663, 7.80145, 10.2598],
			"to": [6.30263, 8.05145, 10.3558],
			"rotation": {"angle": 45, "axis": "x", "origin": [6.25463, 7.92645, 10.3078]},
			"faces": {
				"north": {"uv": [4, 4, 4.33333, 4.33333], "texture": "#0"},
				"east": {"uv": [4, 4, 4.33333, 4.33333], "texture": "#0"},
				"south": {"uv": [4, 4, 4.33333, 4.33333], "texture": "#0"},
				"west": {"uv": [4, 4, 4.33333, 4.33333], "texture": "#0"},
				"up": {"uv": [4, 4, 4.33333, 4.33333], "texture": "#0"},
				"down": {"uv": [4, 4, 4.33333, 4.33333], "texture": "#0"}
			}
		},
		{
			"from": [6.20663, 7.95278, 10.36225],
			"to": [6.30263, 8.04878, 10.61225],
			"rotation": {"angle": 0, "axis": "x", "origin": [6.25463, 8.00078, 10.48725]},
			"faces": {
				"north": {"uv": [4, 4, 4.33333, 4.33333], "rotation": 90, "texture": "#0"},
				"east": {"uv": [4, 4, 4.33333, 4.33333], "rotation": 90, "texture": "#0"},
				"south": {"uv": [4, 4, 4.33333, 4.33333], "rotation": 90, "texture": "#0"},
				"west": {"uv": [4, 4, 4.33333, 4.33333], "rotation": 90, "texture": "#0"},
				"up": {"uv": [4, 4, 4.33333, 4.33333], "rotation": 90, "texture": "#0"},
				"down": {"uv": [4, 4, 4.33333, 4.33333], "rotation": 90, "texture": "#0"}
			}
		},
		{
			"from": [6.20663, 7.87845, 10.54169],
			"to": [6.30263, 7.97445, 10.79169],
			"rotation": {"angle": 45, "axis": "x", "origin": [6.25463, 7.92645, 10.66669]},
			"faces": {
				"north": {"uv": [4, 4, 4.33333, 4.33333], "rotation": 90, "texture": "#0"},
				"east": {"uv": [4, 4, 4.33333, 4.33333], "rotation": 90, "texture": "#0"},
				"south": {"uv": [4, 4, 4.33333, 4.33333], "rotation": 90, "texture": "#0"},
				"west": {"uv": [4, 4, 4.33333, 4.33333], "rotation": 90, "texture": "#0"},
				"up": {"uv": [4, 4, 4.33333, 4.33333], "rotation": 90, "texture": "#0"},
				"down": {"uv": [4, 4, 4.33333, 4.33333], "rotation": 90, "texture": "#0"}
			}
		},
		{
			"from": [6.20663, 7.622, 10.31236],
			"to": [6.30263, 7.872, 10.40836],
			"rotation": {"angle": -45, "axis": "x", "origin": [6.25463, 7.59383, 10.55069]},
			"faces": {
				"north": {"uv": [4, 4, 4.33333, 4.33333], "texture": "#0"},
				"east": {"uv": [4, 4, 4.33333, 4.33333], "texture": "#0"},
				"south": {"uv": [4, 4, 4.33333, 4.33333], "texture": "#0"},
				"west": {"uv": [4, 4, 4.33333, 4.33333], "texture": "#0"},
				"up": {"uv": [4, 4, 4.33333, 4.33333], "texture": "#0"},
				"down": {"uv": [4, 4, 4.33333, 4.33333], "texture": "#0"}
			}
		},
		{
			"from": [6.20663, 7.44522, 10.36225],
			"to": [6.30263, 7.54122, 10.61225],
			"rotation": {"angle": 0, "axis": "x", "origin": [6.25463, 7.59383, 10.55069]},
			"faces": {
				"north": {"uv": [4, 4, 4.33333, 4.33333], "rotation": 270, "texture": "#0"},
				"east": {"uv": [4, 4, 4.33333, 4.33333], "rotation": 270, "texture": "#0"},
				"south": {"uv": [4, 4, 4.33333, 4.33333], "rotation": 270, "texture": "#0"},
				"west": {"uv": [4, 4, 4.33333, 4.33333], "rotation": 270, "texture": "#0"},
				"up": {"uv": [4, 4, 4.33333, 4.33333], "rotation": 270, "texture": "#0"},
				"down": {"uv": [4, 4, 4.33333, 4.33333], "rotation": 270, "texture": "#0"}
			}
		},
		{
			"from": [6.20663, 7.44522, 10.48914],
			"to": [6.30263, 7.54122, 10.73914],
			"rotation": {"angle": -45, "axis": "x", "origin": [6.25463, 7.59383, 10.55069]},
			"faces": {
				"north": {"uv": [4, 4, 4.33333, 4.33333], "rotation": 270, "texture": "#0"},
				"east": {"uv": [4, 4, 4.33333, 4.33333], "rotation": 270, "texture": "#0"},
				"south": {"uv": [4, 4, 4.33333, 4.33333], "rotation": 270, "texture": "#0"},
				"west": {"uv": [4, 4, 4.33333, 4.33333], "rotation": 270, "texture": "#0"},
				"up": {"uv": [4, 4, 4.33333, 4.33333], "rotation": 270, "texture": "#0"},
				"down": {"uv": [4, 4, 4.33333, 4.33333], "rotation": 270, "texture": "#0"}
			}
		},
		{
			"from": [6.20663, 7.622, 10.69302],
			"to": [6.30263, 7.872, 10.78902],
			"rotation": {"angle": 0, "axis": "x", "origin": [6.25463, 7.59383, 10.55069]},
			"faces": {
				"north": {"uv": [4, 4, 4.33333, 4.33333], "rotation": 180, "texture": "#0"},
				"east": {"uv": [4, 4, 4.33333, 4.33333], "rotation": 180, "texture": "#0"},
				"south": {"uv": [4, 4, 4.33333, 4.33333], "rotation": 180, "texture": "#0"},
				"west": {"uv": [4, 4, 4.33333, 4.33333], "rotation": 180, "texture": "#0"},
				"up": {"uv": [4, 4, 4.33333, 4.33333], "rotation": 180, "texture": "#0"},
				"down": {"uv": [4, 4, 4.33333, 4.33333], "rotation": 180, "texture": "#0"}
			}
		},
		{
			"from": [5.74258, 7.632, 8.99342],
			"to": [6.32258, 7.864, 10.15342],
			"rotation": {"angle": 0, "axis": "y", "origin": [5.85858, 10.3, 9.34142]},
			"faces": {
				"north": {"uv": [3.66667, 11, 4.33333, 12], "texture": "#0"},
				"east": {"uv": [3.66667, 11, 4.33333, 12], "texture": "#0"},
				"south": {"uv": [3.66667, 11, 4.33333, 12], "texture": "#0"},
				"west": {"uv": [3.66667, 11, 4.33333, 12], "texture": "#0"},
				"up": {"uv": [3.66667, 11, 4.33333, 12], "texture": "#0"},
				"down": {"uv": [3.66667, 11, 4.33333, 12], "texture": "#0"}
			}
		},
		{
			"from": [5.8246, 7.632, 8.95945],
			"to": [6.0566, 7.864, 9.19145],
			"rotation": {"angle": 45, "axis": "y", "origin": [5.8246, 10.3, 9.07545]},
			"faces": {
				"north": {"uv": [3.66667, 11, 4.33333, 12], "texture": "#0"},
				"east": {"uv": [3.66667, 11, 4.33333, 12], "texture": "#0"},
				"south": {"uv": [3.66667, 11, 4.33333, 12], "texture": "#0"},
				"west": {"uv": [3.66667, 11, 4.33333, 12], "texture": "#0"},
				"up": {"uv": [3.66667, 11, 4.33333, 12], "texture": "#0"},
				"down": {"uv": [3.66667, 11, 4.33333, 12], "texture": "#0"}
			}
		},
		{
			"from": [5.90663, 7.632, 8.82937],
			"to": [6.60263, 7.864, 9.06137],
			"rotation": {"angle": 0, "axis": "y", "origin": [15.30263, 17.26, 18.10937]},
			"faces": {
				"north": {"uv": [3.66667, 11, 4.33333, 12], "texture": "#0"},
				"east": {"uv": [3.66667, 11, 4.33333, 12], "texture": "#0"},
				"south": {"uv": [3.66667, 11, 4.33333, 12], "texture": "#0"},
				"west": {"uv": [3.66667, 11, 4.33333, 12], "texture": "#0"},
				"up": {"uv": [3.66667, 11, 4.33333, 12], "texture": "#0"},
				"down": {"uv": [3.66667, 11, 4.33333, 12], "texture": "#0"}
			}
		},
		{
			"from": [5.8699, 7.632, 9.87806],
			"to": [6.1019, 7.864, 10.11006],
			"rotation": {"angle": 45, "axis": "y", "origin": [6.13863, 10.3, 10.16944]},
			"faces": {
				"north": {"uv": [3.66667, 11, 4.33333, 12], "texture": "#0"},
				"east": {"uv": [3.66667, 11, 4.33333, 12], "texture": "#0"},
				"south": {"uv": [3.66667, 11, 4.33333, 12], "texture": "#0"},
				"west": {"uv": [3.66667, 11, 4.33333, 12], "texture": "#0"},
				"up": {"uv": [3.66667, 11, 4.33333, 12], "texture": "#0"},
				"down": {"uv": [3.66667, 11, 4.33333, 12], "texture": "#0"}
			}
		},
		{
			"from": [5.90663, 7.632, 10.08547],
			"to": [6.60263, 7.864, 10.31747],
			"rotation": {"angle": 0, "axis": "y", "origin": [6.25463, 10.3, 10.16944]},
			"faces": {
				"north": {"uv": [3.66667, 11, 4.33333, 12], "texture": "#0"},
				"east": {"uv": [3.66667, 11, 4.33333, 12], "texture": "#0"},
				"south": {"uv": [3.66667, 11, 4.33333, 12], "texture": "#0"},
				"west": {"uv": [3.66667, 11, 4.33333, 12], "texture": "#0"},
				"up": {"uv": [3.66667, 11, 4.33333, 12], "texture": "#0"},
				"down": {"uv": [3.66667, 11, 4.33333, 12], "texture": "#0"}
			}
		},
		{
			"from": [6.56865, 7.632, 8.84345],
			"to": [6.80065, 7.864, 9.07545],
			"rotation": {"angle": 45, "axis": "y", "origin": [6.68465, 10.3, 9.07545]},
			"faces": {
				"north": {"uv": [3.66667, 11, 4.33333, 12], "texture": "#0"},
				"east": {"uv": [3.66667, 11, 4.33333, 12], "texture": "#0"},
				"south": {"uv": [3.66667, 11, 4.33333, 12], "texture": "#0"},
				"west": {"uv": [3.66667, 11, 4.33333, 12], "texture": "#0"},
				"up": {"uv": [3.66667, 11, 4.33333, 12], "texture": "#0"},
				"down": {"uv": [3.66667, 11, 4.33333, 12], "texture": "#0"}
			}
		},
		{
			"from": [6.18668, 7.632, 8.99342],
			"to": [6.76668, 7.864, 10.15342],
			"rotation": {"angle": 0, "axis": "y", "origin": [6.65068, 10.3, 9.34142]},
			"faces": {
				"north": {"uv": [3.66667, 11, 4.33333, 12], "texture": "#0"},
				"east": {"uv": [3.66667, 11, 4.33333, 12], "texture": "#0"},
				"south": {"uv": [3.66667, 11, 4.33333, 12], "texture": "#0"},
				"west": {"uv": [3.66667, 11, 4.33333, 12], "texture": "#0"},
				"up": {"uv": [3.66667, 11, 4.33333, 12], "texture": "#0"},
				"down": {"uv": [3.66667, 11, 4.33333, 12], "texture": "#0"}
			}
		},
		{
			"from": [6.43, 7.632, 10.20616],
			"to": [6.662, 7.864, 10.43816],
			"rotation": {"angle": 45, "axis": "y", "origin": [6.37063, 10.3, 10.16944]},
			"faces": {
				"north": {"uv": [3.66667, 11, 4.33333, 12], "texture": "#0"},
				"east": {"uv": [3.66667, 11, 4.33333, 12], "texture": "#0"},
				"south": {"uv": [3.66667, 11, 4.33333, 12], "texture": "#0"},
				"west": {"uv": [3.66667, 11, 4.33333, 12], "texture": "#0"},
				"up": {"uv": [3.66667, 11, 4.33333, 12], "texture": "#0"},
				"down": {"uv": [3.66667, 11, 4.33333, 12], "texture": "#0"}
			}
		},
		{
			"from": [6.182, 16.391, 8.76151],
			"to": [6.218, 17.609, 8.96151],
			"rotation": {"angle": 0, "axis": "y", "origin": [6.3, 6.45, 9.24142]},
			"faces": {
				"north": {"uv": [6.33333, 11.33333, 6.66667, 11.66667], "texture": "#0"},
				"east": {"uv": [6.33333, 11.33333, 6.66667, 11.66667], "texture": "#0"},
				"south": {"uv": [6.33333, 11.33333, 6.66667, 11.66667], "texture": "#0"},
				"west": {"uv": [6.33333, 11.33333, 6.66667, 11.66667], "texture": "#0"},
				"up": {"uv": [6.33333, 11.33333, 6.66667, 11.66667], "texture": "#0"},
				"down": {"uv": [6.33333, 11.33333, 6.66667, 11.66667], "texture": "#0"}
			}
		},
		{
			"from": [6.182, 17.609, 8.76151],
			"to": [6.218, 18.409, 10.32151],
			"rotation": {"angle": 0, "axis": "x", "origin": [6.3, 17.709, 9.37051]},
			"faces": {
				"north": {"uv": [6.33333, 11.33333, 6.66667, 11.66667], "rotation": 90, "texture": "#0"},
				"east": {"uv": [6.33333, 11.33333, 6.66667, 11.66667], "rotation": 90, "texture": "#0"},
				"south": {"uv": [6.33333, 11.33333, 6.66667, 11.66667], "rotation": 90, "texture": "#0"},
				"west": {"uv": [6.33333, 11.33333, 6.66667, 11.66667], "rotation": 90, "texture": "#0"},
				"up": {"uv": [6.33333, 11.33333, 6.66667, 11.66667], "rotation": 90, "texture": "#0"},
				"down": {"uv": [6.33333, 11.33333, 6.66667, 11.66667], "rotation": 90, "texture": "#0"}
			}
		},
		{
			"from": [6.182, 17.091, 10.12151],
			"to": [6.218, 17.609, 10.32151],
			"rotation": {"angle": 0, "axis": "y", "origin": [6.3, 6.45, 10.70142]},
			"faces": {
				"north": {"uv": [6.33333, 11.33333, 6.66667, 11.66667], "texture": "#0"},
				"east": {"uv": [6.33333, 11.33333, 6.66667, 11.66667], "texture": "#0"},
				"south": {"uv": [6.33333, 11.33333, 6.66667, 11.66667], "texture": "#0"},
				"west": {"uv": [6.33333, 11.33333, 6.66667, 11.66667], "texture": "#0"},
				"up": {"uv": [6.33333, 11.33333, 6.66667, 11.66667], "texture": "#0"},
				"down": {"uv": [6.33333, 11.33333, 6.66667, 11.66667], "texture": "#0"}
			}
		},
		{
			"from": [6.132, 18.26243, 8.91537],
			"to": [6.268, 18.48043, 9.91537],
			"rotation": {"angle": 45, "axis": "x", "origin": [6.3, 18.52143, 9.01537]},
			"faces": {
				"north": {"uv": [6.33333, 11.33333, 6.66667, 11.66667], "texture": "#0"},
				"east": {"uv": [6.33333, 11.33333, 6.66667, 11.66667], "texture": "#0"},
				"south": {"uv": [6.33333, 11.33333, 6.66667, 11.66667], "texture": "#0"},
				"west": {"uv": [6.33333, 11.33333, 6.66667, 11.66667], "texture": "#0"},
				"up": {"uv": [6.33333, 11.33333, 6.66667, 11.66667], "texture": "#0"},
				"down": {"uv": [6.33333, 11.33333, 6.66667, 11.66667], "texture": "#0"}
			}
		},
		{
			"from": [6.132, 16.70189, 9.46862],
			"to": [6.268, 17.80189, 9.61462],
			"rotation": {"angle": 0, "axis": "x", "origin": [6.3, 17.60189, 9.72762]},
			"faces": {
				"north": {"uv": [6.33333, 11.33333, 6.66667, 11.66667], "rotation": 90, "texture": "#0"},
				"east": {"uv": [6.33333, 11.33333, 6.66667, 11.66667], "rotation": 90, "texture": "#0"},
				"south": {"uv": [6.33333, 11.33333, 6.66667, 11.66667], "rotation": 90, "texture": "#0"},
				"west": {"uv": [6.33333, 11.33333, 6.66667, 11.66667], "rotation": 90, "texture": "#0"},
				"up": {"uv": [6.33333, 11.33333, 6.66667, 11.66667], "rotation": 90, "texture": "#0"},
				"down": {"uv": [6.33333, 11.33333, 6.66667, 11.66667], "rotation": 90, "texture": "#0"}
			}
		},
		{
			"from": [6.182, 18.26315, 8.91566],
			"to": [6.218, 18.56315, 10.16566],
			"rotation": {"angle": 0, "axis": "x", "origin": [6.3, 18.41315, 9.02466]},
			"faces": {
				"north": {"uv": [6.33333, 11.33333, 6.66667, 11.66667], "rotation": 90, "texture": "#0"},
				"east": {"uv": [6.33333, 11.33333, 6.66667, 11.66667], "rotation": 90, "texture": "#0"},
				"south": {"uv": [6.33333, 11.33333, 6.66667, 11.66667], "rotation": 90, "texture": "#0"},
				"west": {"uv": [6.33333, 11.33333, 6.66667, 11.66667], "rotation": 90, "texture": "#0"},
				"up": {"uv": [6.33333, 11.33333, 6.66667, 11.66667], "rotation": 90, "texture": "#0"},
				"down": {"uv": [6.33333, 11.33333, 6.66667, 11.66667], "rotation": 90, "texture": "#0"}
			}
		},
		{
			"from": [6.132, 17.4093, 10.0208],
			"to": [6.268, 18.4093, 10.2388],
			"rotation": {"angle": 45, "axis": "x", "origin": [6.3, 18.3093, 10.2798]},
			"faces": {
				"north": {"uv": [6.33333, 11.33333, 6.66667, 11.66667], "rotation": 90, "texture": "#0"},
				"east": {"uv": [6.33333, 11.33333, 6.66667, 11.66667], "rotation": 90, "texture": "#0"},
				"south": {"uv": [6.33333, 11.33333, 6.66667, 11.66667], "rotation": 90, "texture": "#0"},
				"west": {"uv": [6.33333, 11.33333, 6.66667, 11.66667], "rotation": 90, "texture": "#0"},
				"up": {"uv": [6.33333, 11.33333, 6.66667, 11.66667], "rotation": 90, "texture": "#0"},
				"down": {"uv": [6.33333, 11.33333, 6.66667, 11.66667], "rotation": 90, "texture": "#0"}
			}
		},
		{
			"from": [6.132, 16.90241, 10.10908],
			"to": [6.268, 17.22041, 10.40908],
			"rotation": {"angle": 45, "axis": "x", "origin": [6.3, 17.26141, 10.20908]},
			"faces": {
				"north": {"uv": [6.33333, 11.33333, 6.66667, 11.66667], "texture": "#0"},
				"east": {"uv": [6.33333, 11.33333, 6.66667, 11.66667], "texture": "#0"},
				"south": {"uv": [6.33333, 11.33333, 6.66667, 11.66667], "texture": "#0"},
				"west": {"uv": [6.33333, 11.33333, 6.66667, 11.66667], "texture": "#0"},
				"up": {"uv": [6.33333, 11.33333, 6.66667, 11.66667], "texture": "#0"},
				"down": {"uv": [6.33333, 11.33333, 6.66667, 11.66667], "texture": "#0"}
			}
		},
		{
			"from": [6.132, 16.14928, 8.82708],
			"to": [6.268, 16.44928, 9.24508],
			"rotation": {"angle": 45, "axis": "x", "origin": [6.3, 16.34928, 9.08608]},
			"faces": {
				"north": {"uv": [6.33333, 11.33333, 6.66667, 11.66667], "rotation": 90, "texture": "#0"},
				"east": {"uv": [6.33333, 11.33333, 6.66667, 11.66667], "rotation": 90, "texture": "#0"},
				"south": {"uv": [6.33333, 11.33333, 6.66667, 11.66667], "rotation": 90, "texture": "#0"},
				"west": {"uv": [6.33333, 11.33333, 6.66667, 11.66667], "rotation": 90, "texture": "#0"},
				"up": {"uv": [6.33333, 11.33333, 6.66667, 11.66667], "rotation": 90, "texture": "#0"},
				"down": {"uv": [6.33333, 11.33333, 6.66667, 11.66667], "rotation": 90, "texture": "#0"}
			}
		},
		{
			"from": [5.93209, 6.291, 9.11142],
			"to": [6.36209, 17.609, 9.97142],
			"rotation": {"angle": 0, "axis": "y", "origin": [6.4, 6.45, 9.54142]},
			"faces": {
				"north": {"uv": [6, 11.66667, 7, 12], "texture": "#0"},
				"east": {"uv": [6, 11.66667, 7, 12], "texture": "#0"},
				"south": {"uv": [6, 11.66667, 7, 12], "texture": "#0"},
				"west": {"uv": [6, 11.66667, 7, 12], "texture": "#0"},
				"up": {"uv": [6, 11.66667, 7, 12], "texture": "#0"},
				"down": {"uv": [6, 11.66667, 7, 12], "texture": "#0"}
			}
		},
		{
			"from": [6.44391, 6.291, 8.93579],
			"to": [6.65591, 17.609, 9.14779],
			"rotation": {"angle": 45, "axis": "y", "origin": [6.4, 6.45, 9.64142]},
			"faces": {
				"north": {"uv": [6, 11.66667, 7, 12], "texture": "#0"},
				"east": {"uv": [6, 11.66667, 7, 12], "texture": "#0"},
				"south": {"uv": [6, 11.66667, 7, 12], "texture": "#0"},
				"west": {"uv": [6, 11.66667, 7, 12], "texture": "#0"},
				"up": {"uv": [6, 11.66667, 7, 12], "texture": "#0"},
				"down": {"uv": [6, 11.66667, 7, 12], "texture": "#0"}
			}
		},
		{
			"from": [6.082, 6.291, 8.96151],
			"to": [6.318, 17.609, 9.07351],
			"rotation": {"angle": 0, "axis": "y", "origin": [6.2, 6.45, 9.54142]},
			"faces": {
				"north": {"uv": [6, 11.66667, 7, 12], "texture": "#0"},
				"east": {"uv": [6, 11.66667, 7, 12], "texture": "#0"},
				"south": {"uv": [6, 11.66667, 7, 12], "texture": "#0"},
				"west": {"uv": [6, 11.66667, 7, 12], "texture": "#0"},
				"up": {"uv": [6, 11.66667, 7, 12], "texture": "#0"},
				"down": {"uv": [6, 11.66667, 7, 12], "texture": "#0"}
			}
		},
		{
			"from": [5.69437, 6.291, 9.48533],
			"to": [5.90637, 17.609, 9.69733],
			"rotation": {"angle": 45, "axis": "y", "origin": [6.4, 6.45, 9.44142]},
			"faces": {
				"north": {"uv": [6, 11.66667, 7, 12], "texture": "#0"},
				"east": {"uv": [6, 11.66667, 7, 12], "texture": "#0"},
				"south": {"uv": [6, 11.66667, 7, 12], "texture": "#0"},
				"west": {"uv": [6, 11.66667, 7, 12], "texture": "#0"},
				"up": {"uv": [6, 11.66667, 7, 12], "texture": "#0"},
				"down": {"uv": [6, 11.66667, 7, 12], "texture": "#0"}
			}
		},
		{
			"from": [6.082, 6.291, 10.00933],
			"to": [6.318, 17.609, 10.12133],
			"rotation": {"angle": 0, "axis": "y", "origin": [6.2, 6.45, 9.54142]},
			"faces": {
				"north": {"uv": [6, 11.66667, 7, 12], "texture": "#0"},
				"east": {"uv": [6, 11.66667, 7, 12], "texture": "#0"},
				"south": {"uv": [6, 11.66667, 7, 12], "texture": "#0"},
				"west": {"uv": [6, 11.66667, 7, 12], "texture": "#0"},
				"up": {"uv": [6, 11.66667, 7, 12], "texture": "#0"},
				"down": {"uv": [6, 11.66667, 7, 12], "texture": "#0"}
			}
		},
		{
			"from": [6.49363, 6.291, 9.38551],
			"to": [6.70563, 17.609, 9.59751],
			"rotation": {"angle": 45, "axis": "y", "origin": [6, 6.45, 9.64142]},
			"faces": {
				"north": {"uv": [6, 11.66667, 7, 12], "texture": "#0"},
				"east": {"uv": [6, 11.66667, 7, 12], "texture": "#0"},
				"south": {"uv": [6, 11.66667, 7, 12], "texture": "#0"},
				"west": {"uv": [6, 11.66667, 7, 12], "texture": "#0"},
				"up": {"uv": [6, 11.66667, 7, 12], "texture": "#0"},
				"down": {"uv": [6, 11.66667, 7, 12], "texture": "#0"}
			}
		},
		{
			"from": [6.03791, 6.291, 9.11142],
			"to": [6.46791, 17.609, 9.97142],
			"rotation": {"angle": 0, "axis": "y", "origin": [6, 6.45, 9.54142]},
			"faces": {
				"north": {"uv": [6, 11.66667, 7, 12], "texture": "#0"},
				"east": {"uv": [6, 11.66667, 7, 12], "texture": "#0"},
				"south": {"uv": [6, 11.66667, 7, 12], "texture": "#0"},
				"west": {"uv": [6, 11.66667, 7, 12], "texture": "#0"},
				"up": {"uv": [6, 11.66667, 7, 12], "texture": "#0"},
				"down": {"uv": [6, 11.66667, 7, 12], "texture": "#0"}
			}
		},
		{
			"from": [5.74409, 6.291, 9.93505],
			"to": [5.95609, 17.609, 10.14705],
			"rotation": {"angle": 45, "axis": "y", "origin": [6, 6.45, 9.44142]},
			"faces": {
				"north": {"uv": [6, 11.66667, 7, 12], "texture": "#0"},
				"east": {"uv": [6, 11.66667, 7, 12], "texture": "#0"},
				"south": {"uv": [6, 11.66667, 7, 12], "texture": "#0"},
				"west": {"uv": [6, 11.66667, 7, 12], "texture": "#0"},
				"up": {"uv": [6, 11.66667, 7, 12], "texture": "#0"},
				"down": {"uv": [6, 11.66667, 7, 12], "texture": "#0"}
			}
		},
		{
			"from": [6.20663, 7.622, 10.18547],
			"to": [6.30263, 7.872, 10.28147],
			"rotation": {"angle": 0, "axis": "y", "origin": [6.25463, 10.3, 10.16944]},
			"faces": {
				"north": {"uv": [4, 4, 4.33333, 4.33333], "texture": "#0"},
				"east": {"uv": [4, 4, 4.33333, 4.33333], "texture": "#0"},
				"south": {"uv": [4, 4, 4.33333, 4.33333], "texture": "#0"},
				"west": {"uv": [4, 4, 4.33333, 4.33333], "texture": "#0"},
				"up": {"uv": [4, 4, 4.33333, 4.33333], "texture": "#0"},
				"down": {"uv": [4, 4, 4.33333, 4.33333], "texture": "#0"}
			}
		},
		{
			"from": [6.20663, 7.80145, 10.2598],
			"to": [6.30263, 8.05145, 10.3558],
			"rotation": {"angle": 45, "axis": "x", "origin": [6.25463, 7.92645, 10.3078]},
			"faces": {
				"north": {"uv": [4, 4, 4.33333, 4.33333], "texture": "#0"},
				"east": {"uv": [4, 4, 4.33333, 4.33333], "texture": "#0"},
				"south": {"uv": [4, 4, 4.33333, 4.33333], "texture": "#0"},
				"west": {"uv": [4, 4, 4.33333, 4.33333], "texture": "#0"},
				"up": {"uv": [4, 4, 4.33333, 4.33333], "texture": "#0"},
				"down": {"uv": [4, 4, 4.33333, 4.33333], "texture": "#0"}
			}
		},
		{
			"from": [6.20663, 7.95278, 10.36225],
			"to": [6.30263, 8.04878, 10.61225],
			"rotation": {"angle": 0, "axis": "x", "origin": [6.25463, 8.00078, 10.48725]},
			"faces": {
				"north": {"uv": [4, 4, 4.33333, 4.33333], "rotation": 90, "texture": "#0"},
				"east": {"uv": [4, 4, 4.33333, 4.33333], "rotation": 90, "texture": "#0"},
				"south": {"uv": [4, 4, 4.33333, 4.33333], "rotation": 90, "texture": "#0"},
				"west": {"uv": [4, 4, 4.33333, 4.33333], "rotation": 90, "texture": "#0"},
				"up": {"uv": [4, 4, 4.33333, 4.33333], "rotation": 90, "texture": "#0"},
				"down": {"uv": [4, 4, 4.33333, 4.33333], "rotation": 90, "texture": "#0"}
			}
		},
		{
			"from": [6.20663, 7.87845, 10.54169],
			"to": [6.30263, 7.97445, 10.79169],
			"rotation": {"angle": 45, "axis": "x", "origin": [6.25463, 7.92645, 10.66669]},
			"faces": {
				"north": {"uv": [4, 4, 4.33333, 4.33333], "rotation": 90, "texture": "#0"},
				"east": {"uv": [4, 4, 4.33333, 4.33333], "rotation": 90, "texture": "#0"},
				"south": {"uv": [4, 4, 4.33333, 4.33333], "rotation": 90, "texture": "#0"},
				"west": {"uv": [4, 4, 4.33333, 4.33333], "rotation": 90, "texture": "#0"},
				"up": {"uv": [4, 4, 4.33333, 4.33333], "rotation": 90, "texture": "#0"},
				"down": {"uv": [4, 4, 4.33333, 4.33333], "rotation": 90, "texture": "#0"}
			}
		},
		{
			"from": [6.20663, 7.622, 10.31236],
			"to": [6.30263, 7.872, 10.40836],
			"rotation": {"angle": -45, "axis": "x", "origin": [6.25463, 7.59383, 10.55069]},
			"faces": {
				"north": {"uv": [4, 4, 4.33333, 4.33333], "texture": "#0"},
				"east": {"uv": [4, 4, 4.33333, 4.33333], "texture": "#0"},
				"south": {"uv": [4, 4, 4.33333, 4.33333], "texture": "#0"},
				"west": {"uv": [4, 4, 4.33333, 4.33333], "texture": "#0"},
				"up": {"uv": [4, 4, 4.33333, 4.33333], "texture": "#0"},
				"down": {"uv": [4, 4, 4.33333, 4.33333], "texture": "#0"}
			}
		},
		{
			"from": [6.20663, 7.44522, 10.36225],
			"to": [6.30263, 7.54122, 10.61225],
			"rotation": {"angle": 0, "axis": "x", "origin": [6.25463, 7.59383, 10.55069]},
			"faces": {
				"north": {"uv": [4, 4, 4.33333, 4.33333], "rotation": 270, "texture": "#0"},
				"east": {"uv": [4, 4, 4.33333, 4.33333], "rotation": 270, "texture": "#0"},
				"south": {"uv": [4, 4, 4.33333, 4.33333], "rotation": 270, "texture": "#0"},
				"west": {"uv": [4, 4, 4.33333, 4.33333], "rotation": 270, "texture": "#0"},
				"up": {"uv": [4, 4, 4.33333, 4.33333], "rotation": 270, "texture": "#0"},
				"down": {"uv": [4, 4, 4.33333, 4.33333], "rotation": 270, "texture": "#0"}
			}
		},
		{
			"from": [6.20663, 7.44522, 10.48914],
			"to": [6.30263, 7.54122, 10.73914],
			"rotation": {"angle": -45, "axis": "x", "origin": [6.25463, 7.59383, 10.55069]},
			"faces": {
				"north": {"uv": [4, 4, 4.33333, 4.33333], "rotation": 270, "texture": "#0"},
				"east": {"uv": [4, 4, 4.33333, 4.33333], "rotation": 270, "texture": "#0"},
				"south": {"uv": [4, 4, 4.33333, 4.33333], "rotation": 270, "texture": "#0"},
				"west": {"uv": [4, 4, 4.33333, 4.33333], "rotation": 270, "texture": "#0"},
				"up": {"uv": [4, 4, 4.33333, 4.33333], "rotation": 270, "texture": "#0"},
				"down": {"uv": [4, 4, 4.33333, 4.33333], "rotation": 270, "texture": "#0"}
			}
		},
		{
			"from": [6.20663, 7.622, 10.69302],
			"to": [6.30263, 7.872, 10.78902],
			"rotation": {"angle": 0, "axis": "x", "origin": [6.25463, 7.59383, 10.55069]},
			"faces": {
				"north": {"uv": [4, 4, 4.33333, 4.33333], "rotation": 180, "texture": "#0"},
				"east": {"uv": [4, 4, 4.33333, 4.33333], "rotation": 180, "texture": "#0"},
				"south": {"uv": [4, 4, 4.33333, 4.33333], "rotation": 180, "texture": "#0"},
				"west": {"uv": [4, 4, 4.33333, 4.33333], "rotation": 180, "texture": "#0"},
				"up": {"uv": [4, 4, 4.33333, 4.33333], "rotation": 180, "texture": "#0"},
				"down": {"uv": [4, 4, 4.33333, 4.33333], "rotation": 180, "texture": "#0"}
			}
		},
		{
			"from": [5.74258, 7.632, 8.99342],
			"to": [6.32258, 7.864, 10.15342],
			"rotation": {"angle": 0, "axis": "y", "origin": [5.85858, 10.3, 9.34142]},
			"faces": {
				"north": {"uv": [3.66667, 11, 4.33333, 12], "texture": "#0"},
				"east": {"uv": [3.66667, 11, 4.33333, 12], "texture": "#0"},
				"south": {"uv": [3.66667, 11, 4.33333, 12], "texture": "#0"},
				"west": {"uv": [3.66667, 11, 4.33333, 12], "texture": "#0"},
				"up": {"uv": [3.66667, 11, 4.33333, 12], "texture": "#0"},
				"down": {"uv": [3.66667, 11, 4.33333, 12], "texture": "#0"}
			}
		},
		{
			"from": [5.8246, 7.632, 8.95945],
			"to": [6.0566, 7.864, 9.19145],
			"rotation": {"angle": 45, "axis": "y", "origin": [5.8246, 10.3, 9.07545]},
			"faces": {
				"north": {"uv": [3.66667, 11, 4.33333, 12], "texture": "#0"},
				"east": {"uv": [3.66667, 11, 4.33333, 12], "texture": "#0"},
				"south": {"uv": [3.66667, 11, 4.33333, 12], "texture": "#0"},
				"west": {"uv": [3.66667, 11, 4.33333, 12], "texture": "#0"},
				"up": {"uv": [3.66667, 11, 4.33333, 12], "texture": "#0"},
				"down": {"uv": [3.66667, 11, 4.33333, 12], "texture": "#0"}
			}
		},
		{
			"from": [5.90663, 7.632, 8.82937],
			"to": [6.60263, 7.864, 9.06137],
			"rotation": {"angle": 0, "axis": "y", "origin": [15.30263, 17.26, 18.10937]},
			"faces": {
				"north": {"uv": [3.66667, 11, 4.33333, 12], "texture": "#0"},
				"east": {"uv": [3.66667, 11, 4.33333, 12], "texture": "#0"},
				"south": {"uv": [3.66667, 11, 4.33333, 12], "texture": "#0"},
				"west": {"uv": [3.66667, 11, 4.33333, 12], "texture": "#0"},
				"up": {"uv": [3.66667, 11, 4.33333, 12], "texture": "#0"},
				"down": {"uv": [3.66667, 11, 4.33333, 12], "texture": "#0"}
			}
		},
		{
			"from": [5.8699, 7.632, 9.87806],
			"to": [6.1019, 7.864, 10.11006],
			"rotation": {"angle": 45, "axis": "y", "origin": [6.13863, 10.3, 10.16944]},
			"faces": {
				"north": {"uv": [3.66667, 11, 4.33333, 12], "texture": "#0"},
				"east": {"uv": [3.66667, 11, 4.33333, 12], "texture": "#0"},
				"south": {"uv": [3.66667, 11, 4.33333, 12], "texture": "#0"},
				"west": {"uv": [3.66667, 11, 4.33333, 12], "texture": "#0"},
				"up": {"uv": [3.66667, 11, 4.33333, 12], "texture": "#0"},
				"down": {"uv": [3.66667, 11, 4.33333, 12], "texture": "#0"}
			}
		},
		{
			"from": [5.90663, 7.632, 10.08547],
			"to": [6.60263, 7.864, 10.31747],
			"rotation": {"angle": 0, "axis": "y", "origin": [6.25463, 10.3, 10.16944]},
			"faces": {
				"north": {"uv": [3.66667, 11, 4.33333, 12], "texture": "#0"},
				"east": {"uv": [3.66667, 11, 4.33333, 12], "texture": "#0"},
				"south": {"uv": [3.66667, 11, 4.33333, 12], "texture": "#0"},
				"west": {"uv": [3.66667, 11, 4.33333, 12], "texture": "#0"},
				"up": {"uv": [3.66667, 11, 4.33333, 12], "texture": "#0"},
				"down": {"uv": [3.66667, 11, 4.33333, 12], "texture": "#0"}
			}
		},
		{
			"from": [6.56865, 7.632, 8.84345],
			"to": [6.80065, 7.864, 9.07545],
			"rotation": {"angle": 45, "axis": "y", "origin": [6.68465, 10.3, 9.07545]},
			"faces": {
				"north": {"uv": [3.66667, 11, 4.33333, 12], "texture": "#0"},
				"east": {"uv": [3.66667, 11, 4.33333, 12], "texture": "#0"},
				"south": {"uv": [3.66667, 11, 4.33333, 12], "texture": "#0"},
				"west": {"uv": [3.66667, 11, 4.33333, 12], "texture": "#0"},
				"up": {"uv": [3.66667, 11, 4.33333, 12], "texture": "#0"},
				"down": {"uv": [3.66667, 11, 4.33333, 12], "texture": "#0"}
			}
		},
		{
			"from": [6.18668, 7.632, 8.99342],
			"to": [6.76668, 7.864, 10.15342],
			"rotation": {"angle": 0, "axis": "y", "origin": [6.65068, 10.3, 9.34142]},
			"faces": {
				"north": {"uv": [3.66667, 11, 4.33333, 12], "texture": "#0"},
				"east": {"uv": [3.66667, 11, 4.33333, 12], "texture": "#0"},
				"south": {"uv": [3.66667, 11, 4.33333, 12], "texture": "#0"},
				"west": {"uv": [3.66667, 11, 4.33333, 12], "texture": "#0"},
				"up": {"uv": [3.66667, 11, 4.33333, 12], "texture": "#0"},
				"down": {"uv": [3.66667, 11, 4.33333, 12], "texture": "#0"}
			}
		},
		{
			"from": [6.43, 7.632, 10.20616],
			"to": [6.662, 7.864, 10.43816],
			"rotation": {"angle": 45, "axis": "y", "origin": [6.37063, 10.3, 10.16944]},
			"faces": {
				"north": {"uv": [3.66667, 11, 4.33333, 12], "texture": "#0"},
				"east": {"uv": [3.66667, 11, 4.33333, 12], "texture": "#0"},
				"south": {"uv": [3.66667, 11, 4.33333, 12], "texture": "#0"},
				"west": {"uv": [3.66667, 11, 4.33333, 12], "texture": "#0"},
				"up": {"uv": [3.66667, 11, 4.33333, 12], "texture": "#0"},
				"down": {"uv": [3.66667, 11, 4.33333, 12], "texture": "#0"}
			}
		},
		{
			"from": [6.182, 16.391, 8.76151],
			"to": [6.218, 17.609, 8.96151],
			"rotation": {"angle": 0, "axis": "y", "origin": [6.3, 6.45, 9.24142]},
			"faces": {
				"north": {"uv": [6.33333, 11.33333, 6.66667, 11.66667], "texture": "#0"},
				"east": {"uv": [6.33333, 11.33333, 6.66667, 11.66667], "texture": "#0"},
				"south": {"uv": [6.33333, 11.33333, 6.66667, 11.66667], "texture": "#0"},
				"west": {"uv": [6.33333, 11.33333, 6.66667, 11.66667], "texture": "#0"},
				"up": {"uv": [6.33333, 11.33333, 6.66667, 11.66667], "texture": "#0"},
				"down": {"uv": [6.33333, 11.33333, 6.66667, 11.66667], "texture": "#0"}
			}
		},
		{
			"from": [6.182, 17.609, 8.76151],
			"to": [6.218, 18.409, 10.32151],
			"rotation": {"angle": 0, "axis": "x", "origin": [6.3, 17.709, 9.37051]},
			"faces": {
				"north": {"uv": [6.33333, 11.33333, 6.66667, 11.66667], "rotation": 90, "texture": "#0"},
				"east": {"uv": [6.33333, 11.33333, 6.66667, 11.66667], "rotation": 90, "texture": "#0"},
				"south": {"uv": [6.33333, 11.33333, 6.66667, 11.66667], "rotation": 90, "texture": "#0"},
				"west": {"uv": [6.33333, 11.33333, 6.66667, 11.66667], "rotation": 90, "texture": "#0"},
				"up": {"uv": [6.33333, 11.33333, 6.66667, 11.66667], "rotation": 90, "texture": "#0"},
				"down": {"uv": [6.33333, 11.33333, 6.66667, 11.66667], "rotation": 90, "texture": "#0"}
			}
		},
		{
			"from": [6.182, 17.091, 10.12151],
			"to": [6.218, 17.609, 10.32151],
			"rotation": {"angle": 0, "axis": "y", "origin": [6.3, 6.45, 10.70142]},
			"faces": {
				"north": {"uv": [6.33333, 11.33333, 6.66667, 11.66667], "texture": "#0"},
				"east": {"uv": [6.33333, 11.33333, 6.66667, 11.66667], "texture": "#0"},
				"south": {"uv": [6.33333, 11.33333, 6.66667, 11.66667], "texture": "#0"},
				"west": {"uv": [6.33333, 11.33333, 6.66667, 11.66667], "texture": "#0"},
				"up": {"uv": [6.33333, 11.33333, 6.66667, 11.66667], "texture": "#0"},
				"down": {"uv": [6.33333, 11.33333, 6.66667, 11.66667], "texture": "#0"}
			}
		},
		{
			"from": [6.132, 18.26243, 8.91537],
			"to": [6.268, 18.48043, 9.91537],
			"rotation": {"angle": 45, "axis": "x", "origin": [6.3, 18.52143, 9.01537]},
			"faces": {
				"north": {"uv": [6.33333, 11.33333, 6.66667, 11.66667], "texture": "#0"},
				"east": {"uv": [6.33333, 11.33333, 6.66667, 11.66667], "texture": "#0"},
				"south": {"uv": [6.33333, 11.33333, 6.66667, 11.66667], "texture": "#0"},
				"west": {"uv": [6.33333, 11.33333, 6.66667, 11.66667], "texture": "#0"},
				"up": {"uv": [6.33333, 11.33333, 6.66667, 11.66667], "texture": "#0"},
				"down": {"uv": [6.33333, 11.33333, 6.66667, 11.66667], "texture": "#0"}
			}
		},
		{
			"from": [6.132, 16.70189, 9.46862],
			"to": [6.268, 17.80189, 9.61462],
			"rotation": {"angle": 0, "axis": "x", "origin": [6.3, 17.60189, 9.72762]},
			"faces": {
				"north": {"uv": [6.33333, 11.33333, 6.66667, 11.66667], "rotation": 90, "texture": "#0"},
				"east": {"uv": [6.33333, 11.33333, 6.66667, 11.66667], "rotation": 90, "texture": "#0"},
				"south": {"uv": [6.33333, 11.33333, 6.66667, 11.66667], "rotation": 90, "texture": "#0"},
				"west": {"uv": [6.33333, 11.33333, 6.66667, 11.66667], "rotation": 90, "texture": "#0"},
				"up": {"uv": [6.33333, 11.33333, 6.66667, 11.66667], "rotation": 90, "texture": "#0"},
				"down": {"uv": [6.33333, 11.33333, 6.66667, 11.66667], "rotation": 90, "texture": "#0"}
			}
		},
		{
			"from": [6.182, 18.26315, 8.91566],
			"to": [6.218, 18.56315, 10.16566],
			"rotation": {"angle": 0, "axis": "x", "origin": [6.3, 18.41315, 9.02466]},
			"faces": {
				"north": {"uv": [6.33333, 11.33333, 6.66667, 11.66667], "rotation": 90, "texture": "#0"},
				"east": {"uv": [6.33333, 11.33333, 6.66667, 11.66667], "rotation": 90, "texture": "#0"},
				"south": {"uv": [6.33333, 11.33333, 6.66667, 11.66667], "rotation": 90, "texture": "#0"},
				"west": {"uv": [6.33333, 11.33333, 6.66667, 11.66667], "rotation": 90, "texture": "#0"},
				"up": {"uv": [6.33333, 11.33333, 6.66667, 11.66667], "rotation": 90, "texture": "#0"},
				"down": {"uv": [6.33333, 11.33333, 6.66667, 11.66667], "rotation": 90, "texture": "#0"}
			}
		},
		{
			"from": [6.132, 17.4093, 10.0208],
			"to": [6.268, 18.4093, 10.2388],
			"rotation": {"angle": 45, "axis": "x", "origin": [6.3, 18.3093, 10.2798]},
			"faces": {
				"north": {"uv": [6.33333, 11.33333, 6.66667, 11.66667], "rotation": 90, "texture": "#0"},
				"east": {"uv": [6.33333, 11.33333, 6.66667, 11.66667], "rotation": 90, "texture": "#0"},
				"south": {"uv": [6.33333, 11.33333, 6.66667, 11.66667], "rotation": 90, "texture": "#0"},
				"west": {"uv": [6.33333, 11.33333, 6.66667, 11.66667], "rotation": 90, "texture": "#0"},
				"up": {"uv": [6.33333, 11.33333, 6.66667, 11.66667], "rotation": 90, "texture": "#0"},
				"down": {"uv": [6.33333, 11.33333, 6.66667, 11.66667], "rotation": 90, "texture": "#0"}
			}
		},
		{
			"from": [6.132, 16.90241, 10.10908],
			"to": [6.268, 17.22041, 10.40908],
			"rotation": {"angle": 45, "axis": "x", "origin": [6.3, 17.26141, 10.20908]},
			"faces": {
				"north": {"uv": [6.33333, 11.33333, 6.66667, 11.66667], "texture": "#0"},
				"east": {"uv": [6.33333, 11.33333, 6.66667, 11.66667], "texture": "#0"},
				"south": {"uv": [6.33333, 11.33333, 6.66667, 11.66667], "texture": "#0"},
				"west": {"uv": [6.33333, 11.33333, 6.66667, 11.66667], "texture": "#0"},
				"up": {"uv": [6.33333, 11.33333, 6.66667, 11.66667], "texture": "#0"},
				"down": {"uv": [6.33333, 11.33333, 6.66667, 11.66667], "texture": "#0"}
			}
		},
		{
			"from": [6.132, 16.14928, 8.82708],
			"to": [6.268, 16.44928, 9.24508],
			"rotation": {"angle": 45, "axis": "x", "origin": [6.3, 16.34928, 9.08608]},
			"faces": {
				"north": {"uv": [6.33333, 11.33333, 6.66667, 11.66667], "rotation": 90, "texture": "#0"},
				"east": {"uv": [6.33333, 11.33333, 6.66667, 11.66667], "rotation": 90, "texture": "#0"},
				"south": {"uv": [6.33333, 11.33333, 6.66667, 11.66667], "rotation": 90, "texture": "#0"},
				"west": {"uv": [6.33333, 11.33333, 6.66667, 11.66667], "rotation": 90, "texture": "#0"},
				"up": {"uv": [6.33333, 11.33333, 6.66667, 11.66667], "rotation": 90, "texture": "#0"},
				"down": {"uv": [6.33333, 11.33333, 6.66667, 11.66667], "rotation": 90, "texture": "#0"}
			}
		}
	],
	"display": {
		"thirdperson_righthand": {
			"rotation": [0, 0, -180],
			"translation": [-2.25, 0.5, -0.5],
			"scale": [1.2, 1.4, 1.4]
		},
		"thirdperson_lefthand": {
			"rotation": [-180, 0, 0],
			"translation": [-2.5, 0.25, 4],
			"scale": [1.2, 1.4, 1.4]
		},
		"firstperson_righthand": {
			"rotation": [137, 9, 0],
			"translation": [-1.75, 4, 4.5]
		},
		"firstperson_lefthand": {
			"rotation": [142, 9, 0],
			"translation": [-5.25, 3.75, 5.25]
		},
		"ground": {
			"translation": [2, 5.25, -1.5],
			"scale": [1.2, 1.2, 1.2]
		},
		"gui": {
			"rotation": [-62, 28, 38],
			"translation": [1.5, -2.75, 0],
			"scale": [1.25, 1.25, 1.25]
		},
		"head": {
			"rotation": [-90, 0, 0],
			"translation": [1.75, -6.5, -9]
		},
		"fixed": {
			"rotation": [90, 45, -90],
			"translation": [-4, -0.25, -3],
			"scale": [1.2, 1.4, 1.4]
		}
	}
}