{
    "textures": {
        "0": "gci:items/common/mpz",
        "particle": "gci:items/common/mpz"
    },
    "elements": [
        {
            "from": [
                7.6,
                3.08612,
                5.03865
            ],
            "to": [
                8.4,
                5.51112,
                6.03865
            ],
            "rotation": {
                "angle": 22.5,
                "axis": "x",
                "origin": [
                    8,
                    4.74862,
                    5.63865
                ]
            },
            "faces": {
                "north": {
                    "uv": [
                        6.333,
                        3.333,
                        6.76333,
                        4.47367
                    ],
                    "texture": "#0"
                },
                "east": {
                    "uv": [
                        6.333,
                        3.333,
                        6.76333,
                        4.47367
                    ],
                    "texture": "#0"
                },
                "south": {
                    "uv": [
                        6.333,
                        3.333,
                        6.76333,
                        4.47367
                    ],
                    "texture": "#0"
                },
                "west": {
                    "uv": [
                        6.333,
                        3.333,
                        6.76333,
                        4.47367
                    ],
                    "texture": "#0"
                },
                "up": {
                    "uv": [
                        6.333,
                        3.333,
                        6.76333,
                        4.47367
                    ],
                    "texture": "#0"
                },
                "down": {
                    "uv": [
                        6.333,
                        3.333,
                        6.76333,
                        4.47367
                    ],
                    "texture": "#0"
                }
            }
        },
        {
            "from": [
                7.6,
                5.3,
                5.3
            ],
            "to": [
                8.4,
                7.125,
                6.3
            ],
            "rotation": {
                "angle": 0,
                "axis": "y",
                "origin": [
                    15.4,
                    13.2,
                    13
                ]
            },
            "faces": {
                "north": {
                    "uv": [
                        6.333,
                        3.333,
                        6.76333,
                        4.47367
                    ],
                    "texture": "#0"
                },
                "east": {
                    "uv": [
                        6.333,
                        3.333,
                        6.76333,
                        4.47367
                    ],
                    "texture": "#0"
                },
                "south": {
                    "uv": [
                        6.333,
                        3.333,
                        6.76333,
                        4.47367
                    ],
                    "texture": "#0"
                },
                "west": {
                    "uv": [
                        6.333,
                        3.333,
                        6.76333,
                        4.47367
                    ],
                    "texture": "#0"
                },
                "up": {
                    "uv": [
                        6.333,
                        3.333,
                        6.76333,
                        4.47367
                    ],
                    "texture": "#0"
                },
                "down": {
                    "uv": [
                        6.333,
                        3.333,
                        6.76333,
                        4.47367
                    ],
                    "texture": "#0"
                }
            }
        },
        {
            "from": [
                7.8,
                5.3,
                6.275
            ],
            "to": [
                8.2,
                6.975,
                6.35
            ],
            "rotation": {
                "angle": 0,
                "axis": "y",
                "origin": [
                    8,
                    6.2125,
                    5.8
                ]
            },
            "faces": {
                "north": {
                    "uv": [
                        1.333,
                        3.333,
                        1.76333,
                        4.47367
                    ],
                    "texture": "#0"
                },
                "east": {
                    "uv": [
                        1.333,
                        3.333,
                        1.76333,
                        4.47367
                    ],
                    "texture": "#0"
                },
                "south": {
                    "uv": [
                        1.333,
                        3.333,
                        1.76333,
                        4.47367
                    ],
                    "texture": "#0"
                },
                "west": {
                    "uv": [
                        1.333,
                        3.333,
                        1.76333,
                        4.47367
                    ],
                    "texture": "#0"
                },
                "up": {
                    "uv": [
                        1.333,
                        3.333,
                        1.76333,
                        4.47367
                    ],
                    "texture": "#0"
                },
                "down": {
                    "uv": [
                        1.333,
                        3.333,
                        1.76333,
                        4.47367
                    ],
                    "texture": "#0"
                }
            }
        },
        {
            "from": [
                7.975,
                5.5,
                5.25
            ],
            "to": [
                8.025,
                7.05,
                5.35
            ],
            "rotation": {
                "angle": 0,
                "axis": "y",
                "origin": [
                    8,
                    6.2125,
                    4.8
                ]
            },
            "faces": {
                "north": {
                    "uv": [
                        1.333,
                        3.333,
                        1.76333,
                        4.47367
                    ],
                    "texture": "#0"
                },
                "east": {
                    "uv": [
                        1.333,
                        3.333,
                        1.76333,
                        4.47367
                    ],
                    "texture": "#0"
                },
                "south": {
                    "uv": [
                        1.333,
                        3.333,
                        1.76333,
                        4.47367
                    ],
                    "texture": "#0"
                },
                "west": {
                    "uv": [
                        1.333,
                        3.333,
                        1.76333,
                        4.47367
                    ],
                    "texture": "#0"
                },
                "up": {
                    "uv": [
                        1.333,
                        3.333,
                        1.76333,
                        4.47367
                    ],
                    "texture": "#0"
                },
                "down": {
                    "uv": [
                        1.333,
                        3.333,
                        1.76333,
                        4.47367
                    ],
                    "texture": "#0"
                }
            }
        },
        {
            "from": [
                7.8,
                2.9281,
                5.95736
            ],
            "to": [
                8.2,
                5.3781,
                6.03236
            ],
            "rotation": {
                "angle": 22.5,
                "axis": "x",
                "origin": [
                    8,
                    4.5406,
                    5.99486
                ]
            },
            "faces": {
                "north": {
                    "uv": [
                        1.333,
                        3.333,
                        1.76333,
                        4.47367
                    ],
                    "texture": "#0"
                },
                "east": {
                    "uv": [
                        1.333,
                        3.333,
                        1.76333,
                        4.47367
                    ],
                    "texture": "#0"
                },
                "south": {
                    "uv": [
                        1.333,
                        3.333,
                        1.76333,
                        4.47367
                    ],
                    "texture": "#0"
                },
                "west": {
                    "uv": [
                        1.333,
                        3.333,
                        1.76333,
                        4.47367
                    ],
                    "texture": "#0"
                },
                "up": {
                    "uv": [
                        1.333,
                        3.333,
                        1.76333,
                        4.47367
                    ],
                    "texture": "#0"
                },
                "down": {
                    "uv": [
                        1.333,
                        3.333,
                        1.76333,
                        4.47367
                    ],
                    "texture": "#0"
                }
            }
        },
        {
            "from": [
                7.575,
                2.8781,
                5.55736
            ],
            "to": [
                8.425,
                2.9531,
                6.03236
            ],
            "rotation": {
                "angle": 22.5,
                "axis": "x",
                "origin": [
                    8,
                    4.5406,
                    5.99486
                ]
            },
            "faces": {
                "north": {
                    "uv": [
                        1.333,
                        3.333,
                        1.76333,
                        4.47367
                    ],
                    "texture": "#0"
                },
                "east": {
                    "uv": [
                        1.333,
                        3.333,
                        1.76333,
                        4.47367
                    ],
                    "texture": "#0"
                },
                "south": {
                    "uv": [
                        1.333,
                        3.333,
                        1.76333,
                        4.47367
                    ],
                    "texture": "#0"
                },
                "west": {
                    "uv": [
                        1.333,
                        3.333,
                        1.76333,
                        4.47367
                    ],
                    "texture": "#0"
                },
                "up": {
                    "uv": [
                        1.333,
                        3.333,
                        1.76333,
                        4.47367
                    ],
                    "texture": "#0"
                },
                "down": {
                    "uv": [
                        1.333,
                        3.333,
                        1.76333,
                        4.47367
                    ],
                    "texture": "#0"
                }
            }
        },
        {
            "from": [
                7.775,
                2.8781,
                4.93236
            ],
            "to": [
                8.225,
                2.9531,
                5.55736
            ],
            "rotation": {
                "angle": 22.5,
                "axis": "x",
                "origin": [
                    8,
                    4.5406,
                    5.99486
                ]
            },
            "faces": {
                "north": {
                    "uv": [
                        1.333,
                        3.333,
                        1.76333,
                        4.47367
                    ],
                    "texture": "#0"
                },
                "east": {
                    "uv": [
                        1.333,
                        3.333,
                        1.76333,
                        4.47367
                    ],
                    "texture": "#0"
                },
                "south": {
                    "uv": [
                        1.333,
                        3.333,
                        1.76333,
                        4.47367
                    ],
                    "texture": "#0"
                },
                "west": {
                    "uv": [
                        1.333,
                        3.333,
                        1.76333,
                        4.47367
                    ],
                    "texture": "#0"
                },
                "up": {
                    "uv": [
                        1.333,
                        3.333,
                        1.76333,
                        4.47367
                    ],
                    "texture": "#0"
                },
                "down": {
                    "uv": [
                        1.333,
                        3.333,
                        1.76333,
                        4.47367
                    ],
                    "texture": "#0"
                }
            }
        },
        {
            "from": [
                7.975,
                2.9531,
                4.93236
            ],
            "to": [
                8.025,
                5.2531,
                4.98236
            ],
            "rotation": {
                "angle": 22.5,
                "axis": "x",
                "origin": [
                    8,
                    4.5406,
                    5.99486
                ]
            },
            "faces": {
                "north": {
                    "uv": [
                        1.333,
                        3.333,
                        1.76333,
                        4.47367
                    ],
                    "texture": "#0"
                },
                "east": {
                    "uv": [
                        1.333,
                        3.333,
                        1.76333,
                        4.47367
                    ],
                    "texture": "#0"
                },
                "south": {
                    "uv": [
                        1.333,
                        3.333,
                        1.76333,
                        4.47367
                    ],
                    "texture": "#0"
                },
                "west": {
                    "uv": [
                        1.333,
                        3.333,
                        1.76333,
                        4.47367
                    ],
                    "texture": "#0"
                },
                "up": {
                    "uv": [
                        1.333,
                        3.333,
                        1.76333,
                        4.47367
                    ],
                    "texture": "#0"
                },
                "down": {
                    "uv": [
                        1.333,
                        3.333,
                        1.76333,
                        4.47367
                    ],
                    "texture": "#0"
                }
            }
        }
    ],
    "display": {
        "thirdperson_righthand": {
            "translation": [
                0,
                1.25,
                -1.5
            ]
        },
        "thirdperson_lefthand": {
            "translation": [
                0,
                1.25,
                -1.5
            ]
        },
        "firstperson_righthand": {
            "translation": [
                -1,
                5.75,
                1.5
            ]
        },
        "firstperson_lefthand": {
            "translation": [
                -1,
                5.75,
                1.5
            ]
        },
        "ground": {
            "rotation": [
                0,
                0,
                90
            ],
            "translation": [
                -0.75,
                -1,
                0
            ]
        },
        "gui": {
            "rotation": [
                11,
                28,
                0
            ],
            "translation": [
                2.75,
                2.5,
                0
            ],
            "scale": [
                2,
                2,
                2
            ]
        },
        "head": {
            "translation": [
                0,
                8.75,
                -3.5
            ],
            "scale": [
                2,
                2,
                2
            ]
        },
        "fixed": {
            "rotation": [
                90,
                45,
                -90
            ],
            "translation": [
                2,
                1,
                -1.5
            ],
            "scale": [
                2,
                2,
                2
            ]
        }
    }
}