{
	"credit": "Made with Blockbench",
	"texture_size": [512, 512],
	"textures": {
		"2": "kmrp_items:items/smg1/stock",
		"3": "kmrp_items:items/smg1/stock2",
		"4": "kmrp_items:items/smg1/stock3",
		"5": "kmrp_items:items/smg1/stock5",
		"6": "kmrp_items:items/smg1/texture1",
		"8": "kmrp_items:items/smg1/texture3",
		"10": "kmrp_items:items/smg1/texture5",
		"11": "kmrp_items:items/smg1/texture6"
	},
	"elements": [
		{
			"from": [8.24687, 2.09994, 8.09885],
			"to": [8.74922, 3.30619, 9.21682],
			"rotation": {"angle": 0, "axis": "y", "origin": [8, 2, 8.7]},
			"faces": {
				"north": {"uv": [0.032, 0.032, 0.50234, 1.20625], "texture": "#5"},
				"east": {"uv": [0.032, 0.032, 1.11797, 1.20625], "texture": "#5"},
				"south": {"uv": [0.032, 0.032, 0.50234, 1.20625], "texture": "#5"},
				"west": {"uv": [0.032, 0.032, 1.11797, 1.20625], "texture": "#5"},
				"up": {"uv": [0, 0, 0.50234, 1.11797], "texture": "#5"},
				"down": {"uv": [0.032, 0.032, 0.50234, 1.11797], "texture": "#5"}
			}
		},
		{
			"from": [8.24687, 1.09574, 8.02082],
			"to": [8.74922, 2.29574, 9.13879],
			"rotation": {"angle": 22.5, "axis": "x", "origin": [8, 2, 8.7]},
			"faces": {
				"north": {"uv": [0.032, 0.032, 0.50234, 1.2], "texture": "#5"},
				"east": {"uv": [0.032, 0.032, 1.11797, 1.2], "texture": "#5"},
				"south": {"uv": [0.032, 0.032, 0.50234, 1.2], "texture": "#5"},
				"west": {"uv": [0.032, 0.032, 1.11797, 1.2], "texture": "#5"},
				"up": {"uv": [0.032, 0.032, 0.50234, 1.11797], "texture": "#5"},
				"down": {"uv": [0.032, 0.032, 0.50234, 1.11797], "texture": "#5"}
			}
		},
		{
			"from": [8.15469, 3.30391, 7.75631],
			"to": [8.84922, 4.32969, 10.44922],
			"faces": {
				"north": {"uv": [14, 14.936, 15.663, 15.936], "texture": "#4"},
				"east": {"uv": [14, 14.936, 15.661, 15.936], "texture": "#4"},
				"west": {"uv": [14, 15, 15.661, 15.936], "texture": "#4"},
				"up": {"uv": [14, 14, 15.663, 15.661], "texture": "#4"},
				"down": {"uv": [14, 14, 15.663, 15.661], "texture": "#4"}
			}
		},
		{
			"from": [8.20156, 4.27109, 9.20156],
			"to": [8.80234, 4.77891, 10.06172],
			"faces": {
				"north": {"uv": [0.032, 0.032, 0.60078, 0.50781], "texture": "#2"},
				"east": {"uv": [0.032, 0.032, 0.86016, 0.50781], "texture": "#2"},
				"south": {"uv": [0.032, 0.032, 0.60078, 0.50781], "texture": "#2"},
				"west": {"uv": [0.032, 0.032, 0.86016, 0.50781], "texture": "#2"},
				"up": {"uv": [0.032, 0.032, 0.60078, 0.86016], "texture": "#2"}
			}
		},
		{
			"from": [8.19766, 4.27109, 7.13125],
			"to": [8.80234, 4.79063, 7.99141],
			"faces": {
				"east": {"uv": [0.032, 0.032, 0.89216, 0.55153], "texture": "#2"},
				"south": {"uv": [0.032, 0.032, 0.63669, 0.55153], "texture": "#2"},
				"west": {"uv": [0.032, 0.032, 0.89216, 0.55153], "texture": "#2"},
				"up": {"uv": [0.032, 0.032, 0.63669, 0.89216], "texture": "#2"}
			}
		},
		{
			"from": [8.20156, 4.27109, 7.13125],
			"to": [8.80234, 4.54844, 8.21016],
			"faces": {
				"east": {"uv": [0.032, 0.032, 0.968, 0.27734], "texture": "#2"},
				"south": {"uv": [0.032, 0.032, 0.60078, 0.27734], "texture": "#2"},
				"west": {"uv": [0.032, 0.032, 0.968, 0.27734], "texture": "#2"},
				"up": {"uv": [0.032, 0.032, 0.60078, 0.968], "texture": "#2"}
			}
		},
		{
			"from": [8.23281, 4.27109, 7.64297],
			"to": [8.77109, 4.75156, 9.3625],
			"faces": {
				"east": {"uv": [0.032, 0.032, 1.71953, 0.48047], "texture": "#3"},
				"west": {"uv": [0.032, 0.032, 1.71953, 0.48047], "texture": "#3"},
				"up": {"uv": [0.032, 0.032, 0.53828, 1.71953], "texture": "#3"}
			}
		},
		{
			"from": [8.20156, 4.45462, 9.93076],
			"to": [8.80234, 4.94681, 10.18935],
			"rotation": {"angle": -45, "axis": "x", "origin": [8, 4.71094, 10.33203]},
			"faces": {
				"east": {"uv": [0.032, 0.032, 0.25859, 0.49219], "texture": "#2"},
				"south": {"uv": [0.032, 0.032, 0.60078, 0.49219], "texture": "#2"},
				"west": {"uv": [0.032, 0.032, 0.25859, 0.49219], "texture": "#2"},
				"up": {"uv": [0.032, 0.032, 0.60078, 0.25859], "texture": "#2"},
				"down": {"uv": [0.032, 0.032, 0.60078, 0.25859], "texture": "#2"}
			}
		},
		{
			"from": [8.20156, 3.91556, 9.91123],
			"to": [8.80234, 4.42728, 10.41201],
			"rotation": {"angle": 0, "axis": "y", "origin": [8, 4.71094, 10.33203]},
			"faces": {
				"east": {"uv": [0.032, 0.032, 0.50078, 0.51172], "texture": "#2"},
				"south": {"uv": [0.032, 0.032, 0.60078, 0.51172], "texture": "#2"},
				"west": {"uv": [0.032, 0.032, 0.50078, 0.51172], "texture": "#2"},
				"up": {"uv": [0.032, 0.032, 0.60078, 0.50078], "texture": "#2"}
			}
		},
		{
			"from": [8.15469, 3.62969, 4.20078],
			"to": [8.84922, 4.85703, 7.75781],
			"faces": {
				"east": {"uv": [8.24219, 11.14297, 11.79922, 12.37031], "texture": "#4"},
				"south": {"uv": [8.15469, 11.14297, 8.84922, 12.37031], "texture": "#4"},
				"west": {"uv": [0, 0, 15.557, 6.228], "texture": "#4"},
				"up": {"uv": [1, 0, 3.693, 3.557], "texture": "#4"},
				"down": {"uv": [8.15469, 8.24219, 8.84922, 11.79922], "texture": "#4"}
			}
		},
		{
			"from": [8.14297, 4.39531, 4.20078],
			"to": [8.85313, 4.86875, 7.34375],
			"faces": {
				"north": {"uv": [7.15078, 11.14297, 7.84531, 12.37031], "texture": "#3"},
				"east": {"uv": [0, 12, 15.55613, 15.22731], "texture": "#3"},
				"south": {"uv": [8.15469, 11.14297, 8.84922, 12.37031], "texture": "#3"},
				"west": {"uv": [0, 12, 15.55613, 15.22731], "texture": "#3"},
				"up": {"uv": [12, 0, 15.69181, 12.55544], "texture": "#3"},
				"down": {"uv": [8.15469, 8.24219, 8.84922, 11.79922], "texture": "#3"}
			}
		},
		{
			"from": [8.15469, 0.37383, 8.26987],
			"to": [8.84922, 0.77773, 8.96987],
			"rotation": {"angle": 45, "axis": "x", "origin": [8, 3.3, 11.9]},
			"faces": {
				"east": {"uv": [15, 15, 15.668, 15.372], "texture": "#4"},
				"south": {"uv": [15, 15, 15.662, 15.372], "texture": "#4"},
				"west": {"uv": [15, 15, 15.668, 15.372], "texture": "#4"},
				"down": {"uv": [15, 15, 15.662, 15.668], "texture": "#4"}
			}
		},
		{
			"from": [8.33828, 3.15152, 10.80903],
			"to": [8.65391, 3.41121, 11.29278],
			"rotation": {"angle": 0, "axis": "y", "origin": [8, 2.59688, 9.82578]},
			"faces": {
				"east": {"uv": [0.032, 0.032, 0.40312, 0.21641], "texture": "#2"},
				"west": {"uv": [0.032, 0.032, 0.40312, 0.21641], "texture": "#2"},
				"down": {"uv": [0.032, 0.032, 0.31563, 0.40312], "texture": "#2"}
			}
		},
		{
			"from": [8.33828, 3.21972, 10.46231],
			"to": [8.65391, 3.68941, 10.55325],
			"rotation": {"angle": 22.5, "axis": "x", "origin": [8, 2.59688, 9.82578]},
			"faces": {
				"north": {"uv": [0.032, 0.032, 0.31563, 0.39141], "rotation": 180, "texture": "#2"},
				"east": {"uv": [0.032, 0.032, 0.39141, -0.032], "rotation": 90, "texture": "#2"},
				"south": {"uv": [0.032, 0.032, 0.31563, 0.39141], "texture": "#2"},
				"west": {"uv": [0.032, 0.032, 0.39141, -0.032], "rotation": 270, "texture": "#2"},
				"down": {"uv": [0.032, 0.032, 0.31563, -0.032], "rotation": 180, "texture": "#2"}
			}
		},
		{
			"from": [8.33828, 3.05616, 10.71387],
			"to": [8.65391, 3.41257, 10.80481],
			"rotation": {"angle": 0, "axis": "y", "origin": [8, 3.10859, 10.76328]},
			"faces": {
				"north": {"uv": [0.032, 0.032, 0.31563, 0.39141], "rotation": 180, "texture": "#2"},
				"east": {"uv": [0.032, 0.032, 0.39141, -0.032], "rotation": 90, "texture": "#2"},
				"south": {"uv": [0.032, 0.032, 0.31563, 0.39141], "texture": "#2"},
				"west": {"uv": [0.032, 0.032, 0.39141, -0.032], "rotation": 270, "texture": "#2"},
				"down": {"uv": [0.032, 0.032, 0.31563, -0.032], "rotation": 180, "texture": "#2"}
			}
		},
		{
			"from": [8.33828, 2.16306, 10.41727],
			"to": [8.65391, 2.25322, 10.67915],
			"rotation": {"angle": -45, "axis": "x", "origin": [8, 2.59688, 9.82578]},
			"faces": {
				"east": {"uv": [0.032, 0.032, 0.25078, -0.032], "texture": "#2"},
				"south": {"uv": [0.032, 0.032, 0.31563, -0.032], "texture": "#2"},
				"west": {"uv": [0.032, 0.032, 0.25078, -0.032], "texture": "#2"},
				"up": {"uv": [0.032, 0.032, 0.31563, 0.25078], "texture": "#2"},
				"down": {"uv": [0.032, 0.032, 0.31563, 0.25078], "texture": "#2"}
			}
		},
		{
			"from": [8.33828, 2.70666, 10.18075],
			"to": [8.65391, 2.81166, 10.55278],
			"rotation": {"angle": 0, "axis": "y", "origin": [8, 2.59688, 9.82578]},
			"faces": {
				"north": {"uv": [0.032, 0.032, 0.31563, -0.032], "texture": "#2"},
				"east": {"uv": [0.032, 0.032, 0.27422, -0.032], "texture": "#2"},
				"south": {"uv": [0.032, 0.032, 0.31563, -0.032], "texture": "#2"},
				"west": {"uv": [0.032, 0.032, 0.27422, -0.032], "texture": "#2"},
				"up": {"uv": [0.032, 0.032, 0.31563, 0.27422], "texture": "#2"},
				"down": {"uv": [0.032, 0.032, 0.31563, 0.27422], "texture": "#2"}
			}
		},
		{
			"from": [8.33828, 2.42592, 10.15401],
			"to": [8.65391, 2.80654, 10.25901],
			"rotation": {"angle": -45, "axis": "x", "origin": [8, 2.59688, 9.82578]},
			"faces": {
				"north": {"uv": [0.032, 0.032, 0.31563, 0.31719], "rotation": 180, "texture": "#2"},
				"east": {"uv": [0.032, 0.032, 0.31719, -0.032], "rotation": 270, "texture": "#2"},
				"south": {"uv": [0.032, 0.032, 0.31563, 0.31719], "texture": "#2"},
				"west": {"uv": [0.032, 0.032, 0.31719, -0.032], "rotation": 90, "texture": "#2"},
				"down": {"uv": [0.032, 0.032, 0.31563, -0.032], "texture": "#2"}
			}
		},
		{
			"from": [8.33828, 2.87513, 10.48792],
			"to": [8.65391, 3.07294, 10.58823],
			"rotation": {"angle": 45, "axis": "x", "origin": [8, 3.10781, 10.51953]},
			"faces": {
				"north": {"uv": [0.032, 0.032, 0.31563, 0.16484], "rotation": 180, "texture": "#2"},
				"east": {"uv": [0.032, 0.032, 0.16484, -0.032], "rotation": 90, "texture": "#2"},
				"south": {"uv": [0.032, 0.032, 0.31563, 0.16484], "texture": "#2"},
				"west": {"uv": [0.032, 0.032, 0.16484, -0.032], "rotation": 270, "texture": "#2"},
				"down": {"uv": [0.032, 0.032, 0.31563, -0.032], "rotation": 180, "texture": "#2"}
			}
		},
		{
			"from": [8.33828, 3.03327, 10.4534],
			"to": [8.65391, 3.31077, 10.54434],
			"rotation": {"angle": 0, "axis": "y", "origin": [8, 3.29063, 10.68359]},
			"faces": {
				"north": {"uv": [0.032, 0.032, 0.31563, 0.23125], "rotation": 180, "texture": "#2"},
				"east": {"uv": [0.032, 0.032, 0.23125, -0.032], "rotation": 90, "texture": "#2"},
				"south": {"uv": [0.032, 0.032, 0.31563, 0.23125], "texture": "#2"},
				"west": {"uv": [0.032, 0.032, 0.23125, -0.032], "rotation": 270, "texture": "#2"},
				"down": {"uv": [0.032, 0.032, 0.31563, -0.032], "rotation": 180, "texture": "#2"}
			}
		},
		{
			"from": [8.33828, 2.9734, 9.90903],
			"to": [8.65391, 3.41121, 10.03184],
			"rotation": {"angle": 0, "axis": "y", "origin": [8, 2.59688, 9.82578]},
			"faces": {
				"north": {"uv": [0.032, 0.032, 0.31563, 0.36484], "texture": "#2"},
				"east": {"uv": [0.032, 0.032, 0.10234, 0.36484], "texture": "#2"},
				"south": {"uv": [0.032, 0.032, 0.31563, 0.36484], "texture": "#2"},
				"west": {"uv": [0.032, 0.032, 0.10234, 0.36484], "texture": "#2"},
				"down": {"uv": [0.032, 0.032, 0.31563, 0.10234], "texture": "#2"}
			}
		},
		{
			"from": [8.33828, 3.09527, 8.93403],
			"to": [8.65391, 3.41121, 9.90997],
			"rotation": {"angle": 0, "axis": "y", "origin": [8, 2.59688, 9.82578]},
			"faces": {
				"east": {"uv": [0.032, 0.032, 0.81328, 0.26328], "texture": "#2"},
				"west": {"uv": [0.032, 0.032, 0.81328, 0.26328], "texture": "#2"},
				"down": {"uv": [0.032, 0.032, 0.31563, 0.81328], "texture": "#2"}
			}
		},
		{
			"name": "ejector",
			"from": [8.34219, 2.80671, 9.24082],
			"to": [8.65781, 3.11155, 9.36691],
			"rotation": {"angle": 0, "axis": "y", "origin": [8, 3.29063, 10.35547]},
			"faces": {
				"north": {"uv": [0.032, 0.032, 0.31563, 0.23125], "texture": "#2"},
				"east": {"uv": [0.032, 0.032, 0.23125, -0.032], "rotation": 270, "texture": "#2"},
				"south": {"uv": [0.032, 0.032, 0.31563, 0.23125], "rotation": 180, "texture": "#2"},
				"west": {"uv": [0.032, 0.032, 0.23125, -0.032], "rotation": 90, "texture": "#2"},
				"up": {"uv": [0.032, 0.032, 0.31563, -0.032], "rotation": 180, "texture": "#2"},
				"down": {"uv": [0.032, 0.032, 0.31563, -0.032], "texture": "#2"}
			}
		},
		{
			"name": "ejector",
			"from": [8.34219, 3.59147, 9.40398],
			"to": [8.65781, 3.80491, 9.51211],
			"rotation": {"angle": -45, "axis": "x", "origin": [8, 3.10781, 10.51953]},
			"faces": {
				"north": {"uv": [0.032, 0.032, 0.31563, 0.16484], "texture": "#2"},
				"east": {"uv": [0.032, 0.032, 0.16484, -0.032], "rotation": 270, "texture": "#2"},
				"south": {"uv": [0.032, 0.032, 0.31563, 0.16484], "rotation": 180, "texture": "#2"},
				"west": {"uv": [0.032, 0.032, 0.16484, -0.032], "rotation": 90, "texture": "#2"},
				"up": {"uv": [0.032, 0.032, 0.31563, -0.032], "rotation": 180, "texture": "#2"},
				"down": {"uv": [0.032, 0.032, 0.31563, -0.032], "texture": "#2"}
			}
		},
		{
			"from": [8.15469, 2.94922, 11.9],
			"to": [8.84922, 4.03125, 15.33125],
			"faces": {
				"north": {"uv": [15, 15, 15.662, 15.936], "texture": "#4"},
				"east": {"uv": [14, 15, 15.399, 15.936], "texture": "#4"},
				"west": {"uv": [15, 14.935, 16, 15.935], "texture": "#4"},
				"up": {"uv": [14.662, 15, 15.662, 16], "texture": "#4"}
			}
		},
		{
			"from": [8.15469, 1.74922, 14.83347],
			"to": [8.84922, 4.03125, 15.37253],
			"rotation": {"angle": 0, "axis": "y", "origin": [8, 4.5, 13.5]},
			"faces": {
				"north": {"uv": [14.662, 15, 15.662, 16], "rotation": 180, "texture": "#4"},
				"east": {"uv": [13, 15, 15.25, 15.507], "rotation": 270, "texture": "#4"},
				"south": {"uv": [15, 15, 15.662, 16], "texture": "#4"},
				"west": {"uv": [13, 15, 15.25, 15.507], "rotation": 90, "texture": "#4"},
				"up": {"uv": [14.662, 14.506, 15.662, 15.506], "rotation": 180, "texture": "#4"},
				"down": {"uv": [15, 15, 15.662, 15.507], "texture": "#4"}
			}
		},
		{
			"from": [8.15469, 2.47201, 12.58164],
			"to": [8.84922, 3.60716, 15.78945],
			"rotation": {"angle": 22.5, "axis": "x", "origin": [8, 4.5, 13.5]},
			"faces": {
				"east": {"uv": [15, 15, 16, 16], "texture": "#4"},
				"west": {"uv": [15, 15, 16, 16], "texture": "#4"},
				"down": {"uv": [15, 15, 15.662, 16], "texture": "#4"}
			}
		},
		{
			"from": [8.15469, 2.6852, 11.17574],
			"to": [8.84922, 4.17583, 11.90699],
			"rotation": {"angle": -45, "axis": "x", "origin": [8, 3.3, 11.9]},
			"faces": {
				"north": {"uv": [15, 14, 15.662, 15.458], "rotation": 180, "texture": "#4"},
				"east": {"uv": [14, 15, 15.458, 15.699], "rotation": 270, "texture": "#4"},
				"west": {"uv": [14, 15, 15.458, 15.699], "rotation": 90, "texture": "#4"},
				"down": {"uv": [15, 15, 15.662, 15.699], "texture": "#4"}
			}
		},
		{
			"from": [8.15469, 3.30391, 10.44688],
			"to": [8.84922, 3.93125, 12.04688],
			"faces": {
				"east": {"uv": [14, 15, 15.568, 15.595], "texture": "#4"},
				"west": {"uv": [14, 15, 15.568, 15.595], "texture": "#4"},
				"up": {"uv": [15, 14, 15.662, 15.568], "texture": "#4"},
				"down": {"uv": [15, 14, 15.662, 15.568], "texture": "#4"}
			}
		},
		{
			"from": [8.15469, 4.3, 11.7],
			"to": [8.84922, 4.44734, 11.99581],
			"rotation": {"angle": -22.5, "axis": "x", "origin": [8, 4, 13]},
			"faces": {
				"east": {"uv": [15, 15, 15.264, 15.115], "texture": "#4"},
				"west": {"uv": [15, 15, 15.264, 15.115], "texture": "#4"},
				"up": {"uv": [15, 15, 15.662, 15.264], "texture": "#4"}
			}
		},
		{
			"from": [8.15469, 2.96697, 10.16516],
			"to": [8.84922, 3.69822, 11.39641],
			"rotation": {"angle": 22.5, "axis": "x", "origin": [8, 3.3, 11.9]},
			"faces": {
				"north": {"uv": [15, 15, 15.662, 15.699], "texture": "#4"},
				"east": {"uv": [14, 15, 15.199, 15.699], "texture": "#4"},
				"west": {"uv": [14, 15, 15.199, 15.699], "texture": "#4"},
				"up": {"uv": [15, 14, 15.662, 15.199], "texture": "#4"}
			}
		},
		{
			"from": [8.35469, 4.37266, 1.01719],
			"to": [8.64922, 4.67266, 4.10938],
			"faces": {
				"east": {"uv": [0.032, 0.032, 2.968, 0.3], "texture": "#3"},
				"west": {"uv": [0.032, 0.032, 2.968, 0.3], "texture": "#3"},
				"up": {"uv": [0.032, 0.032, 0.29453, 2.968], "texture": "#3"},
				"down": {"uv": [0.032, 0.032, 0.29453, 2.968], "texture": "#3"}
			}
		},
		{
			"from": [8.35469, 3.99766, 2.78281],
			"to": [8.64922, 4.29766, 4.10938],
			"faces": {
				"north": {"uv": [0.032, 0.032, 0.29453, 0.3], "texture": "#3"},
				"east": {"uv": [0.032, 0.032, 1.32656, 0.3], "texture": "#3"},
				"west": {"uv": [0.032, 0.032, 1.32656, 0.3], "texture": "#3"},
				"up": {"uv": [0.032, 0.032, 0.29453, 1.32656], "texture": "#3"},
				"down": {"uv": [0.032, 0.032, 0.29453, 1.32656], "texture": "#3"}
			}
		},
		{
			"from": [8.38293, 4.03402, 2.69188],
			"to": [8.62098, 4.2652, 2.80188],
			"rotation": {"angle": 0, "axis": "y", "origin": [7.9498, 8.38504, 8.52531]},
			"faces": {
				"north": {"uv": [0.032, 0.032, 0.21641, 0.21016], "texture": "#3"},
				"east": {"uv": [0.032, 0.032, 0.1, 0.21016], "texture": "#3"},
				"west": {"uv": [0.032, 0.032, 0.1, 0.21016], "texture": "#3"},
				"up": {"uv": [0.032, 0.032, 0.21641, 0.1], "texture": "#3"},
				"down": {"uv": [0.032, 0.032, 0.21641, 0.1], "texture": "#3"}
			}
		},
		{
			"from": [8.31328, 4.33125, 0.46719],
			"to": [8.69406, 4.71016, 1.21719],
			"faces": {
				"north": {"uv": [0.032, 0.032, 0.38078, 0.37891], "texture": "#2"},
				"east": {"uv": [0.032, 0.032, 0.75, 0.37891], "texture": "#2"},
				"south": {"uv": [0.032, 0.032, 0.38078, 0.37891], "texture": "#2"},
				"west": {"uv": [0.032, 0.032, 0.75, 0.37891], "texture": "#2"},
				"up": {"uv": [0.032, 0.032, 0.38078, 0.75], "texture": "#2"},
				"down": {"uv": [0.032, 0.032, 0.38078, 0.75], "texture": "#2"}
			}
		},
		{
			"from": [8.30469, 3.84531, 3.82422],
			"to": [8.69922, 4.79531, 4.22422],
			"faces": {
				"north": {"uv": [0.032, 0.032, 0.39453, 0.95], "texture": "#2"},
				"east": {"uv": [0.032, 0.032, 0.4, 0.95], "texture": "#2"},
				"west": {"uv": [0.032, 0.032, 0.4, 0.95], "texture": "#2"},
				"up": {"uv": [0.032, 0.032, 0.39453, 0.4], "texture": "#2"},
				"down": {"uv": [0.032, 0.032, 0.39453, 0.4], "texture": "#2"}
			}
		},
		{
			"from": [8.09732, 3.59565, 4.01953],
			"to": [8.89419, 4.90894, 4.31016],
			"faces": {
				"north": {"uv": [0.032, 0.032, 0.82888, 1.34528], "texture": "#2"},
				"east": {"uv": [0.032, 0.032, 0.32263, 1.34528], "texture": "#2"},
				"south": {"uv": [0, 0, 0.79688, 1.31328], "texture": "#2"},
				"west": {"uv": [0.032, 0.032, 0.32263, 1.34528], "texture": "#2"},
				"up": {"uv": [0.032, 0.032, 0.82888, 0.32263], "texture": "#2"},
				"down": {"uv": [0.032, 0.032, 0.82888, 0.32263], "texture": "#2"}
			}
		},
		{
			"from": [8.11147, 3.60886, 7.16015],
			"to": [8.87319, 4.91042, 7.39608],
			"faces": {
				"north": {"uv": [0.032, 0.032, 0.79372, 1.33356], "texture": "#2"},
				"east": {"uv": [0.032, 0.032, 0.26794, 1.33356], "texture": "#2"},
				"south": {"uv": [0, 0, 0.76172, 1.30156], "texture": "#2"},
				"west": {"uv": [0.032, 0.032, 0.26794, 1.33356], "texture": "#2"},
				"up": {"uv": [0.032, 0.032, 0.79372, 0.26794], "texture": "#2"},
				"down": {"uv": [0.032, 0.032, 0.79372, 0.26794], "texture": "#2"}
			}
		},
		{
			"from": [8.30469, 3.93125, 2.89844],
			"to": [8.69922, 4.74062, 3.26719],
			"faces": {
				"north": {"uv": [0.032, 0.032, 0.39453, 0.80937], "texture": "#2"},
				"east": {"uv": [0.032, 0.032, 0.36875, 0.80937], "texture": "#2"},
				"south": {"uv": [0.032, 0.032, 0.39453, 0.80937], "texture": "#2"},
				"west": {"uv": [0.032, 0.032, 0.36875, 0.80937], "texture": "#2"},
				"up": {"uv": [0.032, 0.032, 0.39453, 0.36875], "texture": "#2"},
				"down": {"uv": [0.032, 0.032, 0.39453, 0.36875], "texture": "#2"}
			}
		},
		{
			"from": [8.33203, 4.35313, 1.51953],
			"to": [8.67188, 4.77578, 1.88828],
			"faces": {
				"north": {"uv": [0.032, 0.032, 0.37184, 0.45466], "texture": "#2"},
				"east": {"uv": [0.032, 0.032, 0.40075, 0.45466], "texture": "#2"},
				"south": {"uv": [0.032, 0.032, 0.37184, 0.45466], "texture": "#2"},
				"west": {"uv": [0.032, 0.032, 0.40075, 0.45466], "texture": "#2"},
				"up": {"uv": [0.032, 0.032, 0.37184, 0.40075], "texture": "#2"},
				"down": {"uv": [0.032, 0.032, 0.37184, 0.40075], "texture": "#2"}
			}
		},
		{
			"from": [8.34387, 4.68906, 1.54675],
			"to": [8.66028, 4.89297, 1.84519],
			"faces": {
				"north": {"uv": [0.032, 0.032, 0.34841, 0.23591], "texture": "#3"},
				"east": {"uv": [0.032, 0.032, 0.33044, 0.23591], "texture": "#3"},
				"south": {"uv": [0.032, 0.032, 0.34841, 0.23591], "texture": "#3"},
				"west": {"uv": [0.032, 0.032, 0.33044, 0.23591], "texture": "#3"},
				"up": {"uv": [0.032, 0.032, 0.34841, 0.33044], "texture": "#3"}
			}
		},
		{
			"from": [8.34387, 4.89219, 1.55066],
			"to": [8.40247, 5.03359, 1.84128],
			"faces": {
				"north": {"uv": [0.032, 0.032, 0.09059, 0.17341], "texture": "#3"},
				"east": {"uv": [0.032, 0.032, 0.32263, 0.17341], "texture": "#3"},
				"south": {"uv": [0.032, 0.032, 0.09059, 0.17341], "texture": "#3"},
				"west": {"uv": [0.032, 0.032, 0.32263, 0.17341], "texture": "#3"},
				"up": {"uv": [0.032, 0.032, 0.09059, 0.32263], "texture": "#3"}
			}
		},
		{
			"from": [8.60169, 4.89219, 1.55066],
			"to": [8.66028, 5.03359, 1.84128],
			"faces": {
				"north": {"uv": [0.032, 0.032, 0.09059, 0.17341], "texture": "#3"},
				"east": {"uv": [0.032, 0.032, 0.32263, 0.17341], "texture": "#3"},
				"south": {"uv": [0.032, 0.032, 0.09059, 0.17341], "texture": "#3"},
				"west": {"uv": [0.032, 0.032, 0.32263, 0.17341], "texture": "#3"},
				"up": {"uv": [0.032, 0.032, 0.09059, 0.32263], "texture": "#3"}
			}
		},
		{
			"from": [8.47278, 4.88437, 1.66003],
			"to": [8.53137, 4.99453, 1.74363],
			"faces": {
				"north": {"uv": [0.032, 0.032, 0.09059, 0.14216], "texture": "#3"},
				"east": {"uv": [0.032, 0.032, 0.11559, 0.14216], "texture": "#3"},
				"south": {"uv": [0.032, 0.032, 0.09059, 0.14216], "texture": "#3"},
				"west": {"uv": [0.032, 0.032, 0.11559, 0.14216], "texture": "#3"},
				"up": {"uv": [0.032, 0.032, 0.09059, 0.11559], "texture": "#3"}
			}
		},
		{
			"name": "octagon",
			"from": [8.923, 4.99882, 9.96325],
			"to": [8.98963, 5.14444, 10.15802],
			"rotation": {"angle": -22.5, "axis": "x", "origin": [8.5796, 3.70755, 10.56201]},
			"faces": {
				"north": {"uv": [0, 0, 1, 1], "rotation": 90, "texture": "#5"},
				"east": {"uv": [0.032, 0.032, 0.968, 0.968], "texture": "#5"},
				"south": {"uv": [0.032, 0.032, 0.968, 0.968], "rotation": 270, "texture": "#5"},
				"west": {"uv": [0, 0, 1, 1], "rotation": 180, "texture": "#5"},
				"up": {"uv": [0.032, 0.032, 0.968, 0.968], "rotation": 270, "texture": "#5"},
				"down": {"uv": [0, 0, 1, 1], "rotation": 270, "texture": "#5"}
			}
		},
		{
			"name": "octagon",
			"from": [8.923, 4.2275, 9.10388],
			"to": [8.98963, 4.37313, 9.29445],
			"rotation": {"angle": 22.5, "axis": "x", "origin": [8.5796, 3.70755, 10.56201]},
			"faces": {
				"north": {"uv": [0.032, 0.968, 0.968, 0.032], "rotation": 270, "texture": "#5"},
				"east": {"uv": [0.968, 0.032, 0.032, 0.968], "texture": "#5"},
				"south": {"uv": [0, 1, 1, 0], "rotation": 90, "texture": "#5"},
				"west": {"uv": [1, 0, 0, 1], "rotation": 180, "texture": "#5"},
				"up": {"uv": [0.968, 0.032, 0.032, 0.968], "rotation": 270, "texture": "#5"},
				"down": {"uv": [1, 0, 0, 1], "rotation": 270, "texture": "#5"}
			}
		},
		{
			"name": "octagon",
			"from": [8.923, 4.62152, 9.47431],
			"to": [8.98963, 4.87928, 9.63673],
			"rotation": {"angle": 0, "axis": "y", "origin": [8.5796, 3.70755, 10.56201]},
			"faces": {
				"north": {"uv": [0.032, 0.032, 0.968, 0.968], "rotation": 90, "texture": "#5"},
				"east": {"uv": [0.032, 0.032, 0.968, 0.968], "rotation": 90, "texture": "#5"},
				"south": {"uv": [0, 0, 1, 1], "rotation": 270, "texture": "#5"},
				"west": {"uv": [0, 0, 1, 1], "rotation": 90, "texture": "#5"},
				"up": {"uv": [0.032, 0.032, 0.968, 0.968], "rotation": 270, "texture": "#5"},
				"down": {"uv": [0, 0, 1, 1], "rotation": 270, "texture": "#5"}
			}
		},
		{
			"name": "octagon",
			"from": [8.923, 4.60893, 9.47431],
			"to": [8.98963, 4.63155, 9.63673],
			"rotation": {"angle": 0, "axis": "y", "origin": [8.5796, 3.70755, 10.56201]},
			"faces": {
				"north": {"uv": [0.032, 0.032, 0.968, 0.968], "rotation": 90, "texture": "#5"},
				"east": {"uv": [0.032, 0.032, 0.968, 0.968], "rotation": 90, "texture": "#5"},
				"south": {"uv": [0, 0, 1, 1], "rotation": 270, "texture": "#5"},
				"west": {"uv": [0, 0, 1, 1], "rotation": 90, "texture": "#5"},
				"up": {"uv": [0, 0, 1, 1], "rotation": 270, "texture": "#5"},
				"down": {"uv": [0.032, 0.032, 0.968, 0.968], "rotation": 270, "texture": "#5"}
			}
		},
		{
			"name": "octagon",
			"from": [8.923, 4.18565, 9.17438],
			"to": [8.98963, 4.33547, 9.36496],
			"rotation": {"angle": 22.5, "axis": "x", "origin": [8.5796, 3.70755, 10.56201]},
			"faces": {
				"north": {"uv": [0, 0, 1, 1], "rotation": 90, "texture": "#5"},
				"east": {"uv": [0.032, 0.032, 0.968, 0.968], "texture": "#5"},
				"south": {"uv": [0.032, 0.032, 0.968, 0.968], "rotation": 270, "texture": "#5"},
				"west": {"uv": [0, 0, 1, 1], "rotation": 180, "texture": "#5"},
				"up": {"uv": [0.032, 0.032, 0.968, 0.968], "rotation": 270, "texture": "#5"},
				"down": {"uv": [0.032, 0.032, 0.968, 0.968], "rotation": 270, "texture": "#5"}
			}
		},
		{
			"name": "octagon",
			"from": [8.923, 4.95696, 9.89694],
			"to": [8.98963, 5.10678, 10.11271],
			"rotation": {"angle": -22.5, "axis": "x", "origin": [8.5796, 3.70755, 10.56201]},
			"faces": {
				"north": {"uv": [0.032, 0.968, 0.968, 0.032], "rotation": 270, "texture": "#5"},
				"east": {"uv": [0.968, 0.032, 0.032, 0.968], "texture": "#5"},
				"south": {"uv": [0, 1, 1, 0], "rotation": 90, "texture": "#5"},
				"west": {"uv": [1, 0, 0, 1], "rotation": 180, "texture": "#5"},
				"up": {"uv": [0.968, 0.032, 0.032, 0.968], "rotation": 270, "texture": "#5"},
				"down": {"uv": [0.968, 0.032, 0.032, 0.968], "rotation": 270, "texture": "#5"}
			}
		},
		{
			"name": "octagon",
			"from": [7.96597, 4.99882, 9.96325],
			"to": [8.0326, 5.14444, 10.15802],
			"rotation": {"angle": -22.5, "axis": "x", "origin": [8.5796, 3.70755, 10.56201]},
			"faces": {
				"north": {"uv": [0, 0, 1, 1], "rotation": 90, "texture": "#5"},
				"east": {"uv": [0, 0, 1, 1], "texture": "#5"},
				"south": {"uv": [0.032, 0.032, 0.968, 0.968], "rotation": 270, "texture": "#5"},
				"west": {"uv": [0.032, 0.032, 0.968, 0.968], "rotation": 180, "texture": "#5"},
				"up": {"uv": [0.032, 0.032, 0.968, 0.968], "rotation": 270, "texture": "#5"},
				"down": {"uv": [0, 0, 1, 1], "rotation": 270, "texture": "#5"}
			}
		},
		{
			"name": "octagon",
			"from": [7.96597, 4.2275, 9.10388],
			"to": [8.0326, 4.37313, 9.29445],
			"rotation": {"angle": 22.5, "axis": "x", "origin": [8.5796, 3.70755, 10.56201]},
			"faces": {
				"north": {"uv": [0.032, 0.968, 0.968, 0.032], "rotation": 270, "texture": "#5"},
				"east": {"uv": [1, 0, 0, 1], "texture": "#5"},
				"south": {"uv": [0, 1, 1, 0], "rotation": 90, "texture": "#5"},
				"west": {"uv": [0.968, 0.032, 0.032, 0.968], "rotation": 180, "texture": "#5"},
				"up": {"uv": [0.968, 0.032, 0.032, 0.968], "rotation": 270, "texture": "#5"},
				"down": {"uv": [1, 0, 0, 1], "rotation": 270, "texture": "#5"}
			}
		},
		{
			"name": "octagon",
			"from": [7.96597, 4.62152, 9.47431],
			"to": [8.0326, 4.87928, 9.63673],
			"rotation": {"angle": 0, "axis": "y", "origin": [8.5796, 3.70755, 10.56201]},
			"faces": {
				"north": {"uv": [0.032, 0.032, 0.968, 0.968], "rotation": 90, "texture": "#5"},
				"east": {"uv": [0, 0, 1, 1], "rotation": 90, "texture": "#5"},
				"south": {"uv": [0, 0, 1, 1], "rotation": 270, "texture": "#5"},
				"west": {"uv": [0.032, 0.032, 0.968, 0.968], "rotation": 90, "texture": "#5"},
				"up": {"uv": [0.032, 0.032, 0.968, 0.968], "rotation": 270, "texture": "#5"},
				"down": {"uv": [0, 0, 1, 1], "rotation": 270, "texture": "#5"}
			}
		},
		{
			"name": "octagon",
			"from": [7.96597, 4.60893, 9.47431],
			"to": [8.0326, 4.63155, 9.63673],
			"rotation": {"angle": 0, "axis": "y", "origin": [8.5796, 3.70755, 10.56201]},
			"faces": {
				"north": {"uv": [0.032, 0.032, 0.968, 0.968], "rotation": 90, "texture": "#5"},
				"east": {"uv": [0, 0, 1, 1], "rotation": 90, "texture": "#5"},
				"south": {"uv": [0, 0, 1, 1], "rotation": 270, "texture": "#5"},
				"west": {"uv": [0.032, 0.032, 0.968, 0.968], "rotation": 90, "texture": "#5"},
				"up": {"uv": [0, 0, 1, 1], "rotation": 270, "texture": "#5"},
				"down": {"uv": [0.032, 0.032, 0.968, 0.968], "rotation": 270, "texture": "#5"}
			}
		},
		{
			"name": "octagon",
			"from": [7.96597, 4.18565, 9.17438],
			"to": [8.0326, 4.33547, 9.36496],
			"rotation": {"angle": 22.5, "axis": "x", "origin": [8.5796, 3.70755, 10.56201]},
			"faces": {
				"north": {"uv": [0, 0, 1, 1], "rotation": 90, "texture": "#5"},
				"east": {"uv": [0, 0, 1, 1], "texture": "#5"},
				"south": {"uv": [0.032, 0.032, 0.968, 0.968], "rotation": 270, "texture": "#5"},
				"west": {"uv": [0.032, 0.032, 0.968, 0.968], "rotation": 180, "texture": "#5"},
				"up": {"uv": [0.032, 0.032, 0.968, 0.968], "rotation": 270, "texture": "#5"},
				"down": {"uv": [0.032, 0.032, 0.968, 0.968], "rotation": 270, "texture": "#5"}
			}
		},
		{
			"name": "octagon",
			"from": [7.96597, 4.95696, 9.89694],
			"to": [8.0326, 5.10678, 10.11271],
			"rotation": {"angle": -22.5, "axis": "x", "origin": [8.5796, 3.70755, 10.56201]},
			"faces": {
				"north": {"uv": [0.032, 0.968, 0.968, 0.032], "rotation": 270, "texture": "#5"},
				"east": {"uv": [1, 0, 0, 1], "texture": "#5"},
				"south": {"uv": [0, 1, 1, 0], "rotation": 90, "texture": "#5"},
				"west": {"uv": [0.968, 0.032, 0.032, 0.968], "rotation": 180, "texture": "#5"},
				"up": {"uv": [0.968, 0.032, 0.032, 0.968], "rotation": 270, "texture": "#5"},
				"down": {"uv": [0.968, 0.032, 0.032, 0.968], "rotation": 270, "texture": "#5"}
			}
		},
		{
			"name": "octagon",
			"from": [8.01552, 5.16728, 10.1752],
			"to": [8.11586, 5.3866, 10.46854],
			"rotation": {"angle": -22.5, "axis": "x", "origin": [8.77365, 3.19235, 11.14999]},
			"faces": {
				"north": {"uv": [0, 0, 1, 1], "rotation": 90, "texture": "#5"},
				"east": {"uv": [0.032, 0.032, 0.968, 0.968], "texture": "#5"},
				"south": {"uv": [0.032, 0.032, 0.968, 0.968], "rotation": 270, "texture": "#5"},
				"west": {"uv": [0.032, 0.032, 0.968, 0.968], "rotation": 180, "texture": "#5"},
				"up": {"uv": [0.032, 0.032, 0.968, 0.968], "rotation": 270, "texture": "#5"},
				"down": {"uv": [0, 0, 1, 1], "rotation": 270, "texture": "#5"}
			}
		},
		{
			"name": "octagon",
			"from": [8.01552, 3.94515, 8.88097],
			"to": [8.11586, 4.16447, 9.16798],
			"rotation": {"angle": 22.5, "axis": "x", "origin": [8.77365, 3.19235, 11.14999]},
			"faces": {
				"north": {"uv": [0.032, 0.968, 0.968, 0.032], "rotation": 270, "texture": "#5"},
				"east": {"uv": [0.968, 0.032, 0.032, 0.968], "texture": "#5"},
				"south": {"uv": [0, 1, 1, 0], "rotation": 90, "texture": "#5"},
				"west": {"uv": [0.968, 0.032, 0.032, 0.968], "rotation": 180, "texture": "#5"},
				"up": {"uv": [0.968, 0.032, 0.032, 0.968], "rotation": 270, "texture": "#5"},
				"down": {"uv": [1, 0, 0, 1], "rotation": 270, "texture": "#5"}
			}
		},
		{
			"name": "octagon",
			"from": [8.01552, 4.56881, 9.43283],
			"to": [8.11586, 4.957, 9.67744],
			"rotation": {"angle": 0, "axis": "y", "origin": [8.77365, 3.19235, 11.14999]},
			"faces": {
				"north": {"uv": [0.032, 0.032, 0.968, 0.968], "rotation": 90, "texture": "#5"},
				"east": {"uv": [0.032, 0.032, 0.968, 0.968], "rotation": 90, "texture": "#5"},
				"south": {"uv": [0, 0, 1, 1], "rotation": 270, "texture": "#5"},
				"west": {"uv": [0.032, 0.032, 0.968, 0.968], "rotation": 90, "texture": "#5"},
				"up": {"uv": [0.032, 0.032, 0.968, 0.968], "rotation": 270, "texture": "#5"},
				"down": {"uv": [0, 0, 1, 1], "rotation": 270, "texture": "#5"}
			}
		},
		{
			"name": "octagon",
			"from": [8.01552, 4.54984, 9.43283],
			"to": [8.11586, 4.58392, 9.67744],
			"rotation": {"angle": 0, "axis": "y", "origin": [8.77365, 3.19235, 11.14999]},
			"faces": {
				"north": {"uv": [0.032, 0.032, 0.968, 0.968], "rotation": 90, "texture": "#5"},
				"east": {"uv": [0.032, 0.032, 0.968, 0.968], "rotation": 90, "texture": "#5"},
				"south": {"uv": [0, 0, 1, 1], "rotation": 270, "texture": "#5"},
				"west": {"uv": [0.032, 0.032, 0.968, 0.968], "rotation": 90, "texture": "#5"},
				"up": {"uv": [0, 0, 1, 1], "rotation": 270, "texture": "#5"},
				"down": {"uv": [0.032, 0.032, 0.968, 0.968], "rotation": 270, "texture": "#5"}
			}
		},
		{
			"name": "octagon",
			"from": [8.01552, 3.88211, 8.98715],
			"to": [8.11586, 4.10775, 9.27416],
			"rotation": {"angle": 22.5, "axis": "x", "origin": [8.77365, 3.19235, 11.14999]},
			"faces": {
				"north": {"uv": [0, 0, 1, 1], "rotation": 90, "texture": "#5"},
				"east": {"uv": [0.032, 0.032, 0.968, 0.968], "texture": "#5"},
				"south": {"uv": [0.032, 0.032, 0.968, 0.968], "rotation": 270, "texture": "#5"},
				"west": {"uv": [0.032, 0.032, 0.968, 0.968], "rotation": 180, "texture": "#5"},
				"up": {"uv": [0.032, 0.032, 0.968, 0.968], "rotation": 270, "texture": "#5"},
				"down": {"uv": [0.032, 0.032, 0.968, 0.968], "rotation": 270, "texture": "#5"}
			}
		},
		{
			"name": "octagon",
			"from": [8.01552, 5.10424, 10.07534],
			"to": [8.11586, 5.32988, 10.4003],
			"rotation": {"angle": -22.5, "axis": "x", "origin": [8.77365, 3.19235, 11.14999]},
			"faces": {
				"north": {"uv": [0.032, 0.968, 0.968, 0.032], "rotation": 270, "texture": "#5"},
				"east": {"uv": [0.968, 0.032, 0.032, 0.968], "texture": "#5"},
				"south": {"uv": [0, 1, 1, 0], "rotation": 90, "texture": "#5"},
				"west": {"uv": [0.968, 0.032, 0.032, 0.968], "rotation": 180, "texture": "#5"},
				"up": {"uv": [0.968, 0.032, 0.032, 0.968], "rotation": 270, "texture": "#5"},
				"down": {"uv": [0.968, 0.032, 0.032, 0.968], "rotation": 270, "texture": "#5"}
			}
		},
		{
			"name": "octagon",
			"from": [8.84365, 5.16728, 10.1752],
			"to": [8.94398, 5.3866, 10.46854],
			"rotation": {"angle": -22.5, "axis": "x", "origin": [8.77365, 3.19235, 11.14999]},
			"faces": {
				"north": {"uv": [0, 0, 1, 1], "rotation": 90, "texture": "#5"},
				"east": {"uv": [0.032, 0.032, 0.968, 0.968], "texture": "#5"},
				"south": {"uv": [0.032, 0.032, 0.968, 0.968], "rotation": 270, "texture": "#5"},
				"west": {"uv": [0.032, 0.032, 0.968, 0.968], "rotation": 180, "texture": "#5"},
				"up": {"uv": [0.032, 0.032, 0.968, 0.968], "rotation": 270, "texture": "#5"},
				"down": {"uv": [0, 0, 1, 1], "rotation": 270, "texture": "#5"}
			}
		},
		{
			"name": "octagon",
			"from": [8.84365, 3.94515, 8.88097],
			"to": [8.94398, 4.16447, 9.16798],
			"rotation": {"angle": 22.5, "axis": "x", "origin": [8.77365, 3.19235, 11.14999]},
			"faces": {
				"north": {"uv": [0.032, 0.968, 0.968, 0.032], "rotation": 270, "texture": "#5"},
				"east": {"uv": [0.968, 0.032, 0.032, 0.968], "texture": "#5"},
				"south": {"uv": [0, 1, 1, 0], "rotation": 90, "texture": "#5"},
				"west": {"uv": [0.968, 0.032, 0.032, 0.968], "rotation": 180, "texture": "#5"},
				"up": {"uv": [0.968, 0.032, 0.032, 0.968], "rotation": 270, "texture": "#5"},
				"down": {"uv": [1, 0, 0, 1], "rotation": 270, "texture": "#5"}
			}
		},
		{
			"name": "octagon",
			"from": [8.84365, 4.56881, 9.43283],
			"to": [8.94398, 4.957, 9.67744],
			"rotation": {"angle": 0, "axis": "y", "origin": [8.77365, 3.19235, 11.14999]},
			"faces": {
				"north": {"uv": [0.032, 0.032, 0.968, 0.968], "rotation": 90, "texture": "#5"},
				"east": {"uv": [0.032, 0.032, 0.968, 0.968], "rotation": 90, "texture": "#5"},
				"south": {"uv": [0, 0, 1, 1], "rotation": 270, "texture": "#5"},
				"west": {"uv": [0.032, 0.032, 0.968, 0.968], "rotation": 90, "texture": "#5"},
				"up": {"uv": [0.032, 0.032, 0.968, 0.968], "rotation": 270, "texture": "#5"},
				"down": {"uv": [0, 0, 1, 1], "rotation": 270, "texture": "#5"}
			}
		},
		{
			"name": "octagon",
			"from": [8.84365, 4.54984, 9.43283],
			"to": [8.94398, 4.58392, 9.67744],
			"rotation": {"angle": 0, "axis": "y", "origin": [8.77365, 3.19235, 11.14999]},
			"faces": {
				"north": {"uv": [0.032, 0.032, 0.968, 0.968], "rotation": 90, "texture": "#5"},
				"east": {"uv": [0.032, 0.032, 0.968, 0.968], "rotation": 90, "texture": "#5"},
				"south": {"uv": [0, 0, 1, 1], "rotation": 270, "texture": "#5"},
				"west": {"uv": [0.032, 0.032, 0.968, 0.968], "rotation": 90, "texture": "#5"},
				"up": {"uv": [0, 0, 1, 1], "rotation": 270, "texture": "#5"},
				"down": {"uv": [0.032, 0.032, 0.968, 0.968], "rotation": 270, "texture": "#5"}
			}
		},
		{
			"name": "octagon",
			"from": [8.84365, 3.88211, 8.98715],
			"to": [8.94398, 4.10775, 9.27416],
			"rotation": {"angle": 22.5, "axis": "x", "origin": [8.77365, 3.19235, 11.14999]},
			"faces": {
				"north": {"uv": [0, 0, 1, 1], "rotation": 90, "texture": "#5"},
				"east": {"uv": [0.032, 0.032, 0.968, 0.968], "texture": "#5"},
				"south": {"uv": [0.032, 0.032, 0.968, 0.968], "rotation": 270, "texture": "#5"},
				"west": {"uv": [0.032, 0.032, 0.968, 0.968], "rotation": 180, "texture": "#5"},
				"up": {"uv": [0.032, 0.032, 0.968, 0.968], "rotation": 270, "texture": "#5"},
				"down": {"uv": [0.032, 0.032, 0.968, 0.968], "rotation": 270, "texture": "#5"}
			}
		},
		{
			"name": "octagon",
			"from": [8.84365, 5.10424, 10.07534],
			"to": [8.94398, 5.32988, 10.4003],
			"rotation": {"angle": -22.5, "axis": "x", "origin": [8.77365, 3.19235, 11.14999]},
			"faces": {
				"north": {"uv": [0.032, 0.968, 0.968, 0.032], "rotation": 270, "texture": "#5"},
				"east": {"uv": [0.968, 0.032, 0.032, 0.968], "texture": "#5"},
				"south": {"uv": [0, 1, 1, 0], "rotation": 90, "texture": "#5"},
				"west": {"uv": [0.968, 0.032, 0.032, 0.968], "rotation": 180, "texture": "#5"},
				"up": {"uv": [0.968, 0.032, 0.032, 0.968], "rotation": 270, "texture": "#5"},
				"down": {"uv": [0.968, 0.032, 0.032, 0.968], "rotation": 270, "texture": "#5"}
			}
		},
		{
			"name": "octagon",
			"from": [8.07792, 5.04021, 9.85019],
			"to": [8.89083, 5.21904, 10.08939],
			"rotation": {"angle": -22.5, "axis": "x", "origin": [8.66, 3.97297, 10.61422]},
			"faces": {
				"north": {"uv": [0, 0, 1, 1], "rotation": 90, "texture": "#5"},
				"east": {"uv": [0, 0, 1, 1], "texture": "#5"},
				"south": {"uv": [0.032, 0.032, 0.968, 0.968], "rotation": 270, "texture": "#5"},
				"west": {"uv": [0, 0, 1, 1], "rotation": 180, "texture": "#5"},
				"up": {"uv": [0.032, 0.032, 0.968, 0.968], "rotation": 270, "texture": "#5"},
				"down": {"uv": [0, 0, 1, 1], "rotation": 270, "texture": "#5"}
			}
		},
		{
			"name": "octagon",
			"from": [8.07792, 4.22455, 9.16989],
			"to": [8.89083, 4.40339, 9.40393],
			"rotation": {"angle": 22.5, "axis": "x", "origin": [8.66, 3.97297, 10.61422]},
			"faces": {
				"north": {"uv": [0.032, 0.968, 0.968, 0.032], "rotation": 270, "texture": "#5"},
				"east": {"uv": [1, 0, 0, 1], "texture": "#5"},
				"south": {"uv": [0, 1, 1, 0], "rotation": 90, "texture": "#5"},
				"west": {"uv": [1, 0, 0, 1], "rotation": 180, "texture": "#5"},
				"up": {"uv": [0.968, 0.032, 0.032, 0.968], "rotation": 270, "texture": "#5"},
				"down": {"uv": [1, 0, 0, 1], "rotation": 270, "texture": "#5"}
			}
		},
		{
			"name": "octagon",
			"from": [8.07792, 4.60535, 9.45036],
			"to": [8.89083, 4.92189, 9.64982],
			"rotation": {"angle": 0, "axis": "y", "origin": [8.66, 3.97297, 10.61422]},
			"faces": {
				"north": {"uv": [0.032, 0.032, 0.968, 0.968], "rotation": 90, "texture": "#5"},
				"east": {"uv": [0, 0, 1, 1], "rotation": 90, "texture": "#5"},
				"south": {"uv": [0, 0, 1, 1], "rotation": 270, "texture": "#5"},
				"west": {"uv": [0, 0, 1, 1], "rotation": 90, "texture": "#5"},
				"up": {"uv": [0.032, 0.032, 0.968, 0.968], "rotation": 270, "texture": "#5"},
				"down": {"uv": [0, 0, 1, 1], "rotation": 270, "texture": "#5"}
			}
		},
		{
			"name": "octagon",
			"from": [8.07792, 4.58988, 9.45036],
			"to": [8.89083, 4.61767, 9.64982],
			"rotation": {"angle": 0, "axis": "y", "origin": [8.66, 3.97297, 10.61422]},
			"faces": {
				"north": {"uv": [0.032, 0.032, 0.968, 0.968], "rotation": 90, "texture": "#5"},
				"east": {"uv": [0, 0, 1, 1], "rotation": 90, "texture": "#5"},
				"south": {"uv": [0, 0, 1, 1], "rotation": 270, "texture": "#5"},
				"west": {"uv": [0, 0, 1, 1], "rotation": 90, "texture": "#5"},
				"up": {"uv": [0, 0, 1, 1], "rotation": 270, "texture": "#5"},
				"down": {"uv": [0.032, 0.032, 0.968, 0.968], "rotation": 270, "texture": "#5"}
			}
		},
		{
			"name": "octagon",
			"from": [8.07792, 4.17315, 9.25647],
			"to": [8.89083, 4.35714, 9.49051],
			"rotation": {"angle": 22.5, "axis": "x", "origin": [8.66, 3.97297, 10.61422]},
			"faces": {
				"north": {"uv": [0, 0, 1, 1], "rotation": 90, "texture": "#5"},
				"east": {"uv": [0, 0, 1, 1], "texture": "#5"},
				"south": {"uv": [0.032, 0.032, 0.968, 0.968], "rotation": 270, "texture": "#5"},
				"west": {"uv": [0, 0, 1, 1], "rotation": 180, "texture": "#5"},
				"up": {"uv": [0.032, 0.032, 0.968, 0.968], "rotation": 270, "texture": "#5"},
				"down": {"uv": [0.032, 0.032, 0.968, 0.968], "rotation": 270, "texture": "#5"}
			}
		},
		{
			"name": "octagon",
			"from": [8.07792, 4.98881, 9.76877],
			"to": [8.89083, 5.1728, 10.03374],
			"rotation": {"angle": -22.5, "axis": "x", "origin": [8.66, 3.97297, 10.61422]},
			"faces": {
				"north": {"uv": [0.032, 0.968, 0.968, 0.032], "rotation": 270, "texture": "#5"},
				"east": {"uv": [1, 0, 0, 1], "texture": "#5"},
				"south": {"uv": [0, 1, 1, 0], "rotation": 90, "texture": "#5"},
				"west": {"uv": [1, 0, 0, 1], "rotation": 180, "texture": "#5"},
				"up": {"uv": [0.968, 0.032, 0.032, 0.968], "rotation": 270, "texture": "#5"},
				"down": {"uv": [0.968, 0.032, 0.032, 0.968], "rotation": 270, "texture": "#5"}
			}
		},
		{
			"name": "octagon",
			"from": [6.98323, 5.23256, 9.51959],
			"to": [7.01708, 5.32468, 9.55853],
			"rotation": {"angle": 22.5, "axis": "z", "origin": [8.2455, 8.80979, 9.84766]},
			"faces": {
				"north": {"uv": [0.032, 0.968, 0.968, 0.032], "rotation": 180, "texture": "#5"},
				"east": {"uv": [0.968, 0.032, 0.032, 0.968], "rotation": 90, "texture": "#5"},
				"south": {"uv": [0.032, 0.968, 0.968, 0.032], "texture": "#5"},
				"west": {"uv": [0.968, 0.032, 0.032, 0.968], "rotation": 270, "texture": "#5"},
				"up": {"uv": [1, 0, 0, 1], "texture": "#5"},
				"down": {"uv": [0.968, 0.032, 0.032, 0.968], "rotation": 180, "texture": "#5"}
			}
		},
		{
			"name": "octagon",
			"from": [9.94755, 5.42874, 9.51959],
			"to": [9.98139, 5.52087, 9.55853],
			"rotation": {"angle": -22.5, "axis": "z", "origin": [8.2455, 8.80979, 9.84766]},
			"faces": {
				"north": {"uv": [0.968, 0.968, 0.032, 0.032], "rotation": 180, "texture": "#5"},
				"east": {"uv": [0.968, 0.968, 0.032, 0.032], "rotation": 270, "texture": "#5"},
				"south": {"uv": [0.968, 0.968, 0.032, 0.032], "texture": "#5"},
				"west": {"uv": [0.968, 0.968, 0.032, 0.032], "rotation": 90, "texture": "#5"},
				"up": {"uv": [0, 0, 1, 1], "texture": "#5"},
				"down": {"uv": [0.032, 0.032, 0.968, 0.968], "rotation": 180, "texture": "#5"}
			}
		},
		{
			"name": "octagon",
			"from": [8.47455, 4.92931, 9.51959],
			"to": [8.52793, 5.02143, 9.55853],
			"rotation": {"angle": 0, "axis": "y", "origin": [8.50331, 5.21604, 9.30078]},
			"faces": {
				"north": {"uv": [0.968, 0.968, 0.032, 0.032], "rotation": 180, "texture": "#5"},
				"east": {"uv": [0.968, 0.968, 0.032, 0.032], "rotation": 270, "texture": "#5"},
				"south": {"uv": [0.968, 0.968, 0.032, 0.032], "texture": "#5"},
				"west": {"uv": [0.968, 0.968, 0.032, 0.032], "rotation": 90, "texture": "#5"},
				"up": {"uv": [0.032, 0.032, 0.968, 0.968], "texture": "#5"},
				"down": {"uv": [0, 0, 1, 1], "rotation": 180, "texture": "#5"}
			}
		},
		{
			"name": "octagon",
			"from": [8.44964, 5.02256, 9.51959],
			"to": [8.55239, 5.05641, 9.55853],
			"rotation": {"angle": 0, "axis": "y", "origin": [8.2455, 8.80979, 9.84766]},
			"faces": {
				"north": {"uv": [0.968, 0.032, 0.032, 0.968], "rotation": 90, "texture": "#5"},
				"east": {"uv": [0.968, 0.032, 0.032, 0.968], "rotation": 90, "texture": "#5"},
				"south": {"uv": [0.968, 0.032, 0.032, 0.968], "rotation": 90, "texture": "#5"},
				"west": {"uv": [1, 0, 0, 1], "rotation": 270, "texture": "#5"},
				"up": {"uv": [0.968, 0.032, 0.032, 0.968], "texture": "#5"},
				"down": {"uv": [0.968, 0.032, 0.032, 0.968], "rotation": 180, "texture": "#5"}
			}
		},
		{
			"name": "octagon",
			"from": [8.44964, 5.16365, 9.51959],
			"to": [8.55239, 5.19359, 9.55853],
			"rotation": {"angle": 0, "axis": "y", "origin": [8.2455, 8.80979, 9.84766]},
			"faces": {
				"north": {"uv": [0.968, 0.032, 0.032, 0.968], "rotation": 90, "texture": "#5"},
				"east": {"uv": [0.968, 0.032, 0.032, 0.968], "rotation": 90, "texture": "#5"},
				"south": {"uv": [0.968, 0.032, 0.032, 0.968], "rotation": 90, "texture": "#5"},
				"west": {"uv": [1, 0, 0, 1], "rotation": 270, "texture": "#5"},
				"up": {"uv": [0.968, 0.032, 0.032, 0.968], "texture": "#5"},
				"down": {"uv": [0.968, 0.032, 0.032, 0.968], "rotation": 180, "texture": "#5"}
			}
		},
		{
			"name": "octagon",
			"from": [9.81623, 5.45257, 9.51959],
			"to": [9.84617, 5.54735, 9.55853],
			"rotation": {"angle": -22.5, "axis": "z", "origin": [8.2455, 8.80979, 9.84766]},
			"faces": {
				"north": {"uv": [0.032, 0.968, 0.968, 0.032], "rotation": 180, "texture": "#5"},
				"east": {"uv": [0.968, 0.032, 0.032, 0.968], "rotation": 90, "texture": "#5"},
				"south": {"uv": [0.032, 0.968, 0.968, 0.032], "texture": "#5"},
				"west": {"uv": [0.968, 0.032, 0.032, 0.968], "rotation": 270, "texture": "#5"},
				"up": {"uv": [0.968, 0.032, 0.032, 0.968], "texture": "#5"},
				"down": {"uv": [0.968, 0.032, 0.032, 0.968], "rotation": 180, "texture": "#5"}
			}
		},
		{
			"name": "octagon",
			"from": [7.11846, 5.25638, 9.51959],
			"to": [7.1484, 5.35116, 9.55853],
			"rotation": {"angle": 22.5, "axis": "z", "origin": [8.2455, 8.80979, 9.84766]},
			"faces": {
				"north": {"uv": [0.968, 0.968, 0.032, 0.032], "rotation": 180, "texture": "#5"},
				"east": {"uv": [0.968, 0.968, 0.032, 0.032], "rotation": 270, "texture": "#5"},
				"south": {"uv": [0.968, 0.968, 0.032, 0.032], "texture": "#5"},
				"west": {"uv": [0.968, 0.968, 0.032, 0.032], "rotation": 90, "texture": "#5"},
				"up": {"uv": [0.032, 0.032, 0.968, 0.968], "texture": "#5"},
				"down": {"uv": [0.032, 0.032, 0.968, 0.968], "rotation": 180, "texture": "#5"}
			}
		},
		{
			"name": "octagon",
			"from": [8.20302, 5.31525, 10.23649],
			"to": [8.30336, 5.53456, 10.52983],
			"rotation": {"angle": -22.5, "axis": "x", "origin": [8.77365, 3.19235, 11.14999]},
			"faces": {
				"north": {"uv": [0, 0, 1, 1], "rotation": 90, "texture": "#5"},
				"east": {"uv": [0.032, 0.032, 0.968, 0.968], "texture": "#5"},
				"south": {"uv": [0.032, 0.032, 0.968, 0.968], "rotation": 270, "texture": "#5"},
				"west": {"uv": [0.032, 0.032, 0.968, 0.968], "rotation": 180, "texture": "#5"},
				"up": {"uv": [0.032, 0.032, 0.968, 0.968], "rotation": 270, "texture": "#5"},
				"down": {"uv": [0, 0, 1, 1], "rotation": 270, "texture": "#5"}
			}
		},
		{
			"name": "octagon",
			"from": [8.20302, 4.09312, 8.81968],
			"to": [8.30336, 4.31243, 9.10669],
			"rotation": {"angle": 22.5, "axis": "x", "origin": [8.77365, 3.19235, 11.14999]},
			"faces": {
				"north": {"uv": [0.032, 0.968, 0.968, 0.032], "rotation": 270, "texture": "#5"},
				"east": {"uv": [0.968, 0.032, 0.032, 0.968], "texture": "#5"},
				"south": {"uv": [0, 1, 1, 0], "rotation": 90, "texture": "#5"},
				"west": {"uv": [0.968, 0.032, 0.032, 0.968], "rotation": 180, "texture": "#5"},
				"up": {"uv": [0.968, 0.032, 0.032, 0.968], "rotation": 270, "texture": "#5"},
				"down": {"uv": [1, 0, 0, 1], "rotation": 270, "texture": "#5"}
			}
		},
		{
			"name": "octagon",
			"from": [8.20302, 4.72897, 9.43283],
			"to": [8.30336, 5.11716, 9.67744],
			"rotation": {"angle": 0, "axis": "y", "origin": [8.77365, 3.19235, 11.14999]},
			"faces": {
				"north": {"uv": [0.032, 0.032, 0.968, 0.968], "rotation": 90, "texture": "#5"},
				"east": {"uv": [0.032, 0.032, 0.968, 0.968], "rotation": 90, "texture": "#5"},
				"south": {"uv": [0, 0, 1, 1], "rotation": 270, "texture": "#5"},
				"west": {"uv": [0.032, 0.032, 0.968, 0.968], "rotation": 90, "texture": "#5"},
				"up": {"uv": [0.032, 0.032, 0.968, 0.968], "rotation": 270, "texture": "#5"},
				"down": {"uv": [0, 0, 1, 1], "rotation": 270, "texture": "#5"}
			}
		},
		{
			"name": "octagon",
			"from": [8.20302, 4.69321, 9.47765],
			"to": [8.30336, 4.91885, 9.76466],
			"rotation": {"angle": 0, "axis": "y", "origin": [8.30099, 4.92672, 9.67734]},
			"faces": {
				"north": {"uv": [0, 0, 1, 1], "rotation": 90, "texture": "#5"},
				"east": {"uv": [0.032, 0.032, 0.968, 0.968], "texture": "#5"},
				"south": {"uv": [0.032, 0.032, 0.968, 0.968], "rotation": 270, "texture": "#5"},
				"west": {"uv": [0.032, 0.032, 0.968, 0.968], "rotation": 180, "texture": "#5"},
				"up": {"uv": [0.032, 0.032, 0.968, 0.968], "rotation": 270, "texture": "#5"},
				"down": {"uv": [0, 0, 1, 1], "rotation": 270, "texture": "#5"}
			}
		},
		{
			"name": "octagon",
			"from": [8.20302, 5.25221, 10.13663],
			"to": [8.30336, 5.47785, 10.46159],
			"rotation": {"angle": -22.5, "axis": "x", "origin": [8.77365, 3.19235, 11.14999]},
			"faces": {
				"north": {"uv": [0.032, 0.968, 0.968, 0.032], "rotation": 270, "texture": "#5"},
				"east": {"uv": [0.968, 0.032, 0.032, 0.968], "texture": "#5"},
				"south": {"uv": [0, 1, 1, 0], "rotation": 90, "texture": "#5"},
				"west": {"uv": [0.968, 0.032, 0.032, 0.968], "rotation": 180, "texture": "#5"},
				"up": {"uv": [0.968, 0.032, 0.032, 0.968], "rotation": 270, "texture": "#5"},
				"down": {"uv": [1, 0, 0, 1], "rotation": 270, "texture": "#5"}
			}
		},
		{
			"name": "octagon",
			"from": [8.69912, 5.31525, 10.23649],
			"to": [8.79945, 5.53456, 10.52983],
			"rotation": {"angle": -22.5, "axis": "x", "origin": [8.77365, 3.19235, 11.14999]},
			"faces": {
				"north": {"uv": [0, 0, 1, 1], "rotation": 90, "texture": "#5"},
				"east": {"uv": [0.032, 0.032, 0.968, 0.968], "texture": "#5"},
				"south": {"uv": [0.032, 0.032, 0.968, 0.968], "rotation": 270, "texture": "#5"},
				"west": {"uv": [0.032, 0.032, 0.968, 0.968], "rotation": 180, "texture": "#5"},
				"up": {"uv": [0.032, 0.032, 0.968, 0.968], "rotation": 270, "texture": "#5"},
				"down": {"uv": [0, 0, 1, 1], "rotation": 270, "texture": "#5"}
			}
		},
		{
			"name": "octagon",
			"from": [8.69912, 4.09312, 8.81968],
			"to": [8.79945, 4.31243, 9.10669],
			"rotation": {"angle": 22.5, "axis": "x", "origin": [8.77365, 3.19235, 11.14999]},
			"faces": {
				"north": {"uv": [0.032, 0.968, 0.968, 0.032], "rotation": 270, "texture": "#5"},
				"east": {"uv": [0.968, 0.032, 0.032, 0.968], "texture": "#5"},
				"south": {"uv": [0, 1, 1, 0], "rotation": 90, "texture": "#5"},
				"west": {"uv": [0.968, 0.032, 0.032, 0.968], "rotation": 180, "texture": "#5"},
				"up": {"uv": [0.968, 0.032, 0.032, 0.968], "rotation": 270, "texture": "#5"},
				"down": {"uv": [1, 0, 0, 1], "rotation": 270, "texture": "#5"}
			}
		},
		{
			"name": "octagon",
			"from": [8.69912, 4.72897, 9.43283],
			"to": [8.79945, 5.11716, 9.67744],
			"rotation": {"angle": 0, "axis": "y", "origin": [8.77365, 3.19235, 11.14999]},
			"faces": {
				"north": {"uv": [0.032, 0.032, 0.968, 0.968], "rotation": 90, "texture": "#5"},
				"east": {"uv": [0.032, 0.032, 0.968, 0.968], "rotation": 90, "texture": "#5"},
				"south": {"uv": [0, 0, 1, 1], "rotation": 270, "texture": "#5"},
				"west": {"uv": [0.032, 0.032, 0.968, 0.968], "rotation": 90, "texture": "#5"},
				"up": {"uv": [0.032, 0.032, 0.968, 0.968], "rotation": 270, "texture": "#5"},
				"down": {"uv": [0, 0, 1, 1], "rotation": 270, "texture": "#5"}
			}
		},
		{
			"name": "octagon",
			"from": [8.69912, 4.69321, 9.47765],
			"to": [8.79945, 4.91885, 9.76466],
			"rotation": {"angle": 0, "axis": "y", "origin": [8.30099, 4.92672, 9.67734]},
			"faces": {
				"north": {"uv": [0, 0, 1, 1], "rotation": 90, "texture": "#5"},
				"east": {"uv": [0.032, 0.032, 0.968, 0.968], "texture": "#5"},
				"south": {"uv": [0.032, 0.032, 0.968, 0.968], "rotation": 270, "texture": "#5"},
				"west": {"uv": [0.032, 0.032, 0.968, 0.968], "rotation": 180, "texture": "#5"},
				"up": {"uv": [0.032, 0.032, 0.968, 0.968], "rotation": 270, "texture": "#5"},
				"down": {"uv": [0, 0, 1, 1], "rotation": 270, "texture": "#5"}
			}
		},
		{
			"name": "octagon",
			"from": [8.69912, 5.25221, 10.13663],
			"to": [8.79945, 5.47785, 10.46159],
			"rotation": {"angle": -22.5, "axis": "x", "origin": [8.77365, 3.19235, 11.14999]},
			"faces": {
				"north": {"uv": [0.032, 0.968, 0.968, 0.032], "rotation": 270, "texture": "#5"},
				"east": {"uv": [0.968, 0.032, 0.032, 0.968], "texture": "#5"},
				"south": {"uv": [0, 1, 1, 0], "rotation": 90, "texture": "#5"},
				"west": {"uv": [0.968, 0.032, 0.032, 0.968], "rotation": 180, "texture": "#5"},
				"up": {"uv": [0.968, 0.032, 0.032, 0.968], "rotation": 270, "texture": "#5"},
				"down": {"uv": [1, 0, 0, 1], "rotation": 270, "texture": "#5"}
			}
		},
		{
			"name": "octagon",
			"from": [8.26542, 4.7616, 9.48943],
			"to": [8.73458, 5.00001, 9.58342],
			"rotation": {"angle": 0, "axis": "y", "origin": [8.66, 3.97297, 10.61422]},
			"faces": {
				"north": {"uv": [0.032, 0.032, 0.968, 0.968], "rotation": 90, "texture": "#5"},
				"east": {"uv": [0, 0, 1, 1], "rotation": 90, "texture": "#5"},
				"south": {"uv": [0.032, 0.032, 0.968, 0.968], "rotation": 270, "texture": "#5"},
				"west": {"uv": [0, 0, 1, 1], "rotation": 90, "texture": "#5"},
				"up": {"uv": [0.032, 0.032, 0.968, 0.968], "rotation": 270, "texture": "#5"},
				"down": {"uv": [0, 0, 1, 1], "rotation": 270, "texture": "#5"}
			}
		},
		{
			"from": [8.23672, 4.51785, 8.47686],
			"to": [8.76719, 4.71707, 8.96983],
			"rotation": {"angle": -22.5, "axis": "x", "origin": [8, 6.01172, 8.69141]},
			"faces": {
				"north": {"uv": [0, 0, 0.01658, 0.00623], "texture": "#5"},
				"east": {"uv": [0.032, 0.032, 0.04741, 0.03823], "texture": "#5"},
				"south": {"uv": [0, 0, 0.01658, 0.00623], "texture": "#5"},
				"west": {"uv": [0.032, 0.032, 0.04741, 0.03823], "texture": "#5"},
				"up": {"uv": [0.032, 0.032, 0.04858, 0.04741], "texture": "#5"},
				"down": {"uv": [0, 0, 0.01658, 0.01541], "texture": "#5"}
			}
		},
		{
			"from": [8.20156, 5.11914, 9.72064],
			"to": [8.80234, 5.34179, 9.99876],
			"rotation": {"angle": -45, "axis": "x", "origin": [8, 4.71094, 10.33203]},
			"faces": {
				"north": {"uv": [0, 0, 0.01877, 0.00696], "texture": "#5"},
				"east": {"uv": [0.032, 0.032, 0.04069, 0.03896], "texture": "#5"},
				"south": {"uv": [0.032, 0.032, 0.05077, 0.03896], "texture": "#5"},
				"west": {"uv": [0.032, 0.032, 0.04069, 0.03896], "texture": "#5"},
				"up": {"uv": [0, 0, 0.01877, 0.00869], "texture": "#5"},
				"down": {"uv": [0, 0, 0.01877, 0.00869], "texture": "#5"}
			}
		},
		{
			"from": [8.20156, 5.02891, 7.20547],
			"to": [8.73203, 5.15, 9.01094],
			"faces": {
				"north": {"uv": [0.032, 0.032, 0.04858, 0.03578], "texture": "#6"},
				"east": {"uv": [0.032, 0.032, 0.08842, 0.03578], "texture": "#6"},
				"south": {"uv": [0.032, 0.032, 0.04858, 0.03578], "texture": "#6"},
				"west": {"uv": [0.032, 0.032, 0.08842, 0.03578], "texture": "#6"},
				"up": {"uv": [0.032, 0.032, 0.04858, 0.08842], "texture": "#6"},
				"down": {"uv": [0, 0, 0.01658, 0.05642], "texture": "#6"}
			}
		},
		{
			"from": [7.87978, 5.129, 7.74844],
			"to": [8.04306, 5.20712, 8.88984],
			"rotation": {"angle": 45, "axis": "z", "origin": [8.1875, 5.37109, 9.09766]},
			"faces": {
				"north": {"uv": [0.032, 0.032, 0.0371, 0.03444], "texture": "#6"},
				"east": {"uv": [0.032, 0.032, 0.06767, 0.03444], "texture": "#6"},
				"south": {"uv": [0.032, 0.032, 0.0371, 0.03444], "texture": "#6"},
				"west": {"uv": [0.032, 0.032, 0.06767, 0.03444], "texture": "#6"},
				"up": {"uv": [0.032, 0.032, 0.0371, 0.06767], "texture": "#6"},
				"down": {"uv": [0, 0, 0.0051, 0.03567], "texture": "#6"}
			}
		},
		{
			"from": [8.08817, 4.34621, 7.75234],
			"to": [8.20535, 5.04074, 8.49531],
			"rotation": {"angle": 0, "axis": "y", "origin": [8.1875, 5.37109, 9.09766]},
			"faces": {
				"north": {"uv": [0.032, 0.032, 0.0537, 0.03566], "rotation": 90, "texture": "#6"},
				"east": {"uv": [0, 0, 0.0217, 0.02322], "rotation": 270, "texture": "#6"},
				"south": {"uv": [0.032, 0.032, 0.0537, 0.03566], "rotation": 270, "texture": "#6"},
				"west": {"uv": [0.032, 0.032, 0.0537, 0.05522], "rotation": 270, "texture": "#6"},
				"up": {"uv": [0.032, 0.032, 0.05522, 0.03566], "rotation": 270, "texture": "#6"},
				"down": {"uv": [0.032, 0.032, 0.05522, 0.03566], "rotation": 270, "texture": "#6"}
			}
		},
		{
			"from": [8.08817, 4.62355, 8.46719],
			"to": [8.20535, 5.03683, 8.88984],
			"rotation": {"angle": 0, "axis": "y", "origin": [8.1875, 5.37109, 9.09766]},
			"faces": {
				"north": {"uv": [0.032, 0.032, 0.04492, 0.03566], "rotation": 90, "texture": "#6"},
				"east": {"uv": [0, 0, 0.01292, 0.01321], "rotation": 270, "texture": "#6"},
				"south": {"uv": [0.032, 0.032, 0.04492, 0.03566], "rotation": 270, "texture": "#6"},
				"west": {"uv": [0.032, 0.032, 0.04492, 0.04521], "rotation": 270, "texture": "#6"},
				"up": {"uv": [0.032, 0.032, 0.04521, 0.03566], "rotation": 270, "texture": "#6"},
				"down": {"uv": [0.032, 0.032, 0.04521, 0.03566], "rotation": 270, "texture": "#6"}
			}
		},
		{
			"name": "octagon",
			"from": [7.99323, 4.56188, 9.88759],
			"to": [8.27656, 4.88547, 10.02163],
			"rotation": {"angle": 45, "axis": "x", "origin": [6.78531, 6.87233, 9.01992]},
			"faces": {
				"north": {"uv": [0, 0, 0.03125, 0.03125], "rotation": 270, "texture": "#5"},
				"east": {"uv": [0, 0, 0.03125, 0.03125], "texture": "#5"},
				"south": {"uv": [0, 0, 0.03125, 0.03125], "rotation": 90, "texture": "#5"},
				"west": {"uv": [0, 0, 0.03125, 0.03125], "rotation": 180, "texture": "#5"},
				"up": {"uv": [0, 0, 0.03125, 0.03125], "rotation": 90, "texture": "#5"},
				"down": {"uv": [0, 0, 0.03125, 0.03125], "rotation": 90, "texture": "#5"}
			}
		},
		{
			"name": "octagon",
			"from": [7.99323, 4.53028, 8.0945],
			"to": [8.27656, 4.85388, 8.22854],
			"rotation": {"angle": 0, "axis": "y", "origin": [6.78531, 6.87233, 9.01992]},
			"faces": {
				"north": {"uv": [0, 0, 0.03125, 0.03125], "rotation": 270, "texture": "#5"},
				"east": {"uv": [0, 0, 0.03125, 0.03125], "texture": "#5"},
				"south": {"uv": [0, 0, 0.03125, 0.03125], "rotation": 90, "texture": "#5"},
				"west": {"uv": [0, 0, 0.03125, 0.03125], "rotation": 180, "texture": "#5"},
				"up": {"uv": [0, 0, 0.03125, 0.03125], "rotation": 90, "texture": "#5"},
				"down": {"uv": [0, 0, 0.03125, 0.03125], "rotation": 90, "texture": "#5"}
			}
		},
		{
			"name": "octagon",
			"from": [7.99323, 4.65666, 9.79281],
			"to": [8.27656, 4.79069, 10.1164],
			"rotation": {"angle": 45, "axis": "x", "origin": [6.78531, 6.87233, 9.01992]},
			"faces": {
				"north": {"uv": [0, 0, 0.03125, 0.03125], "rotation": 270, "texture": "#5"},
				"east": {"uv": [0, 0, 0.03125, 0.03125], "texture": "#5"},
				"south": {"uv": [0, 0, 0.03125, 0.03125], "rotation": 90, "texture": "#5"},
				"west": {"uv": [0, 0, 0.03125, 0.03125], "rotation": 180, "texture": "#5"},
				"up": {"uv": [0, 0, 0.03125, 0.03125], "rotation": 90, "texture": "#5"},
				"down": {"uv": [0, 0, 0.03125, 0.03125], "rotation": 90, "texture": "#5"}
			}
		},
		{
			"name": "octagon",
			"from": [7.99323, 4.62506, 7.99972],
			"to": [8.27656, 4.7591, 8.32331],
			"rotation": {"angle": 0, "axis": "y", "origin": [6.78531, 6.87233, 9.01992]},
			"faces": {
				"north": {"uv": [0, 0, 0.03125, 0.03125], "rotation": 270, "texture": "#5"},
				"east": {"uv": [0, 0, 0.03125, 0.03125], "texture": "#5"},
				"south": {"uv": [0, 0, 0.03125, 0.03125], "rotation": 90, "texture": "#5"},
				"west": {"uv": [0, 0, 0.03125, 0.03125], "rotation": 180, "texture": "#5"},
				"up": {"uv": [0, 0, 0.03125, 0.03125], "rotation": 90, "texture": "#5"},
				"down": {"uv": [0, 0, 0.03125, 0.03125], "rotation": 90, "texture": "#5"}
			}
		},
		{
			"name": "octagon",
			"from": [8.03196, 5.00613, 9.90362],
			"to": [8.15797, 5.20929, 9.98777],
			"rotation": {"angle": 45, "axis": "x", "origin": [7.27363, 6.34829, 8.95592]},
			"faces": {
				"north": {"uv": [0, 0, 0.03125, 0.03125], "rotation": 270, "texture": "#5"},
				"east": {"uv": [0, 0, 0.03125, 0.03125], "texture": "#5"},
				"south": {"uv": [0, 0, 0.03125, 0.03125], "rotation": 90, "texture": "#5"},
				"west": {"uv": [0, 0, 0.03125, 0.03125], "rotation": 180, "texture": "#5"},
				"up": {"uv": [0, 0, 0.03125, 0.03125], "rotation": 90, "texture": "#5"},
				"down": {"uv": [0, 0, 0.03125, 0.03125], "rotation": 90, "texture": "#5"}
			}
		},
		{
			"name": "octagon",
			"from": [8.03196, 4.66961, 8.7365],
			"to": [8.15797, 4.87277, 8.82065],
			"rotation": {"angle": 0, "axis": "y", "origin": [7.27363, 6.34829, 8.95592]},
			"faces": {
				"north": {"uv": [0, 0, 0.03125, 0.03125], "rotation": 270, "texture": "#5"},
				"east": {"uv": [0, 0, 0.03125, 0.03125], "texture": "#5"},
				"south": {"uv": [0, 0, 0.03125, 0.03125], "rotation": 90, "texture": "#5"},
				"west": {"uv": [0, 0, 0.03125, 0.03125], "rotation": 180, "texture": "#5"},
				"up": {"uv": [0, 0, 0.03125, 0.03125], "rotation": 90, "texture": "#5"},
				"down": {"uv": [0, 0, 0.03125, 0.03125], "rotation": 90, "texture": "#5"}
			}
		},
		{
			"name": "octagon",
			"from": [8.03196, 5.06564, 9.84412],
			"to": [8.15797, 5.14978, 10.04727],
			"rotation": {"angle": 45, "axis": "x", "origin": [7.27363, 6.34829, 8.95592]},
			"faces": {
				"north": {"uv": [0, 0, 0.03125, 0.03125], "rotation": 270, "texture": "#5"},
				"east": {"uv": [0, 0, 0.03125, 0.03125], "texture": "#5"},
				"south": {"uv": [0, 0, 0.03125, 0.03125], "rotation": 90, "texture": "#5"},
				"west": {"uv": [0, 0, 0.03125, 0.03125], "rotation": 180, "texture": "#5"},
				"up": {"uv": [0, 0, 0.03125, 0.03125], "rotation": 90, "texture": "#5"},
				"down": {"uv": [0, 0, 0.03125, 0.03125], "rotation": 90, "texture": "#5"}
			}
		},
		{
			"name": "octagon",
			"from": [8.03196, 4.72911, 8.677],
			"to": [8.15797, 4.81326, 8.88015],
			"rotation": {"angle": 0, "axis": "y", "origin": [7.27363, 6.34829, 8.95592]},
			"faces": {
				"north": {"uv": [0, 0, 0.03125, 0.03125], "rotation": 270, "texture": "#5"},
				"east": {"uv": [0, 0, 0.03125, 0.03125], "texture": "#5"},
				"south": {"uv": [0, 0, 0.03125, 0.03125], "rotation": 90, "texture": "#5"},
				"west": {"uv": [0, 0, 0.03125, 0.03125], "rotation": 180, "texture": "#5"},
				"up": {"uv": [0, 0, 0.03125, 0.03125], "rotation": 90, "texture": "#5"},
				"down": {"uv": [0, 0, 0.03125, 0.03125], "rotation": 90, "texture": "#5"}
			}
		},
		{
			"name": "octagon",
			"from": [5.58055, 5.92421, 5.73415],
			"to": [6.58595, 6.34066, 6.73029],
			"rotation": {"angle": 45, "axis": "z", "origin": [7.88306, 8.79408, 8.0972]},
			"faces": {
				"north": {"uv": [0, 0, 0.03125, 0.03125], "rotation": 90, "texture": "#10"},
				"east": {"uv": [0, 0, 0.03125, 0.03125], "rotation": 270, "texture": "#8"},
				"south": {"uv": [0, 0, 0.03125, 0.03125], "rotation": 90, "texture": "#8"},
				"west": {"uv": [0, 0, 0.03125, 0.03125], "rotation": 90, "texture": "#8"},
				"up": {"uv": [0, 0, 0.03125, 0.03125], "rotation": 180, "texture": "#8"},
				"down": {"uv": [0, 0, 0.03125, 0.03125], "texture": "#8"}
			}
		},
		{
			"name": "octagon",
			"from": [7.98977, 5.43113, 5.73415],
			"to": [8.99517, 5.84758, 6.73029],
			"rotation": {"angle": 0, "axis": "y", "origin": [7.88306, 8.79408, 8.0972]},
			"faces": {
				"north": {"uv": [0, 0, 0.03125, 0.03125], "rotation": 90, "texture": "#10"},
				"east": {"uv": [0, 0, 0.03125, 0.03125], "rotation": 270, "texture": "#8"},
				"south": {"uv": [0, 0, 0.03125, 0.03125], "rotation": 90, "texture": "#8"},
				"west": {"uv": [0, 0, 0.03125, 0.03125], "rotation": 90, "texture": "#8"},
				"up": {"uv": [0, 0, 0.03125, 0.03125], "rotation": 180, "texture": "#8"},
				"down": {"uv": [0, 0, 0.03125, 0.03125], "texture": "#8"}
			}
		},
		{
			"name": "octagon",
			"from": [5.87503, 5.62974, 5.73415],
			"to": [6.29148, 6.63514, 6.73029],
			"rotation": {"angle": 45, "axis": "z", "origin": [7.88306, 8.79408, 8.0972]},
			"faces": {
				"north": {"uv": [0, 0, 0.03125, 0.03125], "rotation": 90, "texture": "#10"},
				"east": {"uv": [0, 0, 0.03125, 0.03125], "rotation": 270, "texture": "#8"},
				"south": {"uv": [0, 0, 0.03125, 0.03125], "rotation": 90, "texture": "#8"},
				"west": {"uv": [0, 0, 0.03125, 0.03125], "rotation": 90, "texture": "#8"},
				"up": {"uv": [0, 0, 0.03125, 0.03125], "rotation": 180, "texture": "#8"},
				"down": {"uv": [0, 0, 0.03125, 0.03125], "texture": "#8"}
			}
		},
		{
			"name": "octagon",
			"from": [8.28425, 5.13666, 5.73415],
			"to": [8.7007, 6.14206, 6.73029],
			"rotation": {"angle": 0, "axis": "y", "origin": [7.88306, 8.79408, 8.0972]},
			"faces": {
				"north": {"uv": [0, 0, 0.03125, 0.03125], "rotation": 90, "texture": "#10"},
				"east": {"uv": [0, 0, 0.03125, 0.03125], "rotation": 270, "texture": "#8"},
				"south": {"uv": [0, 0, 0.03125, 0.03125], "rotation": 90, "texture": "#8"},
				"west": {"uv": [0, 0, 0.03125, 0.03125], "rotation": 90, "texture": "#8"},
				"up": {"uv": [0, 0, 0.03125, 0.03125], "rotation": 180, "texture": "#8"},
				"down": {"uv": [0, 0, 0.03125, 0.03125], "texture": "#8"}
			}
		},
		{
			"name": "octagon",
			"from": [6.53463, 5.83117, 6.46201],
			"to": [7.2103, 6.11104, 9.06884],
			"rotation": {"angle": 45, "axis": "z", "origin": [8.08292, 7.76075, 8.24242]},
			"faces": {
				"north": {"uv": [0, 0, 0.03125, 0.03125], "rotation": 90, "texture": "#8"},
				"east": {"uv": [0, 0, 0.03125, 0.03125], "rotation": 270, "texture": "#8"},
				"south": {"uv": [0, 0, 0.03125, 0.03125], "rotation": 90, "texture": "#8"},
				"west": {"uv": [0, 0, 0.03125, 0.03125], "rotation": 90, "texture": "#8"},
				"up": {"uv": [0, 0, 0.03125, 0.03125], "rotation": 180, "texture": "#8"},
				"down": {"uv": [0, 0, 0.03125, 0.03125], "texture": "#8"}
			}
		},
		{
			"name": "octagon",
			"from": [8.15464, 5.49942, 6.46201],
			"to": [8.83031, 5.77929, 9.06884],
			"rotation": {"angle": 0, "axis": "y", "origin": [8.08292, 7.76075, 8.24242]},
			"faces": {
				"north": {"uv": [0, 0, 0.03125, 0.03125], "rotation": 90, "texture": "#8"},
				"east": {"uv": [0, 0, 0.03125, 0.03125], "rotation": 270, "texture": "#8"},
				"south": {"uv": [0, 0, 0.03125, 0.03125], "rotation": 90, "texture": "#8"},
				"west": {"uv": [0, 0, 0.03125, 0.03125], "rotation": 90, "texture": "#8"},
				"up": {"uv": [0, 0, 0.03125, 0.03125], "rotation": 180, "texture": "#8"},
				"down": {"uv": [0, 0, 0.03125, 0.03125], "texture": "#8"}
			}
		},
		{
			"name": "octagon",
			"from": [6.73253, 5.63327, 6.46201],
			"to": [7.0124, 6.30894, 9.06884],
			"rotation": {"angle": 45, "axis": "z", "origin": [8.08292, 7.76075, 8.24242]},
			"faces": {
				"north": {"uv": [0, 0, 0.03125, 0.03125], "rotation": 90, "texture": "#8"},
				"east": {"uv": [0, 0, 0.03125, 0.03125], "rotation": 270, "texture": "#8"},
				"south": {"uv": [0, 0, 0.03125, 0.03125], "rotation": 90, "texture": "#8"},
				"west": {"uv": [0, 0, 0.03125, 0.03125], "rotation": 90, "texture": "#8"},
				"up": {"uv": [0, 0, 0.03125, 0.03125], "rotation": 180, "texture": "#8"},
				"down": {"uv": [0, 0, 0.03125, 0.03125], "texture": "#8"}
			}
		},
		{
			"name": "octagon",
			"from": [8.35254, 5.30152, 6.46201],
			"to": [8.63241, 5.97719, 9.06884],
			"rotation": {"angle": 0, "axis": "y", "origin": [8.08292, 7.76075, 8.24242]},
			"faces": {
				"north": {"uv": [0, 0, 0.03125, 0.03125], "rotation": 90, "texture": "#8"},
				"east": {"uv": [0, 0, 0.03125, 0.03125], "rotation": 270, "texture": "#8"},
				"south": {"uv": [0, 0, 0.03125, 0.03125], "rotation": 90, "texture": "#8"},
				"west": {"uv": [0, 0, 0.03125, 0.03125], "rotation": 90, "texture": "#8"},
				"up": {"uv": [0, 0, 0.03125, 0.03125], "rotation": 180, "texture": "#8"},
				"down": {"uv": [0, 0, 0.03125, 0.03125], "texture": "#8"}
			}
		},
		{
			"name": "octagon",
			"from": [6.06541, 5.87693, 9.01638],
			"to": [6.90324, 6.22397, 9.72541],
			"rotation": {"angle": 45, "axis": "z", "origin": [7.98463, 8.26895, 7.85018]},
			"faces": {
				"north": {"uv": [0, 0, 0.03125, 0.03125], "rotation": 90, "texture": "#8"},
				"east": {"uv": [0, 0, 0.03125, 0.03125], "rotation": 270, "texture": "#8"},
				"south": {"uv": [0, 0, 0.03125, 0.03125], "rotation": 90, "texture": "#10"},
				"west": {"uv": [0, 0, 0.03125, 0.03125], "rotation": 90, "texture": "#8"},
				"up": {"uv": [0, 0, 0.03125, 0.03125], "rotation": 180, "texture": "#8"},
				"down": {"uv": [0, 0, 0.03125, 0.03125], "texture": "#8"}
			}
		},
		{
			"name": "octagon",
			"from": [8.07356, 5.46584, 9.01638],
			"to": [8.91139, 5.81288, 9.72541],
			"rotation": {"angle": 0, "axis": "y", "origin": [7.98463, 8.26895, 7.85018]},
			"faces": {
				"north": {"uv": [0, 0, 0.03125, 0.03125], "rotation": 90, "texture": "#8"},
				"east": {"uv": [0, 0, 0.03125, 0.03125], "rotation": 270, "texture": "#8"},
				"south": {"uv": [0, 0, 0.03125, 0.03125], "rotation": 90, "texture": "#10"},
				"west": {"uv": [0, 0, 0.03125, 0.03125], "rotation": 90, "texture": "#8"},
				"up": {"uv": [0, 0, 0.03125, 0.03125], "rotation": 180, "texture": "#8"},
				"down": {"uv": [0, 0, 0.03125, 0.03125], "texture": "#8"}
			}
		},
		{
			"name": "octagon",
			"from": [6.31081, 5.63153, 9.01638],
			"to": [6.65785, 6.46936, 9.72541],
			"rotation": {"angle": 45, "axis": "z", "origin": [7.98463, 8.26895, 7.85018]},
			"faces": {
				"north": {"uv": [0, 0, 0.03125, 0.03125], "rotation": 90, "texture": "#8"},
				"east": {"uv": [0, 0, 0.03125, 0.03125], "rotation": 270, "texture": "#8"},
				"south": {"uv": [0, 0, 0.03125, 0.03125], "rotation": 90, "texture": "#10"},
				"west": {"uv": [0, 0, 0.03125, 0.03125], "rotation": 90, "texture": "#8"},
				"up": {"uv": [0, 0, 0.03125, 0.03125], "rotation": 180, "texture": "#8"},
				"down": {"uv": [0, 0, 0.03125, 0.03125], "texture": "#8"}
			}
		},
		{
			"name": "octagon",
			"from": [8.31895, 5.22044, 9.01638],
			"to": [8.66599, 6.05827, 9.72541],
			"rotation": {"angle": 0, "axis": "y", "origin": [7.98463, 8.26895, 7.85018]},
			"faces": {
				"north": {"uv": [0, 0, 0.03125, 0.03125], "rotation": 90, "texture": "#8"},
				"east": {"uv": [0, 0, 0.03125, 0.03125], "rotation": 270, "texture": "#8"},
				"south": {"uv": [0, 0, 0.03125, 0.03125], "rotation": 90, "texture": "#10"},
				"west": {"uv": [0, 0, 0.03125, 0.03125], "rotation": 90, "texture": "#8"},
				"up": {"uv": [0, 0, 0.03125, 0.03125], "rotation": 180, "texture": "#8"},
				"down": {"uv": [0, 0, 0.03125, 0.03125], "texture": "#8"}
			}
		},
		{
			"name": "octagon",
			"from": [6.06541, 5.87693, 9.7195],
			"to": [6.14152, 6.22397, 9.83869],
			"rotation": {"angle": 45, "axis": "z", "origin": [7.98463, 8.26895, 7.85018]},
			"faces": {
				"north": {"uv": [0, 0, 0.03125, 0.03125], "rotation": 90, "texture": "#8"},
				"east": {"uv": [0, 0, 0.03125, 0.03125], "rotation": 270, "texture": "#8"},
				"south": {"uv": [0, 0, 0.03125, 0.03125], "rotation": 90, "texture": "#8"},
				"west": {"uv": [0, 0, 0.03125, 0.03125], "rotation": 90, "texture": "#8"},
				"up": {"uv": [0, 0, 0.03125, 0.03125], "rotation": 180, "texture": "#8"},
				"down": {"uv": [0, 0, 0.03125, 0.03125], "texture": "#8"}
			}
		},
		{
			"name": "octagon",
			"from": [6.83104, 5.87693, 9.7195],
			"to": [6.90324, 6.22397, 9.83869],
			"rotation": {"angle": 45, "axis": "z", "origin": [7.98463, 8.26895, 7.85018]},
			"faces": {
				"north": {"uv": [0, 0, 0.03125, 0.03125], "rotation": 90, "texture": "#8"},
				"east": {"uv": [0, 0, 0.03125, 0.03125], "rotation": 270, "texture": "#8"},
				"south": {"uv": [0, 0, 0.03125, 0.03125], "rotation": 90, "texture": "#8"},
				"west": {"uv": [0, 0, 0.03125, 0.03125], "rotation": 90, "texture": "#8"},
				"up": {"uv": [0, 0, 0.03125, 0.03125], "rotation": 180, "texture": "#8"},
				"down": {"uv": [0, 0, 0.03125, 0.03125], "texture": "#8"}
			}
		},
		{
			"name": "octagon",
			"from": [8.83918, 5.46584, 9.7195],
			"to": [8.91139, 5.81288, 9.83869],
			"rotation": {"angle": 0, "axis": "y", "origin": [7.98463, 8.26895, 7.85018]},
			"faces": {
				"north": {"uv": [0, 0, 0.03125, 0.03125], "rotation": 90, "texture": "#8"},
				"east": {"uv": [0, 0, 0.03125, 0.03125], "rotation": 270, "texture": "#8"},
				"south": {"uv": [0, 0, 0.03125, 0.03125], "rotation": 90, "texture": "#8"},
				"west": {"uv": [0, 0, 0.03125, 0.03125], "rotation": 90, "texture": "#8"},
				"up": {"uv": [0, 0, 0.03125, 0.03125], "rotation": 180, "texture": "#8"},
				"down": {"uv": [0, 0, 0.03125, 0.03125], "texture": "#8"}
			}
		},
		{
			"name": "octagon",
			"from": [8.07356, 5.46584, 9.7195],
			"to": [8.14576, 5.81288, 9.83869],
			"rotation": {"angle": 0, "axis": "y", "origin": [7.98463, 8.26895, 7.85018]},
			"faces": {
				"north": {"uv": [0, 0, 0.03125, 0.03125], "rotation": 90, "texture": "#8"},
				"east": {"uv": [0, 0, 0.03125, 0.03125], "rotation": 270, "texture": "#8"},
				"south": {"uv": [0, 0, 0.03125, 0.03125], "rotation": 90, "texture": "#8"},
				"west": {"uv": [0, 0, 0.03125, 0.03125], "rotation": 90, "texture": "#8"},
				"up": {"uv": [0, 0, 0.03125, 0.03125], "rotation": 180, "texture": "#8"},
				"down": {"uv": [0, 0, 0.03125, 0.03125], "texture": "#8"}
			}
		},
		{
			"name": "octagon",
			"from": [6.31081, 6.39716, 9.7195],
			"to": [6.65785, 6.46936, 9.83869],
			"rotation": {"angle": 45, "axis": "z", "origin": [7.98463, 8.26895, 7.85018]},
			"faces": {
				"north": {"uv": [0, 0, 0.03125, 0.03125], "rotation": 90, "texture": "#8"},
				"east": {"uv": [0, 0, 0.03125, 0.03125], "rotation": 270, "texture": "#8"},
				"south": {"uv": [0, 0, 0.03125, 0.03125], "rotation": 90, "texture": "#8"},
				"west": {"uv": [0, 0, 0.03125, 0.03125], "rotation": 90, "texture": "#8"},
				"up": {"uv": [0, 0, 0.03125, 0.03125], "rotation": 180, "texture": "#8"},
				"down": {"uv": [0, 0, 0.03125, 0.03125], "texture": "#8"}
			}
		},
		{
			"name": "octagon",
			"from": [6.31081, 5.63153, 9.7195],
			"to": [6.65785, 5.71155, 9.83869],
			"rotation": {"angle": 45, "axis": "z", "origin": [7.98463, 8.26895, 7.85018]},
			"faces": {
				"north": {"uv": [0, 0, 0.03125, 0.03125], "rotation": 90, "texture": "#8"},
				"east": {"uv": [0, 0, 0.03125, 0.03125], "rotation": 270, "texture": "#8"},
				"south": {"uv": [0, 0, 0.03125, 0.03125], "rotation": 90, "texture": "#8"},
				"west": {"uv": [0, 0, 0.03125, 0.03125], "rotation": 90, "texture": "#8"},
				"up": {"uv": [0, 0, 0.03125, 0.03125], "rotation": 180, "texture": "#8"},
				"down": {"uv": [0, 0, 0.03125, 0.03125], "texture": "#8"}
			}
		},
		{
			"name": "octagon",
			"from": [8.31895, 5.98607, 9.7195],
			"to": [8.66599, 6.05827, 9.83869],
			"rotation": {"angle": 0, "axis": "y", "origin": [7.98463, 8.26895, 7.85018]},
			"faces": {
				"north": {"uv": [0, 0, 0.03125, 0.03125], "rotation": 90, "texture": "#8"},
				"east": {"uv": [0, 0, 0.03125, 0.03125], "rotation": 270, "texture": "#8"},
				"south": {"uv": [0, 0, 0.03125, 0.03125], "rotation": 90, "texture": "#8"},
				"west": {"uv": [0, 0, 0.03125, 0.03125], "rotation": 90, "texture": "#8"},
				"up": {"uv": [0, 0, 0.03125, 0.03125], "rotation": 180, "texture": "#8"},
				"down": {"uv": [0, 0, 0.03125, 0.03125], "texture": "#8"}
			}
		},
		{
			"name": "octagon",
			"from": [8.31895, 5.22044, 9.7195],
			"to": [8.66599, 5.30046, 9.83869],
			"rotation": {"angle": 0, "axis": "y", "origin": [7.98463, 8.26895, 7.85018]},
			"faces": {
				"north": {"uv": [0, 0, 0.03125, 0.03125], "rotation": 90, "texture": "#8"},
				"east": {"uv": [0, 0, 0.03125, 0.03125], "rotation": 270, "texture": "#8"},
				"south": {"uv": [0, 0, 0.03125, 0.03125], "rotation": 90, "texture": "#8"},
				"west": {"uv": [0, 0, 0.03125, 0.03125], "rotation": 90, "texture": "#8"},
				"up": {"uv": [0, 0, 0.03125, 0.03125], "rotation": 180, "texture": "#8"},
				"down": {"uv": [0, 0, 0.03125, 0.03125], "texture": "#8"}
			}
		},
		{
			"name": "octagon",
			"from": [5.57712, 5.92452, 5.21514],
			"to": [5.66855, 6.34139, 5.73759],
			"rotation": {"angle": 45, "axis": "z", "origin": [7.88249, 8.79782, 8.36572]},
			"faces": {
				"north": {"uv": [0, 0, 0.03125, 0.03125], "rotation": 90, "texture": "#8"},
				"east": {"uv": [0, 0, 0.03125, 0.03125], "rotation": 270, "texture": "#8"},
				"south": {"uv": [0, 0, 0.03125, 0.03125], "rotation": 90, "texture": "#8"},
				"west": {"uv": [0, 0, 0.03125, 0.03125], "rotation": 90, "texture": "#8"},
				"up": {"uv": [0, 0, 0.03125, 0.03125], "rotation": 180, "texture": "#8"},
				"down": {"uv": [0, 0, 0.03125, 0.03125], "texture": "#8"}
			}
		},
		{
			"name": "octagon",
			"from": [6.49679, 5.92452, 5.21514],
			"to": [6.58352, 6.34139, 5.73759],
			"rotation": {"angle": 45, "axis": "z", "origin": [7.88249, 8.79782, 8.36572]},
			"faces": {
				"north": {"uv": [0, 0, 0.03125, 0.03125], "rotation": 90, "texture": "#8"},
				"east": {"uv": [0, 0, 0.03125, 0.03125], "rotation": 270, "texture": "#8"},
				"south": {"uv": [0, 0, 0.03125, 0.03125], "rotation": 90, "texture": "#8"},
				"west": {"uv": [0, 0, 0.03125, 0.03125], "rotation": 90, "texture": "#8"},
				"up": {"uv": [0, 0, 0.03125, 0.03125], "rotation": 180, "texture": "#8"},
				"down": {"uv": [0, 0, 0.03125, 0.03125], "texture": "#8"}
			}
		},
		{
			"name": "octagon",
			"from": [8.90897, 5.43072, 5.21514],
			"to": [8.99571, 5.84759, 5.73759],
			"rotation": {"angle": 0, "axis": "y", "origin": [7.88249, 8.79782, 8.36572]},
			"faces": {
				"north": {"uv": [0, 0, 0.03125, 0.03125], "rotation": 90, "texture": "#8"},
				"east": {"uv": [0, 0, 0.03125, 0.03125], "rotation": 270, "texture": "#8"},
				"south": {"uv": [0, 0, 0.03125, 0.03125], "rotation": 90, "texture": "#8"},
				"west": {"uv": [0, 0, 0.03125, 0.03125], "rotation": 90, "texture": "#8"},
				"up": {"uv": [0, 0, 0.03125, 0.03125], "rotation": 180, "texture": "#8"},
				"down": {"uv": [0, 0, 0.03125, 0.03125], "texture": "#8"}
			}
		},
		{
			"name": "octagon",
			"from": [7.9893, 5.43072, 5.21514],
			"to": [8.07604, 5.84759, 5.73759],
			"rotation": {"angle": 0, "axis": "y", "origin": [7.88249, 8.79782, 8.36572]},
			"faces": {
				"north": {"uv": [0, 0, 0.03125, 0.03125], "rotation": 90, "texture": "#8"},
				"east": {"uv": [0, 0, 0.03125, 0.03125], "rotation": 270, "texture": "#8"},
				"south": {"uv": [0, 0, 0.03125, 0.03125], "rotation": 90, "texture": "#8"},
				"west": {"uv": [0, 0, 0.03125, 0.03125], "rotation": 90, "texture": "#8"},
				"up": {"uv": [0, 0, 0.03125, 0.03125], "rotation": 180, "texture": "#8"},
				"down": {"uv": [0, 0, 0.03125, 0.03125], "texture": "#8"}
			}
		},
		{
			"name": "octagon",
			"from": [5.87189, 6.54942, 5.21514],
			"to": [6.28876, 6.63616, 5.73759],
			"rotation": {"angle": 45, "axis": "z", "origin": [7.88249, 8.79782, 8.36572]},
			"faces": {
				"north": {"uv": [0, 0, 0.03125, 0.03125], "rotation": 90, "texture": "#8"},
				"east": {"uv": [0, 0, 0.03125, 0.03125], "rotation": 270, "texture": "#8"},
				"south": {"uv": [0, 0, 0.03125, 0.03125], "rotation": 90, "texture": "#8"},
				"west": {"uv": [0, 0, 0.03125, 0.03125], "rotation": 90, "texture": "#8"},
				"up": {"uv": [0, 0, 0.03125, 0.03125], "rotation": 180, "texture": "#8"},
				"down": {"uv": [0, 0, 0.03125, 0.03125], "texture": "#8"}
			}
		},
		{
			"name": "octagon",
			"from": [5.87189, 5.62975, 5.21514],
			"to": [6.28876, 5.72587, 5.73759],
			"rotation": {"angle": 45, "axis": "z", "origin": [7.88249, 8.79782, 8.36572]},
			"faces": {
				"north": {"uv": [0, 0, 0.03125, 0.03125], "rotation": 90, "texture": "#8"},
				"east": {"uv": [0, 0, 0.03125, 0.03125], "rotation": 270, "texture": "#8"},
				"south": {"uv": [0, 0, 0.03125, 0.03125], "rotation": 90, "texture": "#8"},
				"west": {"uv": [0, 0, 0.03125, 0.03125], "rotation": 90, "texture": "#8"},
				"up": {"uv": [0, 0, 0.03125, 0.03125], "rotation": 180, "texture": "#8"},
				"down": {"uv": [0, 0, 0.03125, 0.03125], "texture": "#8"}
			}
		},
		{
			"name": "octagon",
			"from": [8.28407, 6.05562, 5.21514],
			"to": [8.70094, 6.14236, 5.73759],
			"rotation": {"angle": 0, "axis": "y", "origin": [7.88249, 8.79782, 8.36572]},
			"faces": {
				"north": {"uv": [0, 0, 0.03125, 0.03125], "rotation": 90, "texture": "#8"},
				"east": {"uv": [0, 0, 0.03125, 0.03125], "rotation": 270, "texture": "#8"},
				"south": {"uv": [0, 0, 0.03125, 0.03125], "rotation": 90, "texture": "#8"},
				"west": {"uv": [0, 0, 0.03125, 0.03125], "rotation": 90, "texture": "#8"},
				"up": {"uv": [0, 0, 0.03125, 0.03125], "rotation": 180, "texture": "#8"},
				"down": {"uv": [0, 0, 0.03125, 0.03125], "texture": "#8"}
			}
		},
		{
			"name": "octagon",
			"from": [8.28407, 5.13595, 5.21514],
			"to": [8.70094, 5.23207, 5.73759],
			"rotation": {"angle": 0, "axis": "y", "origin": [7.88249, 8.79782, 8.36572]},
			"faces": {
				"north": {"uv": [0, 0, 0.03125, 0.03125], "rotation": 90, "texture": "#8"},
				"east": {"uv": [0, 0, 0.03125, 0.03125], "rotation": 270, "texture": "#8"},
				"south": {"uv": [0, 0, 0.03125, 0.03125], "rotation": 90, "texture": "#8"},
				"west": {"uv": [0, 0, 0.03125, 0.03125], "rotation": 90, "texture": "#8"},
				"up": {"uv": [0, 0, 0.03125, 0.03125], "rotation": 180, "texture": "#8"},
				"down": {"uv": [0, 0, 0.03125, 0.03125], "texture": "#8"}
			}
		},
		{
			"name": "octagon",
			"from": [7.52003, 5.87789, 7.6933],
			"to": [7.67551, 6.20656, 8.06867],
			"rotation": {"angle": 45, "axis": "y", "origin": [8.06641, 7.72077, 6.80861]},
			"faces": {
				"north": {"uv": [0, 0, 0.03125, 0.03125], "texture": "#6"},
				"east": {"uv": [0, 0, 0.03125, 0.03125], "texture": "#6"},
				"south": {"uv": [0, 0, 0.03125, 0.03125], "texture": "#6"},
				"west": {"uv": [0, 0, 0.03125, 0.03125], "texture": "#6"},
				"up": {"uv": [0, 0, 0.03125, 0.03125], "rotation": 180, "texture": "#6"},
				"down": {"uv": [0, 0, 0.03125, 0.03125], "rotation": 180, "texture": "#6"}
			}
		},
		{
			"name": "octagon",
			"from": [8.41557, 5.87789, 7.71058],
			"to": [8.57105, 6.20656, 8.08595],
			"rotation": {"angle": 0, "axis": "y", "origin": [8.06641, 7.72077, 6.80861]},
			"faces": {
				"north": {"uv": [0, 0, 0.03125, 0.03125], "texture": "#6"},
				"east": {"uv": [0, 0, 0.03125, 0.03125], "texture": "#6"},
				"south": {"uv": [0, 0, 0.03125, 0.03125], "texture": "#6"},
				"west": {"uv": [0, 0, 0.03125, 0.03125], "texture": "#6"},
				"up": {"uv": [0, 0, 0.03125, 0.03125], "rotation": 180, "texture": "#6"},
				"down": {"uv": [0, 0, 0.03125, 0.03125], "rotation": 180, "texture": "#6"}
			}
		},
		{
			"name": "octagon",
			"from": [7.41008, 5.87789, 7.80324],
			"to": [7.78545, 6.20656, 7.95872],
			"rotation": {"angle": 45, "axis": "y", "origin": [8.06641, 7.72077, 6.80861]},
			"faces": {
				"north": {"uv": [0, 0, 0.03125, 0.03125], "texture": "#6"},
				"east": {"uv": [0, 0, 0.03125, 0.03125], "texture": "#6"},
				"south": {"uv": [0, 0, 0.03125, 0.03125], "texture": "#6"},
				"west": {"uv": [0, 0, 0.03125, 0.03125], "texture": "#6"},
				"up": {"uv": [0, 0, 0.03125, 0.03125], "rotation": 180, "texture": "#6"},
				"down": {"uv": [0, 0, 0.03125, 0.03125], "rotation": 180, "texture": "#6"}
			}
		},
		{
			"name": "octagon",
			"from": [8.30563, 5.87789, 7.82053],
			"to": [8.681, 6.20656, 7.97601],
			"rotation": {"angle": 0, "axis": "y", "origin": [8.06641, 7.72077, 6.80861]},
			"faces": {
				"north": {"uv": [0, 0, 0.03125, 0.03125], "texture": "#6"},
				"east": {"uv": [0, 0, 0.03125, 0.03125], "texture": "#6"},
				"south": {"uv": [0, 0, 0.03125, 0.03125], "texture": "#6"},
				"west": {"uv": [0, 0, 0.03125, 0.03125], "texture": "#6"},
				"up": {"uv": [0, 0, 0.03125, 0.03125], "rotation": 180, "texture": "#6"},
				"down": {"uv": [0, 0, 0.03125, 0.03125], "rotation": 180, "texture": "#6"}
			}
		},
		{
			"from": [8.31875, 5.07969, 8.51797],
			"to": [8.66563, 5.45859, 8.74531],
			"faces": {
				"north": {"uv": [0.032, 0.032, 0.04284, 0.04384], "texture": "#8"},
				"east": {"uv": [0.032, 0.032, 0.0391, 0.04384], "texture": "#8"},
				"south": {"uv": [0.032, 0.032, 0.04284, 0.04384], "texture": "#8"},
				"west": {"uv": [0.032, 0.032, 0.0391, 0.04384], "texture": "#8"},
				"up": {"uv": [0.032, 0.032, 0.04284, 0.0391], "texture": "#8"},
				"down": {"uv": [0, 0, 0.01084, 0.0071], "texture": "#8"}
			}
		},
		{
			"from": [8.31875, 5.07969, 7.35781],
			"to": [8.66563, 5.45859, 7.58516],
			"faces": {
				"north": {"uv": [0.032, 0.032, 0.04284, 0.04384], "texture": "#8"},
				"east": {"uv": [0.032, 0.032, 0.0391, 0.04384], "texture": "#8"},
				"south": {"uv": [0.032, 0.032, 0.04284, 0.04384], "texture": "#8"},
				"west": {"uv": [0.032, 0.032, 0.0391, 0.04384], "texture": "#8"},
				"up": {"uv": [0.032, 0.032, 0.04284, 0.0391], "texture": "#8"},
				"down": {"uv": [0, 0, 0.01084, 0.0071], "texture": "#8"}
			}
		},
		{
			"from": [8.43594, 5.55703, 7.6625],
			"to": [8.50234, 5.62266, 7.6625],
			"rotation": {"angle": 0, "axis": "y", "origin": [8.13281, 5.59766, 7.72656]},
			"faces": {
				"north": {"uv": [0.032, 0.03408, 0.03405, 0.03615], "rotation": 270, "texture": "#11"},
				"east": {"uv": [0, 0.00784, 0.00205, 0.00784], "rotation": 90, "texture": "#11"},
				"south": {"uv": [0.032, 0.03408, 0.03405, 0.03615], "rotation": 90, "texture": "#11"},
				"west": {"uv": [0.032, 0.03984, 0.03405, 0.03984], "rotation": 90, "texture": "#11"},
				"up": {"uv": [0.032, 0.03408, 0.032, 0.03615], "rotation": 90, "texture": "#11"},
				"down": {"uv": [0.032, 0.03408, 0.032, 0.03615], "rotation": 90, "texture": "#11"}
			}
		},
		{
			"from": [8.66641, 5.32266, 7.53359],
			"to": [8.73281, 5.63828, 7.78437],
			"rotation": {"angle": 0, "axis": "y", "origin": [8.13281, 5.59766, 7.72656]},
			"faces": {
				"north": {"uv": [0.032, 0.03408, 0.04186, 0.03615], "rotation": 270, "texture": "#8"},
				"east": {"uv": [0, 0.00784, 0.00986, 0.01567], "rotation": 90, "texture": "#8"},
				"south": {"uv": [0.032, 0.03408, 0.04186, 0.03615], "rotation": 90, "texture": "#8"},
				"west": {"uv": [0.032, 0.03984, 0.04186, 0.04767], "rotation": 90, "texture": "#8"},
				"up": {"uv": [0.032, 0.03408, 0.03984, 0.03615], "rotation": 90, "texture": "#8"},
				"down": {"uv": [0.032, 0.03408, 0.03984, 0.03615], "rotation": 90, "texture": "#8"}
			}
		},
		{
			"from": [8.63576, 5.40294, 7.53359],
			"to": [8.70216, 5.64825, 7.78437],
			"rotation": {"angle": 22.5, "axis": "z", "origin": [8.13281, 5.59766, 7.72656]},
			"faces": {
				"north": {"uv": [0.032, 0.03408, 0.03967, 0.03615], "rotation": 270, "texture": "#8"},
				"east": {"uv": [0, 0.00784, 0.00767, 0.01567], "rotation": 90, "texture": "#8"},
				"south": {"uv": [0.032, 0.03408, 0.03967, 0.03615], "rotation": 90, "texture": "#8"},
				"west": {"uv": [0.032, 0.03984, 0.03967, 0.04767], "rotation": 90, "texture": "#8"},
				"up": {"uv": [0.032, 0.03408, 0.03984, 0.03615], "rotation": 90, "texture": "#8"},
				"down": {"uv": [0.032, 0.03408, 0.03984, 0.03615], "rotation": 90, "texture": "#8"}
			}
		},
		{
			"from": [8.29531, 5.80625, 7.53359],
			"to": [8.63828, 5.86094, 7.78437],
			"faces": {
				"north": {"uv": [0.032, 0.032, 0.04272, 0.03371], "texture": "#8"},
				"east": {"uv": [0.032, 0.032, 0.03984, 0.03371], "texture": "#8"},
				"south": {"uv": [0.032, 0.032, 0.04272, 0.03371], "texture": "#8"},
				"west": {"uv": [0.032, 0.032, 0.03984, 0.03371], "texture": "#8"},
				"up": {"uv": [0.032, 0.032, 0.04272, 0.03984], "texture": "#8"},
				"down": {"uv": [0, 0, 0.01072, 0.00784], "texture": "#8"}
			}
		},
		{
			"from": [8.16037, 5.76021, 7.53359],
			"to": [8.22677, 6.00552, 7.78437],
			"rotation": {"angle": -22.5, "axis": "z", "origin": [7.86719, 5.59766, 7.72656]},
			"faces": {
				"north": {"uv": [0.032, 0.032, 0.03967, 0.03408], "rotation": 270, "texture": "#8"},
				"east": {"uv": [0.032, 0.032, 0.03967, 0.03984], "rotation": 90, "texture": "#8"},
				"south": {"uv": [0.032, 0.032, 0.03967, 0.03408], "rotation": 90, "texture": "#8"},
				"west": {"uv": [0, 0, 0.00767, 0.00784], "rotation": 90, "texture": "#8"},
				"up": {"uv": [0.032, 0.032, 0.03984, 0.03408], "rotation": 90, "texture": "#8"},
				"down": {"uv": [0.032, 0.032, 0.03984, 0.03408], "rotation": 90, "texture": "#8"}
			}
		},
		{
			"from": [8.20078, 5.32266, 7.53359],
			"to": [8.26719, 5.63828, 7.78437],
			"rotation": {"angle": 0, "axis": "y", "origin": [7.86719, 5.59766, 7.72656]},
			"faces": {
				"north": {"uv": [0.032, 0.032, 0.04186, 0.03408], "rotation": 270, "texture": "#8"},
				"east": {"uv": [0.032, 0.032, 0.04186, 0.03984], "rotation": 90, "texture": "#8"},
				"south": {"uv": [0.032, 0.032, 0.04186, 0.03408], "rotation": 90, "texture": "#8"},
				"west": {"uv": [0, 0, 0.00986, 0.00784], "rotation": 90, "texture": "#8"},
				"up": {"uv": [0.032, 0.032, 0.03984, 0.03408], "rotation": 90, "texture": "#8"},
				"down": {"uv": [0.032, 0.032, 0.03984, 0.03408], "rotation": 90, "texture": "#8"}
			}
		},
		{
			"from": [8.20156, 5.26328, 7.53359],
			"to": [8.73203, 5.4, 7.78437],
			"faces": {
				"north": {"uv": [0.032, 0.032, 0.04858, 0.03627], "texture": "#8"},
				"east": {"uv": [0.032, 0.032, 0.03984, 0.03627], "texture": "#8"},
				"south": {"uv": [0.032, 0.032, 0.04858, 0.03627], "texture": "#8"},
				"west": {"uv": [0.032, 0.032, 0.03984, 0.03627], "texture": "#8"},
				"up": {"uv": [0.032, 0.032, 0.04858, 0.03984], "texture": "#8"},
				"down": {"uv": [0, 0, 0.01658, 0.00784], "texture": "#8"}
			}
		},
		{
			"from": [8.20156, 5.23984, 8.20937],
			"to": [8.73203, 5.37266, 8.70234],
			"faces": {
				"north": {"uv": [0.032, 0.032, 0.04858, 0.03615], "texture": "#8"},
				"east": {"uv": [0.032, 0.032, 0.04741, 0.03615], "texture": "#8"},
				"south": {"uv": [0.032, 0.032, 0.04858, 0.03615], "texture": "#8"},
				"west": {"uv": [0.032, 0.032, 0.04741, 0.03615], "texture": "#8"},
				"up": {"uv": [0.032, 0.032, 0.04858, 0.04741], "texture": "#8"},
				"down": {"uv": [0, 0, 0.01658, 0.01541], "texture": "#8"}
			}
		},
		{
			"from": [8.20156, 5.14609, 7.52969],
			"to": [8.73203, 5.32188, 8.70234],
			"faces": {
				"north": {"uv": [0.032, 0.032, 0.04858, 0.03749], "texture": "#8"},
				"east": {"uv": [0.032, 0.032, 0.06865, 0.03749], "texture": "#8"},
				"south": {"uv": [0.032, 0.032, 0.04858, 0.03749], "texture": "#8"},
				"west": {"uv": [0.032, 0.032, 0.06865, 0.03749], "texture": "#8"},
				"up": {"uv": [0.032, 0.032, 0.04858, 0.06865], "texture": "#8"},
				"down": {"uv": [0, 0, 0.01658, 0.03665], "texture": "#8"}
			}
		},
		{
			"name": "supressor",
			"from": [8.13776, 4.15659, -1.96611],
			"to": [8.86959, 4.88482, 1.18174],
			"rotation": {"angle": 0, "axis": "y", "origin": [7.53565, 11.20763, 14.90713]},
			"faces": {
				"north": {"uv": [0.032, 0.032, 0.38078, 0.37891], "texture": "#8"},
				"east": {"uv": [0.032, 0.032, 0.75, 0.37891], "texture": "#6"},
				"south": {"uv": [0.032, 0.032, 0.38078, 0.37891], "texture": "#6"},
				"west": {"uv": [0.032, 0.032, 0.75, 0.37891], "texture": "#6"},
				"up": {"uv": [0.032, 0.032, 0.38078, 0.75], "texture": "#6"},
				"down": {"uv": [0.032, 0.032, 0.38078, 0.75], "texture": "#6"}
			}
		},
		{
			"name": "supressor",
			"from": [8.24753, 4.26582, 1.08185],
			"to": [8.75981, 4.77558, 1.41893],
			"rotation": {"angle": 0, "axis": "y", "origin": [7.82606, 9.20155, 10.81421]},
			"faces": {
				"north": {"uv": [0.032, 0.032, 0.38078, 0.37891], "texture": "#8"},
				"east": {"uv": [0.032, 0.032, 0.75, 0.37891], "texture": "#6"},
				"south": {"uv": [0.032, 0.032, 0.38078, 0.37891], "texture": "#6"},
				"west": {"uv": [0.032, 0.032, 0.75, 0.37891], "texture": "#6"},
				"up": {"uv": [0.032, 0.032, 0.38078, 0.75], "texture": "#6"},
				"down": {"uv": [0.032, 0.032, 0.38078, 0.75], "texture": "#6"}
			}
		}
	],
	"display": {
		"thirdperson_righthand": {
			"translation": [0, 7.5, -2.75],
			"scale": [1.5, 1.5, 1.5]
		},
		"thirdperson_lefthand": {
			"translation": [0, 7.5, -2.75],
			"scale": [1.5, 1.5, 1.5]
		},
		"firstperson_righthand": {
			"translation": [-8, 11, 6.5]
		},
		"firstperson_lefthand": {
			"translation": [-7, 11, 6.5]
		},
		"ground": {
			"translation": [0, 4.25, 0]
		},
		"gui": {
			"rotation": [0, 94, 0],
			"translation": [0, 4.75, 0]
		},
		"head": {
			"translation": [0, 10.75, -6]
		},
		"fixed": {
			"rotation": [0, 93, 0],
			"translation": [-0.25, 4.25, 0],
			"scale": [1.2, 1.2, 1.2]
		}
	},
	"groups": [
		{
			"name": "carbine",
			"origin": [8, 8, 8],
			"children": [
				{
					"name": "magazine",
					"origin": [8, 2, 8.7],
					"children": [0, 1]
				},
				{
					"name": "body",
					"origin": [8, 3.3, 11.9],
					"children": [2, 3, 4, 5, 6, 7, 8, 9, 10, 11]
				},
				{
					"name": "trigger",
					"origin": [8, 2.59688, 9.82578],
					"children": [12, 13, 14, 15, 16, 17, 18, 19, 20, 21, 22, 23]
				},
				{
					"name": "stock",
					"origin": [8, 8, 8],
					"children": [24, 25, 26, 27, 28, 29, 30]
				},
				{
					"name": "barrel",
					"origin": [8, 8, 8],
					"children": [31, 32, 33, 34, 35, 36, 37, 38, 39, 40, 41, 42, 43]
				}
			]
		},
		{
			"name": "sight_iron",
			"origin": [8, 8, 8],
			"children": [
				{
					"name": "lilbolt2",
					"origin": [8, 8, 8],
					"children": [44, 45, 46, 47, 48, 49]
				},
				{
					"name": "lilbolt1",
					"origin": [8, 8, 8],
					"children": [50, 51, 52, 53, 54, 55]
				},
				{
					"name": "bolt2",
					"origin": [8, 8, 8],
					"children": [56, 57, 58, 59, 60, 61]
				},
				{
					"name": "bolt1",
					"origin": [8, 8, 8],
					"children": [62, 63, 64, 65, 66, 67]
				},
				{
					"name": "octagon",
					"origin": [8, 8, 8],
					"children": [68, 69, 70, 71, 72, 73]
				},
				{
					"name": "octagon ring",
					"origin": [8, 8, 8],
					"children": [74, 75, 76, 77, 78, 79, 80]
				},
				{
					"name": "sihgt",
					"origin": [8, 8, 8],
					"children": [
						{
							"name": "sihgt",
							"origin": [8, 8, 8],
							"children": [81, 82, 83, 84, 85]
						},
						{
							"name": "sihgt",
							"origin": [8, 8, 8],
							"children": [86, 87, 88, 89, 90]
						}
					]
				}, 91, 92, 93]
		},
		{
			"name": "mount",
			"origin": [8.1875, 5.37109, 9.09766],
			"children": [94, 95, 96, 97,
				{
					"name": "octagon",
					"origin": [8, 8, 8],
					"children": [98, 99, 100, 101]
				},
				{
					"name": "octagon",
					"origin": [8, 8, 8],
					"children": [102, 103, 104, 105]
				}
			]
		},
		{
			"name": "sight_scope",
			"origin": [8, 8, 8],
			"children": [
				{
					"name": "octagon",
					"origin": [8, 8, 8],
					"children": [106, 107, 108, 109]
				},
				{
					"name": "octagon",
					"origin": [8, 8, 8],
					"children": [110, 111, 112, 113]
				},
				{
					"name": "octagon",
					"origin": [8, 8, 8],
					"children": [114, 115, 116, 117]
				},
				{
					"name": "octagon ring",
					"origin": [8, 8, 8],
					"children": [118, 119, 120, 121, 122, 123, 124, 125]
				},
				{
					"name": "octagon ring",
					"origin": [8, 8, 8],
					"children": [126, 127, 128, 129, 130, 131, 132, 133]
				},
				{
					"name": "octagon",
					"origin": [8, 8, 8],
					"children": [134, 135, 136, 137]
				}, 138, 139]
		},
		{
			"name": "sight_colimator",
			"origin": [8, 8, 8],
			"children": [140, 141, 142, 143, 144, 145, 146, 147, 148]
		},
		{
			"name": "supressor",
			"origin": [7.82606, 9.20155, 10.81421],
			"children": [149, 150]
		}
	]
}