{
	"credit": "Made with Blockbench",
	"texture_size": [48, 48],
	"textures": {
		"0": "gci:items/common/mpz",
		"particle": "gci:items/common/mpz"
	},
	"elements": [
		{
			"from": [7.95013, 3.38402, 5.03813],
			"to": [8.12933, 3.47362, 8.40213],
			"rotation": {"angle": 0, "axis": "y", "origin": [8.00395, 2.95012, 7.44981]},
			"faces": {
				"north": {"uv": [9, 3, 10, 5], "rotation": 90, "texture": "#0"},
				"east": {"uv": [9, 3, 10, 5], "rotation": 90, "texture": "#0"},
				"south": {"uv": [9, 3, 10, 5], "rotation": 90, "texture": "#0"},
				"west": {"uv": [9, 3, 10, 5], "rotation": 90, "texture": "#0"},
				"up": {"uv": [9, 3, 10, 5], "rotation": 90, "texture": "#0"},
				"down": {"uv": [9, 3, 10, 5], "rotation": 90, "texture": "#0"}
			}
		},
		{
			"from": [8.15687, 3.26875, 4.43813],
			"to": [8.33607, 3.35835, 8.40213],
			"rotation": {"angle": 45, "axis": "z", "origin": [8.00395, 2.95012, 7.44981]},
			"faces": {
				"north": {"uv": [9, 3, 10, 5], "rotation": 90, "texture": "#0"},
				"east": {"uv": [9, 3, 10, 5], "rotation": 90, "texture": "#0"},
				"south": {"uv": [9, 3, 10, 5], "rotation": 90, "texture": "#0"},
				"west": {"uv": [9, 3, 10, 5], "rotation": 90, "texture": "#0"},
				"up": {"uv": [9, 3, 10, 5], "rotation": 90, "texture": "#0"},
				"down": {"uv": [9, 3, 10, 5], "rotation": 90, "texture": "#0"}
			}
		},
		{
			"from": [7.72244, 3.31935, 4.43813],
			"to": [7.90164, 3.40895, 8.40213],
			"rotation": {"angle": -45, "axis": "z", "origin": [8.00395, 2.95012, 7.44981]},
			"faces": {
				"north": {"uv": [9, 3, 10, 5], "rotation": 90, "texture": "#0"},
				"east": {"uv": [9, 3, 10, 5], "rotation": 90, "texture": "#0"},
				"south": {"uv": [9, 3, 10, 5], "rotation": 90, "texture": "#0"},
				"west": {"uv": [9, 3, 10, 5], "rotation": 90, "texture": "#0"},
				"up": {"uv": [9, 3, 10, 5], "rotation": 90, "texture": "#0"},
				"down": {"uv": [9, 3, 10, 5], "rotation": 90, "texture": "#0"}
			}
		},
		{
			"from": [8.16645, 3.16771, 5.03813],
			"to": [8.25605, 3.34691, 8.40213],
			"rotation": {"angle": 0, "axis": "y", "origin": [8.00395, 2.95012, 7.44981]},
			"faces": {
				"north": {"uv": [9, 3, 10, 5], "rotation": 180, "texture": "#0"},
				"east": {"uv": [9, 3, 10, 5], "rotation": 180, "texture": "#0"},
				"south": {"uv": [9, 3, 10, 5], "rotation": 180, "texture": "#0"},
				"west": {"uv": [9, 3, 10, 5], "rotation": 180, "texture": "#0"},
				"up": {"uv": [9, 3, 10, 5], "rotation": 180, "texture": "#0"},
				"down": {"uv": [9, 3, 10, 5], "rotation": 180, "texture": "#0"}
			}
		},
		{
			"from": [7.93875, 3.10303, 4.43813],
			"to": [8.02835, 3.28223, 8.40213],
			"rotation": {"angle": -45, "axis": "z", "origin": [8.00395, 2.95012, 7.44981]},
			"faces": {
				"north": {"uv": [9, 3, 10, 5], "rotation": 180, "texture": "#0"},
				"east": {"uv": [9, 3, 10, 5], "rotation": 180, "texture": "#0"},
				"south": {"uv": [9, 3, 10, 5], "rotation": 180, "texture": "#0"},
				"west": {"uv": [9, 3, 10, 5], "rotation": 180, "texture": "#0"},
				"up": {"uv": [9, 3, 10, 5], "rotation": 180, "texture": "#0"},
				"down": {"uv": [9, 3, 10, 5], "rotation": 180, "texture": "#0"}
			}
		},
		{
			"from": [7.95013, 3.04099, 5.03813],
			"to": [8.12933, 3.13059, 8.40213],
			"rotation": {"angle": 0, "axis": "y", "origin": [8.00395, 2.95012, 7.44981]},
			"faces": {
				"north": {"uv": [9, 3, 10, 5], "rotation": 270, "texture": "#0"},
				"east": {"uv": [9, 3, 10, 5], "rotation": 270, "texture": "#0"},
				"south": {"uv": [9, 3, 10, 5], "rotation": 270, "texture": "#0"},
				"west": {"uv": [9, 3, 10, 5], "rotation": 270, "texture": "#0"},
				"up": {"uv": [9, 3, 10, 5], "rotation": 270, "texture": "#0"},
				"down": {"uv": [9, 3, 10, 5], "rotation": 270, "texture": "#0"}
			}
		},
		{
			"from": [7.72244, 2.97632, 4.43813],
			"to": [7.90164, 3.06592, 8.40213],
			"rotation": {"angle": -45, "axis": "z", "origin": [8.00395, 2.95012, 7.44981]},
			"faces": {
				"north": {"uv": [9, 3, 10, 5], "rotation": 270, "texture": "#0"},
				"east": {"uv": [9, 3, 10, 5], "rotation": 270, "texture": "#0"},
				"south": {"uv": [9, 3, 10, 5], "rotation": 270, "texture": "#0"},
				"west": {"uv": [9, 3, 10, 5], "rotation": 270, "texture": "#0"},
				"up": {"uv": [9, 3, 10, 5], "rotation": 270, "texture": "#0"},
				"down": {"uv": [9, 3, 10, 5], "rotation": 270, "texture": "#0"}
			}
		},
		{
			"from": [7.82342, 3.16771, 5.03813],
			"to": [7.91302, 3.34691, 8.40213],
			"rotation": {"angle": 0, "axis": "y", "origin": [8.00395, 2.95012, 7.44981]},
			"faces": {
				"north": {"uv": [9, 3, 10, 5], "texture": "#0"},
				"east": {"uv": [9, 3, 10, 5], "texture": "#0"},
				"south": {"uv": [9, 3, 10, 5], "texture": "#0"},
				"west": {"uv": [9, 3, 10, 5], "texture": "#0"},
				"up": {"uv": [9, 3, 10, 5], "texture": "#0"},
				"down": {"uv": [9, 3, 10, 5], "texture": "#0"}
			}
		},
		{
			"from": [7.95013, 3.04099, 4.83813],
			"to": [8.12933, 3.13059, 4.93813],
			"rotation": {"angle": 0, "axis": "y", "origin": [8.00395, 2.95012, 7.24981]},
			"faces": {
				"north": {"uv": [9, 3, 10, 5], "rotation": 270, "texture": "#0"},
				"east": {"uv": [9, 3, 10, 5], "rotation": 270, "texture": "#0"},
				"south": {"uv": [9, 3, 10, 5], "rotation": 270, "texture": "#0"},
				"west": {"uv": [9, 3, 10, 5], "rotation": 270, "texture": "#0"},
				"up": {"uv": [9, 3, 10, 5], "rotation": 270, "texture": "#0"},
				"down": {"uv": [9, 3, 10, 5], "rotation": 270, "texture": "#0"}
			}
		},
		{
			"from": [7.95013, 3.38402, 4.83813],
			"to": [8.12933, 3.47362, 4.93813],
			"rotation": {"angle": 0, "axis": "y", "origin": [8.00395, 2.95012, 7.24981]},
			"faces": {
				"north": {"uv": [9, 3, 10, 5], "rotation": 90, "texture": "#0"},
				"east": {"uv": [9, 3, 10, 5], "rotation": 90, "texture": "#0"},
				"south": {"uv": [9, 3, 10, 5], "rotation": 90, "texture": "#0"},
				"west": {"uv": [9, 3, 10, 5], "rotation": 90, "texture": "#0"},
				"up": {"uv": [9, 3, 10, 5], "rotation": 90, "texture": "#0"},
				"down": {"uv": [9, 3, 10, 5], "rotation": 90, "texture": "#0"}
			}
		},
		{
			"from": [8.16645, 3.16771, 4.83813],
			"to": [8.25605, 3.34691, 4.93813],
			"rotation": {"angle": 0, "axis": "y", "origin": [8.00395, 2.95012, 7.24981]},
			"faces": {
				"north": {"uv": [9, 3, 10, 5], "rotation": 180, "texture": "#0"},
				"east": {"uv": [9, 3, 10, 5], "rotation": 180, "texture": "#0"},
				"south": {"uv": [9, 3, 10, 5], "rotation": 180, "texture": "#0"},
				"west": {"uv": [9, 3, 10, 5], "rotation": 180, "texture": "#0"},
				"up": {"uv": [9, 3, 10, 5], "rotation": 180, "texture": "#0"},
				"down": {"uv": [9, 3, 10, 5], "rotation": 180, "texture": "#0"}
			}
		},
		{
			"from": [7.82342, 3.16771, 4.83813],
			"to": [7.91302, 3.34691, 4.93813],
			"rotation": {"angle": 0, "axis": "y", "origin": [8.00395, 2.95012, 7.24981]},
			"faces": {
				"north": {"uv": [9, 3, 10, 5], "texture": "#0"},
				"east": {"uv": [9, 3, 10, 5], "texture": "#0"},
				"south": {"uv": [9, 3, 10, 5], "texture": "#0"},
				"west": {"uv": [9, 3, 10, 5], "texture": "#0"},
				"up": {"uv": [9, 3, 10, 5], "texture": "#0"},
				"down": {"uv": [9, 3, 10, 5], "texture": "#0"}
			}
		},
		{
			"from": [7.95013, 3.04099, 4.63813],
			"to": [8.12933, 3.13059, 4.73813],
			"rotation": {"angle": 0, "axis": "y", "origin": [8.00395, 2.95012, 7.04981]},
			"faces": {
				"north": {"uv": [9, 3, 10, 5], "rotation": 270, "texture": "#0"},
				"east": {"uv": [9, 3, 10, 5], "rotation": 270, "texture": "#0"},
				"south": {"uv": [9, 3, 10, 5], "rotation": 270, "texture": "#0"},
				"west": {"uv": [9, 3, 10, 5], "rotation": 270, "texture": "#0"},
				"up": {"uv": [9, 3, 10, 5], "rotation": 270, "texture": "#0"},
				"down": {"uv": [9, 3, 10, 5], "rotation": 270, "texture": "#0"}
			}
		},
		{
			"from": [7.95013, 3.38402, 4.63813],
			"to": [8.12933, 3.47362, 4.73813],
			"rotation": {"angle": 0, "axis": "y", "origin": [8.00395, 2.95012, 7.04981]},
			"faces": {
				"north": {"uv": [9, 3, 10, 5], "rotation": 90, "texture": "#0"},
				"east": {"uv": [9, 3, 10, 5], "rotation": 90, "texture": "#0"},
				"south": {"uv": [9, 3, 10, 5], "rotation": 90, "texture": "#0"},
				"west": {"uv": [9, 3, 10, 5], "rotation": 90, "texture": "#0"},
				"up": {"uv": [9, 3, 10, 5], "rotation": 90, "texture": "#0"},
				"down": {"uv": [9, 3, 10, 5], "rotation": 90, "texture": "#0"}
			}
		},
		{
			"from": [8.16645, 3.16771, 4.63813],
			"to": [8.25605, 3.34691, 4.73813],
			"rotation": {"angle": 0, "axis": "y", "origin": [8.00395, 2.95012, 7.04981]},
			"faces": {
				"north": {"uv": [9, 3, 10, 5], "rotation": 180, "texture": "#0"},
				"east": {"uv": [9, 3, 10, 5], "rotation": 180, "texture": "#0"},
				"south": {"uv": [9, 3, 10, 5], "rotation": 180, "texture": "#0"},
				"west": {"uv": [9, 3, 10, 5], "rotation": 180, "texture": "#0"},
				"up": {"uv": [9, 3, 10, 5], "rotation": 180, "texture": "#0"},
				"down": {"uv": [9, 3, 10, 5], "rotation": 180, "texture": "#0"}
			}
		},
		{
			"from": [7.82342, 3.16771, 4.63813],
			"to": [7.91302, 3.34691, 4.73813],
			"rotation": {"angle": 0, "axis": "y", "origin": [8.00395, 2.95012, 7.04981]},
			"faces": {
				"north": {"uv": [9, 3, 10, 5], "texture": "#0"},
				"east": {"uv": [9, 3, 10, 5], "texture": "#0"},
				"south": {"uv": [9, 3, 10, 5], "texture": "#0"},
				"west": {"uv": [9, 3, 10, 5], "texture": "#0"},
				"up": {"uv": [9, 3, 10, 5], "texture": "#0"},
				"down": {"uv": [9, 3, 10, 5], "texture": "#0"}
			}
		},
		{
			"from": [7.95013, 3.04099, 4.43813],
			"to": [8.12933, 3.13059, 4.53813],
			"rotation": {"angle": 0, "axis": "y", "origin": [8.00395, 2.95012, 6.84981]},
			"faces": {
				"north": {"uv": [9, 3, 10, 5], "rotation": 270, "texture": "#0"},
				"east": {"uv": [9, 3, 10, 5], "rotation": 270, "texture": "#0"},
				"south": {"uv": [9, 3, 10, 5], "rotation": 270, "texture": "#0"},
				"west": {"uv": [9, 3, 10, 5], "rotation": 270, "texture": "#0"},
				"up": {"uv": [9, 3, 10, 5], "rotation": 270, "texture": "#0"},
				"down": {"uv": [9, 3, 10, 5], "rotation": 270, "texture": "#0"}
			}
		},
		{
			"from": [7.95013, 3.38402, 4.43813],
			"to": [8.12933, 3.47362, 4.53813],
			"rotation": {"angle": 0, "axis": "y", "origin": [8.00395, 2.95012, 6.84981]},
			"faces": {
				"north": {"uv": [9, 3, 10, 5], "rotation": 90, "texture": "#0"},
				"east": {"uv": [9, 3, 10, 5], "rotation": 90, "texture": "#0"},
				"south": {"uv": [9, 3, 10, 5], "rotation": 90, "texture": "#0"},
				"west": {"uv": [9, 3, 10, 5], "rotation": 90, "texture": "#0"},
				"up": {"uv": [9, 3, 10, 5], "rotation": 90, "texture": "#0"},
				"down": {"uv": [9, 3, 10, 5], "rotation": 90, "texture": "#0"}
			}
		},
		{
			"from": [8.16645, 3.16771, 4.43813],
			"to": [8.25605, 3.34691, 4.53813],
			"rotation": {"angle": 0, "axis": "y", "origin": [8.00395, 2.95012, 6.84981]},
			"faces": {
				"north": {"uv": [9, 3, 10, 5], "rotation": 180, "texture": "#0"},
				"east": {"uv": [9, 3, 10, 5], "rotation": 180, "texture": "#0"},
				"south": {"uv": [9, 3, 10, 5], "rotation": 180, "texture": "#0"},
				"west": {"uv": [9, 3, 10, 5], "rotation": 180, "texture": "#0"},
				"up": {"uv": [9, 3, 10, 5], "rotation": 180, "texture": "#0"},
				"down": {"uv": [9, 3, 10, 5], "rotation": 180, "texture": "#0"}
			}
		},
		{
			"from": [7.82342, 3.16771, 4.43813],
			"to": [7.91302, 3.34691, 4.53813],
			"rotation": {"angle": 0, "axis": "y", "origin": [8.00395, 2.95012, 6.84981]},
			"faces": {
				"north": {"uv": [9, 3, 10, 5], "texture": "#0"},
				"east": {"uv": [9, 3, 10, 5], "texture": "#0"},
				"south": {"uv": [9, 3, 10, 5], "texture": "#0"},
				"west": {"uv": [9, 3, 10, 5], "texture": "#0"},
				"up": {"uv": [9, 3, 10, 5], "texture": "#0"},
				"down": {"uv": [9, 3, 10, 5], "texture": "#0"}
			}
		},
		{
			"from": [7.71845, 2.7901, 5.22773],
			"to": [8.35845, 2.9821, 8.93973],
			"rotation": {"angle": 0, "axis": "y", "origin": [8.00395, 2.95012, 7.44981]},
			"faces": {
				"north": {"uv": [0.33333, 11.33333, 2, 13], "texture": "#0"},
				"east": {"uv": [0.33333, 11.33333, 2, 13], "texture": "#0"},
				"south": {"uv": [0.33333, 11.33333, 2, 13], "texture": "#0"},
				"west": {"uv": [0.33333, 11.33333, 2, 13], "texture": "#0"},
				"up": {"uv": [0.33333, 11.33333, 2, 13], "texture": "#0"},
				"down": {"uv": [0.33333, 11.33333, 2, 13], "texture": "#0"}
			}
		},
		{
			"from": [8.2647, 2.80994, 5.22773],
			"to": [8.3927, 2.93794, 8.93973],
			"rotation": {"angle": -22.5, "axis": "z", "origin": [8.00395, 2.95012, 7.44981]},
			"faces": {
				"north": {"uv": [0.33333, 11.33333, 2, 13], "texture": "#0"},
				"east": {"uv": [0.33333, 11.33333, 2, 13], "texture": "#0"},
				"south": {"uv": [0.33333, 11.33333, 2, 13], "texture": "#0"},
				"west": {"uv": [0.33333, 11.33333, 2, 13], "texture": "#0"},
				"up": {"uv": [0.33333, 11.33333, 2, 13], "texture": "#0"},
				"down": {"uv": [0.33333, 11.33333, 2, 13], "texture": "#0"}
			}
		},
		{
			"from": [7.67895, 2.78354, 5.22773],
			"to": [7.80695, 2.91154, 8.93973],
			"rotation": {"angle": 22.5, "axis": "z", "origin": [8.00395, 2.95012, 7.44981]},
			"faces": {
				"north": {"uv": [0.33333, 11.33333, 2, 13], "texture": "#0"},
				"east": {"uv": [0.33333, 11.33333, 2, 13], "texture": "#0"},
				"south": {"uv": [0.33333, 11.33333, 2, 13], "texture": "#0"},
				"west": {"uv": [0.33333, 11.33333, 2, 13], "texture": "#0"},
				"up": {"uv": [0.33333, 11.33333, 2, 13], "texture": "#0"},
				"down": {"uv": [0.33333, 11.33333, 2, 13], "texture": "#0"}
			}
		},
		{
			"from": [7.76744, 2.67184, 5.22773],
			"to": [8.30785, 2.79984, 8.93973],
			"rotation": {"angle": 0, "axis": "y", "origin": [8.00395, 2.95012, 7.44981]},
			"faces": {
				"north": {"uv": [0.33333, 11.33333, 2, 13], "texture": "#0"},
				"east": {"uv": [0.33333, 11.33333, 2, 13], "texture": "#0"},
				"south": {"uv": [0.33333, 11.33333, 2, 13], "texture": "#0"},
				"west": {"uv": [0.33333, 11.33333, 2, 13], "texture": "#0"},
				"up": {"uv": [0.33333, 11.33333, 2, 13], "texture": "#0"},
				"down": {"uv": [0.33333, 11.33333, 2, 13], "texture": "#0"}
			}
		},
		{
			"from": [7.76744, 2.67184, 8.55573],
			"to": [8.30785, 2.79984, 8.93973],
			"rotation": {"angle": 0, "axis": "y", "origin": [8.00395, 2.95012, 7.44981]},
			"faces": {
				"north": {"uv": [0.33333, 11.33333, 2, 13], "texture": "#0"},
				"east": {"uv": [0.33333, 11.33333, 2, 13], "texture": "#0"},
				"south": {"uv": [0.33333, 11.33333, 2, 13], "texture": "#0"},
				"west": {"uv": [0.33333, 11.33333, 2, 13], "texture": "#0"},
				"up": {"uv": [0.33333, 11.33333, 2, 13], "texture": "#0"},
				"down": {"uv": [0.33333, 11.33333, 2, 13], "texture": "#0"}
			}
		},
		{
			"from": [7.76744, 1.97135, 7.90704],
			"to": [8.30785, 2.09935, 8.03504],
			"rotation": {"angle": -45, "axis": "x", "origin": [8.00395, 2.95012, 7.44981]},
			"faces": {
				"north": {"uv": [0.33333, 11.33333, 2, 13], "texture": "#0"},
				"east": {"uv": [0.33333, 11.33333, 2, 13], "texture": "#0"},
				"south": {"uv": [0.33333, 11.33333, 2, 13], "texture": "#0"},
				"west": {"uv": [0.33333, 11.33333, 2, 13], "texture": "#0"},
				"up": {"uv": [0.33333, 11.33333, 2, 13], "texture": "#0"},
				"down": {"uv": [0.33333, 11.33333, 2, 13], "texture": "#0"}
			}
		},
		{
			"from": [7.76744, 2.54384, 7.47871],
			"to": [8.30785, 2.67184, 8.50271],
			"rotation": {"angle": 0, "axis": "y", "origin": [8.00395, 2.95012, 7.44981]},
			"faces": {
				"north": {"uv": [0.33333, 11.33333, 2, 13], "rotation": 270, "texture": "#0"},
				"east": {"uv": [0.33333, 11.33333, 2, 13], "rotation": 270, "texture": "#0"},
				"south": {"uv": [0.33333, 11.33333, 2, 13], "rotation": 270, "texture": "#0"},
				"west": {"uv": [0.33333, 11.33333, 2, 13], "rotation": 270, "texture": "#0"},
				"up": {"uv": [0.33333, 11.33333, 2, 13], "rotation": 270, "texture": "#0"},
				"down": {"uv": [0.33333, 11.33333, 2, 13], "rotation": 270, "texture": "#0"}
			}
		},
		{
			"from": [7.76744, 1.42146, 7.27205],
			"to": [8.30785, 2.06146, 8.29605],
			"rotation": {"angle": -22.5, "axis": "x", "origin": [8.00395, 2.95012, 7.44981]},
			"faces": {
				"north": {"uv": [0.33333, 11.33333, 2, 13], "texture": "#0"},
				"east": {"uv": [0.33333, 11.33333, 2, 13], "texture": "#0"},
				"south": {"uv": [0.33333, 11.33333, 2, 13], "texture": "#0"},
				"west": {"uv": [0.33333, 11.33333, 2, 13], "texture": "#0"},
				"up": {"uv": [0.33333, 11.33333, 2, 13], "texture": "#0"},
				"down": {"uv": [0.33333, 11.33333, 2, 13], "texture": "#0"}
			}
		},
		{
			"from": [7.76744, 2.06146, 7.27205],
			"to": [8.30785, 2.82946, 8.29605],
			"rotation": {"angle": -22.5, "axis": "x", "origin": [8.00395, 2.95012, 7.44981]},
			"faces": {
				"north": {"uv": [0.33333, 11.33333, 2, 13], "texture": "#0"},
				"east": {"uv": [0.33333, 11.33333, 2, 13], "texture": "#0"},
				"south": {"uv": [0.33333, 11.33333, 2, 13], "texture": "#0"},
				"west": {"uv": [0.33333, 11.33333, 2, 13], "texture": "#0"},
				"up": {"uv": [0.33333, 11.33333, 2, 13], "texture": "#0"},
				"down": {"uv": [0.33333, 11.33333, 2, 13], "texture": "#0"}
			}
		},
		{
			"from": [7.89544, 2.06107, 6.60166],
			"to": [8.17985, 2.12507, 7.62566],
			"rotation": {"angle": 0, "axis": "y", "origin": [8.00395, 2.95012, 7.44981]},
			"faces": {
				"north": {"uv": [0.33333, 11.33333, 2, 13], "texture": "#0"},
				"east": {"uv": [0.33333, 11.33333, 2, 13], "texture": "#0"},
				"south": {"uv": [0.33333, 11.33333, 2, 13], "texture": "#0"},
				"west": {"uv": [0.33333, 11.33333, 2, 13], "texture": "#0"},
				"up": {"uv": [0.33333, 11.33333, 2, 13], "texture": "#0"},
				"down": {"uv": [0.33333, 11.33333, 2, 13], "texture": "#0"}
			}
		},
		{
			"from": [7.89544, 1.80418, 6.94244],
			"to": [8.17985, 1.86818, 7.00644],
			"rotation": {"angle": 22.5, "axis": "x", "origin": [8.00395, 2.95012, 7.44981]},
			"faces": {
				"north": {"uv": [0.33333, 11.33333, 2, 13], "texture": "#0"},
				"east": {"uv": [0.33333, 11.33333, 2, 13], "texture": "#0"},
				"south": {"uv": [0.33333, 11.33333, 2, 13], "texture": "#0"},
				"west": {"uv": [0.33333, 11.33333, 2, 13], "texture": "#0"},
				"up": {"uv": [0.33333, 11.33333, 2, 13], "texture": "#0"},
				"down": {"uv": [0.33333, 11.33333, 2, 13], "texture": "#0"}
			}
		},
		{
			"from": [7.89544, 2.55771, 6.25625],
			"to": [8.17985, 3.26171, 6.32025],
			"rotation": {"angle": -22.5, "axis": "x", "origin": [8.00395, 2.95012, 7.44981]},
			"faces": {
				"north": {"uv": [0.33333, 11.33333, 2, 13], "rotation": 90, "texture": "#0"},
				"east": {"uv": [0.33333, 11.33333, 2, 13], "rotation": 90, "texture": "#0"},
				"south": {"uv": [0.33333, 11.33333, 2, 13], "rotation": 90, "texture": "#0"},
				"west": {"uv": [0.33333, 11.33333, 2, 13], "rotation": 90, "texture": "#0"},
				"up": {"uv": [0.33333, 11.33333, 2, 13], "rotation": 90, "texture": "#0"},
				"down": {"uv": [0.33333, 11.33333, 2, 13], "rotation": 90, "texture": "#0"}
			}
		},
		{
			"from": [7.95948, 2.50027, 7.12814],
			"to": [8.11589, 2.82027, 7.19214],
			"rotation": {"angle": 0, "axis": "y", "origin": [8.00395, 2.95012, 7.44981]},
			"faces": {
				"north": {"uv": [0.33333, 11.33333, 2, 13], "rotation": 90, "texture": "#0"},
				"east": {"uv": [0.33333, 11.33333, 2, 13], "rotation": 90, "texture": "#0"},
				"south": {"uv": [0.33333, 11.33333, 2, 13], "rotation": 90, "texture": "#0"},
				"west": {"uv": [0.33333, 11.33333, 2, 13], "rotation": 90, "texture": "#0"},
				"up": {"uv": [0.33333, 11.33333, 2, 13], "rotation": 90, "texture": "#0"},
				"down": {"uv": [0.33333, 11.33333, 2, 13], "rotation": 90, "texture": "#0"}
			}
		},
		{
			"from": [7.95948, 2.11591, 7.3199],
			"to": [8.11589, 2.43591, 7.3839],
			"rotation": {"angle": 22.5, "axis": "x", "origin": [8.00395, 2.95012, 7.44981]},
			"faces": {
				"north": {"uv": [0.33333, 11.33333, 2, 13], "rotation": 90, "texture": "#0"},
				"east": {"uv": [0.33333, 11.33333, 2, 13], "rotation": 90, "texture": "#0"},
				"south": {"uv": [0.33333, 11.33333, 2, 13], "rotation": 90, "texture": "#0"},
				"west": {"uv": [0.33333, 11.33333, 2, 13], "rotation": 90, "texture": "#0"},
				"up": {"uv": [0.33333, 11.33333, 2, 13], "rotation": 90, "texture": "#0"},
				"down": {"uv": [0.33333, 11.33333, 2, 13], "rotation": 90, "texture": "#0"}
			}
		},
		{
			"from": [7.89544, 1.69724, 7.3556],
			"to": [8.17985, 1.76124, 7.4196],
			"rotation": {"angle": 45, "axis": "x", "origin": [8.00395, 2.95012, 7.44981]},
			"faces": {
				"north": {"uv": [0.33333, 11.33333, 2, 13], "texture": "#0"},
				"east": {"uv": [0.33333, 11.33333, 2, 13], "texture": "#0"},
				"south": {"uv": [0.33333, 11.33333, 2, 13], "texture": "#0"},
				"west": {"uv": [0.33333, 11.33333, 2, 13], "texture": "#0"},
				"up": {"uv": [0.33333, 11.33333, 2, 13], "texture": "#0"},
				"down": {"uv": [0.33333, 11.33333, 2, 13], "texture": "#0"}
			}
		},
		{
			"from": [7.76744, 1.0093, 7.85305],
			"to": [8.30785, 2.0333, 8.36505],
			"rotation": {"angle": -22.5, "axis": "x", "origin": [8.00395, 2.95012, 7.44981]},
			"faces": {
				"north": {"uv": [0.33333, 11.33333, 2, 13], "rotation": 270, "texture": "#0"},
				"east": {"uv": [0.33333, 11.33333, 2, 13], "rotation": 270, "texture": "#0"},
				"south": {"uv": [0.33333, 11.33333, 2, 13], "rotation": 270, "texture": "#0"},
				"west": {"uv": [0.33333, 11.33333, 2, 13], "rotation": 270, "texture": "#0"},
				"up": {"uv": [0.33333, 11.33333, 2, 13], "rotation": 270, "texture": "#0"},
				"down": {"uv": [0.33333, 11.33333, 2, 13], "rotation": 270, "texture": "#0"}
			}
		},
		{
			"from": [7.76744, 1.75284, 7.81653],
			"to": [8.30785, 2.00884, 7.94453],
			"rotation": {"angle": -45, "axis": "x", "origin": [8.00395, 2.95012, 7.44981]},
			"faces": {
				"north": {"uv": [0.33333, 11.33333, 2, 13], "rotation": 270, "texture": "#0"},
				"east": {"uv": [0.33333, 11.33333, 2, 13], "rotation": 270, "texture": "#0"},
				"south": {"uv": [0.33333, 11.33333, 2, 13], "rotation": 270, "texture": "#0"},
				"west": {"uv": [0.33333, 11.33333, 2, 13], "rotation": 270, "texture": "#0"},
				"up": {"uv": [0.33333, 11.33333, 2, 13], "rotation": 270, "texture": "#0"},
				"down": {"uv": [0.33333, 11.33333, 2, 13], "rotation": 270, "texture": "#0"}
			}
		},
		{
			"from": [7.76744, 1.34984, 6.70059],
			"to": [8.30785, 1.60584, 7.46859],
			"rotation": {"angle": -45, "axis": "x", "origin": [8.00395, 2.95012, 7.44981]},
			"faces": {
				"north": {"uv": [0.33333, 11.33333, 2, 13], "texture": "#0"},
				"east": {"uv": [0.33333, 11.33333, 2, 13], "texture": "#0"},
				"south": {"uv": [0.33333, 11.33333, 2, 13], "texture": "#0"},
				"west": {"uv": [0.33333, 11.33333, 2, 13], "texture": "#0"},
				"up": {"uv": [0.33333, 11.33333, 2, 13], "texture": "#0"},
				"down": {"uv": [0.33333, 11.33333, 2, 13], "texture": "#0"}
			}
		},
		{
			"from": [7.76744, 1.10593, 7.36027],
			"to": [8.30785, 1.23393, 7.48827],
			"rotation": {"angle": -22.5, "axis": "x", "origin": [8.00395, 2.95012, 7.44981]},
			"faces": {
				"north": {"uv": [0.33333, 11.33333, 2, 13], "texture": "#0"},
				"east": {"uv": [0.33333, 11.33333, 2, 13], "texture": "#0"},
				"south": {"uv": [0.33333, 11.33333, 2, 13], "texture": "#0"},
				"west": {"uv": [0.33333, 11.33333, 2, 13], "texture": "#0"},
				"up": {"uv": [0.33333, 11.33333, 2, 13], "texture": "#0"},
				"down": {"uv": [0.33333, 11.33333, 2, 13], "texture": "#0"}
			}
		},
		{
			"from": [7.76744, 1.25128, 8.14211],
			"to": [8.30785, 1.76328, 8.91011],
			"rotation": {"angle": 0, "axis": "y", "origin": [8.00395, 2.95012, 7.44981]},
			"faces": {
				"north": {"uv": [0.33333, 11.33333, 2, 13], "texture": "#0"},
				"east": {"uv": [0.33333, 11.33333, 2, 13], "texture": "#0"},
				"south": {"uv": [0.33333, 11.33333, 2, 13], "texture": "#0"},
				"west": {"uv": [0.33333, 11.33333, 2, 13], "texture": "#0"},
				"up": {"uv": [0.33333, 11.33333, 2, 13], "texture": "#0"},
				"down": {"uv": [0.33333, 11.33333, 2, 13], "texture": "#0"}
			}
		},
		{
			"from": [7.76744, 1.25128, 8.91011],
			"to": [8.30785, 1.50728, 9.03811],
			"rotation": {"angle": 0, "axis": "y", "origin": [8.00395, 2.95012, 7.44981]},
			"faces": {
				"north": {"uv": [0.33333, 11.33333, 2, 13], "rotation": 270, "texture": "#0"},
				"east": {"uv": [0.33333, 11.33333, 2, 13], "rotation": 270, "texture": "#0"},
				"south": {"uv": [0.33333, 11.33333, 2, 13], "rotation": 270, "texture": "#0"},
				"west": {"uv": [0.33333, 11.33333, 2, 13], "rotation": 270, "texture": "#0"},
				"up": {"uv": [0.33333, 11.33333, 2, 13], "rotation": 270, "texture": "#0"},
				"down": {"uv": [0.33333, 11.33333, 2, 13], "rotation": 270, "texture": "#0"}
			}
		},
		{
			"from": [7.75468, 1.024, 7.81757],
			"to": [8.32069, 2.048, 8.32957],
			"rotation": {"angle": -22.5, "axis": "x", "origin": [8.00395, 2.95012, 7.44981]},
			"faces": {
				"north": {"uv": [11.33333, 0.33333, 13, 2], "rotation": 270, "texture": "#0"},
				"east": {"uv": [11.33333, 0.33333, 13, 2], "rotation": 270, "texture": "#0"},
				"south": {"uv": [11.33333, 0.33333, 13, 2], "rotation": 270, "texture": "#0"},
				"west": {"uv": [11.33333, 0.33333, 13, 2], "rotation": 270, "texture": "#0"},
				"up": {"uv": [11.33333, 0.33333, 13, 2], "rotation": 270, "texture": "#0"},
				"down": {"uv": [11.33333, 0.33333, 13, 2], "rotation": 270, "texture": "#0"}
			}
		},
		{
			"from": [7.75468, 1.14135, 7.47763],
			"to": [8.32069, 2.42135, 7.98963],
			"rotation": {"angle": -22.5, "axis": "x", "origin": [8.00395, 2.95012, 7.44981]},
			"faces": {
				"north": {"uv": [11.33333, 0.33333, 13, 2], "rotation": 270, "texture": "#0"},
				"east": {"uv": [11.33333, 0.33333, 13, 2], "rotation": 270, "texture": "#0"},
				"south": {"uv": [11.33333, 0.33333, 13, 2], "rotation": 270, "texture": "#0"},
				"west": {"uv": [11.33333, 0.33333, 13, 2], "rotation": 270, "texture": "#0"},
				"up": {"uv": [11.33333, 0.33333, 13, 2], "rotation": 270, "texture": "#0"},
				"down": {"uv": [11.33333, 0.33333, 13, 2], "rotation": 270, "texture": "#0"}
			}
		},
		{
			"from": [7.75468, 1.28968, 8.16769],
			"to": [8.32069, 1.50728, 8.99969],
			"rotation": {"angle": 0, "axis": "y", "origin": [8.00395, 2.95012, 7.44981]},
			"faces": {
				"north": {"uv": [11.33333, 0.33333, 13, 2], "rotation": 270, "texture": "#0"},
				"east": {"uv": [11.33333, 0.33333, 13, 2], "rotation": 270, "texture": "#0"},
				"south": {"uv": [11.33333, 0.33333, 13, 2], "rotation": 270, "texture": "#0"},
				"west": {"uv": [11.33333, 0.33333, 13, 2], "rotation": 270, "texture": "#0"},
				"up": {"uv": [11.33333, 0.33333, 13, 2], "rotation": 270, "texture": "#0"},
				"down": {"uv": [11.33333, 0.33333, 13, 2], "rotation": 270, "texture": "#0"}
			}
		},
		{
			"from": [7.75468, 2.23574, 8.15983],
			"to": [8.32069, 2.45334, 8.60783],
			"rotation": {"angle": 0, "axis": "y", "origin": [8.00395, 2.95012, 7.44981]},
			"faces": {
				"north": {"uv": [11.33333, 0.33333, 13, 2], "rotation": 270, "texture": "#0"},
				"east": {"uv": [11.33333, 0.33333, 13, 2], "rotation": 270, "texture": "#0"},
				"south": {"uv": [11.33333, 0.33333, 13, 2], "rotation": 270, "texture": "#0"},
				"west": {"uv": [11.33333, 0.33333, 13, 2], "rotation": 270, "texture": "#0"},
				"up": {"uv": [11.33333, 0.33333, 13, 2], "rotation": 270, "texture": "#0"},
				"down": {"uv": [11.33333, 0.33333, 13, 2], "rotation": 270, "texture": "#0"}
			}
		},
		{
			"from": [7.75468, 2.45058, 7.58766],
			"to": [8.32069, 2.92418, 8.34286],
			"rotation": {"angle": 0, "axis": "y", "origin": [8.00395, 2.95012, 7.44981]},
			"faces": {
				"north": {"uv": [11.33333, 0.33333, 13, 2], "rotation": 270, "texture": "#0"},
				"east": {"uv": [11.33333, 0.33333, 13, 2], "rotation": 270, "texture": "#0"},
				"south": {"uv": [11.33333, 0.33333, 13, 2], "rotation": 270, "texture": "#0"},
				"west": {"uv": [11.33333, 0.33333, 13, 2], "rotation": 270, "texture": "#0"},
				"up": {"uv": [11.33333, 0.33333, 13, 2], "rotation": 270, "texture": "#0"},
				"down": {"uv": [11.33333, 0.33333, 13, 2], "rotation": 270, "texture": "#0"}
			}
		},
		{
			"from": [7.75468, 1.37787, 7.37966],
			"to": [8.32069, 2.78587, 7.59726],
			"rotation": {"angle": -22.5, "axis": "x", "origin": [8.00395, 2.95012, 7.44981]},
			"faces": {
				"north": {"uv": [11.33333, 0.33333, 13, 2], "rotation": 180, "texture": "#0"},
				"east": {"uv": [11.33333, 0.33333, 13, 2], "rotation": 180, "texture": "#0"},
				"south": {"uv": [11.33333, 0.33333, 13, 2], "rotation": 180, "texture": "#0"},
				"west": {"uv": [11.33333, 0.33333, 13, 2], "rotation": 180, "texture": "#0"},
				"up": {"uv": [11.33333, 0.33333, 13, 2], "rotation": 180, "texture": "#0"},
				"down": {"uv": [11.33333, 0.33333, 13, 2], "rotation": 180, "texture": "#0"}
			}
		},
		{
			"from": [7.75468, 2.13028, 7.97501],
			"to": [8.32069, 2.38628, 8.16701],
			"rotation": {"angle": -22.5, "axis": "x", "origin": [8.00395, 2.95012, 7.44981]},
			"faces": {
				"north": {"uv": [11.33333, 0.33333, 13, 2], "rotation": 270, "texture": "#0"},
				"east": {"uv": [11.33333, 0.33333, 13, 2], "rotation": 270, "texture": "#0"},
				"south": {"uv": [11.33333, 0.33333, 13, 2], "rotation": 270, "texture": "#0"},
				"west": {"uv": [11.33333, 0.33333, 13, 2], "rotation": 270, "texture": "#0"},
				"up": {"uv": [11.33333, 0.33333, 13, 2], "rotation": 270, "texture": "#0"},
				"down": {"uv": [11.33333, 0.33333, 13, 2], "rotation": 270, "texture": "#0"}
			}
		},
		{
			"from": [7.75468, 1.78048, 7.65566],
			"to": [8.32069, 2.03648, 7.84766],
			"rotation": {"angle": -45, "axis": "x", "origin": [8.00395, 2.95012, 7.44981]},
			"faces": {
				"north": {"uv": [11.33333, 0.33333, 13, 2], "rotation": 270, "texture": "#0"},
				"east": {"uv": [11.33333, 0.33333, 13, 2], "rotation": 270, "texture": "#0"},
				"south": {"uv": [11.33333, 0.33333, 13, 2], "rotation": 270, "texture": "#0"},
				"west": {"uv": [11.33333, 0.33333, 13, 2], "rotation": 270, "texture": "#0"},
				"up": {"uv": [11.33333, 0.33333, 13, 2], "rotation": 270, "texture": "#0"},
				"down": {"uv": [11.33333, 0.33333, 13, 2], "rotation": 270, "texture": "#0"}
			}
		},
		{
			"from": [7.75468, 1.26839, 6.78333],
			"to": [8.32069, 1.52439, 6.97533],
			"rotation": {"angle": -45, "axis": "x", "origin": [8.00395, 2.95012, 7.44981]},
			"faces": {
				"north": {"uv": [11.33333, 0.33333, 13, 2], "rotation": 270, "texture": "#0"},
				"east": {"uv": [11.33333, 0.33333, 13, 2], "rotation": 270, "texture": "#0"},
				"south": {"uv": [11.33333, 0.33333, 13, 2], "rotation": 270, "texture": "#0"},
				"west": {"uv": [11.33333, 0.33333, 13, 2], "rotation": 270, "texture": "#0"},
				"up": {"uv": [11.33333, 0.33333, 13, 2], "rotation": 270, "texture": "#0"},
				"down": {"uv": [11.33333, 0.33333, 13, 2], "rotation": 270, "texture": "#0"}
			}
		},
		{
			"from": [7.69285, 2.80802, 6.85333],
			"to": [7.75685, 2.93602, 6.90453],
			"rotation": {"angle": 0, "axis": "y", "origin": [8.00395, 2.95012, 7.44981]},
			"faces": {
				"north": {"uv": [6, 0.33333, 7.66667, 2], "texture": "#0"},
				"east": {"uv": [6, 0.33333, 7.66667, 2], "texture": "#0"},
				"south": {"uv": [6, 0.33333, 7.66667, 2], "texture": "#0"},
				"west": {"uv": [6, 0.33333, 7.66667, 2], "texture": "#0"},
				"up": {"uv": [6, 0.33333, 7.66667, 2], "texture": "#0"},
				"down": {"uv": [6, 0.33333, 7.66667, 2], "texture": "#0"}
			}
		},
		{
			"from": [7.69285, 2.42722, 7.07576],
			"to": [7.75685, 2.55522, 7.12696],
			"rotation": {"angle": 45, "axis": "x", "origin": [8.00395, 2.95012, 7.44981]},
			"faces": {
				"north": {"uv": [6, 0.33333, 7.66667, 2], "texture": "#0"},
				"east": {"uv": [6, 0.33333, 7.66667, 2], "texture": "#0"},
				"south": {"uv": [6, 0.33333, 7.66667, 2], "texture": "#0"},
				"west": {"uv": [6, 0.33333, 7.66667, 2], "texture": "#0"},
				"up": {"uv": [6, 0.33333, 7.66667, 2], "texture": "#0"},
				"down": {"uv": [6, 0.33333, 7.66667, 2], "texture": "#0"}
			}
		},
		{
			"from": [7.69285, 2.84642, 6.81493],
			"to": [7.75685, 2.89762, 6.96853],
			"rotation": {"angle": 0, "axis": "y", "origin": [8.00395, 2.95012, 7.44981]},
			"faces": {
				"north": {"uv": [6, 0.33333, 7.66667, 2], "rotation": 90, "texture": "#0"},
				"east": {"uv": [6, 0.33333, 7.66667, 2], "rotation": 90, "texture": "#0"},
				"south": {"uv": [6, 0.33333, 7.66667, 2], "rotation": 90, "texture": "#0"},
				"west": {"uv": [6, 0.33333, 7.66667, 2], "rotation": 90, "texture": "#0"},
				"up": {"uv": [6, 0.33333, 7.66667, 2], "rotation": 90, "texture": "#0"},
				"down": {"uv": [6, 0.33333, 7.66667, 2], "rotation": 90, "texture": "#0"}
			}
		},
		{
			"from": [7.69285, 2.46562, 7.03736],
			"to": [7.75685, 2.51682, 7.16536],
			"rotation": {"angle": 45, "axis": "x", "origin": [8.00395, 2.95012, 7.44981]},
			"faces": {
				"north": {"uv": [6, 0.33333, 7.66667, 2], "rotation": 90, "texture": "#0"},
				"east": {"uv": [6, 0.33333, 7.66667, 2], "rotation": 90, "texture": "#0"},
				"south": {"uv": [6, 0.33333, 7.66667, 2], "rotation": 90, "texture": "#0"},
				"west": {"uv": [6, 0.33333, 7.66667, 2], "rotation": 90, "texture": "#0"},
				"up": {"uv": [6, 0.33333, 7.66667, 2], "rotation": 90, "texture": "#0"},
				"down": {"uv": [6, 0.33333, 7.66667, 2], "rotation": 90, "texture": "#0"}
			}
		},
		{
			"from": [7.69285, 2.97797, 6.76216],
			"to": [7.75685, 3.02917, 6.96696],
			"rotation": {"angle": -22.5, "axis": "x", "origin": [8.00395, 3.25087, 7.26054]},
			"faces": {
				"north": {"uv": [6, 0.33333, 7.66667, 2], "rotation": 90, "texture": "#0"},
				"east": {"uv": [6, 0.33333, 7.66667, 2], "rotation": 90, "texture": "#0"},
				"south": {"uv": [6, 0.33333, 7.66667, 2], "rotation": 90, "texture": "#0"},
				"west": {"uv": [6, 0.33333, 7.66667, 2], "rotation": 90, "texture": "#0"},
				"up": {"uv": [6, 0.33333, 7.66667, 2], "rotation": 90, "texture": "#0"},
				"down": {"uv": [6, 0.33333, 7.66667, 2], "rotation": 90, "texture": "#0"}
			}
		},
		{
			"from": [7.69285, 2.88482, 6.90453],
			"to": [7.75685, 2.93602, 7.22453],
			"rotation": {"angle": 0, "axis": "y", "origin": [8.00395, 3.02692, 7.44981]},
			"faces": {
				"north": {"uv": [6, 0.33333, 7.66667, 2], "rotation": 90, "texture": "#0"},
				"east": {"uv": [6, 0.33333, 7.66667, 2], "rotation": 90, "texture": "#0"},
				"south": {"uv": [6, 0.33333, 7.66667, 2], "rotation": 90, "texture": "#0"},
				"west": {"uv": [6, 0.33333, 7.66667, 2], "rotation": 90, "texture": "#0"},
				"up": {"uv": [6, 0.33333, 7.66667, 2], "rotation": 90, "texture": "#0"},
				"down": {"uv": [6, 0.33333, 7.66667, 2], "rotation": 90, "texture": "#0"}
			}
		},
		{
			"from": [7.7129, 2.88482, 7.30453],
			"to": [7.7769, 2.93602, 7.35573],
			"rotation": {"angle": 0, "axis": "y", "origin": [8.00395, 3.02692, 7.84981]},
			"faces": {
				"north": {"uv": [5.66667, 13.66667, 7.33333, 15.33333], "rotation": 90, "texture": "#0"},
				"east": {"uv": [5.66667, 13.66667, 7.33333, 15.33333], "rotation": 90, "texture": "#0"},
				"south": {"uv": [5.66667, 13.66667, 7.33333, 15.33333], "rotation": 90, "texture": "#0"},
				"west": {"uv": [5.66667, 13.66667, 7.33333, 15.33333], "rotation": 90, "texture": "#0"},
				"up": {"uv": [5.66667, 13.66667, 7.33333, 15.33333], "rotation": 90, "texture": "#0"},
				"down": {"uv": [5.66667, 13.66667, 7.33333, 15.33333], "rotation": 90, "texture": "#0"}
			}
		},
		{
			"from": [7.7129, 2.78482, 7.30453],
			"to": [7.7769, 2.83602, 7.35573],
			"rotation": {"angle": 0, "axis": "y", "origin": [8.00395, 2.92692, 7.84981]},
			"faces": {
				"north": {"uv": [5.66667, 13.66667, 7.33333, 15.33333], "rotation": 90, "texture": "#0"},
				"east": {"uv": [5.66667, 13.66667, 7.33333, 15.33333], "rotation": 90, "texture": "#0"},
				"south": {"uv": [5.66667, 13.66667, 7.33333, 15.33333], "rotation": 90, "texture": "#0"},
				"west": {"uv": [5.66667, 13.66667, 7.33333, 15.33333], "rotation": 90, "texture": "#0"},
				"up": {"uv": [5.66667, 13.66667, 7.33333, 15.33333], "rotation": 90, "texture": "#0"},
				"down": {"uv": [5.66667, 13.66667, 7.33333, 15.33333], "rotation": 90, "texture": "#0"}
			}
		},
		{
			"from": [7.73125, 2.04002, 7.68533],
			"to": [7.79525, 2.16802, 7.73653],
			"rotation": {"angle": 0, "axis": "y", "origin": [8.00395, 2.95012, 7.44981]},
			"faces": {
				"north": {"uv": [6, 0.33333, 7.66667, 2], "texture": "#0"},
				"east": {"uv": [6, 0.33333, 7.66667, 2], "texture": "#0"},
				"south": {"uv": [6, 0.33333, 7.66667, 2], "texture": "#0"},
				"west": {"uv": [6, 0.33333, 7.66667, 2], "texture": "#0"},
				"up": {"uv": [6, 0.33333, 7.66667, 2], "texture": "#0"},
				"down": {"uv": [6, 0.33333, 7.66667, 2], "texture": "#0"}
			}
		},
		{
			"from": [7.73125, 2.47247, 8.20713],
			"to": [7.79525, 2.60047, 8.25833],
			"rotation": {"angle": 45, "axis": "x", "origin": [8.00395, 2.95012, 7.44981]},
			"faces": {
				"north": {"uv": [6, 0.33333, 7.66667, 2], "texture": "#0"},
				"east": {"uv": [6, 0.33333, 7.66667, 2], "texture": "#0"},
				"south": {"uv": [6, 0.33333, 7.66667, 2], "texture": "#0"},
				"west": {"uv": [6, 0.33333, 7.66667, 2], "texture": "#0"},
				"up": {"uv": [6, 0.33333, 7.66667, 2], "texture": "#0"},
				"down": {"uv": [6, 0.33333, 7.66667, 2], "texture": "#0"}
			}
		},
		{
			"from": [7.73125, 2.07842, 7.64693],
			"to": [7.79525, 2.12962, 7.77493],
			"rotation": {"angle": 0, "axis": "y", "origin": [8.00395, 2.95012, 7.44981]},
			"faces": {
				"north": {"uv": [6, 0.33333, 7.66667, 2], "rotation": 90, "texture": "#0"},
				"east": {"uv": [6, 0.33333, 7.66667, 2], "rotation": 90, "texture": "#0"},
				"south": {"uv": [6, 0.33333, 7.66667, 2], "rotation": 90, "texture": "#0"},
				"west": {"uv": [6, 0.33333, 7.66667, 2], "rotation": 90, "texture": "#0"},
				"up": {"uv": [6, 0.33333, 7.66667, 2], "rotation": 90, "texture": "#0"},
				"down": {"uv": [6, 0.33333, 7.66667, 2], "rotation": 90, "texture": "#0"}
			}
		},
		{
			"from": [7.73125, 2.51087, 8.16873],
			"to": [7.79525, 2.56207, 8.29673],
			"rotation": {"angle": 45, "axis": "x", "origin": [8.00395, 2.95012, 7.44981]},
			"faces": {
				"north": {"uv": [6, 0.33333, 7.66667, 2], "rotation": 90, "texture": "#0"},
				"east": {"uv": [6, 0.33333, 7.66667, 2], "rotation": 90, "texture": "#0"},
				"south": {"uv": [6, 0.33333, 7.66667, 2], "rotation": 90, "texture": "#0"},
				"west": {"uv": [6, 0.33333, 7.66667, 2], "rotation": 90, "texture": "#0"},
				"up": {"uv": [6, 0.33333, 7.66667, 2], "rotation": 90, "texture": "#0"},
				"down": {"uv": [6, 0.33333, 7.66667, 2], "rotation": 90, "texture": "#0"}
			}
		},
		{
			"from": [7.71845, 2.9821, 5.22773],
			"to": [8.35845, 3.1101, 7.21173],
			"rotation": {"angle": 0, "axis": "y", "origin": [8.00395, 2.95012, 7.44981]},
			"faces": {
				"north": {"uv": [3, 0.66667, 4.66667, 2.33333], "texture": "#0"},
				"east": {"uv": [3, 0.66667, 4.66667, 2.33333], "texture": "#0"},
				"south": {"uv": [3, 0.66667, 4.66667, 2.33333], "texture": "#0"},
				"west": {"uv": [3, 0.66667, 4.66667, 2.33333], "texture": "#0"},
				"up": {"uv": [3, 0.66667, 4.66667, 2.33333], "texture": "#0"},
				"down": {"uv": [3, 0.66667, 4.66667, 2.33333], "texture": "#0"}
			}
		},
		{
			"from": [7.71845, 2.9821, 7.21173],
			"to": [8.35845, 3.4301, 8.93973],
			"rotation": {"angle": 0, "axis": "y", "origin": [8.00395, 2.95012, 7.44981]},
			"faces": {
				"north": {"uv": [3, 0.66667, 4.66667, 2.33333], "texture": "#0"},
				"east": {"uv": [3, 0.66667, 4.66667, 2.33333], "texture": "#0"},
				"south": {"uv": [3, 0.66667, 4.66667, 2.33333], "texture": "#0"},
				"west": {"uv": [3, 0.66667, 4.66667, 2.33333], "texture": "#0"},
				"up": {"uv": [3, 0.66667, 4.66667, 2.33333], "texture": "#0"},
				"down": {"uv": [3, 0.66667, 4.66667, 2.33333], "texture": "#0"}
			}
		},
		{
			"from": [7.76744, 3.42036, 7.21173],
			"to": [8.30785, 3.54836, 8.93973],
			"rotation": {"angle": 0, "axis": "y", "origin": [8.00395, 2.95012, 7.44981]},
			"faces": {
				"north": {"uv": [3, 0.66667, 4.66667, 2.33333], "texture": "#0"},
				"east": {"uv": [3, 0.66667, 4.66667, 2.33333], "texture": "#0"},
				"south": {"uv": [3, 0.66667, 4.66667, 2.33333], "texture": "#0"},
				"west": {"uv": [3, 0.66667, 4.66667, 2.33333], "texture": "#0"},
				"up": {"uv": [3, 0.66667, 4.66667, 2.33333], "texture": "#0"},
				"down": {"uv": [3, 0.66667, 4.66667, 2.33333], "texture": "#0"}
			}
		},
		{
			"from": [8.38715, 3.2579, 7.21173],
			"to": [8.51515, 3.3859, 8.93973],
			"rotation": {"angle": 22.5, "axis": "z", "origin": [8.00395, 2.95012, 7.44981]},
			"faces": {
				"north": {"uv": [3, 0.66667, 4.66667, 2.33333], "texture": "#0"},
				"east": {"uv": [3, 0.66667, 4.66667, 2.33333], "texture": "#0"},
				"south": {"uv": [3, 0.66667, 4.66667, 2.33333], "texture": "#0"},
				"west": {"uv": [3, 0.66667, 4.66667, 2.33333], "texture": "#0"},
				"up": {"uv": [3, 0.66667, 4.66667, 2.33333], "texture": "#0"},
				"down": {"uv": [3, 0.66667, 4.66667, 2.33333], "texture": "#0"}
			}
		},
		{
			"from": [7.5565, 3.28431, 7.21173],
			"to": [7.6845, 3.41231, 8.93973],
			"rotation": {"angle": -22.5, "axis": "z", "origin": [8.00395, 2.95012, 7.44981]},
			"faces": {
				"north": {"uv": [3, 0.66667, 4.66667, 2.33333], "texture": "#0"},
				"east": {"uv": [3, 0.66667, 4.66667, 2.33333], "texture": "#0"},
				"south": {"uv": [3, 0.66667, 4.66667, 2.33333], "texture": "#0"},
				"west": {"uv": [3, 0.66667, 4.66667, 2.33333], "texture": "#0"},
				"up": {"uv": [3, 0.66667, 4.66667, 2.33333], "texture": "#0"},
				"down": {"uv": [3, 0.66667, 4.66667, 2.33333], "texture": "#0"}
			}
		},
		{
			"from": [7.5565, 3.28431, 5.29173],
			"to": [7.6845, 3.41231, 6.31573],
			"rotation": {"angle": -22.5, "axis": "z", "origin": [8.00395, 2.95012, 7.44981]},
			"faces": {
				"north": {"uv": [3, 0.66667, 4.66667, 2.33333], "texture": "#0"},
				"east": {"uv": [3, 0.66667, 4.66667, 2.33333], "texture": "#0"},
				"south": {"uv": [3, 0.66667, 4.66667, 2.33333], "texture": "#0"},
				"west": {"uv": [3, 0.66667, 4.66667, 2.33333], "texture": "#0"},
				"up": {"uv": [3, 0.66667, 4.66667, 2.33333], "texture": "#0"},
				"down": {"uv": [3, 0.66667, 4.66667, 2.33333], "texture": "#0"}
			}
		},
		{
			"from": [8.38715, 3.2579, 5.29173],
			"to": [8.51515, 3.3859, 6.31573],
			"rotation": {"angle": 22.5, "axis": "z", "origin": [8.00395, 2.95012, 7.44981]},
			"faces": {
				"north": {"uv": [3, 0.66667, 4.66667, 2.33333], "texture": "#0"},
				"east": {"uv": [3, 0.66667, 4.66667, 2.33333], "texture": "#0"},
				"south": {"uv": [3, 0.66667, 4.66667, 2.33333], "texture": "#0"},
				"west": {"uv": [3, 0.66667, 4.66667, 2.33333], "texture": "#0"},
				"up": {"uv": [3, 0.66667, 4.66667, 2.33333], "texture": "#0"},
				"down": {"uv": [3, 0.66667, 4.66667, 2.33333], "texture": "#0"}
			}
		},
		{
			"from": [7.76744, 3.42036, 5.29173],
			"to": [8.30785, 3.54836, 6.31573],
			"rotation": {"angle": 0, "axis": "y", "origin": [8.00395, 2.95012, 7.44981]},
			"faces": {
				"north": {"uv": [3, 0.66667, 4.66667, 2.33333], "texture": "#0"},
				"east": {"uv": [3, 0.66667, 4.66667, 2.33333], "texture": "#0"},
				"south": {"uv": [3, 0.66667, 4.66667, 2.33333], "texture": "#0"},
				"west": {"uv": [3, 0.66667, 4.66667, 2.33333], "texture": "#0"},
				"up": {"uv": [3, 0.66667, 4.66667, 2.33333], "texture": "#0"},
				"down": {"uv": [3, 0.66667, 4.66667, 2.33333], "texture": "#0"}
			}
		},
		{
			"from": [8.23045, 2.9821, 5.29173],
			"to": [8.35845, 3.4301, 7.21173],
			"rotation": {"angle": 0, "axis": "y", "origin": [8.00395, 2.95012, 7.44981]},
			"faces": {
				"north": {"uv": [3, 0.66667, 4.66667, 2.33333], "texture": "#0"},
				"east": {"uv": [3, 0.66667, 4.66667, 2.33333], "texture": "#0"},
				"south": {"uv": [3, 0.66667, 4.66667, 2.33333], "texture": "#0"},
				"west": {"uv": [3, 0.66667, 4.66667, 2.33333], "texture": "#0"},
				"up": {"uv": [3, 0.66667, 4.66667, 2.33333], "texture": "#0"},
				"down": {"uv": [3, 0.66667, 4.66667, 2.33333], "texture": "#0"}
			}
		},
		{
			"from": [7.71845, 2.9821, 5.29173],
			"to": [7.84645, 3.4301, 7.21173],
			"rotation": {"angle": 0, "axis": "y", "origin": [8.00395, 2.95012, 7.44981]},
			"faces": {
				"north": {"uv": [3, 0.66667, 4.66667, 2.33333], "texture": "#0"},
				"east": {"uv": [3, 0.66667, 4.66667, 2.33333], "texture": "#0"},
				"south": {"uv": [3, 0.66667, 4.66667, 2.33333], "texture": "#0"},
				"west": {"uv": [3, 0.66667, 4.66667, 2.33333], "texture": "#0"},
				"up": {"uv": [3, 0.66667, 4.66667, 2.33333], "texture": "#0"},
				"down": {"uv": [3, 0.66667, 4.66667, 2.33333], "texture": "#0"}
			}
		},
		{
			"from": [8.16773, 2.9821, 5.22773],
			"to": [8.35845, 3.4301, 5.29173],
			"rotation": {"angle": 0, "axis": "y", "origin": [8.00395, 2.95012, 7.44981]},
			"faces": {
				"north": {"uv": [3, 0.66667, 4.66667, 2.33333], "texture": "#0"},
				"east": {"uv": [3, 0.66667, 4.66667, 2.33333], "texture": "#0"},
				"south": {"uv": [3, 0.66667, 4.66667, 2.33333], "texture": "#0"},
				"west": {"uv": [3, 0.66667, 4.66667, 2.33333], "texture": "#0"},
				"up": {"uv": [3, 0.66667, 4.66667, 2.33333], "texture": "#0"},
				"down": {"uv": [3, 0.66667, 4.66667, 2.33333], "texture": "#0"}
			}
		},
		{
			"from": [8.32315, 3.2579, 5.22773],
			"to": [8.51515, 3.3859, 5.29173],
			"rotation": {"angle": 22.5, "axis": "z", "origin": [8.00395, 2.95012, 7.44981]},
			"faces": {
				"north": {"uv": [3, 0.66667, 4.66667, 2.33333], "texture": "#0"},
				"east": {"uv": [3, 0.66667, 4.66667, 2.33333], "texture": "#0"},
				"south": {"uv": [3, 0.66667, 4.66667, 2.33333], "texture": "#0"},
				"west": {"uv": [3, 0.66667, 4.66667, 2.33333], "texture": "#0"},
				"up": {"uv": [3, 0.66667, 4.66667, 2.33333], "texture": "#0"},
				"down": {"uv": [3, 0.66667, 4.66667, 2.33333], "texture": "#0"}
			}
		},
		{
			"from": [7.76744, 3.42036, 5.22773],
			"to": [8.30785, 3.54836, 5.29173],
			"rotation": {"angle": 0, "axis": "y", "origin": [8.00395, 2.95012, 7.44981]},
			"faces": {
				"north": {"uv": [3, 0.66667, 4.66667, 2.33333], "texture": "#0"},
				"east": {"uv": [3, 0.66667, 4.66667, 2.33333], "texture": "#0"},
				"south": {"uv": [3, 0.66667, 4.66667, 2.33333], "texture": "#0"},
				"west": {"uv": [3, 0.66667, 4.66667, 2.33333], "texture": "#0"},
				"up": {"uv": [3, 0.66667, 4.66667, 2.33333], "texture": "#0"},
				"down": {"uv": [3, 0.66667, 4.66667, 2.33333], "texture": "#0"}
			}
		},
		{
			"from": [7.5565, 3.28431, 5.22773],
			"to": [7.7485, 3.41231, 5.29173],
			"rotation": {"angle": -22.5, "axis": "z", "origin": [8.00395, 2.95012, 7.44981]},
			"faces": {
				"north": {"uv": [3, 0.66667, 4.66667, 2.33333], "texture": "#0"},
				"east": {"uv": [3, 0.66667, 4.66667, 2.33333], "texture": "#0"},
				"south": {"uv": [3, 0.66667, 4.66667, 2.33333], "texture": "#0"},
				"west": {"uv": [3, 0.66667, 4.66667, 2.33333], "texture": "#0"},
				"up": {"uv": [3, 0.66667, 4.66667, 2.33333], "texture": "#0"},
				"down": {"uv": [3, 0.66667, 4.66667, 2.33333], "texture": "#0"}
			}
		},
		{
			"from": [7.71845, 2.9821, 5.22773],
			"to": [7.91045, 3.4301, 5.29173],
			"rotation": {"angle": 0, "axis": "y", "origin": [8.00395, 2.95012, 7.44981]},
			"faces": {
				"north": {"uv": [3, 0.66667, 4.66667, 2.33333], "texture": "#0"},
				"east": {"uv": [3, 0.66667, 4.66667, 2.33333], "texture": "#0"},
				"south": {"uv": [3, 0.66667, 4.66667, 2.33333], "texture": "#0"},
				"west": {"uv": [3, 0.66667, 4.66667, 2.33333], "texture": "#0"},
				"up": {"uv": [3, 0.66667, 4.66667, 2.33333], "texture": "#0"},
				"down": {"uv": [3, 0.66667, 4.66667, 2.33333], "texture": "#0"}
			}
		},
		{
			"from": [7.76363, 3.49803, 5.29173],
			"to": [7.79204, 3.58123, 5.48373],
			"rotation": {"angle": -22.5, "axis": "z", "origin": [8.00395, 2.95012, 7.44981]},
			"faces": {
				"north": {"uv": [8.66667, 3, 10.33333, 4.66667], "texture": "#0"},
				"east": {"uv": [8.66667, 3, 10.33333, 4.66667], "texture": "#0"},
				"south": {"uv": [8.66667, 3, 10.33333, 4.66667], "texture": "#0"},
				"west": {"uv": [8.66667, 3, 10.33333, 4.66667], "texture": "#0"},
				"up": {"uv": [8.66667, 3, 10.33333, 4.66667], "texture": "#0"},
				"down": {"uv": [8.66667, 3, 10.33333, 4.66667], "texture": "#0"}
			}
		},
		{
			"from": [8.02344, 3.54836, 5.29173],
			"to": [8.05185, 3.62516, 5.48373],
			"rotation": {"angle": 0, "axis": "y", "origin": [8.00395, 2.95012, 7.44981]},
			"faces": {
				"north": {"uv": [8.66667, 3, 10.33333, 4.66667], "texture": "#0"},
				"east": {"uv": [8.66667, 3, 10.33333, 4.66667], "texture": "#0"},
				"south": {"uv": [8.66667, 3, 10.33333, 4.66667], "texture": "#0"},
				"west": {"uv": [8.66667, 3, 10.33333, 4.66667], "texture": "#0"},
				"up": {"uv": [8.66667, 3, 10.33333, 4.66667], "texture": "#0"},
				"down": {"uv": [8.66667, 3, 10.33333, 4.66667], "texture": "#0"}
			}
		},
		{
			"from": [8.27812, 3.47224, 5.29173],
			"to": [8.30653, 3.55544, 5.48373],
			"rotation": {"angle": 22.5, "axis": "z", "origin": [8.00395, 2.95012, 7.44981]},
			"faces": {
				"north": {"uv": [8.66667, 3, 10.33333, 4.66667], "texture": "#0"},
				"east": {"uv": [8.66667, 3, 10.33333, 4.66667], "texture": "#0"},
				"south": {"uv": [8.66667, 3, 10.33333, 4.66667], "texture": "#0"},
				"west": {"uv": [8.66667, 3, 10.33333, 4.66667], "texture": "#0"},
				"up": {"uv": [8.66667, 3, 10.33333, 4.66667], "texture": "#0"},
				"down": {"uv": [8.66667, 3, 10.33333, 4.66667], "texture": "#0"}
			}
		},
		{
			"from": [7.95948, 3.54836, 8.61973],
			"to": [7.98789, 3.62516, 8.81173],
			"rotation": {"angle": 0, "axis": "y", "origin": [8.00395, 2.95012, 7.44981]},
			"faces": {
				"north": {"uv": [8.66667, 3, 10.33333, 4.66667], "texture": "#0"},
				"east": {"uv": [8.66667, 3, 10.33333, 4.66667], "texture": "#0"},
				"south": {"uv": [8.66667, 3, 10.33333, 4.66667], "texture": "#0"},
				"west": {"uv": [8.66667, 3, 10.33333, 4.66667], "texture": "#0"},
				"up": {"uv": [8.66667, 3, 10.33333, 4.66667], "texture": "#0"},
				"down": {"uv": [8.66667, 3, 10.33333, 4.66667], "texture": "#0"}
			}
		},
		{
			"from": [8.10028, 3.54836, 8.61973],
			"to": [8.12869, 3.62516, 8.81173],
			"rotation": {"angle": 0, "axis": "y", "origin": [8.00395, 2.95012, 7.44981]},
			"faces": {
				"north": {"uv": [8.66667, 3, 10.33333, 4.66667], "texture": "#0"},
				"east": {"uv": [8.66667, 3, 10.33333, 4.66667], "texture": "#0"},
				"south": {"uv": [8.66667, 3, 10.33333, 4.66667], "texture": "#0"},
				"west": {"uv": [8.66667, 3, 10.33333, 4.66667], "texture": "#0"},
				"up": {"uv": [8.66667, 3, 10.33333, 4.66667], "texture": "#0"},
				"down": {"uv": [8.66667, 3, 10.33333, 4.66667], "texture": "#0"}
			}
		},
		{
			"from": [7.49518, 3.34479, 8.61973],
			"to": [7.52359, 3.39599, 8.81173],
			"rotation": {"angle": -45, "axis": "z", "origin": [8.00395, 2.95012, 7.44981]},
			"faces": {
				"north": {"uv": [8.66667, 3, 10.33333, 4.66667], "texture": "#0"},
				"east": {"uv": [8.66667, 3, 10.33333, 4.66667], "texture": "#0"},
				"south": {"uv": [8.66667, 3, 10.33333, 4.66667], "texture": "#0"},
				"west": {"uv": [8.66667, 3, 10.33333, 4.66667], "texture": "#0"},
				"up": {"uv": [8.66667, 3, 10.33333, 4.66667], "texture": "#0"},
				"down": {"uv": [8.66667, 3, 10.33333, 4.66667], "texture": "#0"}
			}
		},
		{
			"from": [8.54107, 3.28804, 8.61973],
			"to": [8.56948, 3.33924, 8.81173],
			"rotation": {"angle": 45, "axis": "z", "origin": [8.00395, 2.95012, 7.44981]},
			"faces": {
				"north": {"uv": [8.66667, 3, 10.33333, 4.66667], "texture": "#0"},
				"east": {"uv": [8.66667, 3, 10.33333, 4.66667], "texture": "#0"},
				"south": {"uv": [8.66667, 3, 10.33333, 4.66667], "texture": "#0"},
				"west": {"uv": [8.66667, 3, 10.33333, 4.66667], "texture": "#0"},
				"up": {"uv": [8.66667, 3, 10.33333, 4.66667], "texture": "#0"},
				"down": {"uv": [8.66667, 3, 10.33333, 4.66667], "texture": "#0"}
			}
		},
		{
			"from": [8.1265, 3.51215, 8.61973],
			"to": [8.1649, 3.58895, 8.81173],
			"rotation": {"angle": 0, "axis": "y", "origin": [8.00395, 2.95012, 7.44981]},
			"faces": {
				"north": {"uv": [8.66667, 3, 10.33333, 4.66667], "texture": "#0"},
				"east": {"uv": [8.66667, 3, 10.33333, 4.66667], "texture": "#0"},
				"south": {"uv": [8.66667, 3, 10.33333, 4.66667], "texture": "#0"},
				"west": {"uv": [8.66667, 3, 10.33333, 4.66667], "texture": "#0"},
				"up": {"uv": [8.66667, 3, 10.33333, 4.66667], "texture": "#0"},
				"down": {"uv": [8.66667, 3, 10.33333, 4.66667], "texture": "#0"}
			}
		},
		{
			"from": [7.92327, 3.51215, 8.61973],
			"to": [7.96167, 3.58895, 8.81173],
			"rotation": {"angle": 0, "axis": "y", "origin": [8.00395, 2.95012, 7.44981]},
			"faces": {
				"north": {"uv": [8.66667, 3, 10.33333, 4.66667], "texture": "#0"},
				"east": {"uv": [8.66667, 3, 10.33333, 4.66667], "texture": "#0"},
				"south": {"uv": [8.66667, 3, 10.33333, 4.66667], "texture": "#0"},
				"west": {"uv": [8.66667, 3, 10.33333, 4.66667], "texture": "#0"},
				"up": {"uv": [8.66667, 3, 10.33333, 4.66667], "texture": "#0"},
				"down": {"uv": [8.66667, 3, 10.33333, 4.66667], "texture": "#0"}
			}
		},
		{
			"from": [7.71845, 3.4301, 7.33973],
			"to": [8.35845, 3.6221, 8.55573],
			"rotation": {"angle": 0, "axis": "y", "origin": [8.00395, 2.95012, 7.44981]},
			"faces": {
				"north": {"uv": [5.66667, 0.33333, 7.33333, 2], "texture": "#0"},
				"east": {"uv": [5.66667, 0.33333, 7.33333, 2], "texture": "#0"},
				"south": {"uv": [5.66667, 0.33333, 7.33333, 2], "texture": "#0"},
				"west": {"uv": [5.66667, 0.33333, 7.33333, 2], "texture": "#0"},
				"up": {"uv": [5.66667, 0.33333, 7.33333, 2], "texture": "#0"},
				"down": {"uv": [5.66667, 0.33333, 7.33333, 2], "texture": "#0"}
			}
		},
		{
			"from": [7.71845, 3.6221, 8.42773],
			"to": [8.35845, 3.6861, 8.49173],
			"rotation": {"angle": 0, "axis": "y", "origin": [8.00395, 2.95012, 7.44981]},
			"faces": {
				"north": {"uv": [5.66667, 0.33333, 7.33333, 2], "texture": "#0"},
				"east": {"uv": [5.66667, 0.33333, 7.33333, 2], "texture": "#0"},
				"south": {"uv": [5.66667, 0.33333, 7.33333, 2], "texture": "#0"},
				"west": {"uv": [5.66667, 0.33333, 7.33333, 2], "texture": "#0"},
				"up": {"uv": [5.66667, 0.33333, 7.33333, 2], "texture": "#0"},
				"down": {"uv": [5.66667, 0.33333, 7.33333, 2], "texture": "#0"}
			}
		},
		{
			"from": [7.71845, 3.6221, 8.29973],
			"to": [8.35845, 3.6861, 8.36373],
			"rotation": {"angle": 0, "axis": "y", "origin": [8.00395, 2.95012, 7.44981]},
			"faces": {
				"north": {"uv": [5.66667, 0.33333, 7.33333, 2], "texture": "#0"},
				"east": {"uv": [5.66667, 0.33333, 7.33333, 2], "texture": "#0"},
				"south": {"uv": [5.66667, 0.33333, 7.33333, 2], "texture": "#0"},
				"west": {"uv": [5.66667, 0.33333, 7.33333, 2], "texture": "#0"},
				"up": {"uv": [5.66667, 0.33333, 7.33333, 2], "texture": "#0"},
				"down": {"uv": [5.66667, 0.33333, 7.33333, 2], "texture": "#0"}
			}
		},
		{
			"from": [7.71845, 3.6221, 8.17173],
			"to": [8.35845, 3.6861, 8.23573],
			"rotation": {"angle": 0, "axis": "y", "origin": [8.00395, 2.95012, 7.44981]},
			"faces": {
				"north": {"uv": [5.66667, 0.33333, 7.33333, 2], "texture": "#0"},
				"east": {"uv": [5.66667, 0.33333, 7.33333, 2], "texture": "#0"},
				"south": {"uv": [5.66667, 0.33333, 7.33333, 2], "texture": "#0"},
				"west": {"uv": [5.66667, 0.33333, 7.33333, 2], "texture": "#0"},
				"up": {"uv": [5.66667, 0.33333, 7.33333, 2], "texture": "#0"},
				"down": {"uv": [5.66667, 0.33333, 7.33333, 2], "texture": "#0"}
			}
		},
		{
			"from": [7.71845, 3.6221, 8.04373],
			"to": [8.35845, 3.6861, 8.10773],
			"rotation": {"angle": 0, "axis": "y", "origin": [8.00395, 2.95012, 7.44981]},
			"faces": {
				"north": {"uv": [5.66667, 0.33333, 7.33333, 2], "texture": "#0"},
				"east": {"uv": [5.66667, 0.33333, 7.33333, 2], "texture": "#0"},
				"south": {"uv": [5.66667, 0.33333, 7.33333, 2], "texture": "#0"},
				"west": {"uv": [5.66667, 0.33333, 7.33333, 2], "texture": "#0"},
				"up": {"uv": [5.66667, 0.33333, 7.33333, 2], "texture": "#0"},
				"down": {"uv": [5.66667, 0.33333, 7.33333, 2], "texture": "#0"}
			}
		},
		{
			"from": [7.71845, 3.6221, 7.91573],
			"to": [8.35845, 3.6861, 7.97973],
			"rotation": {"angle": 0, "axis": "y", "origin": [8.00395, 2.95012, 7.44981]},
			"faces": {
				"north": {"uv": [5.66667, 0.33333, 7.33333, 2], "texture": "#0"},
				"east": {"uv": [5.66667, 0.33333, 7.33333, 2], "texture": "#0"},
				"south": {"uv": [5.66667, 0.33333, 7.33333, 2], "texture": "#0"},
				"west": {"uv": [5.66667, 0.33333, 7.33333, 2], "texture": "#0"},
				"up": {"uv": [5.66667, 0.33333, 7.33333, 2], "texture": "#0"},
				"down": {"uv": [5.66667, 0.33333, 7.33333, 2], "texture": "#0"}
			}
		},
		{
			"from": [7.71845, 3.6221, 7.78773],
			"to": [8.35845, 3.6861, 7.85173],
			"rotation": {"angle": 0, "axis": "y", "origin": [8.00395, 2.95012, 7.44981]},
			"faces": {
				"north": {"uv": [5.66667, 0.33333, 7.33333, 2], "texture": "#0"},
				"east": {"uv": [5.66667, 0.33333, 7.33333, 2], "texture": "#0"},
				"south": {"uv": [5.66667, 0.33333, 7.33333, 2], "texture": "#0"},
				"west": {"uv": [5.66667, 0.33333, 7.33333, 2], "texture": "#0"},
				"up": {"uv": [5.66667, 0.33333, 7.33333, 2], "texture": "#0"},
				"down": {"uv": [5.66667, 0.33333, 7.33333, 2], "texture": "#0"}
			}
		},
		{
			"from": [7.71845, 3.6221, 7.65973],
			"to": [8.35845, 3.6861, 7.72373],
			"rotation": {"angle": 0, "axis": "y", "origin": [8.00395, 2.95012, 7.44981]},
			"faces": {
				"north": {"uv": [5.66667, 0.33333, 7.33333, 2], "texture": "#0"},
				"east": {"uv": [5.66667, 0.33333, 7.33333, 2], "texture": "#0"},
				"south": {"uv": [5.66667, 0.33333, 7.33333, 2], "texture": "#0"},
				"west": {"uv": [5.66667, 0.33333, 7.33333, 2], "texture": "#0"},
				"up": {"uv": [5.66667, 0.33333, 7.33333, 2], "texture": "#0"},
				"down": {"uv": [5.66667, 0.33333, 7.33333, 2], "texture": "#0"}
			}
		},
		{
			"from": [7.71845, 3.6221, 7.53173],
			"to": [8.35845, 3.6861, 7.59573],
			"rotation": {"angle": 0, "axis": "y", "origin": [8.00395, 2.95012, 7.44981]},
			"faces": {
				"north": {"uv": [5.66667, 0.33333, 7.33333, 2], "texture": "#0"},
				"east": {"uv": [5.66667, 0.33333, 7.33333, 2], "texture": "#0"},
				"south": {"uv": [5.66667, 0.33333, 7.33333, 2], "texture": "#0"},
				"west": {"uv": [5.66667, 0.33333, 7.33333, 2], "texture": "#0"},
				"up": {"uv": [5.66667, 0.33333, 7.33333, 2], "texture": "#0"},
				"down": {"uv": [5.66667, 0.33333, 7.33333, 2], "texture": "#0"}
			}
		},
		{
			"from": [7.71845, 3.6221, 7.40373],
			"to": [8.35845, 3.6861, 7.46773],
			"rotation": {"angle": 0, "axis": "y", "origin": [8.00395, 2.95012, 7.44981]},
			"faces": {
				"north": {"uv": [5.66667, 0.33333, 7.33333, 2], "texture": "#0"},
				"east": {"uv": [5.66667, 0.33333, 7.33333, 2], "texture": "#0"},
				"south": {"uv": [5.66667, 0.33333, 7.33333, 2], "texture": "#0"},
				"west": {"uv": [5.66667, 0.33333, 7.33333, 2], "texture": "#0"},
				"up": {"uv": [5.66667, 0.33333, 7.33333, 2], "texture": "#0"},
				"down": {"uv": [5.66667, 0.33333, 7.33333, 2], "texture": "#0"}
			}
		},
		{
			"from": [8.46063, 3.24329, 7.59573],
			"to": [8.58863, 3.43529, 7.78773],
			"rotation": {"angle": 22.5, "axis": "z", "origin": [8.00395, 2.95012, 7.44981]},
			"faces": {
				"north": {"uv": [5.66667, 0.33333, 7.33333, 2], "texture": "#0"},
				"east": {"uv": [5.66667, 0.33333, 7.33333, 2], "texture": "#0"},
				"south": {"uv": [5.66667, 0.33333, 7.33333, 2], "texture": "#0"},
				"west": {"uv": [5.66667, 0.33333, 7.33333, 2], "texture": "#0"},
				"up": {"uv": [5.66667, 0.33333, 7.33333, 2], "texture": "#0"},
				"down": {"uv": [5.66667, 0.33333, 7.33333, 2], "texture": "#0"}
			}
		},
		{
			"from": [8.46063, 3.24329, 8.10773],
			"to": [8.58863, 3.43529, 8.29973],
			"rotation": {"angle": 22.5, "axis": "z", "origin": [8.00395, 2.95012, 7.44981]},
			"faces": {
				"north": {"uv": [5.66667, 0.33333, 7.33333, 2], "texture": "#0"},
				"east": {"uv": [5.66667, 0.33333, 7.33333, 2], "texture": "#0"},
				"south": {"uv": [5.66667, 0.33333, 7.33333, 2], "texture": "#0"},
				"west": {"uv": [5.66667, 0.33333, 7.33333, 2], "texture": "#0"},
				"up": {"uv": [5.66667, 0.33333, 7.33333, 2], "texture": "#0"},
				"down": {"uv": [5.66667, 0.33333, 7.33333, 2], "texture": "#0"}
			}
		},
		{
			"from": [7.48303, 3.26969, 7.59573],
			"to": [7.61103, 3.46169, 7.78773],
			"rotation": {"angle": -22.5, "axis": "z", "origin": [8.00395, 2.95012, 7.44981]},
			"faces": {
				"north": {"uv": [5.66667, 0.33333, 7.33333, 2], "texture": "#0"},
				"east": {"uv": [5.66667, 0.33333, 7.33333, 2], "texture": "#0"},
				"south": {"uv": [5.66667, 0.33333, 7.33333, 2], "texture": "#0"},
				"west": {"uv": [5.66667, 0.33333, 7.33333, 2], "texture": "#0"},
				"up": {"uv": [5.66667, 0.33333, 7.33333, 2], "texture": "#0"},
				"down": {"uv": [5.66667, 0.33333, 7.33333, 2], "texture": "#0"}
			}
		},
		{
			"from": [7.48303, 3.26969, 8.10773],
			"to": [7.61103, 3.46169, 8.29973],
			"rotation": {"angle": -22.5, "axis": "z", "origin": [8.00395, 2.95012, 7.44981]},
			"faces": {
				"north": {"uv": [5.66667, 0.33333, 7.33333, 2], "texture": "#0"},
				"east": {"uv": [5.66667, 0.33333, 7.33333, 2], "texture": "#0"},
				"south": {"uv": [5.66667, 0.33333, 7.33333, 2], "texture": "#0"},
				"west": {"uv": [5.66667, 0.33333, 7.33333, 2], "texture": "#0"},
				"up": {"uv": [5.66667, 0.33333, 7.33333, 2], "texture": "#0"},
				"down": {"uv": [5.66667, 0.33333, 7.33333, 2], "texture": "#0"}
			}
		},
		{
			"from": [7.64498, 3.25272, 8.10773],
			"to": [7.77298, 3.44472, 8.29973],
			"rotation": {"angle": 0, "axis": "y", "origin": [8.00395, 2.95012, 7.44981]},
			"faces": {
				"north": {"uv": [5.66667, 0.33333, 7.33333, 2], "texture": "#0"},
				"east": {"uv": [5.66667, 0.33333, 7.33333, 2], "texture": "#0"},
				"south": {"uv": [5.66667, 0.33333, 7.33333, 2], "texture": "#0"},
				"west": {"uv": [5.66667, 0.33333, 7.33333, 2], "texture": "#0"},
				"up": {"uv": [5.66667, 0.33333, 7.33333, 2], "texture": "#0"},
				"down": {"uv": [5.66667, 0.33333, 7.33333, 2], "texture": "#0"}
			}
		},
		{
			"from": [7.64498, 3.25272, 7.59573],
			"to": [7.77298, 3.44472, 7.78773],
			"rotation": {"angle": 0, "axis": "y", "origin": [8.00395, 2.95012, 7.44981]},
			"faces": {
				"north": {"uv": [5.66667, 0.33333, 7.33333, 2], "texture": "#0"},
				"east": {"uv": [5.66667, 0.33333, 7.33333, 2], "texture": "#0"},
				"south": {"uv": [5.66667, 0.33333, 7.33333, 2], "texture": "#0"},
				"west": {"uv": [5.66667, 0.33333, 7.33333, 2], "texture": "#0"},
				"up": {"uv": [5.66667, 0.33333, 7.33333, 2], "texture": "#0"},
				"down": {"uv": [5.66667, 0.33333, 7.33333, 2], "texture": "#0"}
			}
		},
		{
			"from": [8.30393, 3.25272, 8.10773],
			"to": [8.43193, 3.44472, 8.29973],
			"rotation": {"angle": 0, "axis": "y", "origin": [8.00395, 2.95012, 7.44981]},
			"faces": {
				"north": {"uv": [5.66667, 0.33333, 7.33333, 2], "texture": "#0"},
				"east": {"uv": [5.66667, 0.33333, 7.33333, 2], "texture": "#0"},
				"south": {"uv": [5.66667, 0.33333, 7.33333, 2], "texture": "#0"},
				"west": {"uv": [5.66667, 0.33333, 7.33333, 2], "texture": "#0"},
				"up": {"uv": [5.66667, 0.33333, 7.33333, 2], "texture": "#0"},
				"down": {"uv": [5.66667, 0.33333, 7.33333, 2], "texture": "#0"}
			}
		},
		{
			"from": [8.30393, 3.25272, 7.59573],
			"to": [8.43193, 3.44472, 7.78773],
			"rotation": {"angle": 0, "axis": "y", "origin": [8.00395, 2.95012, 7.44981]},
			"faces": {
				"north": {"uv": [5.66667, 0.33333, 7.33333, 2], "texture": "#0"},
				"east": {"uv": [5.66667, 0.33333, 7.33333, 2], "texture": "#0"},
				"south": {"uv": [5.66667, 0.33333, 7.33333, 2], "texture": "#0"},
				"west": {"uv": [5.66667, 0.33333, 7.33333, 2], "texture": "#0"},
				"up": {"uv": [5.66667, 0.33333, 7.33333, 2], "texture": "#0"},
				"down": {"uv": [5.66667, 0.33333, 7.33333, 2], "texture": "#0"}
			}
		},
		{
			"from": [8.15555, 3.20146, 7.59573],
			"to": [8.28355, 3.39346, 7.78773],
			"rotation": {"angle": -22.5, "axis": "z", "origin": [8.00395, 2.95012, 7.44981]},
			"faces": {
				"north": {"uv": [5.66667, 0.33333, 7.33333, 2], "texture": "#0"},
				"east": {"uv": [5.66667, 0.33333, 7.33333, 2], "texture": "#0"},
				"south": {"uv": [5.66667, 0.33333, 7.33333, 2], "texture": "#0"},
				"west": {"uv": [5.66667, 0.33333, 7.33333, 2], "texture": "#0"},
				"up": {"uv": [5.66667, 0.33333, 7.33333, 2], "texture": "#0"},
				"down": {"uv": [5.66667, 0.33333, 7.33333, 2], "texture": "#0"}
			}
		},
		{
			"from": [8.15555, 3.20146, 8.10773],
			"to": [8.28355, 3.39346, 8.29973],
			"rotation": {"angle": -22.5, "axis": "z", "origin": [8.00395, 2.95012, 7.44981]},
			"faces": {
				"north": {"uv": [5.66667, 0.33333, 7.33333, 2], "texture": "#0"},
				"east": {"uv": [5.66667, 0.33333, 7.33333, 2], "texture": "#0"},
				"south": {"uv": [5.66667, 0.33333, 7.33333, 2], "texture": "#0"},
				"west": {"uv": [5.66667, 0.33333, 7.33333, 2], "texture": "#0"},
				"up": {"uv": [5.66667, 0.33333, 7.33333, 2], "texture": "#0"},
				"down": {"uv": [5.66667, 0.33333, 7.33333, 2], "texture": "#0"}
			}
		},
		{
			"from": [7.7881, 3.17506, 7.59573],
			"to": [7.9161, 3.36706, 7.78773],
			"rotation": {"angle": 22.5, "axis": "z", "origin": [8.00395, 2.95012, 7.44981]},
			"faces": {
				"north": {"uv": [5.66667, 0.33333, 7.33333, 2], "texture": "#0"},
				"east": {"uv": [5.66667, 0.33333, 7.33333, 2], "texture": "#0"},
				"south": {"uv": [5.66667, 0.33333, 7.33333, 2], "texture": "#0"},
				"west": {"uv": [5.66667, 0.33333, 7.33333, 2], "texture": "#0"},
				"up": {"uv": [5.66667, 0.33333, 7.33333, 2], "texture": "#0"},
				"down": {"uv": [5.66667, 0.33333, 7.33333, 2], "texture": "#0"}
			}
		},
		{
			"from": [7.7881, 3.17506, 8.10773],
			"to": [7.9161, 3.36706, 8.29973],
			"rotation": {"angle": 22.5, "axis": "z", "origin": [8.00395, 2.95012, 7.44981]},
			"faces": {
				"north": {"uv": [5.66667, 0.33333, 7.33333, 2], "texture": "#0"},
				"east": {"uv": [5.66667, 0.33333, 7.33333, 2], "texture": "#0"},
				"south": {"uv": [5.66667, 0.33333, 7.33333, 2], "texture": "#0"},
				"west": {"uv": [5.66667, 0.33333, 7.33333, 2], "texture": "#0"},
				"up": {"uv": [5.66667, 0.33333, 7.33333, 2], "texture": "#0"},
				"down": {"uv": [5.66667, 0.33333, 7.33333, 2], "texture": "#0"}
			}
		}
	],
	"display": {
		"thirdperson_righthand": {
			"translation": [-1, 7.75, 1.25],
			"scale": [1.5, 1.5, 1.5]
		},
		"thirdperson_lefthand": {
			"translation": [-1, 7.75, 0.5],
			"scale": [1.5, 1.5, 1.5]
		},
		"firstperson_righthand": {
			"translation": [-1.5, 13.25, -2.25],
			"scale": [2, 2, 2]
		},
		"firstperson_lefthand": {
			"translation": [-1.25, 12.5, -1.25],
			"scale": [2, 2, 2]
		},
		"ground": {
			"translation": [5.25, 12.25, -2.5],
			"scale": [2, 2, 2]
		},
		"gui": {
			"rotation": [22, 27, -19],
			"translation": [4, 15.5, 0],
			"scale": [2.6, 2.59, 2.54]
		},
		"head": {
			"translation": [0, 12.75, 0]
		},
		"fixed": {
			"rotation": [90, 45, -90],
			"translation": [6, 5.5, -1.5],
			"scale": [1.5, 1.5, 1.5]
		}
	},
	"groups": [
		{
			"name": "gun",
			"origin": [8, 8, 8],
			"children": [
				{
					"name": "Barrel",
					"origin": [5.22601, 3.55101, 6.17115],
					"children": [0, 1, 2, 3, 4, 5, 6, 7, 8, 9, 10, 11, 12, 13, 14, 15, 16, 17, 18, 19]
				},
				{
					"name": "Chassis_b",
					"origin": [8, 8, 8],
					"children": [
						{
							"name": "Bot_chas",
							"origin": [13.16227, 11.04361, 14.85],
							"children": [20, 21, 22, 23, 24]
						},
						{
							"name": "Grip",
							"origin": [5.37337, 2.0338, 8.87686],
							"children": [25, 26, 27, 28, 29, 30, 31, 32, 33, 34, 35, 36, 37, 38, 39, 40]
						},
						{
							"name": "Patch",
							"origin": [8, 8, 8],
							"children": [41, 42, 43, 44, 45, 46, 47, 48, 49]
						},
						{
							"name": "Locks",
							"origin": [8, 8, 8],
							"children": [
								{
									"name": "Fuse",
									"origin": [5.129, 3.22, 7.335],
									"children": [50, 51, 52, 53, 54, 55, 56, 57]
								},
								{
									"name": "Ammolock",
									"origin": [0.69471, 0.16529, -3.95],
									"children": [58, 59, 60, 61]
								}
							]
						}
					]
				},
				{
					"name": "Chassis_t",
					"origin": [8, 8, 8],
					"children": [62, 63, 64, 65, 66, 67, 68, 69, 70, 71, 72, 73, 74, 75, 76,
						{
							"name": "Integr_sight",
							"origin": [5.38761, 3.8018, 6.075],
							"children": [77, 78, 79, 80, 81, 82, 83, 84, 85]
						}
					]
				},
				{
					"name": "Frame",
					"origin": [8, 8, 8],
					"children": [86, 87, 88, 89, 90, 91, 92, 93, 94, 95, 96, 97, 98, 99, 100, 101, 102, 103, 104, 105, 106, 107]
				}
			]
		}
	]
}