{
    "textures": {
        "0": "gci:items/common/mpz",
        "particle": "gci:items/common/mpz"
    },
    "elements": [
        {
            "from": [
                7.8323,
                1.12893,
                9.18617
            ],
            "to": [
                8.17286,
                1.79247,
                9.62479
            ],
            "rotation": {
                "angle": -22.5,
                "axis": "x",
                "origin": [
                    8.00217,
                    1.00397,
                    9.50617
                ]
            },
            "faces": {
                "north": {
                    "uv": [
                        3.66667,
                        0.11111,
                        4.33333,
                        0.77778
                    ],
                    "texture": "#0"
                },
                "east": {
                    "uv": [
                        3.66667,
                        0.11111,
                        4.33333,
                        0.77778
                    ],
                    "texture": "#0"
                },
                "south": {
                    "uv": [
                        3.66667,
                        0.11111,
                        4.33333,
                        0.77778
                    ],
                    "texture": "#0"
                },
                "west": {
                    "uv": [
                        3.66667,
                        0.11111,
                        4.33333,
                        0.77778
                    ],
                    "texture": "#0"
                },
                "up": {
                    "uv": [
                        3.66667,
                        0.11111,
                        4.33333,
                        0.77778
                    ],
                    "texture": "#0"
                },
                "down": {
                    "uv": [
                        3.66667,
                        0.11111,
                        4.33333,
                        0.77778
                    ],
                    "texture": "#0"
                }
            }
        },
        {
            "from": [
                7.8323,
                1.00921,
                9.19227
            ],
            "to": [
                8.17286,
                1.41234,
                9.89041
            ],
            "rotation": {
                "angle": 0,
                "axis": "y",
                "origin": [
                    8.00217,
                    1.41034,
                    9.59677
                ]
            },
            "faces": {
                "north": {
                    "uv": [
                        3.66667,
                        0.11111,
                        4.33333,
                        0.77778
                    ],
                    "texture": "#0"
                },
                "east": {
                    "uv": [
                        3.66667,
                        0.11111,
                        4.33333,
                        0.77778
                    ],
                    "texture": "#0"
                },
                "south": {
                    "uv": [
                        3.66667,
                        0.11111,
                        4.33333,
                        0.77778
                    ],
                    "texture": "#0"
                },
                "west": {
                    "uv": [
                        3.66667,
                        0.11111,
                        4.33333,
                        0.77778
                    ],
                    "texture": "#0"
                },
                "up": {
                    "uv": [
                        3.66667,
                        0.11111,
                        4.33333,
                        0.77778
                    ],
                    "texture": "#0"
                },
                "down": {
                    "uv": [
                        3.66667,
                        0.11111,
                        4.33333,
                        0.77778
                    ],
                    "texture": "#0"
                }
            }
        },
        {
            "from": [
                7.8323,
                1.15128,
                9.99342
            ],
            "to": [
                8.17286,
                1.92828,
                10.44342
            ],
            "rotation": {
                "angle": 45,
                "axis": "x",
                "origin": [
                    8.00217,
                    1.74778,
                    9.99542
                ]
            },
            "faces": {
                "north": {
                    "uv": [
                        3.66667,
                        0.11111,
                        4.33333,
                        0.77778
                    ],
                    "texture": "#0"
                },
                "east": {
                    "uv": [
                        3.66667,
                        0.11111,
                        4.33333,
                        0.77778
                    ],
                    "texture": "#0"
                },
                "south": {
                    "uv": [
                        3.66667,
                        0.11111,
                        4.33333,
                        0.77778
                    ],
                    "texture": "#0"
                },
                "west": {
                    "uv": [
                        3.66667,
                        0.11111,
                        4.33333,
                        0.77778
                    ],
                    "texture": "#0"
                },
                "up": {
                    "uv": [
                        3.66667,
                        0.11111,
                        4.33333,
                        0.77778
                    ],
                    "texture": "#0"
                },
                "down": {
                    "uv": [
                        3.66667,
                        0.11111,
                        4.33333,
                        0.77778
                    ],
                    "texture": "#0"
                }
            }
        },
        {
            "from": [
                7.8643,
                1.58683,
                10.12163
            ],
            "to": [
                8.14086,
                1.84483,
                14.61063
            ],
            "rotation": {
                "angle": 0,
                "axis": "y",
                "origin": [
                    8.00217,
                    1.87483,
                    10.71813
                ]
            },
            "faces": {
                "north": {
                    "uv": [
                        1.88889,
                        1,
                        2.55556,
                        1.66667
                    ],
                    "rotation": 180,
                    "texture": "#0"
                },
                "east": {
                    "uv": [
                        1.88889,
                        1,
                        2.55556,
                        1.66667
                    ],
                    "rotation": 90,
                    "texture": "#0"
                },
                "south": {
                    "uv": [
                        1.88889,
                        1,
                        2.55556,
                        1.66667
                    ],
                    "texture": "#0"
                },
                "west": {
                    "uv": [
                        1.88889,
                        1,
                        2.55556,
                        1.66667
                    ],
                    "rotation": 270,
                    "texture": "#0"
                },
                "up": {
                    "uv": [
                        1.88889,
                        1,
                        2.55556,
                        1.66667
                    ],
                    "texture": "#0"
                },
                "down": {
                    "uv": [
                        1.88889,
                        1,
                        2.55556,
                        1.66667
                    ],
                    "rotation": 180,
                    "texture": "#0"
                }
            }
        },
        {
            "from": [
                7.8003,
                0.59483,
                14.44163
            ],
            "to": [
                8.20486,
                2.80483,
                14.70663
            ],
            "rotation": {
                "angle": 0,
                "axis": "y",
                "origin": [
                    8.00217,
                    1.87483,
                    10.71813
                ]
            },
            "faces": {
                "north": {
                    "uv": [
                        1,
                        0,
                        1.66667,
                        0.66667
                    ],
                    "rotation": 270,
                    "texture": "#0"
                },
                "east": {
                    "uv": [
                        1,
                        0,
                        1.66667,
                        0.66667
                    ],
                    "rotation": 270,
                    "texture": "#0"
                },
                "south": {
                    "uv": [
                        1,
                        0,
                        1.66667,
                        0.66667
                    ],
                    "rotation": 270,
                    "texture": "#0"
                },
                "west": {
                    "uv": [
                        1,
                        0,
                        1.66667,
                        0.66667
                    ],
                    "rotation": 270,
                    "texture": "#0"
                },
                "up": {
                    "uv": [
                        1,
                        0,
                        1.66667,
                        0.66667
                    ],
                    "rotation": 270,
                    "texture": "#0"
                },
                "down": {
                    "uv": [
                        1,
                        0,
                        1.66667,
                        0.66667
                    ],
                    "rotation": 270,
                    "texture": "#0"
                }
            }
        },
        {
            "from": [
                7.8323,
                0.78683,
                14.34563
            ],
            "to": [
                8.17286,
                2.61283,
                14.61063
            ],
            "rotation": {
                "angle": 0,
                "axis": "y",
                "origin": [
                    8.00217,
                    1.87483,
                    10.62213
                ]
            },
            "faces": {
                "north": {
                    "uv": [
                        3.66667,
                        0.11111,
                        4.33333,
                        0.77778
                    ],
                    "rotation": 270,
                    "texture": "#0"
                },
                "east": {
                    "uv": [
                        3.66667,
                        0.11111,
                        4.33333,
                        0.77778
                    ],
                    "rotation": 270,
                    "texture": "#0"
                },
                "south": {
                    "uv": [
                        3.66667,
                        0.11111,
                        4.33333,
                        0.77778
                    ],
                    "rotation": 270,
                    "texture": "#0"
                },
                "west": {
                    "uv": [
                        3.66667,
                        0.11111,
                        4.33333,
                        0.77778
                    ],
                    "rotation": 270,
                    "texture": "#0"
                },
                "up": {
                    "uv": [
                        3.66667,
                        0.11111,
                        4.33333,
                        0.77778
                    ],
                    "rotation": 270,
                    "texture": "#0"
                },
                "down": {
                    "uv": [
                        3.66667,
                        0.11111,
                        4.33333,
                        0.77778
                    ],
                    "rotation": 270,
                    "texture": "#0"
                }
            }
        },
        {
            "from": [
                7.8323,
                1.55483,
                11.56163
            ],
            "to": [
                8.17286,
                1.87683,
                12.17863
            ],
            "rotation": {
                "angle": 0,
                "axis": "y",
                "origin": [
                    8.00217,
                    1.87483,
                    10.62213
                ]
            },
            "faces": {
                "north": {
                    "uv": [
                        3.66667,
                        0.11111,
                        4.33333,
                        0.77778
                    ],
                    "rotation": 270,
                    "texture": "#0"
                },
                "east": {
                    "uv": [
                        3.66667,
                        0.11111,
                        4.33333,
                        0.77778
                    ],
                    "rotation": 270,
                    "texture": "#0"
                },
                "south": {
                    "uv": [
                        3.66667,
                        0.11111,
                        4.33333,
                        0.77778
                    ],
                    "rotation": 270,
                    "texture": "#0"
                },
                "west": {
                    "uv": [
                        3.66667,
                        0.11111,
                        4.33333,
                        0.77778
                    ],
                    "rotation": 270,
                    "texture": "#0"
                },
                "up": {
                    "uv": [
                        3.66667,
                        0.11111,
                        4.33333,
                        0.77778
                    ],
                    "rotation": 270,
                    "texture": "#0"
                },
                "down": {
                    "uv": [
                        3.66667,
                        0.11111,
                        4.33333,
                        0.77778
                    ],
                    "rotation": 270,
                    "texture": "#0"
                }
            }
        },
        {
            "from": [
                7.8323,
                1.55483,
                13.35363
            ],
            "to": [
                8.17286,
                1.87683,
                14.61063
            ],
            "rotation": {
                "angle": 0,
                "axis": "y",
                "origin": [
                    8.00217,
                    1.87483,
                    10.62213
                ]
            },
            "faces": {
                "north": {
                    "uv": [
                        3.66667,
                        0.11111,
                        4.33333,
                        0.77778
                    ],
                    "rotation": 270,
                    "texture": "#0"
                },
                "east": {
                    "uv": [
                        3.66667,
                        0.11111,
                        4.33333,
                        0.77778
                    ],
                    "rotation": 270,
                    "texture": "#0"
                },
                "south": {
                    "uv": [
                        3.66667,
                        0.11111,
                        4.33333,
                        0.77778
                    ],
                    "rotation": 270,
                    "texture": "#0"
                },
                "west": {
                    "uv": [
                        3.66667,
                        0.11111,
                        4.33333,
                        0.77778
                    ],
                    "rotation": 270,
                    "texture": "#0"
                },
                "up": {
                    "uv": [
                        3.66667,
                        0.11111,
                        4.33333,
                        0.77778
                    ],
                    "rotation": 270,
                    "texture": "#0"
                },
                "down": {
                    "uv": [
                        3.66667,
                        0.11111,
                        4.33333,
                        0.77778
                    ],
                    "rotation": 270,
                    "texture": "#0"
                }
            }
        },
        {
            "from": [
                7.8323,
                1.55483,
                13.96163
            ],
            "to": [
                8.17286,
                1.87683,
                14.61063
            ],
            "rotation": {
                "angle": -22.5,
                "axis": "x",
                "origin": [
                    8.00258,
                    1.71583,
                    13.98213
                ]
            },
            "faces": {
                "north": {
                    "uv": [
                        3.66667,
                        0.11111,
                        4.33333,
                        0.77778
                    ],
                    "rotation": 270,
                    "texture": "#0"
                },
                "east": {
                    "uv": [
                        3.66667,
                        0.11111,
                        4.33333,
                        0.77778
                    ],
                    "rotation": 270,
                    "texture": "#0"
                },
                "south": {
                    "uv": [
                        3.66667,
                        0.11111,
                        4.33333,
                        0.77778
                    ],
                    "rotation": 270,
                    "texture": "#0"
                },
                "west": {
                    "uv": [
                        3.66667,
                        0.11111,
                        4.33333,
                        0.77778
                    ],
                    "rotation": 270,
                    "texture": "#0"
                },
                "up": {
                    "uv": [
                        3.66667,
                        0.11111,
                        4.33333,
                        0.77778
                    ],
                    "rotation": 270,
                    "texture": "#0"
                },
                "down": {
                    "uv": [
                        3.66667,
                        0.11111,
                        4.33333,
                        0.77778
                    ],
                    "rotation": 270,
                    "texture": "#0"
                }
            }
        },
        {
            "from": [
                7.8323,
                1.55483,
                13.96163
            ],
            "to": [
                8.17286,
                1.87683,
                14.61063
            ],
            "rotation": {
                "angle": 22.5,
                "axis": "x",
                "origin": [
                    8.00258,
                    1.71583,
                    13.98213
                ]
            },
            "faces": {
                "north": {
                    "uv": [
                        3.66667,
                        0.11111,
                        4.33333,
                        0.77778
                    ],
                    "rotation": 270,
                    "texture": "#0"
                },
                "east": {
                    "uv": [
                        3.66667,
                        0.11111,
                        4.33333,
                        0.77778
                    ],
                    "rotation": 270,
                    "texture": "#0"
                },
                "south": {
                    "uv": [
                        3.66667,
                        0.11111,
                        4.33333,
                        0.77778
                    ],
                    "rotation": 270,
                    "texture": "#0"
                },
                "west": {
                    "uv": [
                        3.66667,
                        0.11111,
                        4.33333,
                        0.77778
                    ],
                    "rotation": 270,
                    "texture": "#0"
                },
                "up": {
                    "uv": [
                        3.66667,
                        0.11111,
                        4.33333,
                        0.77778
                    ],
                    "rotation": 270,
                    "texture": "#0"
                },
                "down": {
                    "uv": [
                        3.66667,
                        0.11111,
                        4.33333,
                        0.77778
                    ],
                    "rotation": 270,
                    "texture": "#0"
                }
            }
        },
        {
            "from": [
                7.8323,
                2.32283,
                11.11363
            ],
            "to": [
                8.17286,
                2.64483,
                13.36263
            ],
            "rotation": {
                "angle": 0,
                "axis": "y",
                "origin": [
                    8.00217,
                    2.64283,
                    10.39813
                ]
            },
            "faces": {
                "north": {
                    "uv": [
                        3.66667,
                        0.11111,
                        4.33333,
                        0.77778
                    ],
                    "rotation": 270,
                    "texture": "#0"
                },
                "east": {
                    "uv": [
                        3.66667,
                        0.11111,
                        4.33333,
                        0.77778
                    ],
                    "rotation": 270,
                    "texture": "#0"
                },
                "south": {
                    "uv": [
                        3.66667,
                        0.11111,
                        4.33333,
                        0.77778
                    ],
                    "rotation": 270,
                    "texture": "#0"
                },
                "west": {
                    "uv": [
                        3.66667,
                        0.11111,
                        4.33333,
                        0.77778
                    ],
                    "rotation": 270,
                    "texture": "#0"
                },
                "up": {
                    "uv": [
                        3.66667,
                        0.11111,
                        4.33333,
                        0.77778
                    ],
                    "rotation": 270,
                    "texture": "#0"
                },
                "down": {
                    "uv": [
                        3.66667,
                        0.11111,
                        4.33333,
                        0.77778
                    ],
                    "rotation": 270,
                    "texture": "#0"
                }
            }
        },
        {
            "from": [
                7.8643,
                2.61083,
                11.08163
            ],
            "to": [
                8.14086,
                2.70883,
                13.39463
            ],
            "rotation": {
                "angle": 0,
                "axis": "y",
                "origin": [
                    8.00217,
                    2.93083,
                    10.39813
                ]
            },
            "faces": {
                "north": {
                    "uv": [
                        2,
                        0.11111,
                        2.66667,
                        0.77778
                    ],
                    "rotation": 270,
                    "texture": "#0"
                },
                "east": {
                    "uv": [
                        2,
                        0.11111,
                        2.66667,
                        0.77778
                    ],
                    "rotation": 270,
                    "texture": "#0"
                },
                "south": {
                    "uv": [
                        2,
                        0.11111,
                        2.66667,
                        0.77778
                    ],
                    "rotation": 270,
                    "texture": "#0"
                },
                "west": {
                    "uv": [
                        2,
                        0.11111,
                        2.66667,
                        0.77778
                    ],
                    "rotation": 270,
                    "texture": "#0"
                },
                "up": {
                    "uv": [
                        2,
                        0.11111,
                        2.66667,
                        0.77778
                    ],
                    "rotation": 270,
                    "texture": "#0"
                },
                "down": {
                    "uv": [
                        2,
                        0.11111,
                        2.66667,
                        0.77778
                    ],
                    "rotation": 270,
                    "texture": "#0"
                }
            }
        },
        {
            "from": [
                8.20801,
                2.50443,
                11.08163
            ],
            "to": [
                8.35657,
                2.60243,
                13.39463
            ],
            "rotation": {
                "angle": -22.5,
                "axis": "z",
                "origin": [
                    8.44189,
                    2.82443,
                    10.39813
                ]
            },
            "faces": {
                "north": {
                    "uv": [
                        2,
                        0.11111,
                        2.66667,
                        0.77778
                    ],
                    "rotation": 270,
                    "texture": "#0"
                },
                "east": {
                    "uv": [
                        2,
                        0.11111,
                        2.66667,
                        0.77778
                    ],
                    "rotation": 270,
                    "texture": "#0"
                },
                "south": {
                    "uv": [
                        2,
                        0.11111,
                        2.66667,
                        0.77778
                    ],
                    "rotation": 270,
                    "texture": "#0"
                },
                "west": {
                    "uv": [
                        2,
                        0.11111,
                        2.66667,
                        0.77778
                    ],
                    "rotation": 270,
                    "texture": "#0"
                },
                "up": {
                    "uv": [
                        2,
                        0.11111,
                        2.66667,
                        0.77778
                    ],
                    "rotation": 270,
                    "texture": "#0"
                },
                "down": {
                    "uv": [
                        2,
                        0.11111,
                        2.66667,
                        0.77778
                    ],
                    "rotation": 270,
                    "texture": "#0"
                }
            }
        },
        {
            "from": [
                7.64865,
                2.50412,
                11.08163
            ],
            "to": [
                7.79721,
                2.60212,
                13.39463
            ],
            "rotation": {
                "angle": 22.5,
                "axis": "z",
                "origin": [
                    7.56252,
                    2.82412,
                    10.39813
                ]
            },
            "faces": {
                "north": {
                    "uv": [
                        2,
                        0.11111,
                        2.66667,
                        0.77778
                    ],
                    "rotation": 270,
                    "texture": "#0"
                },
                "east": {
                    "uv": [
                        2,
                        0.11111,
                        2.66667,
                        0.77778
                    ],
                    "rotation": 270,
                    "texture": "#0"
                },
                "south": {
                    "uv": [
                        2,
                        0.11111,
                        2.66667,
                        0.77778
                    ],
                    "rotation": 270,
                    "texture": "#0"
                },
                "west": {
                    "uv": [
                        2,
                        0.11111,
                        2.66667,
                        0.77778
                    ],
                    "rotation": 270,
                    "texture": "#0"
                },
                "up": {
                    "uv": [
                        2,
                        0.11111,
                        2.66667,
                        0.77778
                    ],
                    "rotation": 270,
                    "texture": "#0"
                },
                "down": {
                    "uv": [
                        2,
                        0.11111,
                        2.66667,
                        0.77778
                    ],
                    "rotation": 270,
                    "texture": "#0"
                }
            }
        },
        {
            "from": [
                7.8643,
                2.0658,
                13.01499
            ],
            "to": [
                8.14086,
                3.0988,
                13.30499
            ],
            "rotation": {
                "angle": -45,
                "axis": "x",
                "origin": [
                    8.00217,
                    0.4543,
                    12.98499
                ]
            },
            "faces": {
                "north": {
                    "uv": [
                        3.66667,
                        0.11111,
                        4.33333,
                        0.77778
                    ],
                    "rotation": 90,
                    "texture": "#0"
                },
                "east": {
                    "uv": [
                        3.66667,
                        0.11111,
                        4.33333,
                        0.77778
                    ],
                    "texture": "#0"
                },
                "south": {
                    "uv": [
                        3.66667,
                        0.11111,
                        4.33333,
                        0.77778
                    ],
                    "rotation": 270,
                    "texture": "#0"
                },
                "west": {
                    "uv": [
                        3.66667,
                        0.11111,
                        4.33333,
                        0.77778
                    ],
                    "rotation": 180,
                    "texture": "#0"
                },
                "up": {
                    "uv": [
                        3.66667,
                        0.11111,
                        4.33333,
                        0.77778
                    ],
                    "rotation": 270,
                    "texture": "#0"
                },
                "down": {
                    "uv": [
                        3.66667,
                        0.11111,
                        4.33333,
                        0.77778
                    ],
                    "rotation": 90,
                    "texture": "#0"
                }
            }
        },
        {
            "from": [
                7.8643,
                2.06411,
                15.0043
            ],
            "to": [
                8.14086,
                3.19311,
                15.2943
            ],
            "rotation": {
                "angle": -45,
                "axis": "x",
                "origin": [
                    8.00217,
                    0.54861,
                    14.9743
                ]
            },
            "faces": {
                "north": {
                    "uv": [
                        3.66667,
                        0.11111,
                        4.33333,
                        0.77778
                    ],
                    "rotation": 90,
                    "texture": "#0"
                },
                "east": {
                    "uv": [
                        3.66667,
                        0.11111,
                        4.33333,
                        0.77778
                    ],
                    "texture": "#0"
                },
                "south": {
                    "uv": [
                        3.66667,
                        0.11111,
                        4.33333,
                        0.77778
                    ],
                    "rotation": 270,
                    "texture": "#0"
                },
                "west": {
                    "uv": [
                        3.66667,
                        0.11111,
                        4.33333,
                        0.77778
                    ],
                    "rotation": 180,
                    "texture": "#0"
                },
                "up": {
                    "uv": [
                        3.66667,
                        0.11111,
                        4.33333,
                        0.77778
                    ],
                    "rotation": 270,
                    "texture": "#0"
                },
                "down": {
                    "uv": [
                        3.66667,
                        0.11111,
                        4.33333,
                        0.77778
                    ],
                    "rotation": 90,
                    "texture": "#0"
                }
            }
        },
        {
            "from": [
                7.8323,
                2.25172,
                14.95241
            ],
            "to": [
                8.17286,
                2.47772,
                15.21741
            ],
            "rotation": {
                "angle": 45,
                "axis": "x",
                "origin": [
                    8.00258,
                    3.16472,
                    15.08491
                ]
            },
            "faces": {
                "north": {
                    "uv": [
                        3.66667,
                        0.11111,
                        4.33333,
                        0.77778
                    ],
                    "rotation": 270,
                    "texture": "#0"
                },
                "east": {
                    "uv": [
                        3.66667,
                        0.11111,
                        4.33333,
                        0.77778
                    ],
                    "rotation": 270,
                    "texture": "#0"
                },
                "south": {
                    "uv": [
                        3.66667,
                        0.11111,
                        4.33333,
                        0.77778
                    ],
                    "rotation": 270,
                    "texture": "#0"
                },
                "west": {
                    "uv": [
                        3.66667,
                        0.11111,
                        4.33333,
                        0.77778
                    ],
                    "rotation": 270,
                    "texture": "#0"
                },
                "up": {
                    "uv": [
                        3.66667,
                        0.11111,
                        4.33333,
                        0.77778
                    ],
                    "rotation": 270,
                    "texture": "#0"
                },
                "down": {
                    "uv": [
                        3.66667,
                        0.11111,
                        4.33333,
                        0.77778
                    ],
                    "rotation": 270,
                    "texture": "#0"
                }
            }
        },
        {
            "from": [
                7.8323,
                0.98793,
                14.95241
            ],
            "to": [
                8.17286,
                1.14793,
                15.21741
            ],
            "rotation": {
                "angle": -45,
                "axis": "x",
                "origin": [
                    8.00258,
                    0.23493,
                    15.08491
                ]
            },
            "faces": {
                "north": {
                    "uv": [
                        3.66667,
                        0.11111,
                        4.33333,
                        0.77778
                    ],
                    "rotation": 270,
                    "texture": "#0"
                },
                "east": {
                    "uv": [
                        3.66667,
                        0.11111,
                        4.33333,
                        0.77778
                    ],
                    "rotation": 270,
                    "texture": "#0"
                },
                "south": {
                    "uv": [
                        3.66667,
                        0.11111,
                        4.33333,
                        0.77778
                    ],
                    "rotation": 270,
                    "texture": "#0"
                },
                "west": {
                    "uv": [
                        3.66667,
                        0.11111,
                        4.33333,
                        0.77778
                    ],
                    "rotation": 270,
                    "texture": "#0"
                },
                "up": {
                    "uv": [
                        3.66667,
                        0.11111,
                        4.33333,
                        0.77778
                    ],
                    "rotation": 270,
                    "texture": "#0"
                },
                "down": {
                    "uv": [
                        3.66667,
                        0.11111,
                        4.33333,
                        0.77778
                    ],
                    "rotation": 270,
                    "texture": "#0"
                }
            }
        },
        {
            "from": [
                7.8323,
                1.46384,
                8.69781
            ],
            "to": [
                8.17286,
                1.78584,
                9.31481
            ],
            "rotation": {
                "angle": 22.5,
                "axis": "x",
                "origin": [
                    8.00217,
                    1.78384,
                    9.29431
                ]
            },
            "faces": {
                "north": {
                    "uv": [
                        3.66667,
                        0.11111,
                        4.33333,
                        0.77778
                    ],
                    "texture": "#0"
                },
                "east": {
                    "uv": [
                        3.66667,
                        0.11111,
                        4.33333,
                        0.77778
                    ],
                    "texture": "#0"
                },
                "south": {
                    "uv": [
                        3.66667,
                        0.11111,
                        4.33333,
                        0.77778
                    ],
                    "texture": "#0"
                },
                "west": {
                    "uv": [
                        3.66667,
                        0.11111,
                        4.33333,
                        0.77778
                    ],
                    "texture": "#0"
                },
                "up": {
                    "uv": [
                        3.66667,
                        0.11111,
                        4.33333,
                        0.77778
                    ],
                    "texture": "#0"
                },
                "down": {
                    "uv": [
                        3.66667,
                        0.11111,
                        4.33333,
                        0.77778
                    ],
                    "texture": "#0"
                }
            }
        }
    ],
    "display": {
        "thirdperson_righthand": {
            "translation": [
                -1,
                7.75,
                1.25
            ],
            "scale": [
                1.5,
                1.5,
                1.5
            ]
        },
        "thirdperson_lefthand": {
            "translation": [
                -1,
                7.75,
                0.5
            ],
            "scale": [
                1.5,
                1.5,
                1.5
            ]
        },
        "firstperson_righthand": {
            "translation": [
                -1.5,
                13.25,
                -2.25
            ],
            "scale": [
                2,
                2,
                2
            ]
        },
        "firstperson_lefthand": {
            "translation": [
                -1.25,
                12.5,
                -1.25
            ],
            "scale": [
                2,
                2,
                2
            ]
        },
        "ground": {
            "translation": [
                5.25,
                12.25,
                -2.5
            ],
            "scale": [
                2,
                2,
                2
            ]
        },
        "gui": {
            "rotation": [
                22,
                27,
                -19
            ],
            "translation": [
                4,
                15.5,
                0
            ],
            "scale": [
                2.6,
                2.59,
                2.54
            ]
        },
        "head": {
            "translation": [
                0,
                12.75,
                0
            ]
        },
        "fixed": {
            "rotation": [
                90,
                45,
                -90
            ],
            "translation": [
                10.75,
                8.75,
                -1
            ],
            "scale": [
                2.5,
                2.5,
                2.5
            ]
        }
    }
}