{
    "textures": {
        "0": "gci:items/common/all_in_one",
        "1": "gci:items/common/mpz",
        "particle": "gci:items/common/all_in_one"
    },
    "elements": [
        {
            "from": [
                7.74877,
                11.55492,
                8.072
            ],
            "to": [
                8.43677,
                11.93892,
                9.732
            ],
            "rotation": {
                "angle": 0,
                "axis": "y",
                "origin": [
                    8.07977,
                    11.86559,
                    9.574
                ]
            },
            "faces": {
                "north": {
                    "uv": [
                        2.875,
                        3,
                        2.875,
                        3.25
                    ],
                    "rotation": 270,
                    "texture": "#0"
                },
                "east": {
                    "uv": [
                        2.875,
                        3,
                        2.875,
                        3.25
                    ],
                    "rotation": 270,
                    "texture": "#0"
                },
                "south": {
                    "uv": [
                        2.875,
                        3,
                        2.875,
                        3.25
                    ],
                    "rotation": 270,
                    "texture": "#0"
                },
                "west": {
                    "uv": [
                        2.875,
                        3,
                        2.875,
                        3.25
                    ],
                    "rotation": 270,
                    "texture": "#0"
                },
                "up": {
                    "uv": [
                        2.875,
                        3,
                        2.875,
                        3.25
                    ],
                    "rotation": 270,
                    "texture": "#0"
                },
                "down": {
                    "uv": [
                        2.875,
                        3,
                        2.875,
                        3.25
                    ],
                    "rotation": 270,
                    "texture": "#0"
                }
            }
        },
        {
            "from": [
                7.71677,
                11.62092,
                8.198
            ],
            "to": [
                8.46877,
                11.74492,
                8.326
            ],
            "rotation": {
                "angle": -45,
                "axis": "x",
                "origin": [
                    8.09277,
                    11.68292,
                    8.262
                ]
            },
            "faces": {
                "north": {
                    "uv": [
                        14.25,
                        6.625,
                        14.25,
                        6.625
                    ],
                    "texture": "#0"
                },
                "east": {
                    "uv": [
                        14.25,
                        6.625,
                        14.25,
                        6.625
                    ],
                    "texture": "#0"
                },
                "south": {
                    "uv": [
                        14.25,
                        6.625,
                        14.25,
                        6.625
                    ],
                    "texture": "#0"
                },
                "west": {
                    "uv": [
                        14.25,
                        6.625,
                        14.25,
                        6.625
                    ],
                    "texture": "#0"
                },
                "up": {
                    "uv": [
                        14.25,
                        6.625,
                        14.25,
                        6.625
                    ],
                    "texture": "#0"
                },
                "down": {
                    "uv": [
                        14.25,
                        6.625,
                        14.25,
                        6.625
                    ],
                    "texture": "#0"
                }
            }
        },
        {
            "from": [
                7.71677,
                11.62092,
                9.51
            ],
            "to": [
                8.46877,
                11.74492,
                9.638
            ],
            "rotation": {
                "angle": -45,
                "axis": "x",
                "origin": [
                    8.09277,
                    11.68292,
                    9.574
                ]
            },
            "faces": {
                "north": {
                    "uv": [
                        14.25,
                        6.625,
                        14.25,
                        6.625
                    ],
                    "texture": "#0"
                },
                "east": {
                    "uv": [
                        14.25,
                        6.625,
                        14.25,
                        6.625
                    ],
                    "texture": "#0"
                },
                "south": {
                    "uv": [
                        14.25,
                        6.625,
                        14.25,
                        6.625
                    ],
                    "texture": "#0"
                },
                "west": {
                    "uv": [
                        14.25,
                        6.625,
                        14.25,
                        6.625
                    ],
                    "texture": "#0"
                },
                "up": {
                    "uv": [
                        14.25,
                        6.625,
                        14.25,
                        6.625
                    ],
                    "texture": "#0"
                },
                "down": {
                    "uv": [
                        14.25,
                        6.625,
                        14.25,
                        6.625
                    ],
                    "texture": "#0"
                }
            }
        },
        {
            "from": [
                7.71677,
                12.06892,
                9.606
            ],
            "to": [
                8.46877,
                12.19292,
                9.734
            ],
            "rotation": {
                "angle": -45,
                "axis": "x",
                "origin": [
                    8.09277,
                    12.13092,
                    9.67
                ]
            },
            "faces": {
                "north": {
                    "uv": [
                        2.875,
                        1,
                        2.875,
                        1.25
                    ],
                    "texture": "#0"
                },
                "east": {
                    "uv": [
                        2.875,
                        1,
                        2.875,
                        1.25
                    ],
                    "texture": "#0"
                },
                "south": {
                    "uv": [
                        2.875,
                        1,
                        2.875,
                        1.25
                    ],
                    "texture": "#0"
                },
                "west": {
                    "uv": [
                        2.875,
                        1,
                        2.875,
                        1.25
                    ],
                    "texture": "#0"
                },
                "up": {
                    "uv": [
                        2.875,
                        1,
                        2.875,
                        1.25
                    ],
                    "texture": "#0"
                },
                "down": {
                    "uv": [
                        2.875,
                        1,
                        2.875,
                        1.25
                    ],
                    "texture": "#0"
                }
            }
        },
        {
            "from": [
                7.74877,
                12.00292,
                8.072
            ],
            "to": [
                8.43677,
                12.16292,
                10.148
            ],
            "rotation": {
                "angle": 0,
                "axis": "y",
                "origin": [
                    8.07977,
                    12.31359,
                    9.574
                ]
            },
            "faces": {
                "north": {
                    "uv": [
                        2.875,
                        3,
                        2.875,
                        3.25
                    ],
                    "rotation": 270,
                    "texture": "#0"
                },
                "east": {
                    "uv": [
                        2.875,
                        3,
                        2.875,
                        3.25
                    ],
                    "rotation": 270,
                    "texture": "#0"
                },
                "south": {
                    "uv": [
                        2.875,
                        3,
                        2.875,
                        3.25
                    ],
                    "rotation": 270,
                    "texture": "#0"
                },
                "west": {
                    "uv": [
                        2.875,
                        3,
                        2.875,
                        3.25
                    ],
                    "rotation": 270,
                    "texture": "#0"
                },
                "up": {
                    "uv": [
                        2.875,
                        3,
                        2.875,
                        3.25
                    ],
                    "rotation": 270,
                    "texture": "#0"
                },
                "down": {
                    "uv": [
                        2.875,
                        3,
                        2.875,
                        3.25
                    ],
                    "rotation": 270,
                    "texture": "#0"
                }
            }
        },
        {
            "from": [
                8.03677,
                12.16292,
                8.808
            ],
            "to": [
                8.14877,
                12.26292,
                8.92
            ],
            "rotation": {
                "angle": -45,
                "axis": "y",
                "origin": [
                    8.09277,
                    12.22692,
                    8.864
                ]
            },
            "faces": {
                "north": {
                    "uv": [
                        4.25,
                        3.125,
                        4.25,
                        3.375
                    ],
                    "rotation": 270,
                    "texture": "#0"
                },
                "east": {
                    "uv": [
                        4.25,
                        3.125,
                        4.25,
                        3.375
                    ],
                    "rotation": 270,
                    "texture": "#0"
                },
                "south": {
                    "uv": [
                        4.25,
                        3.125,
                        4.25,
                        3.375
                    ],
                    "rotation": 270,
                    "texture": "#0"
                },
                "west": {
                    "uv": [
                        4.25,
                        3.125,
                        4.25,
                        3.375
                    ],
                    "rotation": 270,
                    "texture": "#0"
                },
                "up": {
                    "uv": [
                        4.25,
                        3.125,
                        4.25,
                        3.375
                    ],
                    "rotation": 270,
                    "texture": "#0"
                },
                "down": {
                    "uv": [
                        4.25,
                        3.125,
                        4.25,
                        3.375
                    ],
                    "rotation": 270,
                    "texture": "#0"
                }
            }
        },
        {
            "from": [
                7.84291,
                12.16292,
                8.73553
            ],
            "to": [
                8.57491,
                12.25892,
                9.03953
            ],
            "rotation": {
                "angle": 45,
                "axis": "y",
                "origin": [
                    8.12291,
                    12.19492,
                    9.01553
                ]
            },
            "faces": {
                "north": {
                    "uv": [
                        14.25,
                        6.625,
                        14.25,
                        6.625
                    ],
                    "rotation": 270,
                    "texture": "#0"
                },
                "east": {
                    "uv": [
                        14.25,
                        6.625,
                        14.25,
                        6.625
                    ],
                    "rotation": 270,
                    "texture": "#0"
                },
                "south": {
                    "uv": [
                        14.25,
                        6.625,
                        14.25,
                        6.625
                    ],
                    "rotation": 270,
                    "texture": "#0"
                },
                "west": {
                    "uv": [
                        14.25,
                        6.625,
                        14.25,
                        6.625
                    ],
                    "rotation": 270,
                    "texture": "#0"
                },
                "up": {
                    "uv": [
                        14.25,
                        6.625,
                        14.25,
                        6.625
                    ],
                    "rotation": 270,
                    "texture": "#0"
                },
                "down": {
                    "uv": [
                        14.25,
                        6.625,
                        14.25,
                        6.625
                    ],
                    "rotation": 270,
                    "texture": "#0"
                }
            }
        },
        {
            "from": [
                7.72721,
                12.16292,
                8.71221
            ],
            "to": [
                8.45921,
                12.25892,
                9.01621
            ],
            "rotation": {
                "angle": 0,
                "axis": "y",
                "origin": [
                    8.09321,
                    12.21092,
                    8.86421
                ]
            },
            "faces": {
                "north": {
                    "uv": [
                        14.25,
                        6.625,
                        14.25,
                        6.625
                    ],
                    "rotation": 270,
                    "texture": "#0"
                },
                "east": {
                    "uv": [
                        14.25,
                        6.625,
                        14.25,
                        6.625
                    ],
                    "rotation": 270,
                    "texture": "#0"
                },
                "south": {
                    "uv": [
                        14.25,
                        6.625,
                        14.25,
                        6.625
                    ],
                    "rotation": 270,
                    "texture": "#0"
                },
                "west": {
                    "uv": [
                        14.25,
                        6.625,
                        14.25,
                        6.625
                    ],
                    "rotation": 270,
                    "texture": "#0"
                },
                "up": {
                    "uv": [
                        14.25,
                        6.625,
                        14.25,
                        6.625
                    ],
                    "rotation": 270,
                    "texture": "#0"
                },
                "down": {
                    "uv": [
                        14.25,
                        6.625,
                        14.25,
                        6.625
                    ],
                    "rotation": 270,
                    "texture": "#0"
                }
            }
        },
        {
            "from": [
                7.94121,
                12.16292,
                8.49821
            ],
            "to": [
                8.24521,
                12.25892,
                9.23021
            ],
            "rotation": {
                "angle": 45,
                "axis": "y",
                "origin": [
                    8.09321,
                    12.21092,
                    8.86421
                ]
            },
            "faces": {
                "north": {
                    "uv": [
                        14.25,
                        6.625,
                        14.25,
                        6.625
                    ],
                    "texture": "#0"
                },
                "east": {
                    "uv": [
                        14.25,
                        6.625,
                        14.25,
                        6.625
                    ],
                    "texture": "#0"
                },
                "south": {
                    "uv": [
                        14.25,
                        6.625,
                        14.25,
                        6.625
                    ],
                    "texture": "#0"
                },
                "west": {
                    "uv": [
                        14.25,
                        6.625,
                        14.25,
                        6.625
                    ],
                    "texture": "#0"
                },
                "up": {
                    "uv": [
                        14.25,
                        6.625,
                        14.25,
                        6.625
                    ],
                    "texture": "#0"
                },
                "down": {
                    "uv": [
                        14.25,
                        6.625,
                        14.25,
                        6.625
                    ],
                    "texture": "#0"
                }
            }
        },
        {
            "from": [
                7.94121,
                12.16292,
                8.49821
            ],
            "to": [
                8.24521,
                12.25892,
                9.23021
            ],
            "rotation": {
                "angle": 0,
                "axis": "y",
                "origin": [
                    8.09321,
                    12.21092,
                    8.86421
                ]
            },
            "faces": {
                "north": {
                    "uv": [
                        14.25,
                        6.625,
                        14.25,
                        6.625
                    ],
                    "texture": "#0"
                },
                "east": {
                    "uv": [
                        14.25,
                        6.625,
                        14.25,
                        6.625
                    ],
                    "texture": "#0"
                },
                "south": {
                    "uv": [
                        14.25,
                        6.625,
                        14.25,
                        6.625
                    ],
                    "texture": "#0"
                },
                "west": {
                    "uv": [
                        14.25,
                        6.625,
                        14.25,
                        6.625
                    ],
                    "texture": "#0"
                },
                "up": {
                    "uv": [
                        14.25,
                        6.625,
                        14.25,
                        6.625
                    ],
                    "texture": "#0"
                },
                "down": {
                    "uv": [
                        14.25,
                        6.625,
                        14.25,
                        6.625
                    ],
                    "texture": "#0"
                }
            }
        },
        {
            "from": [
                8.06233,
                12.17689,
                8.168
            ],
            "to": [
                8.30233,
                12.22489,
                8.452
            ],
            "rotation": {
                "angle": 22.5,
                "axis": "z",
                "origin": [
                    8.39937,
                    12.50658,
                    8.31
                ]
            },
            "faces": {
                "north": {
                    "uv": [
                        2.875,
                        3,
                        2.875,
                        3.25
                    ],
                    "rotation": 90,
                    "texture": "#0"
                },
                "east": {
                    "uv": [
                        2.875,
                        3,
                        2.875,
                        3.25
                    ],
                    "rotation": 90,
                    "texture": "#0"
                },
                "south": {
                    "uv": [
                        2.875,
                        3,
                        2.875,
                        3.25
                    ],
                    "rotation": 90,
                    "texture": "#0"
                },
                "west": {
                    "uv": [
                        2.875,
                        3,
                        2.875,
                        3.25
                    ],
                    "rotation": 90,
                    "texture": "#0"
                },
                "up": {
                    "uv": [
                        2.875,
                        3,
                        2.875,
                        3.25
                    ],
                    "rotation": 90,
                    "texture": "#0"
                },
                "down": {
                    "uv": [
                        2.875,
                        3,
                        2.875,
                        3.25
                    ],
                    "rotation": 90,
                    "texture": "#0"
                }
            }
        },
        {
            "from": [
                7.75242,
                12.83232,
                8.168
            ],
            "to": [
                8.44042,
                12.88032,
                8.452
            ],
            "rotation": {
                "angle": 0,
                "axis": "y",
                "origin": [
                    8.08342,
                    12.47099,
                    9.638
                ]
            },
            "faces": {
                "north": {
                    "uv": [
                        2.875,
                        3,
                        2.875,
                        3.25
                    ],
                    "rotation": 270,
                    "texture": "#0"
                },
                "east": {
                    "uv": [
                        2.875,
                        3,
                        2.875,
                        3.25
                    ],
                    "rotation": 270,
                    "texture": "#0"
                },
                "south": {
                    "uv": [
                        2.875,
                        3,
                        2.875,
                        3.25
                    ],
                    "rotation": 270,
                    "texture": "#0"
                },
                "west": {
                    "uv": [
                        2.875,
                        3,
                        2.875,
                        3.25
                    ],
                    "rotation": 270,
                    "texture": "#0"
                },
                "up": {
                    "uv": [
                        2.875,
                        3,
                        2.875,
                        3.25
                    ],
                    "rotation": 270,
                    "texture": "#0"
                },
                "down": {
                    "uv": [
                        2.875,
                        3,
                        2.875,
                        3.25
                    ],
                    "rotation": 270,
                    "texture": "#0"
                }
            }
        },
        {
            "from": [
                8.05447,
                12.48032,
                8.296
            ],
            "to": [
                8.13447,
                12.56032,
                8.296
            ],
            "rotation": {
                "angle": 0,
                "axis": "y",
                "origin": [
                    8.43542,
                    12.75899,
                    9.638
                ]
            },
            "faces": {
                "north": {
                    "uv": [
                        8.75,
                        7,
                        8.75,
                        7.125
                    ],
                    "texture": "#0"
                },
                "east": {
                    "uv": [
                        8.75,
                        7,
                        8.75,
                        7.125
                    ],
                    "texture": "#0"
                },
                "south": {
                    "uv": [
                        8.75,
                        7,
                        8.75,
                        7.125
                    ],
                    "texture": "#0"
                },
                "west": {
                    "uv": [
                        8.75,
                        7,
                        8.75,
                        7.125
                    ],
                    "texture": "#0"
                },
                "up": {
                    "uv": [
                        8.75,
                        7,
                        8.75,
                        7.125
                    ],
                    "texture": "#0"
                },
                "down": {
                    "uv": [
                        8.75,
                        7,
                        8.75,
                        7.125
                    ],
                    "texture": "#0"
                }
            }
        },
        {
            "from": [
                7.6012,
                12.06325,
                8.168
            ],
            "to": [
                7.8412,
                12.11125,
                8.452
            ],
            "rotation": {
                "angle": -22.5,
                "axis": "z",
                "origin": [
                    7.9322,
                    11.73392,
                    9.638
                ]
            },
            "faces": {
                "north": {
                    "uv": [
                        2.875,
                        3,
                        2.875,
                        3.25
                    ],
                    "rotation": 270,
                    "texture": "#0"
                },
                "east": {
                    "uv": [
                        2.875,
                        3,
                        2.875,
                        3.25
                    ],
                    "rotation": 270,
                    "texture": "#0"
                },
                "south": {
                    "uv": [
                        2.875,
                        3,
                        2.875,
                        3.25
                    ],
                    "rotation": 270,
                    "texture": "#0"
                },
                "west": {
                    "uv": [
                        2.875,
                        3,
                        2.875,
                        3.25
                    ],
                    "rotation": 270,
                    "texture": "#0"
                },
                "up": {
                    "uv": [
                        2.875,
                        3,
                        2.875,
                        3.25
                    ],
                    "rotation": 270,
                    "texture": "#0"
                },
                "down": {
                    "uv": [
                        2.875,
                        3,
                        2.875,
                        3.25
                    ],
                    "rotation": 270,
                    "texture": "#0"
                }
            }
        },
        {
            "from": [
                7.66058,
                12.41858,
                8.168
            ],
            "to": [
                7.70858,
                12.65858,
                8.452
            ],
            "rotation": {
                "angle": 0,
                "axis": "y",
                "origin": [
                    7.73715,
                    12.4503,
                    8.31
                ]
            },
            "faces": {
                "north": {
                    "uv": [
                        2.875,
                        3,
                        2.875,
                        3.25
                    ],
                    "texture": "#0"
                },
                "east": {
                    "uv": [
                        2.875,
                        3,
                        2.875,
                        3.25
                    ],
                    "rotation": 180,
                    "texture": "#0"
                },
                "south": {
                    "uv": [
                        2.875,
                        3,
                        2.875,
                        3.25
                    ],
                    "rotation": 180,
                    "texture": "#0"
                },
                "west": {
                    "uv": [
                        2.875,
                        3,
                        2.875,
                        3.25
                    ],
                    "rotation": 180,
                    "texture": "#0"
                },
                "up": {
                    "uv": [
                        2.875,
                        3,
                        2.875,
                        3.25
                    ],
                    "rotation": 180,
                    "texture": "#0"
                },
                "down": {
                    "uv": [
                        2.875,
                        3,
                        2.875,
                        3.25
                    ],
                    "rotation": 180,
                    "texture": "#0"
                }
            }
        },
        {
            "from": [
                8.47973,
                12.41858,
                8.168
            ],
            "to": [
                8.52773,
                12.65858,
                8.452
            ],
            "rotation": {
                "angle": 0,
                "axis": "y",
                "origin": [
                    8.39937,
                    12.53858,
                    8.31
                ]
            },
            "faces": {
                "north": {
                    "uv": [
                        2.875,
                        3,
                        2.875,
                        3.25
                    ],
                    "rotation": 180,
                    "texture": "#0"
                },
                "east": {
                    "uv": [
                        2.875,
                        3,
                        2.875,
                        3.25
                    ],
                    "texture": "#0"
                },
                "south": {
                    "uv": [
                        2.875,
                        3,
                        2.875,
                        3.25
                    ],
                    "texture": "#0"
                },
                "west": {
                    "uv": [
                        2.875,
                        3,
                        2.875,
                        3.25
                    ],
                    "texture": "#0"
                },
                "up": {
                    "uv": [
                        2.875,
                        3,
                        2.875,
                        3.25
                    ],
                    "texture": "#0"
                },
                "down": {
                    "uv": [
                        2.875,
                        3,
                        2.875,
                        3.25
                    ],
                    "texture": "#0"
                }
            }
        },
        {
            "from": [
                7.74877,
                12.09892,
                8.168
            ],
            "to": [
                8.43677,
                12.21092,
                8.452
            ],
            "rotation": {
                "angle": 0,
                "axis": "y",
                "origin": [
                    8.07977,
                    11.76959,
                    9.638
                ]
            },
            "faces": {
                "north": {
                    "uv": [
                        2.875,
                        3,
                        2.875,
                        3.25
                    ],
                    "rotation": 270,
                    "texture": "#0"
                },
                "east": {
                    "uv": [
                        2.875,
                        3,
                        2.875,
                        3.25
                    ],
                    "rotation": 270,
                    "texture": "#0"
                },
                "south": {
                    "uv": [
                        2.875,
                        3,
                        2.875,
                        3.25
                    ],
                    "rotation": 270,
                    "texture": "#0"
                },
                "west": {
                    "uv": [
                        2.875,
                        3,
                        2.875,
                        3.25
                    ],
                    "rotation": 270,
                    "texture": "#0"
                },
                "up": {
                    "uv": [
                        2.875,
                        3,
                        2.875,
                        3.25
                    ],
                    "rotation": 270,
                    "texture": "#0"
                },
                "down": {
                    "uv": [
                        2.875,
                        3,
                        2.875,
                        3.25
                    ],
                    "rotation": 270,
                    "texture": "#0"
                }
            }
        },
        {
            "from": [
                7.74877,
                12.16292,
                9.704
            ],
            "to": [
                8.43677,
                12.30692,
                10.148
            ],
            "rotation": {
                "angle": 0,
                "axis": "y",
                "origin": [
                    8.07977,
                    11.83359,
                    11.334
                ]
            },
            "faces": {
                "north": {
                    "uv": [
                        2.875,
                        3,
                        2.875,
                        3.25
                    ],
                    "rotation": 270,
                    "texture": "#0"
                },
                "east": {
                    "uv": [
                        2.875,
                        3,
                        2.875,
                        3.25
                    ],
                    "rotation": 270,
                    "texture": "#0"
                },
                "south": {
                    "uv": [
                        2.875,
                        3,
                        2.875,
                        3.25
                    ],
                    "rotation": 270,
                    "texture": "#0"
                },
                "west": {
                    "uv": [
                        2.875,
                        3,
                        2.875,
                        3.25
                    ],
                    "rotation": 270,
                    "texture": "#0"
                },
                "up": {
                    "uv": [
                        2.875,
                        3,
                        2.875,
                        3.25
                    ],
                    "rotation": 270,
                    "texture": "#0"
                },
                "down": {
                    "uv": [
                        2.875,
                        3,
                        2.875,
                        3.25
                    ],
                    "rotation": 270,
                    "texture": "#0"
                }
            }
        },
        {
            "from": [
                7.74877,
                12.06648,
                9.25118
            ],
            "to": [
                8.43677,
                12.21048,
                9.82318
            ],
            "rotation": {
                "angle": 0,
                "axis": "y",
                "origin": [
                    8.07977,
                    11.73715,
                    10.65718
                ]
            },
            "faces": {
                "north": {
                    "uv": [
                        2.875,
                        3,
                        2.875,
                        3.25
                    ],
                    "rotation": 270,
                    "texture": "#0"
                },
                "east": {
                    "uv": [
                        2.875,
                        3,
                        2.875,
                        3.25
                    ],
                    "rotation": 270,
                    "texture": "#0"
                },
                "south": {
                    "uv": [
                        2.875,
                        3,
                        2.875,
                        3.25
                    ],
                    "rotation": 270,
                    "texture": "#0"
                },
                "west": {
                    "uv": [
                        2.875,
                        3,
                        2.875,
                        3.25
                    ],
                    "rotation": 270,
                    "texture": "#0"
                },
                "up": {
                    "uv": [
                        2.875,
                        3,
                        2.875,
                        3.25
                    ],
                    "rotation": 270,
                    "texture": "#0"
                },
                "down": {
                    "uv": [
                        2.875,
                        3,
                        2.875,
                        3.25
                    ],
                    "rotation": 270,
                    "texture": "#0"
                }
            }
        },
        {
            "from": [
                7.74877,
                12.65281,
                9.54286
            ],
            "to": [
                8.43677,
                12.79681,
                9.79486
            ],
            "rotation": {
                "angle": -22.5,
                "axis": "x",
                "origin": [
                    8.07977,
                    12.32348,
                    10.98086
                ]
            },
            "faces": {
                "north": {
                    "uv": [
                        2.875,
                        3,
                        2.875,
                        3.25
                    ],
                    "rotation": 270,
                    "texture": "#0"
                },
                "east": {
                    "uv": [
                        2.875,
                        3,
                        2.875,
                        3.25
                    ],
                    "rotation": 270,
                    "texture": "#0"
                },
                "south": {
                    "uv": [
                        2.875,
                        3,
                        2.875,
                        3.25
                    ],
                    "rotation": 270,
                    "texture": "#0"
                },
                "west": {
                    "uv": [
                        2.875,
                        3,
                        2.875,
                        3.25
                    ],
                    "rotation": 270,
                    "texture": "#0"
                },
                "up": {
                    "uv": [
                        2.875,
                        3,
                        2.875,
                        3.25
                    ],
                    "rotation": 270,
                    "texture": "#0"
                },
                "down": {
                    "uv": [
                        2.875,
                        3,
                        2.875,
                        3.25
                    ],
                    "rotation": 270,
                    "texture": "#0"
                }
            }
        },
        {
            "from": [
                7.81367,
                12.61222,
                8.168
            ],
            "to": [
                7.86167,
                12.85222,
                8.452
            ],
            "rotation": {
                "angle": -22.5,
                "axis": "z",
                "origin": [
                    7.85367,
                    13.02022,
                    8.31
                ]
            },
            "faces": {
                "north": {
                    "uv": [
                        2.875,
                        3,
                        2.875,
                        3.25
                    ],
                    "rotation": 180,
                    "texture": "#0"
                },
                "east": {
                    "uv": [
                        2.875,
                        3,
                        2.875,
                        3.25
                    ],
                    "texture": "#0"
                },
                "south": {
                    "uv": [
                        2.875,
                        3,
                        2.875,
                        3.25
                    ],
                    "texture": "#0"
                },
                "west": {
                    "uv": [
                        2.875,
                        3,
                        2.875,
                        3.25
                    ],
                    "texture": "#0"
                },
                "up": {
                    "uv": [
                        2.875,
                        3,
                        2.875,
                        3.25
                    ],
                    "texture": "#0"
                },
                "down": {
                    "uv": [
                        2.875,
                        3,
                        2.875,
                        3.25
                    ],
                    "texture": "#0"
                }
            }
        },
        {
            "from": [
                8.51588,
                12.23684,
                8.168
            ],
            "to": [
                8.56388,
                12.47684,
                8.452
            ],
            "rotation": {
                "angle": -22.5,
                "axis": "z",
                "origin": [
                    8.39937,
                    12.53858,
                    8.31
                ]
            },
            "faces": {
                "north": {
                    "uv": [
                        2.875,
                        3,
                        2.875,
                        3.25
                    ],
                    "texture": "#0"
                },
                "east": {
                    "uv": [
                        2.875,
                        3,
                        2.875,
                        3.25
                    ],
                    "rotation": 180,
                    "texture": "#0"
                },
                "south": {
                    "uv": [
                        2.875,
                        3,
                        2.875,
                        3.25
                    ],
                    "rotation": 180,
                    "texture": "#0"
                },
                "west": {
                    "uv": [
                        2.875,
                        3,
                        2.875,
                        3.25
                    ],
                    "rotation": 180,
                    "texture": "#0"
                },
                "up": {
                    "uv": [
                        2.875,
                        3,
                        2.875,
                        3.25
                    ],
                    "rotation": 180,
                    "texture": "#0"
                },
                "down": {
                    "uv": [
                        2.875,
                        3,
                        2.875,
                        3.25
                    ],
                    "rotation": 180,
                    "texture": "#0"
                }
            }
        },
        {
            "from": [
                7.66689,
                12.2103,
                8.168
            ],
            "to": [
                7.71489,
                12.4503,
                8.452
            ],
            "rotation": {
                "angle": 22.5,
                "axis": "z",
                "origin": [
                    7.74346,
                    12.41858,
                    8.31
                ]
            },
            "faces": {
                "north": {
                    "uv": [
                        2.875,
                        3,
                        2.875,
                        3.25
                    ],
                    "rotation": 180,
                    "texture": "#0"
                },
                "east": {
                    "uv": [
                        2.875,
                        3,
                        2.875,
                        3.25
                    ],
                    "texture": "#0"
                },
                "south": {
                    "uv": [
                        2.875,
                        3,
                        2.875,
                        3.25
                    ],
                    "texture": "#0"
                },
                "west": {
                    "uv": [
                        2.875,
                        3,
                        2.875,
                        3.25
                    ],
                    "texture": "#0"
                },
                "up": {
                    "uv": [
                        2.875,
                        3,
                        2.875,
                        3.25
                    ],
                    "texture": "#0"
                },
                "down": {
                    "uv": [
                        2.875,
                        3,
                        2.875,
                        3.25
                    ],
                    "texture": "#0"
                }
            }
        },
        {
            "from": [
                8.51588,
                12.60033,
                8.168
            ],
            "to": [
                8.56388,
                12.84033,
                8.452
            ],
            "rotation": {
                "angle": 22.5,
                "axis": "z",
                "origin": [
                    8.39937,
                    12.53858,
                    8.31
                ]
            },
            "faces": {
                "north": {
                    "uv": [
                        2.875,
                        3,
                        2.875,
                        3.25
                    ],
                    "texture": "#0"
                },
                "east": {
                    "uv": [
                        2.875,
                        3,
                        2.875,
                        3.25
                    ],
                    "rotation": 180,
                    "texture": "#0"
                },
                "south": {
                    "uv": [
                        2.875,
                        3,
                        2.875,
                        3.25
                    ],
                    "rotation": 180,
                    "texture": "#0"
                },
                "west": {
                    "uv": [
                        2.875,
                        3,
                        2.875,
                        3.25
                    ],
                    "rotation": 180,
                    "texture": "#0"
                },
                "up": {
                    "uv": [
                        2.875,
                        3,
                        2.875,
                        3.25
                    ],
                    "rotation": 180,
                    "texture": "#0"
                },
                "down": {
                    "uv": [
                        2.875,
                        3,
                        2.875,
                        3.25
                    ],
                    "rotation": 180,
                    "texture": "#0"
                }
            }
        },
        {
            "from": [
                7.78077,
                11.90692,
                8.104
            ],
            "to": [
                8.40477,
                12.09892,
                10.116
            ],
            "rotation": {
                "angle": 0,
                "axis": "y",
                "origin": [
                    8.07977,
                    12.24959,
                    9.574
                ]
            },
            "faces": {
                "north": {
                    "uv": [
                        1.625,
                        0.875,
                        1.625,
                        0.875
                    ],
                    "rotation": 270,
                    "texture": "#0"
                },
                "east": {
                    "uv": [
                        1.625,
                        0.875,
                        1.625,
                        0.875
                    ],
                    "rotation": 270,
                    "texture": "#0"
                },
                "south": {
                    "uv": [
                        1.625,
                        0.875,
                        1.625,
                        0.875
                    ],
                    "rotation": 270,
                    "texture": "#0"
                },
                "west": {
                    "uv": [
                        1.625,
                        0.875,
                        1.625,
                        0.875
                    ],
                    "rotation": 270,
                    "texture": "#0"
                },
                "up": {
                    "uv": [
                        1.625,
                        0.875,
                        1.625,
                        0.875
                    ],
                    "rotation": 270,
                    "texture": "#0"
                },
                "down": {
                    "uv": [
                        1.625,
                        0.875,
                        1.625,
                        0.875
                    ],
                    "rotation": 270,
                    "texture": "#0"
                }
            }
        }
    ],
    "display": {
        "thirdperson_righthand": {
            "translation": [
                -0.75,
                -1,
                -1.25
            ],
            "scale": [
                1.2,
                1.2,
                1.1
            ]
        },
        "thirdperson_lefthand": {
            "translation": [
                -0.75,
                -1,
                -1.25
            ],
            "scale": [
                1.2,
                1.2,
                1.1
            ]
        },
        "firstperson_righthand": {
            "rotation": [
                -5.25,
                0,
                0
            ],
            "translation": [
                -2.75,
                1,
                -1.25
            ],
            "scale": [
                1.2,
                1.2,
                1.1
            ]
        },
        "firstperson_lefthand": {
            "rotation": [
                -5.25,
                0,
                0
            ],
            "translation": [
                -2.75,
                1,
                -1.25
            ],
            "scale": [
                1.2,
                1.2,
                1.1
            ]
        },
        "gui": {
            "rotation": [
                18,
                28,
                5
            ],
            "translation": [
                2.75,
                -1.5,
                0
            ]
        },
        "fixed": {
            "rotation": [
                -90,
                -180,
                -180
            ],
            "translation": [
                0,
                2,
                -5.5
            ],
            "scale": [
                1.4,
                1.4,
                1.4
            ]
        }
    }
}