{
    "textures": {
        "0": "gci:items/common/mpz",
        "1": "gci:items/common/all_in_one",
        "particle": "gci:items/common/mpz"
    },
    "elements": [
        {
            "from": [
                7.66161,
                5.76646,
                12.86929
            ],
            "to": [
                8.31161,
                7.26646,
                16.36929
            ],
            "rotation": {
                "angle": 0,
                "axis": "y",
                "origin": [
                    7.66161,
                    6.06646,
                    15.46929
                ]
            },
            "faces": {
                "north": {
                    "uv": [
                        0.66667,
                        14.33333,
                        2,
                        14.66667
                    ],
                    "texture": "#0"
                },
                "east": {
                    "uv": [
                        0.66667,
                        14.33333,
                        2,
                        14.66667
                    ],
                    "texture": "#0"
                },
                "south": {
                    "uv": [
                        0.66667,
                        14.33333,
                        2,
                        14.66667
                    ],
                    "texture": "#0"
                },
                "west": {
                    "uv": [
                        0.66667,
                        14.33333,
                        2,
                        14.66667
                    ],
                    "texture": "#0"
                },
                "up": {
                    "uv": [
                        0.66667,
                        14.33333,
                        2,
                        14.66667
                    ],
                    "texture": "#0"
                },
                "down": {
                    "uv": [
                        0.66667,
                        14.33333,
                        2,
                        14.66667
                    ],
                    "texture": "#0"
                }
            }
        },
        {
            "from": [
                7.66161,
                6.26646,
                11.86929
            ],
            "to": [
                8.31161,
                7.26646,
                12.86929
            ],
            "rotation": {
                "angle": 0,
                "axis": "y",
                "origin": [
                    7.66161,
                    6.06646,
                    13.46929
                ]
            },
            "faces": {
                "north": {
                    "uv": [
                        0.66667,
                        14.33333,
                        2,
                        14.66667
                    ],
                    "texture": "#0"
                },
                "east": {
                    "uv": [
                        0.66667,
                        14.33333,
                        2,
                        14.66667
                    ],
                    "texture": "#0"
                },
                "south": {
                    "uv": [
                        0.66667,
                        14.33333,
                        2,
                        14.66667
                    ],
                    "texture": "#0"
                },
                "west": {
                    "uv": [
                        0.66667,
                        14.33333,
                        2,
                        14.66667
                    ],
                    "texture": "#0"
                },
                "up": {
                    "uv": [
                        0.66667,
                        14.33333,
                        2,
                        14.66667
                    ],
                    "texture": "#0"
                },
                "down": {
                    "uv": [
                        0.66667,
                        14.33333,
                        2,
                        14.66667
                    ],
                    "texture": "#0"
                }
            }
        },
        {
            "from": [
                7.66161,
                6.76646,
                10.86929
            ],
            "to": [
                8.31161,
                7.26646,
                11.86929
            ],
            "rotation": {
                "angle": 0,
                "axis": "y",
                "origin": [
                    7.66161,
                    6.06646,
                    12.46929
                ]
            },
            "faces": {
                "north": {
                    "uv": [
                        0.66667,
                        14.33333,
                        2,
                        14.66667
                    ],
                    "texture": "#0"
                },
                "east": {
                    "uv": [
                        0.66667,
                        14.33333,
                        2,
                        14.66667
                    ],
                    "texture": "#0"
                },
                "south": {
                    "uv": [
                        0.66667,
                        14.33333,
                        2,
                        14.66667
                    ],
                    "texture": "#0"
                },
                "west": {
                    "uv": [
                        0.66667,
                        14.33333,
                        2,
                        14.66667
                    ],
                    "texture": "#0"
                },
                "up": {
                    "uv": [
                        0.66667,
                        14.33333,
                        2,
                        14.66667
                    ],
                    "texture": "#0"
                },
                "down": {
                    "uv": [
                        0.66667,
                        14.33333,
                        2,
                        14.66667
                    ],
                    "texture": "#0"
                }
            }
        },
        {
            "from": [
                7.66161,
                6.00587,
                10.05916
            ],
            "to": [
                8.31161,
                6.50587,
                12.9115
            ],
            "rotation": {
                "angle": 20,
                "axis": "x",
                "origin": [
                    7.66161,
                    6.00587,
                    12.2115
                ]
            },
            "faces": {
                "north": {
                    "uv": [
                        0.66667,
                        14.33333,
                        2,
                        14.66667
                    ],
                    "texture": "#0"
                },
                "east": {
                    "uv": [
                        0.66667,
                        14.33333,
                        2,
                        14.66667
                    ],
                    "texture": "#0"
                },
                "south": {
                    "uv": [
                        0.66667,
                        14.33333,
                        2,
                        14.66667
                    ],
                    "texture": "#0"
                },
                "west": {
                    "uv": [
                        0.66667,
                        14.33333,
                        2,
                        14.66667
                    ],
                    "texture": "#0"
                },
                "up": {
                    "uv": [
                        0.66667,
                        14.33333,
                        2,
                        14.66667
                    ],
                    "texture": "#0"
                },
                "down": {
                    "uv": [
                        0.66667,
                        14.33333,
                        2,
                        14.66667
                    ],
                    "texture": "#0"
                }
            }
        },
        {
            "from": [
                7.66161,
                6.09892,
                9.82571
            ],
            "to": [
                8.31161,
                6.69892,
                11.71371
            ],
            "rotation": {
                "angle": 30,
                "axis": "x",
                "origin": [
                    7.66161,
                    6.19892,
                    11.91371
                ]
            },
            "faces": {
                "north": {
                    "uv": [
                        0.66667,
                        14.33333,
                        2,
                        14.66667
                    ],
                    "texture": "#0"
                },
                "east": {
                    "uv": [
                        0.66667,
                        14.33333,
                        2,
                        14.66667
                    ],
                    "texture": "#0"
                },
                "south": {
                    "uv": [
                        0.66667,
                        14.33333,
                        2,
                        14.66667
                    ],
                    "texture": "#0"
                },
                "west": {
                    "uv": [
                        0.66667,
                        14.33333,
                        2,
                        14.66667
                    ],
                    "texture": "#0"
                },
                "up": {
                    "uv": [
                        0.66667,
                        14.33333,
                        2,
                        14.66667
                    ],
                    "texture": "#0"
                },
                "down": {
                    "uv": [
                        0.66667,
                        14.33333,
                        2,
                        14.66667
                    ],
                    "texture": "#0"
                }
            }
        },
        {
            "from": [
                7.76767,
                7.22253,
                10.86929
            ],
            "to": [
                8.20367,
                7.37253,
                16.56929
            ],
            "rotation": {
                "angle": 0,
                "axis": "y",
                "origin": [
                    7.84267,
                    7.29753,
                    16.46929
                ]
            },
            "faces": {
                "north": {
                    "uv": [
                        6.33333,
                        1,
                        6.66667,
                        1.66667
                    ],
                    "rotation": 180,
                    "texture": "#0"
                },
                "east": {
                    "uv": [
                        6.33333,
                        1,
                        6.66667,
                        1.66667
                    ],
                    "rotation": 180,
                    "texture": "#0"
                },
                "south": {
                    "uv": [
                        6.33333,
                        1,
                        6.66667,
                        1.66667
                    ],
                    "rotation": 180,
                    "texture": "#0"
                },
                "west": {
                    "uv": [
                        6.33333,
                        1,
                        6.66667,
                        1.66667
                    ],
                    "rotation": 180,
                    "texture": "#0"
                },
                "up": {
                    "uv": [
                        6.33333,
                        1,
                        6.66667,
                        1.66667
                    ],
                    "rotation": 180,
                    "texture": "#0"
                },
                "down": {
                    "uv": [
                        6.33333,
                        1,
                        6.66667,
                        1.66667
                    ],
                    "rotation": 180,
                    "texture": "#0"
                }
            }
        },
        {
            "from": [
                7.69267,
                7.19146,
                10.86929
            ],
            "to": [
                7.84267,
                7.34146,
                16.56929
            ],
            "rotation": {
                "angle": 45,
                "axis": "z",
                "origin": [
                    7.76767,
                    7.26646,
                    16.46929
                ]
            },
            "faces": {
                "north": {
                    "uv": [
                        6.33333,
                        1,
                        6.66667,
                        1.66667
                    ],
                    "texture": "#0"
                },
                "east": {
                    "uv": [
                        6.33333,
                        1,
                        6.66667,
                        1.66667
                    ],
                    "texture": "#0"
                },
                "south": {
                    "uv": [
                        6.33333,
                        1,
                        6.66667,
                        1.66667
                    ],
                    "texture": "#0"
                },
                "west": {
                    "uv": [
                        6.33333,
                        1,
                        6.66667,
                        1.66667
                    ],
                    "texture": "#0"
                },
                "up": {
                    "uv": [
                        6.33333,
                        1,
                        6.66667,
                        1.66667
                    ],
                    "texture": "#0"
                },
                "down": {
                    "uv": [
                        6.33333,
                        1,
                        6.66667,
                        1.66667
                    ],
                    "texture": "#0"
                }
            }
        },
        {
            "from": [
                7.66161,
                5.76646,
                16.36929
            ],
            "to": [
                8.31161,
                7.26646,
                16.56929
            ],
            "rotation": {
                "angle": 0,
                "axis": "y",
                "origin": [
                    7.46661,
                    6.06646,
                    18.96929
                ]
            },
            "faces": {
                "north": {
                    "uv": [
                        6.33333,
                        1,
                        6.66667,
                        1.66667
                    ],
                    "texture": "#0"
                },
                "east": {
                    "uv": [
                        6.33333,
                        1,
                        6.66667,
                        1.66667
                    ],
                    "texture": "#0"
                },
                "south": {
                    "uv": [
                        6.33333,
                        1,
                        6.66667,
                        1.66667
                    ],
                    "texture": "#0"
                },
                "west": {
                    "uv": [
                        6.33333,
                        1,
                        6.66667,
                        1.66667
                    ],
                    "texture": "#0"
                },
                "up": {
                    "uv": [
                        6.33333,
                        1,
                        6.66667,
                        1.66667
                    ],
                    "texture": "#0"
                },
                "down": {
                    "uv": [
                        6.33333,
                        1,
                        6.66667,
                        1.66667
                    ],
                    "texture": "#0"
                }
            }
        },
        {
            "from": [
                8.13054,
                7.19146,
                10.86929
            ],
            "to": [
                8.28054,
                7.34146,
                16.56929
            ],
            "rotation": {
                "angle": 45,
                "axis": "z",
                "origin": [
                    8.20554,
                    7.26646,
                    16.46929
                ]
            },
            "faces": {
                "north": {
                    "uv": [
                        6.33333,
                        1,
                        6.66667,
                        1.66667
                    ],
                    "rotation": 270,
                    "texture": "#0"
                },
                "east": {
                    "uv": [
                        6.33333,
                        1,
                        6.66667,
                        1.66667
                    ],
                    "rotation": 270,
                    "texture": "#0"
                },
                "south": {
                    "uv": [
                        6.33333,
                        1,
                        6.66667,
                        1.66667
                    ],
                    "rotation": 270,
                    "texture": "#0"
                },
                "west": {
                    "uv": [
                        6.33333,
                        1,
                        6.66667,
                        1.66667
                    ],
                    "rotation": 270,
                    "texture": "#0"
                },
                "up": {
                    "uv": [
                        6.33333,
                        1,
                        6.66667,
                        1.66667
                    ],
                    "rotation": 270,
                    "texture": "#0"
                },
                "down": {
                    "uv": [
                        6.33333,
                        1,
                        6.66667,
                        1.66667
                    ],
                    "rotation": 270,
                    "texture": "#0"
                }
            }
        }
    ],
    "display": {
        "thirdperson_righthand": {
            "translation": [
                -0.75,
                0.75,
                -1
            ]
        },
        "thirdperson_lefthand": {
            "translation": [
                -0.75,
                0.75,
                -1
            ]
        },
        "firstperson_righthand": {
            "translation": [
                -4.5,
                6,
                4.25
            ]
        },
        "firstperson_lefthand": {
            "translation": [
                -4.5,
                6,
                4.25
            ]
        },
        "ground": {
            "translation": [
                -0.5,
                5,
                6.25
            ]
        },
        "gui": {
            "rotation": [
                29,
                41,
                -29
            ],
            "translation": [
                2,
                0.5,
                0
            ]
        },
        "head": {
            "translation": [
                0,
                8.25,
                0
            ]
        },
        "fixed": {
            "rotation": [
                90,
                45,
                -90
            ],
            "translation": [
                3.5,
                -1.25,
                -1.5
            ],
            "scale": [
                1.32,
                1.32,
                1.32
            ]
        }
    }
}