{
	"credit": "Made with Blockbench",
	"textures": {
		"0": "gci:items/common/all_in_one",
		"particle": "gci:items/common/all_in_one"
	},
	"elements": [
		{
			"from": [2.5, 0, 3],
			"to": [13.5, 1, 4],
			"rotation": {"angle": 0, "axis": "y", "origin": [20.5, 8, 11]},
			"faces": {
				"north": {"uv": [14.25, 6.375, 14.5, 6.625], "texture": "#0"},
				"east": {"uv": [14.25, 6.375, 14.5, 6.625], "texture": "#0"},
				"south": {"uv": [14.25, 6.375, 14.5, 6.625], "texture": "#0"},
				"west": {"uv": [14.25, 6.375, 14.5, 6.625], "texture": "#0"},
				"up": {"uv": [14.25, 6.375, 14.5, 6.625], "texture": "#0"},
				"down": {"uv": [14.25, 6.375, 14.5, 6.625], "texture": "#0"}
			}
		},
		{
			"from": [1.5, 10, 3],
			"to": [14.5, 12, 4],
			"rotation": {"angle": 0, "axis": "y", "origin": [20.5, 3, 11]},
			"faces": {
				"north": {"uv": [14.25, 6.375, 14.5, 6.625], "texture": "#0"},
				"east": {"uv": [14.25, 6.375, 14.5, 6.625], "texture": "#0"},
				"south": {"uv": [14.25, 6.375, 14.5, 6.625], "texture": "#0"},
				"west": {"uv": [14.25, 6.375, 14.5, 6.625], "texture": "#0"},
				"up": {"uv": [14.25, 6.375, 14.5, 6.625], "texture": "#0"},
				"down": {"uv": [14.25, 6.375, 14.5, 6.625], "texture": "#0"}
			}
		},
		{
			"from": [3.5, 12, 3],
			"to": [12.5, 16, 4],
			"rotation": {"angle": 0, "axis": "y", "origin": [20.5, 3, 11]},
			"faces": {
				"north": {"uv": [14.25, 6.375, 14.5, 6.625], "texture": "#0"},
				"east": {"uv": [14.25, 6.375, 14.5, 6.625], "texture": "#0"},
				"south": {"uv": [14.25, 6.375, 14.5, 6.625], "texture": "#0"},
				"west": {"uv": [14.25, 6.375, 14.5, 6.625], "texture": "#0"},
				"up": {"uv": [14.25, 6.375, 14.5, 6.625], "texture": "#0"},
				"down": {"uv": [14.25, 6.375, 14.5, 6.625], "texture": "#0"}
			}
		},
		{
			"from": [19.18198, 14.63984, 3],
			"to": [20.18198, 16.03984, 4],
			"rotation": {"angle": 45, "axis": "z", "origin": [14.68198, 6.03984, 3.5]},
			"faces": {
				"north": {"uv": [14.25, 6.375, 14.5, 6.625], "texture": "#0"},
				"east": {"uv": [14.25, 6.375, 14.5, 6.625], "texture": "#0"},
				"south": {"uv": [14.25, 6.375, 14.5, 6.625], "texture": "#0"},
				"west": {"uv": [14.25, 6.375, 14.5, 6.625], "texture": "#0"},
				"up": {"uv": [14.25, 6.375, 14.5, 6.625], "texture": "#0"},
				"down": {"uv": [14.25, 6.375, 14.5, 6.625], "texture": "#0"}
			}
		},
		{
			"from": [9.89914, -0.6631, 3],
			"to": [10.89914, 0.7369, 4],
			"rotation": {"angle": 45, "axis": "z", "origin": [5.39914, -9.2631, 3.5]},
			"faces": {
				"north": {"uv": [14.25, 6.375, 14.5, 6.625], "texture": "#0"},
				"east": {"uv": [14.25, 6.375, 14.5, 6.625], "texture": "#0"},
				"south": {"uv": [14.25, 6.375, 14.5, 6.625], "texture": "#0"},
				"west": {"uv": [14.25, 6.375, 14.5, 6.625], "texture": "#0"},
				"up": {"uv": [14.25, 6.375, 14.5, 6.625], "texture": "#0"},
				"down": {"uv": [14.25, 6.375, 14.5, 6.625], "texture": "#0"}
			}
		},
		{
			"from": [-4.18198, 14.63984, 3],
			"to": [-3.18198, 16.03984, 4],
			"rotation": {"angle": -45, "axis": "z", "origin": [1.31802, 6.03984, 3.5]},
			"faces": {
				"north": {"uv": [14.25, 6.375, 14.5, 6.625], "texture": "#0"},
				"east": {"uv": [14.25, 6.375, 14.5, 6.625], "texture": "#0"},
				"south": {"uv": [14.25, 6.375, 14.5, 6.625], "texture": "#0"},
				"west": {"uv": [14.25, 6.375, 14.5, 6.625], "texture": "#0"},
				"up": {"uv": [14.25, 6.375, 14.5, 6.625], "texture": "#0"},
				"down": {"uv": [14.25, 6.375, 14.5, 6.625], "texture": "#0"}
			}
		},
		{
			"from": [5.10086, -0.6631, 3],
			"to": [6.10086, 0.7369, 4],
			"rotation": {"angle": -45, "axis": "z", "origin": [10.60086, -9.2631, 3.5]},
			"faces": {
				"north": {"uv": [14.25, 6.375, 14.5, 6.625], "texture": "#0"},
				"east": {"uv": [14.25, 6.375, 14.5, 6.625], "texture": "#0"},
				"south": {"uv": [14.25, 6.375, 14.5, 6.625], "texture": "#0"},
				"west": {"uv": [14.25, 6.375, 14.5, 6.625], "texture": "#0"},
				"up": {"uv": [14.25, 6.375, 14.5, 6.625], "texture": "#0"},
				"down": {"uv": [14.25, 6.375, 14.5, 6.625], "texture": "#0"}
			}
		},
		{
			"from": [1.5, 1, 3],
			"to": [14.5, 10, 4],
			"rotation": {"angle": 0, "axis": "y", "origin": [20.5, 9, 11]},
			"faces": {
				"north": {"uv": [14.25, 6.375, 14.5, 6.625], "texture": "#0"},
				"east": {"uv": [14.25, 6.375, 14.5, 6.625], "texture": "#0"},
				"south": {"uv": [14.25, 6.375, 14.5, 6.625], "texture": "#0"},
				"west": {"uv": [14.25, 6.375, 14.5, 6.625], "texture": "#0"},
				"up": {"uv": [14.25, 6.375, 14.5, 6.625], "texture": "#0"},
				"down": {"uv": [14.25, 6.375, 14.5, 6.625], "texture": "#0"}
			}
		},
		{
			"from": [4.5, 16, 3],
			"to": [11.5, 17, 4],
			"rotation": {"angle": 0, "axis": "y", "origin": [20.5, 24, 11]},
			"faces": {
				"north": {"uv": [14.25, 6.375, 14.5, 6.625], "texture": "#0"},
				"east": {"uv": [14.25, 6.375, 14.5, 6.625], "texture": "#0"},
				"south": {"uv": [14.25, 6.375, 14.5, 6.625], "texture": "#0"},
				"west": {"uv": [14.25, 6.375, 14.5, 6.625], "texture": "#0"},
				"up": {"uv": [14.25, 6.375, 14.5, 6.625], "texture": "#0"},
				"down": {"uv": [14.25, 6.375, 14.5, 6.625], "texture": "#0"}
			}
		},
		{
			"from": [7.5, 5.9, 4],
			"to": [8.5, 9.9, 4.5],
			"rotation": {"angle": 0, "axis": "y", "origin": [20.5, 5.9, 11]},
			"faces": {
				"north": {"uv": [2.875, 3.375, 3, 3.5], "texture": "#0"},
				"east": {"uv": [2.875, 3.375, 3, 3.5], "texture": "#0"},
				"south": {"uv": [2.875, 3.375, 3, 3.5], "texture": "#0"},
				"west": {"uv": [2.875, 3.375, 3, 3.5], "texture": "#0"},
				"up": {"uv": [2.875, 3.375, 3, 3.5], "texture": "#0"},
				"down": {"uv": [2.875, 3.375, 3, 3.5], "texture": "#0"}
			}
		},
		{
			"from": [7.5, 9.9, 4],
			"to": [8.5, 10.6, 9.2],
			"rotation": {"angle": 0, "axis": "y", "origin": [8, 10.15, 6]},
			"faces": {
				"north": {"uv": [2.875, 3.375, 3, 3.5], "texture": "#0"},
				"east": {"uv": [2.875, 3.375, 3, 3.5], "texture": "#0"},
				"south": {"uv": [2.875, 3.375, 3, 3.5], "texture": "#0"},
				"west": {"uv": [2.875, 3.375, 3, 3.5], "rotation": 270, "texture": "#0"},
				"up": {"uv": [2.875, 3.375, 3, 3.5], "texture": "#0"},
				"down": {"uv": [2.875, 3.375, 3, 3.5], "texture": "#0"}
			}
		},
		{
			"from": [7.5, 5.2, 4],
			"to": [8.5, 5.9, 9.2],
			"rotation": {"angle": 0, "axis": "y", "origin": [8, 6.775, 6.875]},
			"faces": {
				"north": {"uv": [2.875, 3.375, 3, 3.5], "texture": "#0"},
				"east": {"uv": [2.875, 3.375, 3, 3.5], "texture": "#0"},
				"south": {"uv": [2.875, 3.375, 3, 3.5], "texture": "#0"},
				"west": {"uv": [2.875, 3.375, 3, 3.5], "rotation": 90, "texture": "#0"},
				"up": {"uv": [2.875, 3.375, 3, 3.5], "texture": "#0"},
				"down": {"uv": [2.875, 3.375, 3, 3.5], "texture": "#0"}
			}
		},
		{
			"from": [7.5, 5.9, 8.5],
			"to": [8.5, 9.9, 9.2],
			"rotation": {"angle": 0, "axis": "y", "origin": [8, 6.775, 7.875]},
			"faces": {
				"north": {"uv": [2.875, 3.375, 3, 3.5], "texture": "#0"},
				"east": {"uv": [2.875, 3.375, 3, 3.5], "texture": "#0"},
				"south": {"uv": [2.875, 3.375, 3, 3.5], "texture": "#0"},
				"west": {"uv": [2.875, 3.375, 3, 3.5], "rotation": 180, "texture": "#0"},
				"up": {"uv": [2.875, 3.375, 3, 3.5], "texture": "#0"},
				"down": {"uv": [2.875, 3.375, 3, 3.5], "texture": "#0"}
			}
		},
		{
			"from": [19.68198, 14.63984, 2.8001],
			"to": [20.18198, 16.03984, 3.0001],
			"rotation": {"angle": 45, "axis": "z", "origin": [14.68198, 6.03984, 3.5]},
			"faces": {
				"north": {"uv": [3.75, 9.625, 3.875, 9.775], "texture": "#0"},
				"east": {"uv": [3.75, 9.625, 3.875, 9.775], "texture": "#0"},
				"south": {"uv": [3.75, 9.625, 3.875, 9.775], "texture": "#0"},
				"west": {"uv": [3.75, 9.625, 3.875, 9.775], "texture": "#0"},
				"up": {"uv": [3.75, 9.625, 3.875, 9.775], "texture": "#0"},
				"down": {"uv": [3.75, 9.625, 3.875, 9.775], "texture": "#0"}
			}
		},
		{
			"from": [-4.18198, 14.63984, 2.8001],
			"to": [-3.68198, 16.03984, 3.0001],
			"rotation": {"angle": -45, "axis": "z", "origin": [1.31802, 6.03984, 3.5]},
			"faces": {
				"north": {"uv": [3.75, 9.625, 3.875, 9.775], "texture": "#0"},
				"east": {"uv": [3.75, 9.625, 3.875, 9.775], "texture": "#0"},
				"south": {"uv": [3.75, 9.625, 3.875, 9.775], "texture": "#0"},
				"west": {"uv": [3.75, 9.625, 3.875, 9.775], "texture": "#0"},
				"up": {"uv": [3.75, 9.625, 3.875, 9.775], "texture": "#0"},
				"down": {"uv": [3.75, 9.625, 3.875, 9.775], "texture": "#0"}
			}
		},
		{
			"from": [9.89914, -0.6631, 2.8001],
			"to": [10.39914, 0.7369, 3.0001],
			"rotation": {"angle": 45, "axis": "z", "origin": [5.39914, -9.2631, 3.5]},
			"faces": {
				"north": {"uv": [3.75, 9.625, 3.875, 9.775], "texture": "#0"},
				"east": {"uv": [3.75, 9.625, 3.875, 9.775], "texture": "#0"},
				"south": {"uv": [3.75, 9.625, 3.875, 9.775], "texture": "#0"},
				"west": {"uv": [3.75, 9.625, 3.875, 9.775], "texture": "#0"},
				"up": {"uv": [3.75, 9.625, 3.875, 9.775], "texture": "#0"},
				"down": {"uv": [3.75, 9.625, 3.875, 9.775], "texture": "#0"}
			}
		},
		{
			"from": [5.60086, -0.6631, 2.8001],
			"to": [6.10086, 0.7369, 3.0001],
			"rotation": {"angle": -45, "axis": "z", "origin": [10.60086, -9.2631, 3.5]},
			"faces": {
				"north": {"uv": [3.75, 9.625, 3.875, 9.775], "texture": "#0"},
				"east": {"uv": [3.75, 9.625, 3.875, 9.775], "texture": "#0"},
				"south": {"uv": [3.75, 9.625, 3.875, 9.775], "texture": "#0"},
				"west": {"uv": [3.75, 9.625, 3.875, 9.775], "texture": "#0"},
				"up": {"uv": [3.75, 9.625, 3.875, 9.775], "texture": "#0"},
				"down": {"uv": [3.75, 9.625, 3.875, 9.775], "texture": "#0"}
			}
		},
		{
			"from": [4.5, 16.5, 2.8],
			"to": [11.5, 17, 3],
			"rotation": {"angle": 0, "axis": "y", "origin": [20.5, 24, 10]},
			"faces": {
				"north": {"uv": [3.75, 9.625, 3.875, 9.775], "texture": "#0"},
				"east": {"uv": [3.75, 9.625, 3.875, 9.775], "texture": "#0"},
				"south": {"uv": [3.75, 9.625, 3.875, 9.775], "texture": "#0"},
				"west": {"uv": [3.75, 9.625, 3.875, 9.775], "texture": "#0"},
				"up": {"uv": [3.75, 9.625, 3.875, 9.775], "texture": "#0"},
				"down": {"uv": [3.75, 9.625, 3.875, 9.775], "texture": "#0"}
			}
		},
		{
			"from": [2.5, 0, 2.8],
			"to": [13.5, 0.5, 3],
			"rotation": {"angle": 0, "axis": "y", "origin": [20.5, 8, 10]},
			"faces": {
				"north": {"uv": [3.75, 9.625, 3.875, 9.775], "texture": "#0"},
				"east": {"uv": [3.75, 9.625, 3.875, 9.775], "texture": "#0"},
				"south": {"uv": [3.75, 9.625, 3.875, 9.775], "texture": "#0"},
				"west": {"uv": [3.75, 9.625, 3.875, 9.775], "texture": "#0"},
				"up": {"uv": [3.75, 9.625, 3.875, 9.775], "texture": "#0"},
				"down": {"uv": [3.75, 9.625, 3.875, 9.775], "texture": "#0"}
			}
		},
		{
			"from": [1.51005, 1.01005, 2.8],
			"to": [2.01005, 12.01005, 3],
			"rotation": {"angle": 0, "axis": "y", "origin": [20.51005, 1.01005, 11]},
			"faces": {
				"north": {"uv": [3.75, 9.625, 3.875, 9.775], "texture": "#0"},
				"east": {"uv": [3.75, 9.625, 3.875, 9.775], "texture": "#0"},
				"south": {"uv": [3.75, 9.625, 3.875, 9.775], "texture": "#0"},
				"west": {"uv": [3.75, 9.625, 3.875, 9.775], "texture": "#0"},
				"up": {"uv": [3.75, 9.625, 3.875, 9.775], "texture": "#0"},
				"down": {"uv": [3.75, 9.625, 3.875, 9.775], "texture": "#0"}
			}
		},
		{
			"from": [13.98995, 1.01005, 2.8],
			"to": [14.48995, 12.01005, 3],
			"rotation": {"angle": 0, "axis": "y", "origin": [-4.51005, 1.01005, 11]},
			"faces": {
				"north": {"uv": [3.75, 9.625, 3.875, 9.775], "texture": "#0"},
				"east": {"uv": [3.75, 9.625, 3.875, 9.775], "texture": "#0"},
				"south": {"uv": [3.75, 9.625, 3.875, 9.775], "texture": "#0"},
				"west": {"uv": [3.75, 9.625, 3.875, 9.775], "texture": "#0"},
				"up": {"uv": [3.75, 9.625, 3.875, 9.775], "texture": "#0"},
				"down": {"uv": [3.75, 9.625, 3.875, 9.775], "texture": "#0"}
			}
		},
		{
			"from": [11.98995, 11.51005, 4.0001],
			"to": [14.48995, 12.01005, 4.2001],
			"rotation": {"angle": 0, "axis": "y", "origin": [8.78995, 11.76005, 4.1]},
			"faces": {
				"north": {"uv": [3.75, 9.625, 3.875, 9.775], "rotation": 270, "texture": "#0"},
				"east": {"uv": [3.75, 9.625, 3.875, 9.775], "texture": "#0"},
				"south": {"uv": [3.75, 9.625, 3.875, 9.775], "texture": "#0"},
				"west": {"uv": [3.75, 9.625, 3.875, 9.775], "texture": "#0"},
				"up": {"uv": [3.75, 9.625, 3.875, 9.775], "texture": "#0"},
				"down": {"uv": [3.75, 9.625, 3.875, 9.775], "texture": "#0"}
			}
		},
		{
			"from": [11.98995, 11.51005, 4],
			"to": [12.48995, 16.01005, 4.2],
			"rotation": {"angle": 0, "axis": "y", "origin": [-6.51005, 4.01005, 12.2]},
			"faces": {
				"north": {"uv": [3.75, 9.625, 3.875, 9.775], "texture": "#0"},
				"east": {"uv": [3.75, 9.625, 3.875, 9.775], "texture": "#0"},
				"south": {"uv": [3.75, 9.625, 3.875, 9.775], "texture": "#0"},
				"west": {"uv": [3.75, 9.625, 3.875, 9.775], "texture": "#0"},
				"up": {"uv": [3.75, 9.625, 3.875, 9.775], "texture": "#0"},
				"down": {"uv": [3.75, 9.625, 3.875, 9.775], "texture": "#0"}
			}
		},
		{
			"from": [19.68198, 14.63984, 4.0001],
			"to": [20.18198, 16.03984, 4.2001],
			"rotation": {"angle": 45, "axis": "z", "origin": [14.68198, 6.03984, 4.7]},
			"faces": {
				"north": {"uv": [3.75, 9.625, 3.875, 9.775], "texture": "#0"},
				"east": {"uv": [3.75, 9.625, 3.875, 9.775], "texture": "#0"},
				"south": {"uv": [3.75, 9.625, 3.875, 9.775], "texture": "#0"},
				"west": {"uv": [3.75, 9.625, 3.875, 9.775], "texture": "#0"},
				"up": {"uv": [3.75, 9.625, 3.875, 9.775], "texture": "#0"},
				"down": {"uv": [3.75, 9.625, 3.875, 9.775], "texture": "#0"}
			}
		},
		{
			"from": [4.5, 16.5, 4],
			"to": [11.5, 17, 4.2],
			"rotation": {"angle": 0, "axis": "y", "origin": [20.5, 24, 11.2]},
			"faces": {
				"north": {"uv": [3.75, 9.625, 3.875, 9.775], "texture": "#0"},
				"east": {"uv": [3.75, 9.625, 3.875, 9.775], "texture": "#0"},
				"south": {"uv": [3.75, 9.625, 3.875, 9.775], "texture": "#0"},
				"west": {"uv": [3.75, 9.625, 3.875, 9.775], "texture": "#0"},
				"up": {"uv": [3.75, 9.625, 3.875, 9.775], "texture": "#0"},
				"down": {"uv": [3.75, 9.625, 3.875, 9.775], "texture": "#0"}
			}
		},
		{
			"from": [-4.18198, 14.63984, 4.0001],
			"to": [-3.68198, 16.03984, 4.2001],
			"rotation": {"angle": -45, "axis": "z", "origin": [1.31802, 6.03984, 4.7]},
			"faces": {
				"north": {"uv": [3.75, 9.625, 3.875, 9.775], "texture": "#0"},
				"east": {"uv": [3.75, 9.625, 3.875, 9.775], "texture": "#0"},
				"south": {"uv": [3.75, 9.625, 3.875, 9.775], "texture": "#0"},
				"west": {"uv": [3.75, 9.625, 3.875, 9.775], "texture": "#0"},
				"up": {"uv": [3.75, 9.625, 3.875, 9.775], "texture": "#0"},
				"down": {"uv": [3.75, 9.625, 3.875, 9.775], "texture": "#0"}
			}
		},
		{
			"from": [3.51005, 11.51005, 4],
			"to": [4.01005, 16.01005, 4.2],
			"rotation": {"angle": 0, "axis": "y", "origin": [22.51005, 4.01005, 12.2]},
			"faces": {
				"north": {"uv": [3.75, 9.625, 3.875, 9.775], "texture": "#0"},
				"east": {"uv": [3.75, 9.625, 3.875, 9.775], "texture": "#0"},
				"south": {"uv": [3.75, 9.625, 3.875, 9.775], "texture": "#0"},
				"west": {"uv": [3.75, 9.625, 3.875, 9.775], "texture": "#0"},
				"up": {"uv": [3.75, 9.625, 3.875, 9.775], "texture": "#0"},
				"down": {"uv": [3.75, 9.625, 3.875, 9.775], "texture": "#0"}
			}
		},
		{
			"from": [1.51005, 11.51005, 4.0001],
			"to": [4.01005, 12.01005, 4.2001],
			"rotation": {"angle": 0, "axis": "y", "origin": [7.21005, 11.76005, 4.1]},
			"faces": {
				"north": {"uv": [3.75, 9.625, 3.875, 9.775], "rotation": 270, "texture": "#0"},
				"east": {"uv": [3.75, 9.625, 3.875, 9.775], "texture": "#0"},
				"south": {"uv": [3.75, 9.625, 3.875, 9.775], "texture": "#0"},
				"west": {"uv": [3.75, 9.625, 3.875, 9.775], "texture": "#0"},
				"up": {"uv": [3.75, 9.625, 3.875, 9.775], "texture": "#0"},
				"down": {"uv": [3.75, 9.625, 3.875, 9.775], "texture": "#0"}
			}
		},
		{
			"from": [1.51005, 1.01005, 4],
			"to": [2.01005, 12.01005, 4.2],
			"rotation": {"angle": 0, "axis": "y", "origin": [20.51005, 1.01005, 12.2]},
			"faces": {
				"north": {"uv": [3.75, 9.625, 3.875, 9.775], "texture": "#0"},
				"east": {"uv": [3.75, 9.625, 3.875, 9.775], "texture": "#0"},
				"south": {"uv": [3.75, 9.625, 3.875, 9.775], "texture": "#0"},
				"west": {"uv": [3.75, 9.625, 3.875, 9.775], "texture": "#0"},
				"up": {"uv": [3.75, 9.625, 3.875, 9.775], "texture": "#0"},
				"down": {"uv": [3.75, 9.625, 3.875, 9.775], "texture": "#0"}
			}
		},
		{
			"from": [9.89914, -0.6631, 4.0001],
			"to": [10.39914, 0.7369, 4.2001],
			"rotation": {"angle": 45, "axis": "z", "origin": [5.39914, -9.2631, 4.7]},
			"faces": {
				"north": {"uv": [3.75, 9.625, 3.875, 9.775], "texture": "#0"},
				"east": {"uv": [3.75, 9.625, 3.875, 9.775], "texture": "#0"},
				"south": {"uv": [3.75, 9.625, 3.875, 9.775], "texture": "#0"},
				"west": {"uv": [3.75, 9.625, 3.875, 9.775], "texture": "#0"},
				"up": {"uv": [3.75, 9.625, 3.875, 9.775], "texture": "#0"},
				"down": {"uv": [3.75, 9.625, 3.875, 9.775], "texture": "#0"}
			}
		},
		{
			"from": [2.5, 0, 4],
			"to": [13.5, 0.5, 4.2],
			"rotation": {"angle": 0, "axis": "y", "origin": [20.5, 8, 11.2]},
			"faces": {
				"north": {"uv": [3.75, 9.625, 3.875, 9.775], "texture": "#0"},
				"east": {"uv": [3.75, 9.625, 3.875, 9.775], "texture": "#0"},
				"south": {"uv": [3.75, 9.625, 3.875, 9.775], "texture": "#0"},
				"west": {"uv": [3.75, 9.625, 3.875, 9.775], "texture": "#0"},
				"up": {"uv": [3.75, 9.625, 3.875, 9.775], "texture": "#0"},
				"down": {"uv": [3.75, 9.625, 3.875, 9.775], "texture": "#0"}
			}
		},
		{
			"from": [5.60086, -0.6631, 4.0001],
			"to": [6.10086, 0.7369, 4.2001],
			"rotation": {"angle": -45, "axis": "z", "origin": [10.60086, -9.2631, 4.7]},
			"faces": {
				"north": {"uv": [3.75, 9.625, 3.875, 9.775], "texture": "#0"},
				"east": {"uv": [3.75, 9.625, 3.875, 9.775], "texture": "#0"},
				"south": {"uv": [3.75, 9.625, 3.875, 9.775], "texture": "#0"},
				"west": {"uv": [3.75, 9.625, 3.875, 9.775], "texture": "#0"},
				"up": {"uv": [3.75, 9.625, 3.875, 9.775], "texture": "#0"},
				"down": {"uv": [3.75, 9.625, 3.875, 9.775], "texture": "#0"}
			}
		},
		{
			"from": [13.98995, 1.01005, 4],
			"to": [14.48995, 12.01005, 4.2],
			"rotation": {"angle": 0, "axis": "y", "origin": [-4.51005, 1.01005, 12.2]},
			"faces": {
				"north": {"uv": [3.75, 9.625, 3.875, 9.775], "texture": "#0"},
				"east": {"uv": [3.75, 9.625, 3.875, 9.775], "texture": "#0"},
				"south": {"uv": [3.75, 9.625, 3.875, 9.775], "texture": "#0"},
				"west": {"uv": [3.75, 9.625, 3.875, 9.775], "texture": "#0"},
				"up": {"uv": [3.75, 9.625, 3.875, 9.775], "texture": "#0"},
				"down": {"uv": [3.75, 9.625, 3.875, 9.775], "texture": "#0"}
			}
		},
		{
			"from": [1.51005, 11.51005, 2.8001],
			"to": [4.01005, 12.01005, 3.0001],
			"rotation": {"angle": 0, "axis": "y", "origin": [7.21005, 11.76005, 2.9]},
			"faces": {
				"north": {"uv": [3.75, 9.625, 3.875, 9.775], "rotation": 270, "texture": "#0"},
				"east": {"uv": [3.75, 9.625, 3.875, 9.775], "texture": "#0"},
				"south": {"uv": [3.75, 9.625, 3.875, 9.775], "texture": "#0"},
				"west": {"uv": [3.75, 9.625, 3.875, 9.775], "texture": "#0"},
				"up": {"uv": [3.75, 9.625, 3.875, 9.775], "texture": "#0"},
				"down": {"uv": [3.75, 9.625, 3.875, 9.775], "texture": "#0"}
			}
		},
		{
			"from": [3.51005, 11.51005, 2.8],
			"to": [4.01005, 16.01005, 3],
			"rotation": {"angle": 0, "axis": "y", "origin": [22.51005, 4.01005, 11]},
			"faces": {
				"north": {"uv": [3.75, 9.625, 3.875, 9.775], "texture": "#0"},
				"east": {"uv": [3.75, 9.625, 3.875, 9.775], "texture": "#0"},
				"south": {"uv": [3.75, 9.625, 3.875, 9.775], "texture": "#0"},
				"west": {"uv": [3.75, 9.625, 3.875, 9.775], "texture": "#0"},
				"up": {"uv": [3.75, 9.625, 3.875, 9.775], "texture": "#0"},
				"down": {"uv": [3.75, 9.625, 3.875, 9.775], "texture": "#0"}
			}
		},
		{
			"from": [11.98995, 11.51005, 2.8001],
			"to": [14.48995, 12.01005, 3.0001],
			"rotation": {"angle": 0, "axis": "y", "origin": [8.78995, 11.76005, 2.9]},
			"faces": {
				"north": {"uv": [3.75, 9.625, 3.875, 9.775], "rotation": 270, "texture": "#0"},
				"east": {"uv": [3.75, 9.625, 3.875, 9.775], "texture": "#0"},
				"south": {"uv": [3.75, 9.625, 3.875, 9.775], "texture": "#0"},
				"west": {"uv": [3.75, 9.625, 3.875, 9.775], "texture": "#0"},
				"up": {"uv": [3.75, 9.625, 3.875, 9.775], "texture": "#0"},
				"down": {"uv": [3.75, 9.625, 3.875, 9.775], "texture": "#0"}
			}
		},
		{
			"from": [11.98995, 11.51005, 2.8],
			"to": [12.48995, 16.01005, 3],
			"rotation": {"angle": 0, "axis": "y", "origin": [-6.51005, 4.01005, 11]},
			"faces": {
				"north": {"uv": [3.75, 9.625, 3.875, 9.775], "texture": "#0"},
				"east": {"uv": [3.75, 9.625, 3.875, 9.775], "texture": "#0"},
				"south": {"uv": [3.75, 9.625, 3.875, 9.775], "texture": "#0"},
				"west": {"uv": [3.75, 9.625, 3.875, 9.775], "texture": "#0"},
				"up": {"uv": [3.75, 9.625, 3.875, 9.775], "texture": "#0"},
				"down": {"uv": [3.75, 9.625, 3.875, 9.775], "texture": "#0"}
			}
		},
		{
			"from": [11, 3.7, 2.9],
			"to": [11.5, 6.7, 3],
			"rotation": {"angle": 0, "axis": "y", "origin": [19, -2.5, 10]},
			"faces": {
				"north": {"uv": [3.75, 9.625, 3.875, 9.775], "rotation": 270, "texture": "#0"},
				"east": {"uv": [3.75, 9.625, 3.875, 9.775], "texture": "#0"},
				"south": {"uv": [3.75, 9.625, 3.875, 9.775], "texture": "#0"},
				"west": {"uv": [3.75, 9.625, 3.875, 9.775], "texture": "#0"},
				"up": {"uv": [3.75, 9.625, 3.875, 9.775], "texture": "#0"},
				"down": {"uv": [3.75, 9.625, 3.875, 9.775], "texture": "#0"}
			}
		},
		{
			"from": [8.3, 3.2, 2.9],
			"to": [11.5, 3.7, 3],
			"rotation": {"angle": 0, "axis": "y", "origin": [19.5, 12.2, 10]},
			"faces": {
				"north": {"uv": [3.75, 9.625, 3.875, 9.775], "texture": "#0"},
				"east": {"uv": [3.75, 9.625, 3.875, 9.775], "texture": "#0"},
				"south": {"uv": [3.75, 9.625, 3.875, 9.775], "texture": "#0"},
				"west": {"uv": [3.75, 9.625, 3.875, 9.775], "texture": "#0"},
				"up": {"uv": [3.75, 9.625, 3.875, 9.775], "texture": "#0"},
				"down": {"uv": [3.75, 9.625, 3.875, 9.775], "texture": "#0"}
			}
		},
		{
			"from": [4.5, 3.2, 2.9],
			"to": [7.7, 3.7, 3],
			"rotation": {"angle": 0, "axis": "y", "origin": [-3.5, 12.2, 10]},
			"faces": {
				"north": {"uv": [3.75, 9.625, 3.875, 9.775], "texture": "#0"},
				"east": {"uv": [3.75, 9.625, 3.875, 9.775], "texture": "#0"},
				"south": {"uv": [3.75, 9.625, 3.875, 9.775], "texture": "#0"},
				"west": {"uv": [3.75, 9.625, 3.875, 9.775], "texture": "#0"},
				"up": {"uv": [3.75, 9.625, 3.875, 9.775], "texture": "#0"},
				"down": {"uv": [3.75, 9.625, 3.875, 9.775], "texture": "#0"}
			}
		},
		{
			"from": [4.5, 3.7, 2.9],
			"to": [5, 6.7, 3],
			"rotation": {"angle": 0, "axis": "y", "origin": [-3, -2.5, 10]},
			"faces": {
				"north": {"uv": [3.75, 9.625, 3.875, 9.775], "rotation": 270, "texture": "#0"},
				"east": {"uv": [3.75, 9.625, 3.875, 9.775], "texture": "#0"},
				"south": {"uv": [3.75, 9.625, 3.875, 9.775], "texture": "#0"},
				"west": {"uv": [3.75, 9.625, 3.875, 9.775], "texture": "#0"},
				"up": {"uv": [3.75, 9.625, 3.875, 9.775], "texture": "#0"},
				"down": {"uv": [3.75, 9.625, 3.875, 9.775], "texture": "#0"}
			}
		},
		{
			"from": [7.7, 1.2, 2.9],
			"to": [8.3, 15.5, 3],
			"rotation": {"angle": 0, "axis": "y", "origin": [20.5, 6.2, 10]},
			"faces": {
				"north": {"uv": [3.75, 9.625, 3.875, 9.775], "texture": "#0"},
				"east": {"uv": [3.75, 9.625, 3.875, 9.775], "texture": "#0"},
				"south": {"uv": [3.75, 9.625, 3.875, 9.775], "texture": "#0"},
				"west": {"uv": [3.75, 9.625, 3.875, 9.775], "texture": "#0"},
				"up": {"uv": [3.75, 9.625, 3.875, 9.775], "texture": "#0"},
				"down": {"uv": [3.75, 9.625, 3.875, 9.775], "texture": "#0"}
			}
		},
		{
			"from": [9, 4.7, 2.9],
			"to": [9.5, 12.7, 3],
			"rotation": {"angle": 0, "axis": "y", "origin": [17, 3.5, 10]},
			"faces": {
				"north": {"uv": [3.75, 9.625, 3.875, 9.775], "rotation": 270, "texture": "#0"},
				"east": {"uv": [3.75, 9.625, 3.875, 9.775], "texture": "#0"},
				"south": {"uv": [3.75, 9.625, 3.875, 9.775], "texture": "#0"},
				"west": {"uv": [3.75, 9.625, 3.875, 9.775], "texture": "#0"},
				"up": {"uv": [3.75, 9.625, 3.875, 9.775], "texture": "#0"},
				"down": {"uv": [3.75, 9.625, 3.875, 9.775], "texture": "#0"}
			}
		},
		{
			"from": [6.5, 4.7, 2.9],
			"to": [7, 12.7, 3],
			"rotation": {"angle": 0, "axis": "y", "origin": [-1, 3.5, 10]},
			"faces": {
				"north": {"uv": [3.75, 9.625, 3.875, 9.775], "rotation": 270, "texture": "#0"},
				"east": {"uv": [3.75, 9.625, 3.875, 9.775], "texture": "#0"},
				"south": {"uv": [3.75, 9.625, 3.875, 9.775], "texture": "#0"},
				"west": {"uv": [3.75, 9.625, 3.875, 9.775], "texture": "#0"},
				"up": {"uv": [3.75, 9.625, 3.875, 9.775], "texture": "#0"},
				"down": {"uv": [3.75, 9.625, 3.875, 9.775], "texture": "#0"}
			}
		},
		{
			"from": [3, 7.5, 2.9],
			"to": [6.5, 8, 3],
			"rotation": {"angle": 0, "axis": "y", "origin": [-4.7, 16.5, 10]},
			"faces": {
				"north": {"uv": [3.75, 9.625, 3.875, 9.775], "texture": "#0"},
				"east": {"uv": [3.75, 9.625, 3.875, 9.775], "texture": "#0"},
				"south": {"uv": [3.75, 9.625, 3.875, 9.775], "texture": "#0"},
				"west": {"uv": [3.75, 9.625, 3.875, 9.775], "texture": "#0"},
				"up": {"uv": [3.75, 9.625, 3.875, 9.775], "texture": "#0"},
				"down": {"uv": [3.75, 9.625, 3.875, 9.775], "texture": "#0"}
			}
		},
		{
			"from": [9.5, 7.5, 2.9],
			"to": [13, 8, 3],
			"rotation": {"angle": 0, "axis": "y", "origin": [20.7, 16.5, 10]},
			"faces": {
				"north": {"uv": [3.75, 9.625, 3.875, 9.775], "texture": "#0"},
				"east": {"uv": [3.75, 9.625, 3.875, 9.775], "texture": "#0"},
				"south": {"uv": [3.75, 9.625, 3.875, 9.775], "texture": "#0"},
				"west": {"uv": [3.75, 9.625, 3.875, 9.775], "texture": "#0"},
				"up": {"uv": [3.75, 9.625, 3.875, 9.775], "texture": "#0"},
				"down": {"uv": [3.75, 9.625, 3.875, 9.775], "texture": "#0"}
			}
		},
		{
			"from": [10.98995, 9.01005, 2.9001],
			"to": [11.48995, 15.01005, 3.0001],
			"rotation": {"angle": 0, "axis": "y", "origin": [18.98995, 5.81005, 10.0001]},
			"faces": {
				"north": {"uv": [3.75, 9.625, 3.875, 9.775], "rotation": 270, "texture": "#0"},
				"east": {"uv": [3.75, 9.625, 3.875, 9.775], "texture": "#0"},
				"south": {"uv": [3.75, 9.625, 3.875, 9.775], "texture": "#0"},
				"west": {"uv": [3.75, 9.625, 3.875, 9.775], "texture": "#0"},
				"up": {"uv": [3.75, 9.625, 3.875, 9.775], "texture": "#0"},
				"down": {"uv": [3.75, 9.625, 3.875, 9.775], "texture": "#0"}
			}
		},
		{
			"from": [4.51005, 9.01005, 2.9001],
			"to": [5.01005, 15.01005, 3.0001],
			"rotation": {"angle": 0, "axis": "y", "origin": [-2.98995, 5.81005, 10.0001]},
			"faces": {
				"north": {"uv": [3.75, 9.625, 3.875, 9.775], "rotation": 270, "texture": "#0"},
				"east": {"uv": [3.75, 9.625, 3.875, 9.775], "texture": "#0"},
				"south": {"uv": [3.75, 9.625, 3.875, 9.775], "texture": "#0"},
				"west": {"uv": [3.75, 9.625, 3.875, 9.775], "texture": "#0"},
				"up": {"uv": [3.75, 9.625, 3.875, 9.775], "texture": "#0"},
				"down": {"uv": [3.75, 9.625, 3.875, 9.775], "texture": "#0"}
			}
		},
		{
			"from": [12.98995, 2.01005, 2.9],
			"to": [13.48995, 11.01005, 3],
			"rotation": {"angle": 0, "axis": "y", "origin": [-5.51005, 6.01005, 11]},
			"faces": {
				"north": {"uv": [3.75, 9.625, 3.875, 9.775], "texture": "#0"},
				"east": {"uv": [3.75, 9.625, 3.875, 9.775], "texture": "#0"},
				"south": {"uv": [3.75, 9.625, 3.875, 9.775], "texture": "#0"},
				"west": {"uv": [3.75, 9.625, 3.875, 9.775], "texture": "#0"},
				"up": {"uv": [3.75, 9.625, 3.875, 9.775], "texture": "#0"},
				"down": {"uv": [3.75, 9.625, 3.875, 9.775], "texture": "#0"}
			}
		},
		{
			"from": [4.60086, 0.3369, 2.9001],
			"to": [5.10086, 1.7369, 3.0001],
			"rotation": {"angle": -45, "axis": "z", "origin": [9.60086, -8.2631, 3.5]},
			"faces": {
				"north": {"uv": [3.75, 9.625, 3.875, 9.775], "texture": "#0"},
				"east": {"uv": [3.75, 9.625, 3.875, 9.775], "texture": "#0"},
				"south": {"uv": [3.75, 9.625, 3.875, 9.775], "texture": "#0"},
				"west": {"uv": [3.75, 9.625, 3.875, 9.775], "texture": "#0"},
				"up": {"uv": [3.75, 9.625, 3.875, 9.775], "texture": "#0"},
				"down": {"uv": [3.75, 9.625, 3.875, 9.775], "texture": "#0"}
			}
		},
		{
			"from": [8.7, 1, 2.9],
			"to": [12.5, 1.5, 3],
			"rotation": {"angle": 0, "axis": "y", "origin": [19.5, 9, 10]},
			"faces": {
				"north": {"uv": [3.75, 9.625, 3.875, 9.775], "texture": "#0"},
				"east": {"uv": [3.75, 9.625, 3.875, 9.775], "texture": "#0"},
				"south": {"uv": [3.75, 9.625, 3.875, 9.775], "texture": "#0"},
				"west": {"uv": [3.75, 9.625, 3.875, 9.775], "texture": "#0"},
				"up": {"uv": [3.75, 9.625, 3.875, 9.775], "texture": "#0"},
				"down": {"uv": [3.75, 9.625, 3.875, 9.775], "texture": "#0"}
			}
		},
		{
			"from": [3.5, 1, 2.9],
			"to": [8.7, 1.5, 3],
			"rotation": {"angle": 0, "axis": "y", "origin": [-3.5, 9, 10]},
			"faces": {
				"north": {"uv": [3.75, 9.625, 3.875, 9.775], "texture": "#0"},
				"east": {"uv": [3.75, 9.625, 3.875, 9.775], "texture": "#0"},
				"south": {"uv": [3.75, 9.625, 3.875, 9.775], "texture": "#0"},
				"west": {"uv": [3.75, 9.625, 3.875, 9.775], "texture": "#0"},
				"up": {"uv": [3.75, 9.625, 3.875, 9.775], "texture": "#0"},
				"down": {"uv": [3.75, 9.625, 3.875, 9.775], "texture": "#0"}
			}
		},
		{
			"from": [10.89914, 0.3369, 2.9001],
			"to": [11.39914, 1.7369, 3.0001],
			"rotation": {"angle": 45, "axis": "z", "origin": [6.39914, -8.2631, 3.5]},
			"faces": {
				"north": {"uv": [3.75, 9.625, 3.875, 9.775], "texture": "#0"},
				"east": {"uv": [3.75, 9.625, 3.875, 9.775], "texture": "#0"},
				"south": {"uv": [3.75, 9.625, 3.875, 9.775], "texture": "#0"},
				"west": {"uv": [3.75, 9.625, 3.875, 9.775], "texture": "#0"},
				"up": {"uv": [3.75, 9.625, 3.875, 9.775], "texture": "#0"},
				"down": {"uv": [3.75, 9.625, 3.875, 9.775], "texture": "#0"}
			}
		},
		{
			"from": [2.51005, 2.01005, 2.9],
			"to": [3.01005, 11.01005, 3],
			"rotation": {"angle": 0, "axis": "y", "origin": [21.51005, 6.01005, 11]},
			"faces": {
				"north": {"uv": [3.75, 9.625, 3.875, 9.775], "texture": "#0"},
				"east": {"uv": [3.75, 9.625, 3.875, 9.775], "texture": "#0"},
				"south": {"uv": [3.75, 9.625, 3.875, 9.775], "texture": "#0"},
				"west": {"uv": [3.75, 9.625, 3.875, 9.775], "texture": "#0"},
				"up": {"uv": [3.75, 9.625, 3.875, 9.775], "texture": "#0"},
				"down": {"uv": [3.75, 9.625, 3.875, 9.775], "texture": "#0"}
			}
		},
		{
			"from": [-3.18198, 13.63984, 2.9001],
			"to": [-2.68198, 15.03984, 3.0001],
			"rotation": {"angle": -45, "axis": "z", "origin": [2.31802, 5.03984, 3.5]},
			"faces": {
				"north": {"uv": [3.75, 9.625, 3.875, 9.775], "texture": "#0"},
				"east": {"uv": [3.75, 9.625, 3.875, 9.775], "texture": "#0"},
				"south": {"uv": [3.75, 9.625, 3.875, 9.775], "texture": "#0"},
				"west": {"uv": [3.75, 9.625, 3.875, 9.775], "texture": "#0"},
				"up": {"uv": [3.75, 9.625, 3.875, 9.775], "texture": "#0"},
				"down": {"uv": [3.75, 9.625, 3.875, 9.775], "texture": "#0"}
			}
		},
		{
			"from": [5.5, 15.5, 2.9],
			"to": [8.7, 16, 3],
			"rotation": {"angle": 0, "axis": "y", "origin": [-1.5, 23, 10]},
			"faces": {
				"north": {"uv": [3.75, 9.625, 3.875, 9.775], "texture": "#0"},
				"east": {"uv": [3.75, 9.625, 3.875, 9.775], "texture": "#0"},
				"south": {"uv": [3.75, 9.625, 3.875, 9.775], "texture": "#0"},
				"west": {"uv": [3.75, 9.625, 3.875, 9.775], "texture": "#0"},
				"up": {"uv": [3.75, 9.625, 3.875, 9.775], "texture": "#0"},
				"down": {"uv": [3.75, 9.625, 3.875, 9.775], "texture": "#0"}
			}
		},
		{
			"from": [7.3, 15.5, 2.9],
			"to": [10.5, 16, 3],
			"rotation": {"angle": 0, "axis": "y", "origin": [17.5, 23, 10]},
			"faces": {
				"north": {"uv": [3.75, 9.625, 3.875, 9.775], "texture": "#0"},
				"east": {"uv": [3.75, 9.625, 3.875, 9.775], "texture": "#0"},
				"south": {"uv": [3.75, 9.625, 3.875, 9.775], "texture": "#0"},
				"west": {"uv": [3.75, 9.625, 3.875, 9.775], "texture": "#0"},
				"up": {"uv": [3.75, 9.625, 3.875, 9.775], "texture": "#0"},
				"down": {"uv": [3.75, 9.625, 3.875, 9.775], "texture": "#0"}
			}
		},
		{
			"from": [18.68198, 13.63984, 2.9001],
			"to": [19.18198, 15.03984, 3.0001],
			"rotation": {"angle": 45, "axis": "z", "origin": [13.68198, 5.03984, 3.5]},
			"faces": {
				"north": {"uv": [3.75, 9.625, 3.875, 9.775], "texture": "#0"},
				"east": {"uv": [3.75, 9.625, 3.875, 9.775], "texture": "#0"},
				"south": {"uv": [3.75, 9.625, 3.875, 9.775], "texture": "#0"},
				"west": {"uv": [3.75, 9.625, 3.875, 9.775], "texture": "#0"},
				"up": {"uv": [3.75, 9.625, 3.875, 9.775], "texture": "#0"},
				"down": {"uv": [3.75, 9.625, 3.875, 9.775], "texture": "#0"}
			}
		},
		{
			"from": [4.54939, 6.77439, 3.901],
			"to": [6.54939, 8.77439, 4.201],
			"rotation": {"angle": -45, "axis": "z", "origin": [4.34939, 7.07439, 4.15]},
			"faces": {
				"north": {"uv": [3.75, 9.625, 3.875, 9.775], "texture": "#0"},
				"east": {"uv": [3.75, 9.625, 3.875, 9.775], "texture": "#0"},
				"south": {"uv": [3.75, 9.625, 3.875, 9.775], "texture": "#0"},
				"west": {"uv": [3.75, 9.625, 3.875, 9.775], "texture": "#0"},
				"up": {"uv": [3.75, 9.625, 3.875, 9.775], "texture": "#0"},
				"down": {"uv": [3.75, 9.625, 3.875, 9.775], "texture": "#0"}
			}
		},
		{
			"from": [6.84939, 12.87439, 3.901],
			"to": [8.84939, 14.87439, 4.201],
			"rotation": {"angle": -45, "axis": "z", "origin": [6.64939, 13.17439, 4.15]},
			"faces": {
				"north": {"uv": [3.75, 9.625, 3.875, 9.775], "texture": "#0"},
				"east": {"uv": [3.75, 9.625, 3.875, 9.775], "texture": "#0"},
				"south": {"uv": [3.75, 9.625, 3.875, 9.775], "texture": "#0"},
				"west": {"uv": [3.75, 9.625, 3.875, 9.775], "texture": "#0"},
				"up": {"uv": [3.75, 9.625, 3.875, 9.775], "texture": "#0"},
				"down": {"uv": [3.75, 9.625, 3.875, 9.775], "texture": "#0"}
			}
		},
		{
			"from": [3.01005, 2.58995, 4],
			"to": [4.01005, 5.78995, 4.1],
			"rotation": {"angle": 0, "axis": "y", "origin": [22.01005, 16.58995, 12.1]},
			"faces": {
				"north": {"uv": [3.75, 9.625, 3.875, 9.775], "texture": "#0"},
				"east": {"uv": [3.75, 9.625, 3.875, 9.775], "texture": "#0"},
				"south": {"uv": [3.75, 9.625, 3.875, 9.775], "texture": "#0"},
				"west": {"uv": [3.75, 9.625, 3.875, 9.775], "texture": "#0"},
				"up": {"uv": [3.75, 9.625, 3.875, 9.775], "texture": "#0"},
				"down": {"uv": [3.75, 9.625, 3.875, 9.775], "texture": "#0"}
			}
		},
		{
			"from": [3.01005, 7.68995, 4],
			"to": [4.01005, 9.78995, 4.1],
			"rotation": {"angle": 0, "axis": "y", "origin": [22.01005, 16.58995, 12.1]},
			"faces": {
				"north": {"uv": [3.75, 9.625, 3.875, 9.775], "texture": "#0"},
				"east": {"uv": [3.75, 9.625, 3.875, 9.775], "texture": "#0"},
				"south": {"uv": [3.75, 9.625, 3.875, 9.775], "texture": "#0"},
				"west": {"uv": [3.75, 9.625, 3.875, 9.775], "texture": "#0"},
				"up": {"uv": [3.75, 9.625, 3.875, 9.775], "texture": "#0"},
				"down": {"uv": [3.75, 9.625, 3.875, 9.775], "texture": "#0"}
			}
		},
		{
			"from": [2.01005, 6.21495, 4],
			"to": [8.21005, 7.21495, 4.1],
			"rotation": {"angle": 0, "axis": "y", "origin": [4.11005, 6.71495, 4.05]},
			"faces": {
				"north": {"uv": [3.75, 9.625, 3.875, 9.775], "rotation": 90, "texture": "#0"},
				"east": {"uv": [3.75, 9.625, 3.875, 9.775], "texture": "#0"},
				"south": {"uv": [3.75, 9.625, 3.875, 9.775], "texture": "#0"},
				"west": {"uv": [3.75, 9.625, 3.875, 9.775], "texture": "#0"},
				"up": {"uv": [3.75, 9.625, 3.875, 9.775], "texture": "#0"},
				"down": {"uv": [3.75, 9.625, 3.875, 9.775], "texture": "#0"}
			}
		},
		{
			"from": [7.51005, 6.13995, 4],
			"to": [8.51005, 14.53995, 4.1],
			"rotation": {"angle": 0, "axis": "y", "origin": [8.01005, 11.43995, 4.05]},
			"faces": {
				"north": {"uv": [3.75, 9.625, 3.875, 9.775], "texture": "#0"},
				"east": {"uv": [3.75, 9.625, 3.875, 9.775], "texture": "#0"},
				"south": {"uv": [3.75, 9.625, 3.875, 9.775], "texture": "#0"},
				"west": {"uv": [3.75, 9.625, 3.875, 9.775], "texture": "#0"},
				"up": {"uv": [3.75, 9.625, 3.875, 9.775], "texture": "#0"},
				"down": {"uv": [3.75, 9.625, 3.875, 9.775], "texture": "#0"}
			}
		},
		{
			"from": [10.39914, 0.9369, 4.0001],
			"to": [12.39914, 2.3369, 4.1001],
			"rotation": {"angle": 45, "axis": "z", "origin": [6.89914, -7.6631, 4.6]},
			"faces": {
				"north": {"uv": [3.75, 9.625, 3.875, 9.775], "texture": "#0"},
				"east": {"uv": [3.75, 9.625, 3.875, 9.775], "texture": "#0"},
				"south": {"uv": [3.75, 9.625, 3.875, 9.775], "texture": "#0"},
				"west": {"uv": [3.75, 9.625, 3.875, 9.775], "texture": "#0"},
				"up": {"uv": [3.75, 9.625, 3.875, 9.775], "texture": "#0"},
				"down": {"uv": [3.75, 9.625, 3.875, 9.775], "texture": "#0"}
			}
		},
		{
			"from": [4, 1.6, 4],
			"to": [11, 2.6, 4.1],
			"rotation": {"angle": 0, "axis": "y", "origin": [18, 9.6, 11.1]},
			"faces": {
				"north": {"uv": [3.75, 9.625, 3.875, 9.775], "texture": "#0"},
				"east": {"uv": [3.75, 9.625, 3.875, 9.775], "texture": "#0"},
				"south": {"uv": [3.75, 9.625, 3.875, 9.775], "texture": "#0"},
				"west": {"uv": [3.75, 9.625, 3.875, 9.775], "texture": "#0"},
				"up": {"uv": [3.75, 9.625, 3.875, 9.775], "texture": "#0"},
				"down": {"uv": [3.75, 9.625, 3.875, 9.775], "texture": "#0"}
			}
		},
		{
			"from": [1.60086, 14.7631, 4.0001],
			"to": [3.60086, 16.1631, 4.1001],
			"rotation": {"angle": 45, "axis": "z", "origin": [7.10086, 24.7631, 4.6]},
			"faces": {
				"north": {"uv": [3.75, 9.625, 3.875, 9.775], "texture": "#0"},
				"east": {"uv": [3.75, 9.625, 3.875, 9.775], "texture": "#0"},
				"south": {"uv": [3.75, 9.625, 3.875, 9.775], "texture": "#0"},
				"west": {"uv": [3.75, 9.625, 3.875, 9.775], "texture": "#0"},
				"up": {"uv": [3.75, 9.625, 3.875, 9.775], "texture": "#0"},
				"down": {"uv": [3.75, 9.625, 3.875, 9.775], "texture": "#0"}
			}
		},
		{
			"from": [6, 14.5, 4],
			"to": [10.4, 15.5, 4.1],
			"rotation": {"angle": 0, "axis": "y", "origin": [-5, 7.5, 11.1]},
			"faces": {
				"north": {"uv": [3.75, 9.625, 3.875, 9.775], "texture": "#0"},
				"east": {"uv": [3.75, 9.625, 3.875, 9.775], "texture": "#0"},
				"south": {"uv": [3.75, 9.625, 3.875, 9.775], "texture": "#0"},
				"west": {"uv": [3.75, 9.625, 3.875, 9.775], "texture": "#0"},
				"up": {"uv": [3.75, 9.625, 3.875, 9.775], "texture": "#0"},
				"down": {"uv": [3.75, 9.625, 3.875, 9.775], "texture": "#0"}
			}
		},
		{
			"from": [12.39914, 14.7631, 4.0001],
			"to": [14.39914, 16.1631, 4.1001],
			"rotation": {"angle": -45, "axis": "z", "origin": [8.89914, 24.7631, 4.6]},
			"faces": {
				"north": {"uv": [3.75, 9.625, 3.875, 9.775], "texture": "#0"},
				"east": {"uv": [3.75, 9.625, 3.875, 9.775], "texture": "#0"},
				"south": {"uv": [3.75, 9.625, 3.875, 9.775], "texture": "#0"},
				"west": {"uv": [3.75, 9.625, 3.875, 9.775], "texture": "#0"},
				"up": {"uv": [3.75, 9.625, 3.875, 9.775], "texture": "#0"},
				"down": {"uv": [3.75, 9.625, 3.875, 9.775], "texture": "#0"}
			}
		},
		{
			"from": [5.01005, 10.18995, 4],
			"to": [6.01005, 14.88995, 4.1],
			"rotation": {"angle": 0, "axis": "y", "origin": [24.01005, 11.88995, 12.1]},
			"faces": {
				"north": {"uv": [3.75, 9.625, 3.875, 9.775], "texture": "#0"},
				"east": {"uv": [3.75, 9.625, 3.875, 9.775], "texture": "#0"},
				"south": {"uv": [3.75, 9.625, 3.875, 9.775], "texture": "#0"},
				"west": {"uv": [3.75, 9.625, 3.875, 9.775], "texture": "#0"},
				"up": {"uv": [3.75, 9.625, 3.875, 9.775], "texture": "#0"},
				"down": {"uv": [3.75, 9.625, 3.875, 9.775], "texture": "#0"}
			}
		},
		{
			"from": [10.01005, 10.18995, 4],
			"to": [11.01005, 14.88995, 4.1],
			"rotation": {"angle": 0, "axis": "y", "origin": [29.01005, 11.88995, 12.1]},
			"faces": {
				"north": {"uv": [3.75, 9.625, 3.875, 9.775], "texture": "#0"},
				"east": {"uv": [3.75, 9.625, 3.875, 9.775], "texture": "#0"},
				"south": {"uv": [3.75, 9.625, 3.875, 9.775], "texture": "#0"},
				"west": {"uv": [3.75, 9.625, 3.875, 9.775], "texture": "#0"},
				"up": {"uv": [3.75, 9.625, 3.875, 9.775], "texture": "#0"},
				"down": {"uv": [3.75, 9.625, 3.875, 9.775], "texture": "#0"}
			}
		},
		{
			"from": [10.39914, 9.6631, 4.0001],
			"to": [12.39914, 11.0631, 4.1001],
			"rotation": {"angle": -45, "axis": "z", "origin": [6.89914, 19.6631, 4.6]},
			"faces": {
				"north": {"uv": [3.75, 9.625, 3.875, 9.775], "texture": "#0"},
				"east": {"uv": [3.75, 9.625, 3.875, 9.775], "texture": "#0"},
				"south": {"uv": [3.75, 9.625, 3.875, 9.775], "texture": "#0"},
				"west": {"uv": [3.75, 9.625, 3.875, 9.775], "texture": "#0"},
				"up": {"uv": [3.75, 9.625, 3.875, 9.775], "texture": "#0"},
				"down": {"uv": [3.75, 9.625, 3.875, 9.775], "texture": "#0"}
			}
		},
		{
			"from": [3.3, 9.4, 4],
			"to": [6, 10.4, 4.1],
			"rotation": {"angle": 0, "axis": "y", "origin": [18.5, 17.4, 11.1]},
			"faces": {
				"north": {"uv": [3.75, 9.625, 3.875, 9.775], "texture": "#0"},
				"east": {"uv": [3.75, 9.625, 3.875, 9.775], "texture": "#0"},
				"south": {"uv": [3.75, 9.625, 3.875, 9.775], "texture": "#0"},
				"west": {"uv": [3.75, 9.625, 3.875, 9.775], "texture": "#0"},
				"up": {"uv": [3.75, 9.625, 3.875, 9.775], "texture": "#0"},
				"down": {"uv": [3.75, 9.625, 3.875, 9.775], "texture": "#0"}
			}
		},
		{
			"from": [10, 9.4, 4],
			"to": [12.7, 10.4, 4.1],
			"rotation": {"angle": 0, "axis": "y", "origin": [-2.5, 17.4, 11.1]},
			"faces": {
				"north": {"uv": [3.75, 9.625, 3.875, 9.775], "texture": "#0"},
				"east": {"uv": [3.75, 9.625, 3.875, 9.775], "texture": "#0"},
				"south": {"uv": [3.75, 9.625, 3.875, 9.775], "texture": "#0"},
				"west": {"uv": [3.75, 9.625, 3.875, 9.775], "texture": "#0"},
				"up": {"uv": [3.75, 9.625, 3.875, 9.775], "texture": "#0"},
				"down": {"uv": [3.75, 9.625, 3.875, 9.775], "texture": "#0"}
			}
		},
		{
			"from": [3.60086, 9.6631, 4.0001],
			"to": [5.60086, 11.0631, 4.1001],
			"rotation": {"angle": 45, "axis": "z", "origin": [9.10086, 19.6631, 4.6]},
			"faces": {
				"north": {"uv": [3.75, 9.625, 3.875, 9.775], "texture": "#0"},
				"east": {"uv": [3.75, 9.625, 3.875, 9.775], "texture": "#0"},
				"south": {"uv": [3.75, 9.625, 3.875, 9.775], "texture": "#0"},
				"west": {"uv": [3.75, 9.625, 3.875, 9.775], "texture": "#0"},
				"up": {"uv": [3.75, 9.625, 3.875, 9.775], "texture": "#0"},
				"down": {"uv": [3.75, 9.625, 3.875, 9.775], "texture": "#0"}
			}
		},
		{
			"from": [11.98995, 2.58995, 4],
			"to": [12.98995, 9.78995, 4.1],
			"rotation": {"angle": 0, "axis": "y", "origin": [-6.01005, 16.58995, 12.1]},
			"faces": {
				"north": {"uv": [3.75, 9.625, 3.875, 9.775], "texture": "#0"},
				"east": {"uv": [3.75, 9.625, 3.875, 9.775], "texture": "#0"},
				"south": {"uv": [3.75, 9.625, 3.875, 9.775], "texture": "#0"},
				"west": {"uv": [3.75, 9.625, 3.875, 9.775], "texture": "#0"},
				"up": {"uv": [3.75, 9.625, 3.875, 9.775], "texture": "#0"},
				"down": {"uv": [3.75, 9.625, 3.875, 9.775], "texture": "#0"}
			}
		},
		{
			"from": [3.60086, 0.9369, 4.0001],
			"to": [5.60086, 2.3369, 4.1001],
			"rotation": {"angle": -45, "axis": "z", "origin": [9.10086, -7.6631, 4.6]},
			"faces": {
				"north": {"uv": [3.75, 9.625, 3.875, 9.775], "texture": "#0"},
				"east": {"uv": [3.75, 9.625, 3.875, 9.775], "texture": "#0"},
				"south": {"uv": [3.75, 9.625, 3.875, 9.775], "texture": "#0"},
				"west": {"uv": [3.75, 9.625, 3.875, 9.775], "texture": "#0"},
				"up": {"uv": [3.75, 9.625, 3.875, 9.775], "texture": "#0"},
				"down": {"uv": [3.75, 9.625, 3.875, 9.775], "texture": "#0"}
			}
		},
		{
			"from": [5, 1.6, 4],
			"to": [12, 2.6, 4.1],
			"rotation": {"angle": 0, "axis": "y", "origin": [-2, 9.6, 11.1]},
			"faces": {
				"north": {"uv": [3.75, 9.625, 3.875, 9.775], "texture": "#0"},
				"east": {"uv": [3.75, 9.625, 3.875, 9.775], "texture": "#0"},
				"south": {"uv": [3.75, 9.625, 3.875, 9.775], "texture": "#0"},
				"west": {"uv": [3.75, 9.625, 3.875, 9.775], "texture": "#0"},
				"up": {"uv": [3.75, 9.625, 3.875, 9.775], "texture": "#0"},
				"down": {"uv": [3.75, 9.625, 3.875, 9.775], "texture": "#0"}
			}
		},
		{
			"from": [7.5, 10.6, 6],
			"to": [8.5, 10.8, 8.2],
			"rotation": {"angle": 0, "axis": "y", "origin": [8, 10.35, 6]},
			"faces": {
				"north": {"uv": [2.875, 3.375, 3, 3.5], "texture": "#0"},
				"east": {"uv": [2.875, 3.375, 3, 3.5], "texture": "#0"},
				"south": {"uv": [2.875, 3.375, 3, 3.5], "texture": "#0"},
				"west": {"uv": [2.875, 3.375, 3, 3.5], "rotation": 270, "texture": "#0"},
				"up": {"uv": [2.875, 3.375, 3, 3.5], "texture": "#0"},
				"down": {"uv": [2.875, 3.375, 3, 3.5], "texture": "#0"}
			}
		},
		{
			"from": [7.8, 10.8, 6.9],
			"to": [8.2, 11.1, 7.3],
			"rotation": {"angle": -45, "axis": "y", "origin": [8, 10.95, 7.1]},
			"faces": {
				"north": {"uv": [14, 9.625, 14.125, 9.75], "texture": "#0"},
				"east": {"uv": [14, 9.625, 14.125, 9.75], "texture": "#0"},
				"south": {"uv": [14, 9.625, 14.125, 9.75], "texture": "#0"},
				"west": {"uv": [14, 9.625, 14.125, 9.75], "texture": "#0"},
				"up": {"uv": [14, 9.625, 14.125, 9.75], "texture": "#0"},
				"down": {"uv": [14, 9.625, 14.125, 9.75], "texture": "#0"}
			}
		}
	],
	"display": {
		"thirdperson_righthand": {
			"rotation": [0, -90, 0],
			"translation": [-1.5, -2, 2.5]
		},
		"fixed": {
			"translation": [0, 0, 2.5]
		}
	}
}