{
	"credit": "Made with Blockbench",
	"textures": {
		"0": "gci:items/common/all_in_one",
		"particle": "gci:items/common/all_in_one"
	},
	"elements": [
		{
			"from": [11.4, 0, 3],
			"to": [14.4, 24, 4],
			"rotation": {"angle": 0, "axis": "y", "origin": [9.4, 8, 11]},
			"faces": {
				"north": {"uv": [0, 0, 0.5, 1.875], "texture": "#0"},
				"east": {"uv": [0, 0, 0.5, 1.875], "texture": "#0"},
				"south": {"uv": [0, 0, 0.5, 1.875], "texture": "#0"},
				"west": {"uv": [0, 0, 0.5, 1.875], "texture": "#0"},
				"up": {"uv": [0, 0, 0.5, 1.875], "texture": "#0"},
				"down": {"uv": [0, 0, 0.5, 1.875], "texture": "#0"}
			}
		},
		{
			"from": [1.5, 0, 3],
			"to": [4.5, 24, 4],
			"rotation": {"angle": 0, "axis": "y", "origin": [9.5, 8, 11]},
			"faces": {
				"north": {"uv": [0, 0, 0.5, 1.875], "texture": "#0"},
				"east": {"uv": [0, 0, 0.5, 1.875], "texture": "#0"},
				"south": {"uv": [0, 0, 0.5, 1.875], "texture": "#0"},
				"west": {"uv": [0, 0, 0.5, 1.875], "texture": "#0"},
				"up": {"uv": [0, 0, 0.5, 1.875], "texture": "#0"},
				"down": {"uv": [0, 0, 0.5, 1.875], "texture": "#0"}
			}
		},
		{
			"from": [4.8, 0, 3],
			"to": [7.8, 24, 4],
			"rotation": {"angle": 0, "axis": "y", "origin": [9.8, 8, 11]},
			"faces": {
				"north": {"uv": [0, 0, 0.5, 1.875], "texture": "#0"},
				"east": {"uv": [0, 0, 0.5, 1.875], "texture": "#0"},
				"south": {"uv": [0, 0, 0.5, 1.875], "texture": "#0"},
				"west": {"uv": [0, 0, 0.5, 1.875], "texture": "#0"},
				"up": {"uv": [0, 0, 0.5, 1.875], "texture": "#0"},
				"down": {"uv": [0, 0, 0.5, 1.875], "texture": "#0"}
			}
		},
		{
			"from": [8.1, 0, 3],
			"to": [11.1, 24, 4],
			"rotation": {"angle": 0, "axis": "y", "origin": [9.1, 8, 11]},
			"faces": {
				"north": {"uv": [0, 0, 0.5, 1.875], "texture": "#0"},
				"east": {"uv": [0, 0, 0.5, 1.875], "texture": "#0"},
				"south": {"uv": [0, 0, 0.5, 1.875], "texture": "#0"},
				"west": {"uv": [0, 0, 0.5, 1.875], "texture": "#0"},
				"up": {"uv": [0, 0, 0.5, 1.875], "texture": "#0"},
				"down": {"uv": [0, 0, 0.5, 1.875], "texture": "#0"}
			}
		},
		{
			"from": [1, 19.5, 4],
			"to": [15, 22.5, 5],
			"rotation": {"angle": 0, "axis": "y", "origin": [3, 21, 4.5]},
			"faces": {
				"north": {"uv": [0, 0, 0.5, 1.875], "rotation": 270, "texture": "#0"},
				"east": {"uv": [0, 0, 0.5, 1.875], "rotation": 90, "texture": "#0"},
				"south": {"uv": [0, 0, 0.5, 1.875], "rotation": 90, "texture": "#0"},
				"west": {"uv": [0, 0, 0.5, 1.875], "rotation": 90, "texture": "#0"},
				"up": {"uv": [0, 0, 0.5, 1.875], "rotation": 90, "texture": "#0"},
				"down": {"uv": [0, 0, 0.5, 1.875], "rotation": 90, "texture": "#0"}
			}
		},
		{
			"from": [1, 1.5, 4],
			"to": [15, 4.5, 5],
			"rotation": {"angle": 0, "axis": "y", "origin": [3, 3, 4.5]},
			"faces": {
				"north": {"uv": [0, 0, 0.5, 1.875], "rotation": 270, "texture": "#0"},
				"east": {"uv": [0, 0, 0.5, 1.875], "rotation": 90, "texture": "#0"},
				"south": {"uv": [0, 0, 0.5, 1.875], "rotation": 90, "texture": "#0"},
				"west": {"uv": [0, 0, 0.5, 1.875], "rotation": 90, "texture": "#0"},
				"up": {"uv": [0, 0, 0.5, 1.875], "rotation": 90, "texture": "#0"},
				"down": {"uv": [0, 0, 0.5, 1.875], "rotation": 90, "texture": "#0"}
			}
		},
		{
			"from": [1.5, 10.5, 4],
			"to": [9, 13.5, 5],
			"rotation": {"angle": 0, "axis": "y", "origin": [3.5, 12, 4.5]},
			"faces": {
				"north": {"uv": [0, 0, 0.5, 1.875], "rotation": 270, "texture": "#0"},
				"east": {"uv": [0, 0, 0.5, 1.875], "rotation": 90, "texture": "#0"},
				"south": {"uv": [0, 0, 0.5, 1.875], "rotation": 90, "texture": "#0"},
				"west": {"uv": [0, 0, 0.5, 1.875], "rotation": 90, "texture": "#0"},
				"up": {"uv": [0, 0, 0.5, 1.875], "rotation": 90, "texture": "#0"},
				"down": {"uv": [0, 0, 0.5, 1.875], "rotation": 90, "texture": "#0"}
			}
		},
		{
			"from": [7.5, 9.3, 5.5],
			"to": [8.5, 10, 10.2],
			"rotation": {"angle": 0, "axis": "y", "origin": [8, 10.875, 7.875]},
			"faces": {
				"north": {"uv": [5.75, 12.5, 6.125, 12.875], "texture": "#0"},
				"east": {"uv": [5.75, 12.5, 6.125, 12.875], "texture": "#0"},
				"south": {"uv": [5.75, 12.5, 6.125, 12.875], "texture": "#0"},
				"west": {"uv": [5.75, 12.5, 6.125, 12.875], "texture": "#0"},
				"up": {"uv": [5.75, 12.5, 6.125, 12.875], "texture": "#0"},
				"down": {"uv": [5.75, 12.5, 6.125, 12.875], "texture": "#0"}
			}
		},
		{
			"from": [7.5, 9.3, 4],
			"to": [8.5, 14.7, 5.5],
			"rotation": {"angle": 0, "axis": "y", "origin": [20.5, 10, 12]},
			"faces": {
				"north": {"uv": [5.75, 12.5, 6.125, 12.875], "texture": "#0"},
				"east": {"uv": [5.75, 12.5, 6.125, 12.875], "texture": "#0"},
				"south": {"uv": [5.75, 12.5, 6.125, 12.875], "texture": "#0"},
				"west": {"uv": [5.75, 12.5, 6.125, 12.875], "texture": "#0"},
				"up": {"uv": [5.75, 12.5, 6.125, 12.875], "texture": "#0"},
				"down": {"uv": [5.75, 12.5, 6.125, 12.875], "texture": "#0"}
			}
		},
		{
			"from": [4, 9.5, 4],
			"to": [12, 14.5, 4.5],
			"rotation": {"angle": 0, "axis": "y", "origin": [8, 14, 4.25]},
			"faces": {
				"north": {"uv": [5.75, 12.5, 6.125, 12.875], "rotation": 270, "texture": "#0"},
				"east": {"uv": [5.75, 12.5, 6.125, 12.875], "rotation": 90, "texture": "#0"},
				"south": {"uv": [5.75, 12.5, 6.125, 12.875], "rotation": 90, "texture": "#0"},
				"west": {"uv": [5.75, 12.5, 6.125, 12.875], "rotation": 90, "texture": "#0"},
				"up": {"uv": [5.75, 12.5, 6.125, 12.875], "rotation": 90, "texture": "#0"},
				"down": {"uv": [5.75, 12.5, 6.125, 12.875], "rotation": 90, "texture": "#0"}
			}
		},
		{
			"from": [7.5, 14, 5.5],
			"to": [8.5, 14.7, 10.2],
			"rotation": {"angle": 0, "axis": "y", "origin": [8, 14.25, 7]},
			"faces": {
				"north": {"uv": [5.75, 12.5, 6.125, 12.875], "texture": "#0"},
				"east": {"uv": [5.75, 12.5, 6.125, 12.875], "texture": "#0"},
				"south": {"uv": [5.75, 12.5, 6.125, 12.875], "texture": "#0"},
				"west": {"uv": [5.75, 12.5, 6.125, 12.875], "texture": "#0"},
				"up": {"uv": [5.75, 12.5, 6.125, 12.875], "texture": "#0"},
				"down": {"uv": [5.75, 12.5, 6.125, 12.875], "texture": "#0"}
			}
		},
		{
			"from": [7.5, 10, 9.5],
			"to": [8.5, 14, 10.2],
			"rotation": {"angle": 0, "axis": "y", "origin": [8, 10.875, 8.875]},
			"faces": {
				"north": {"uv": [5.75, 12.5, 6.125, 12.875], "texture": "#0"},
				"east": {"uv": [5.75, 12.5, 6.125, 12.875], "texture": "#0"},
				"south": {"uv": [5.75, 12.5, 6.125, 12.875], "texture": "#0"},
				"west": {"uv": [5.75, 12.5, 6.125, 12.875], "texture": "#0"},
				"up": {"uv": [5.75, 12.5, 6.125, 12.875], "texture": "#0"},
				"down": {"uv": [5.75, 12.5, 6.125, 12.875], "texture": "#0"}
			}
		},
		{
			"from": [9, 10.5, 4],
			"to": [14.5, 13.5, 5],
			"rotation": {"angle": 0, "axis": "y", "origin": [12.5, 12, 4.5]},
			"faces": {
				"north": {"uv": [0, 1.875, 0.5, 0], "rotation": 270, "texture": "#0"},
				"east": {"uv": [0, 1.875, 0.5, 0], "rotation": 90, "texture": "#0"},
				"south": {"uv": [0, 1.875, 0.5, 0], "rotation": 90, "texture": "#0"},
				"west": {"uv": [0, 1.875, 0.5, 0], "rotation": 90, "texture": "#0"},
				"up": {"uv": [0, 1.875, 0.5, 0], "rotation": 90, "texture": "#0"},
				"down": {"uv": [0, 1.875, 0.5, 0], "rotation": 90, "texture": "#0"}
			}
		},
		{
			"from": [1.2, 14.7, 2.75],
			"to": [9.2, 24.9, 3.1],
			"rotation": {"angle": 0, "axis": "y", "origin": [9.2, 22.9, 10.7]},
			"faces": {
				"north": {"uv": [2.625, 12.5, 3.125, 13], "texture": "#0"},
				"east": {"uv": [2.625, 12.5, 3.125, 13], "texture": "#0"},
				"south": {"uv": [2.625, 12.5, 3.125, 13], "texture": "#0"},
				"west": {"uv": [2.625, 12.5, 3.125, 13], "texture": "#0"},
				"up": {"uv": [2.625, 12.5, 3.125, 13], "texture": "#0"},
				"down": {"uv": [2.625, 12.5, 3.125, 13], "texture": "#0"}
			}
		},
		{
			"from": [9.6, -0.3, 2.8],
			"to": [14.9, 6.7, 3.1],
			"rotation": {"angle": 0, "axis": "y", "origin": [9.6, 7.7, 10.7]},
			"faces": {
				"north": {"uv": [4.125, 10.25, 4.875, 10.875], "texture": "#0"},
				"east": {"uv": [4.125, 10.25, 4.875, 10.875], "texture": "#0"},
				"south": {"uv": [4.125, 10.25, 4.875, 10.875], "texture": "#0"},
				"west": {"uv": [4.125, 10.25, 4.875, 10.875], "texture": "#0"},
				"up": {"uv": [4.125, 10.25, 4.875, 10.875], "texture": "#0"},
				"down": {"uv": [4.125, 10.25, 4.875, 10.875], "texture": "#0"}
			}
		},
		{
			"from": [1.6, 5.7, 2.5],
			"to": [14.3, 19.7, 3.2],
			"rotation": {"angle": 0, "axis": "y", "origin": [9.4, 7.7, 10.7]},
			"faces": {
				"north": {"uv": [5.5, 12.375, 6.125, 13], "texture": "#0"},
				"east": {"uv": [5.5, 12.375, 6.125, 13], "texture": "#0"},
				"south": {"uv": [5.5, 12.375, 6.125, 13], "texture": "#0"},
				"west": {"uv": [5.5, 12.375, 6.125, 13], "texture": "#0"},
				"up": {"uv": [5.5, 12.375, 6.125, 13], "texture": "#0"},
				"down": {"uv": [5.5, 12.375, 6.125, 13], "texture": "#0"}
			}
		},
		{
			"from": [8, 18.5, 2.65],
			"to": [14.5, 25.5, 3.15],
			"rotation": {"angle": 0, "axis": "y", "origin": [13.3, 7.5, 10.6]},
			"faces": {
				"north": {"uv": [8.75, 9.875, 9.25, 10.5], "texture": "#0"},
				"east": {"uv": [8.75, 9.875, 9.25, 10.5], "texture": "#0"},
				"south": {"uv": [8.75, 9.875, 9.25, 10.5], "texture": "#0"},
				"west": {"uv": [8.75, 9.875, 9.25, 10.5], "texture": "#0"},
				"up": {"uv": [8.75, 9.875, 9.25, 10.5], "texture": "#0"},
				"down": {"uv": [8.75, 9.875, 9.25, 10.5], "texture": "#0"}
			}
		},
		{
			"from": [6.2, -0.5, 2.4],
			"to": [9.8, 7.1, 3.2],
			"rotation": {"angle": 0, "axis": "y", "origin": [14.4, -10.9, 10.2]},
			"faces": {
				"north": {"uv": [0.75, 10.5, 1.25, 11], "texture": "#0"},
				"east": {"uv": [0.75, 10.5, 1.25, 11], "texture": "#0"},
				"south": {"uv": [0.75, 10.5, 1.25, 11], "texture": "#0"},
				"west": {"uv": [0.75, 10.5, 1.25, 11], "texture": "#0"},
				"up": {"uv": [0.75, 10.5, 1.25, 11], "texture": "#0"},
				"down": {"uv": [0.75, 10.5, 1.25, 11], "texture": "#0"}
			}
		},
		{
			"from": [1.2, -0.7, 2.9],
			"to": [6.8, 6.1, 3.1],
			"rotation": {"angle": 0, "axis": "y", "origin": [1.2, -11.7, 10.7]},
			"faces": {
				"north": {"uv": [1.625, 12.625, 2.125, 13.125], "texture": "#0"},
				"east": {"uv": [1.625, 12.625, 2.125, 13.125], "texture": "#0"},
				"south": {"uv": [1.625, 12.625, 2.125, 13.125], "texture": "#0"},
				"west": {"uv": [1.625, 12.625, 2.125, 13.125], "texture": "#0"},
				"up": {"uv": [1.625, 12.625, 2.125, 13.125], "texture": "#0"},
				"down": {"uv": [1.625, 12.625, 2.125, 13.125], "texture": "#0"}
			}
		},
		{
			"from": [2.2, 4.5, 2.425],
			"to": [6.8, 9.1, 3],
			"rotation": {"angle": 0, "axis": "y", "origin": [11.4, -5.9, 10.2]},
			"faces": {
				"north": {"uv": [2, 3, 2.375, 3.25], "texture": "#0"},
				"east": {"uv": [2, 3, 2.375, 3.25], "texture": "#0"},
				"south": {"uv": [2, 3, 2.375, 3.25], "texture": "#0"},
				"west": {"uv": [2, 3, 2.375, 3.25], "texture": "#0"},
				"up": {"uv": [2, 3, 2.375, 3.25], "texture": "#0"},
				"down": {"uv": [2, 3, 2.375, 3.25], "texture": "#0"}
			}
		},
		{
			"from": [7.2, 16.5, 2.4],
			"to": [14.8, 20.1, 2.6],
			"rotation": {"angle": 22.5, "axis": "z", "origin": [11, 18.3, 2.5]},
			"faces": {
				"north": {"uv": [2.375, 3, 2, 3.25], "texture": "#0"},
				"east": {"uv": [2.375, 3, 2, 3.25], "texture": "#0"},
				"south": {"uv": [2.375, 3, 2, 3.25], "texture": "#0"},
				"west": {"uv": [2.375, 3, 2, 3.25], "texture": "#0"},
				"up": {"uv": [2.375, 3, 2, 3.25], "texture": "#0"},
				"down": {"uv": [2.375, 3, 2, 3.25], "texture": "#0"}
			}
		},
		{
			"from": [2.5, 8.2, 2.3],
			"to": [3, 8.7, 2.7],
			"rotation": {"angle": 45, "axis": "z", "origin": [2.75, 8.45, 2.2]},
			"faces": {
				"north": {"uv": [14.25, 6.375, 14.5, 6.625], "texture": "#0"},
				"east": {"uv": [14.25, 6.375, 14.5, 6.625], "texture": "#0"},
				"south": {"uv": [14.25, 6.375, 14.5, 6.625], "texture": "#0"},
				"west": {"uv": [14.25, 6.375, 14.5, 6.625], "texture": "#0"},
				"up": {"uv": [14.25, 6.375, 14.5, 6.625], "texture": "#0"},
				"down": {"uv": [14.25, 6.375, 14.5, 6.625], "texture": "#0"}
			}
		},
		{
			"from": [2.7, 5, 2.3],
			"to": [3.2, 5.5, 2.7],
			"rotation": {"angle": 45, "axis": "z", "origin": [2.95, 5.25, 2.2]},
			"faces": {
				"north": {"uv": [14.25, 6.375, 14.5, 6.625], "texture": "#0"},
				"east": {"uv": [14.25, 6.375, 14.5, 6.625], "texture": "#0"},
				"south": {"uv": [14.25, 6.375, 14.5, 6.625], "texture": "#0"},
				"west": {"uv": [14.25, 6.375, 14.5, 6.625], "texture": "#0"},
				"up": {"uv": [14.25, 6.375, 14.5, 6.625], "texture": "#0"},
				"down": {"uv": [14.25, 6.375, 14.5, 6.625], "texture": "#0"}
			}
		},
		{
			"from": [5.7, 8.1, 2.3],
			"to": [6.2, 8.6, 2.7],
			"rotation": {"angle": 45, "axis": "z", "origin": [5.95, 8.35, 2.2]},
			"faces": {
				"north": {"uv": [14.25, 6.375, 14.5, 6.625], "texture": "#0"},
				"east": {"uv": [14.25, 6.375, 14.5, 6.625], "texture": "#0"},
				"south": {"uv": [14.25, 6.375, 14.5, 6.625], "texture": "#0"},
				"west": {"uv": [14.25, 6.375, 14.5, 6.625], "texture": "#0"},
				"up": {"uv": [14.25, 6.375, 14.5, 6.625], "texture": "#0"},
				"down": {"uv": [14.25, 6.375, 14.5, 6.625], "texture": "#0"}
			}
		},
		{
			"from": [6.4, 6.4, 2.3],
			"to": [6.9, 6.9, 2.7],
			"rotation": {"angle": 45, "axis": "z", "origin": [6.65, 6.65, 2.2]},
			"faces": {
				"north": {"uv": [14.25, 6.375, 14.5, 6.625], "texture": "#0"},
				"east": {"uv": [14.25, 6.375, 14.5, 6.625], "texture": "#0"},
				"south": {"uv": [14.25, 6.375, 14.5, 6.625], "texture": "#0"},
				"west": {"uv": [14.25, 6.375, 14.5, 6.625], "texture": "#0"},
				"up": {"uv": [14.25, 6.375, 14.5, 6.625], "texture": "#0"},
				"down": {"uv": [14.25, 6.375, 14.5, 6.625], "texture": "#0"}
			}
		},
		{
			"from": [13.6, 18, 2.3],
			"to": [14.1, 18.5, 2.7],
			"rotation": {"angle": 45, "axis": "z", "origin": [13.85, 18.25, 2.2]},
			"faces": {
				"north": {"uv": [14.25, 6.375, 14.5, 6.625], "texture": "#0"},
				"east": {"uv": [14.25, 6.375, 14.5, 6.625], "texture": "#0"},
				"south": {"uv": [14.25, 6.375, 14.5, 6.625], "texture": "#0"},
				"west": {"uv": [14.25, 6.375, 14.5, 6.625], "texture": "#0"},
				"up": {"uv": [14.25, 6.375, 14.5, 6.625], "texture": "#0"},
				"down": {"uv": [14.25, 6.375, 14.5, 6.625], "texture": "#0"}
			}
		},
		{
			"from": [7.5, 17.9, 2.3],
			"to": [8, 18.4, 2.7],
			"rotation": {"angle": 45, "axis": "z", "origin": [7.75, 18.15, 2.2]},
			"faces": {
				"north": {"uv": [14.25, 6.375, 14.5, 6.625], "texture": "#0"},
				"east": {"uv": [14.25, 6.375, 14.5, 6.625], "texture": "#0"},
				"south": {"uv": [14.25, 6.375, 14.5, 6.625], "texture": "#0"},
				"west": {"uv": [14.25, 6.375, 14.5, 6.625], "texture": "#0"},
				"up": {"uv": [14.25, 6.375, 14.5, 6.625], "texture": "#0"},
				"down": {"uv": [14.25, 6.375, 14.5, 6.625], "texture": "#0"}
			}
		},
		{
			"from": [2, 18.7, 2.3],
			"to": [2.5, 19.2, 2.7],
			"rotation": {"angle": 45, "axis": "z", "origin": [2.25, 18.95, 2.2]},
			"faces": {
				"north": {"uv": [14.25, 6.375, 14.5, 6.625], "texture": "#0"},
				"east": {"uv": [14.25, 6.375, 14.5, 6.625], "texture": "#0"},
				"south": {"uv": [14.25, 6.375, 14.5, 6.625], "texture": "#0"},
				"west": {"uv": [14.25, 6.375, 14.5, 6.625], "texture": "#0"},
				"up": {"uv": [14.25, 6.375, 14.5, 6.625], "texture": "#0"},
				"down": {"uv": [14.25, 6.375, 14.5, 6.625], "texture": "#0"}
			}
		},
		{
			"from": [8.4, 16, 2.3],
			"to": [8.9, 16.5, 2.7],
			"rotation": {"angle": 45, "axis": "z", "origin": [8.65, 16.25, 2.2]},
			"faces": {
				"north": {"uv": [14.25, 6.375, 14.5, 6.625], "texture": "#0"},
				"east": {"uv": [14.25, 6.375, 14.5, 6.625], "texture": "#0"},
				"south": {"uv": [14.25, 6.375, 14.5, 6.625], "texture": "#0"},
				"west": {"uv": [14.25, 6.375, 14.5, 6.625], "texture": "#0"},
				"up": {"uv": [14.25, 6.375, 14.5, 6.625], "texture": "#0"},
				"down": {"uv": [14.25, 6.375, 14.5, 6.625], "texture": "#0"}
			}
		},
		{
			"from": [1.7, 23.1, 2.6],
			"to": [2.2, 23.6, 3],
			"rotation": {"angle": 45, "axis": "z", "origin": [1.95, 23.35, 2.5]},
			"faces": {
				"north": {"uv": [14.25, 6.375, 14.5, 6.625], "texture": "#0"},
				"east": {"uv": [14.25, 6.375, 14.5, 6.625], "texture": "#0"},
				"south": {"uv": [14.25, 6.375, 14.5, 6.625], "texture": "#0"},
				"west": {"uv": [14.25, 6.375, 14.5, 6.625], "texture": "#0"},
				"up": {"uv": [14.25, 6.375, 14.5, 6.625], "texture": "#0"},
				"down": {"uv": [14.25, 6.375, 14.5, 6.625], "texture": "#0"}
			}
		},
		{
			"from": [13.4, 11.4, 2.3],
			"to": [13.9, 11.9, 2.7],
			"rotation": {"angle": 45, "axis": "z", "origin": [13.65, 11.65, 2.2]},
			"faces": {
				"north": {"uv": [14.25, 6.375, 14.5, 6.625], "texture": "#0"},
				"east": {"uv": [14.25, 6.375, 14.5, 6.625], "texture": "#0"},
				"south": {"uv": [14.25, 6.375, 14.5, 6.625], "texture": "#0"},
				"west": {"uv": [14.25, 6.375, 14.5, 6.625], "texture": "#0"},
				"up": {"uv": [14.25, 6.375, 14.5, 6.625], "texture": "#0"},
				"down": {"uv": [14.25, 6.375, 14.5, 6.625], "texture": "#0"}
			}
		},
		{
			"from": [2.4, 11.4, 2.3],
			"to": [2.9, 11.9, 2.7],
			"rotation": {"angle": 45, "axis": "z", "origin": [2.65, 11.65, 2.2]},
			"faces": {
				"north": {"uv": [14.25, 6.375, 14.5, 6.625], "texture": "#0"},
				"east": {"uv": [14.25, 6.375, 14.5, 6.625], "texture": "#0"},
				"south": {"uv": [14.25, 6.375, 14.5, 6.625], "texture": "#0"},
				"west": {"uv": [14.25, 6.375, 14.5, 6.625], "texture": "#0"},
				"up": {"uv": [14.25, 6.375, 14.5, 6.625], "texture": "#0"},
				"down": {"uv": [14.25, 6.375, 14.5, 6.625], "texture": "#0"}
			}
		},
		{
			"from": [2, 15.4, 2.3],
			"to": [2.5, 15.9, 2.7],
			"rotation": {"angle": 45, "axis": "z", "origin": [2.25, 15.65, 2.2]},
			"faces": {
				"north": {"uv": [14.25, 6.375, 14.5, 6.625], "texture": "#0"},
				"east": {"uv": [14.25, 6.375, 14.5, 6.625], "texture": "#0"},
				"south": {"uv": [14.25, 6.375, 14.5, 6.625], "texture": "#0"},
				"west": {"uv": [14.25, 6.375, 14.5, 6.625], "texture": "#0"},
				"up": {"uv": [14.25, 6.375, 14.5, 6.625], "texture": "#0"},
				"down": {"uv": [14.25, 6.375, 14.5, 6.625], "texture": "#0"}
			}
		},
		{
			"from": [13.4, 16.4, 2.3],
			"to": [13.9, 16.9, 2.7],
			"rotation": {"angle": 45, "axis": "z", "origin": [13.65, 16.65, 2.2]},
			"faces": {
				"north": {"uv": [14.25, 6.375, 14.5, 6.625], "texture": "#0"},
				"east": {"uv": [14.25, 6.375, 14.5, 6.625], "texture": "#0"},
				"south": {"uv": [14.25, 6.375, 14.5, 6.625], "texture": "#0"},
				"west": {"uv": [14.25, 6.375, 14.5, 6.625], "texture": "#0"},
				"up": {"uv": [14.25, 6.375, 14.5, 6.625], "texture": "#0"},
				"down": {"uv": [14.25, 6.375, 14.5, 6.625], "texture": "#0"}
			}
		},
		{
			"from": [9.1, 6.4, 2.3],
			"to": [9.6, 6.9, 2.7],
			"rotation": {"angle": 45, "axis": "z", "origin": [9.35, 6.65, 2.2]},
			"faces": {
				"north": {"uv": [14.25, 6.375, 14.5, 6.625], "texture": "#0"},
				"east": {"uv": [14.25, 6.375, 14.5, 6.625], "texture": "#0"},
				"south": {"uv": [14.25, 6.375, 14.5, 6.625], "texture": "#0"},
				"west": {"uv": [14.25, 6.375, 14.5, 6.625], "texture": "#0"},
				"up": {"uv": [14.25, 6.375, 14.5, 6.625], "texture": "#0"},
				"down": {"uv": [14.25, 6.375, 14.5, 6.625], "texture": "#0"}
			}
		},
		{
			"from": [13.4, 6.4, 2.3],
			"to": [13.9, 6.9, 2.7],
			"rotation": {"angle": 45, "axis": "z", "origin": [13.65, 6.65, 2.2]},
			"faces": {
				"north": {"uv": [14.25, 6.375, 14.5, 6.625], "texture": "#0"},
				"east": {"uv": [14.25, 6.375, 14.5, 6.625], "texture": "#0"},
				"south": {"uv": [14.25, 6.375, 14.5, 6.625], "texture": "#0"},
				"west": {"uv": [14.25, 6.375, 14.5, 6.625], "texture": "#0"},
				"up": {"uv": [14.25, 6.375, 14.5, 6.625], "texture": "#0"},
				"down": {"uv": [14.25, 6.375, 14.5, 6.625], "texture": "#0"}
			}
		},
		{
			"from": [6.4, 0.8, 2.3],
			"to": [6.9, 1.3, 2.7],
			"rotation": {"angle": 45, "axis": "z", "origin": [6.65, 1.05, 2.2]},
			"faces": {
				"north": {"uv": [14.25, 6.375, 14.5, 6.625], "texture": "#0"},
				"east": {"uv": [14.25, 6.375, 14.5, 6.625], "texture": "#0"},
				"south": {"uv": [14.25, 6.375, 14.5, 6.625], "texture": "#0"},
				"west": {"uv": [14.25, 6.375, 14.5, 6.625], "texture": "#0"},
				"up": {"uv": [14.25, 6.375, 14.5, 6.625], "texture": "#0"},
				"down": {"uv": [14.25, 6.375, 14.5, 6.625], "texture": "#0"}
			}
		},
		{
			"from": [8.7, 0.4, 2.3],
			"to": [9.2, 0.9, 2.7],
			"rotation": {"angle": 45, "axis": "z", "origin": [8.95, 0.65, 2.2]},
			"faces": {
				"north": {"uv": [14.25, 6.375, 14.5, 6.625], "texture": "#0"},
				"east": {"uv": [14.25, 6.375, 14.5, 6.625], "texture": "#0"},
				"south": {"uv": [14.25, 6.375, 14.5, 6.625], "texture": "#0"},
				"west": {"uv": [14.25, 6.375, 14.5, 6.625], "texture": "#0"},
				"up": {"uv": [14.25, 6.375, 14.5, 6.625], "texture": "#0"},
				"down": {"uv": [14.25, 6.375, 14.5, 6.625], "texture": "#0"}
			}
		},
		{
			"from": [13.4, 0.4, 2.6],
			"to": [13.9, 0.9, 3],
			"rotation": {"angle": 45, "axis": "z", "origin": [13.65, 0.65, 2.5]},
			"faces": {
				"north": {"uv": [14.25, 6.375, 14.5, 6.625], "texture": "#0"},
				"east": {"uv": [14.25, 6.375, 14.5, 6.625], "texture": "#0"},
				"south": {"uv": [14.25, 6.375, 14.5, 6.625], "texture": "#0"},
				"west": {"uv": [14.25, 6.375, 14.5, 6.625], "texture": "#0"},
				"up": {"uv": [14.25, 6.375, 14.5, 6.625], "texture": "#0"},
				"down": {"uv": [14.25, 6.375, 14.5, 6.625], "texture": "#0"}
			}
		},
		{
			"from": [13.4, 3.4, 2.6],
			"to": [13.9, 3.9, 3],
			"rotation": {"angle": 45, "axis": "z", "origin": [13.65, 3.65, 2.5]},
			"faces": {
				"north": {"uv": [14.25, 6.375, 14.5, 6.625], "texture": "#0"},
				"east": {"uv": [14.25, 6.375, 14.5, 6.625], "texture": "#0"},
				"south": {"uv": [14.25, 6.375, 14.5, 6.625], "texture": "#0"},
				"west": {"uv": [14.25, 6.375, 14.5, 6.625], "texture": "#0"},
				"up": {"uv": [14.25, 6.375, 14.5, 6.625], "texture": "#0"},
				"down": {"uv": [14.25, 6.375, 14.5, 6.625], "texture": "#0"}
			}
		},
		{
			"from": [2.4, 2.4, 2.7],
			"to": [2.9, 2.9, 3.1],
			"rotation": {"angle": 45, "axis": "z", "origin": [2.65, 2.65, 2.6]},
			"faces": {
				"north": {"uv": [14.25, 6.375, 14.5, 6.625], "texture": "#0"},
				"east": {"uv": [14.25, 6.375, 14.5, 6.625], "texture": "#0"},
				"south": {"uv": [14.25, 6.375, 14.5, 6.625], "texture": "#0"},
				"west": {"uv": [14.25, 6.375, 14.5, 6.625], "texture": "#0"},
				"up": {"uv": [14.25, 6.375, 14.5, 6.625], "texture": "#0"},
				"down": {"uv": [14.25, 6.375, 14.5, 6.625], "texture": "#0"}
			}
		},
		{
			"from": [5.1, 0.6, 2.7],
			"to": [5.6, 1.1, 3.1],
			"rotation": {"angle": 45, "axis": "z", "origin": [5.35, 0.85, 2.6]},
			"faces": {
				"north": {"uv": [14.25, 6.375, 14.5, 6.625], "texture": "#0"},
				"east": {"uv": [14.25, 6.375, 14.5, 6.625], "texture": "#0"},
				"south": {"uv": [14.25, 6.375, 14.5, 6.625], "texture": "#0"},
				"west": {"uv": [14.25, 6.375, 14.5, 6.625], "texture": "#0"},
				"up": {"uv": [14.25, 6.375, 14.5, 6.625], "texture": "#0"},
				"down": {"uv": [14.25, 6.375, 14.5, 6.625], "texture": "#0"}
			}
		},
		{
			"from": [13.4, 23, 2.5],
			"to": [13.9, 23.5, 3],
			"rotation": {"angle": 45, "axis": "z", "origin": [13.65, 23.25, 2.5]},
			"faces": {
				"north": {"uv": [14.25, 6.375, 14.5, 6.625], "texture": "#0"},
				"east": {"uv": [14.25, 6.375, 14.5, 6.625], "texture": "#0"},
				"south": {"uv": [14.25, 6.375, 14.5, 6.625], "texture": "#0"},
				"west": {"uv": [14.25, 6.375, 14.5, 6.625], "texture": "#0"},
				"up": {"uv": [14.25, 6.375, 14.5, 6.625], "texture": "#0"},
				"down": {"uv": [14.25, 6.375, 14.5, 6.625], "texture": "#0"}
			}
		},
		{
			"from": [6.4, 23.4, 2.6],
			"to": [6.9, 23.9, 3],
			"rotation": {"angle": 45, "axis": "z", "origin": [6.65, 23.65, 2.5]},
			"faces": {
				"north": {"uv": [14.25, 6.375, 14.5, 6.625], "texture": "#0"},
				"east": {"uv": [14.25, 6.375, 14.5, 6.625], "texture": "#0"},
				"south": {"uv": [14.25, 6.375, 14.5, 6.625], "texture": "#0"},
				"west": {"uv": [14.25, 6.375, 14.5, 6.625], "texture": "#0"},
				"up": {"uv": [14.25, 6.375, 14.5, 6.625], "texture": "#0"},
				"down": {"uv": [14.25, 6.375, 14.5, 6.625], "texture": "#0"}
			}
		},
		{
			"from": [9.1, 22.5, 2.5],
			"to": [9.6, 23, 3],
			"rotation": {"angle": 45, "axis": "z", "origin": [9.35, 22.75, 2.5]},
			"faces": {
				"north": {"uv": [14.25, 6.375, 14.5, 6.625], "texture": "#0"},
				"east": {"uv": [14.25, 6.375, 14.5, 6.625], "texture": "#0"},
				"south": {"uv": [14.25, 6.375, 14.5, 6.625], "texture": "#0"},
				"west": {"uv": [14.25, 6.375, 14.5, 6.625], "texture": "#0"},
				"up": {"uv": [14.25, 6.375, 14.5, 6.625], "texture": "#0"},
				"down": {"uv": [14.25, 6.375, 14.5, 6.625], "texture": "#0"}
			}
		},
		{
			"from": [13.2, 20.4, 2.3],
			"to": [13.7, 20.9, 2.7],
			"rotation": {"angle": 45, "axis": "z", "origin": [13.45, 20.65, 2.2]},
			"faces": {
				"north": {"uv": [14.25, 6.375, 14.5, 6.625], "texture": "#0"},
				"east": {"uv": [14.25, 6.375, 14.5, 6.625], "texture": "#0"},
				"south": {"uv": [14.25, 6.375, 14.5, 6.625], "texture": "#0"},
				"west": {"uv": [14.25, 6.375, 14.5, 6.625], "texture": "#0"},
				"up": {"uv": [14.25, 6.375, 14.5, 6.625], "texture": "#0"},
				"down": {"uv": [14.25, 6.375, 14.5, 6.625], "texture": "#0"}
			}
		},
		{
			"from": [5.4, 18.6, 2.3],
			"to": [5.9, 19.1, 2.7],
			"rotation": {"angle": 45, "axis": "z", "origin": [5.65, 18.85, 2.2]},
			"faces": {
				"north": {"uv": [14.25, 6.375, 14.5, 6.625], "texture": "#0"},
				"east": {"uv": [14.25, 6.375, 14.5, 6.625], "texture": "#0"},
				"south": {"uv": [14.25, 6.375, 14.5, 6.625], "texture": "#0"},
				"west": {"uv": [14.25, 6.375, 14.5, 6.625], "texture": "#0"},
				"up": {"uv": [14.25, 6.375, 14.5, 6.625], "texture": "#0"},
				"down": {"uv": [14.25, 6.375, 14.5, 6.625], "texture": "#0"}
			}
		},
		{
			"from": [4.275, 16.10581, 0.55356],
			"to": [4.375, 16.20581, 0.67856],
			"rotation": {"angle": -45, "axis": "z", "origin": [4.37438, 16.22113, 0.55545]},
			"faces": {
				"north": {"uv": [2.625, 9.75, 2.75, 9.875], "rotation": 90, "texture": "#0"},
				"east": {"uv": [2.625, 9.75, 2.75, 9.875], "rotation": 90, "texture": "#0"},
				"south": {"uv": [2.625, 9.75, 2.75, 9.875], "rotation": 90, "texture": "#0"},
				"west": {"uv": [2.625, 9.75, 2.75, 9.875], "rotation": 90, "texture": "#0"},
				"up": {"uv": [2.625, 9.75, 2.75, 9.875], "rotation": 90, "texture": "#0"},
				"down": {"uv": [2.625, 9.75, 2.75, 9.875], "rotation": 90, "texture": "#0"}
			}
		},
		{
			"from": [4.2, 16.10581, 0.62856],
			"to": [4.4, 16.30581, 0.82856],
			"rotation": {"angle": -45, "axis": "z", "origin": [4.29938, 16.22113, 0.50545]},
			"faces": {
				"north": {"uv": [2.625, 9.75, 2.75, 9.875], "rotation": 90, "texture": "#0"},
				"east": {"uv": [2.625, 9.75, 2.75, 9.875], "rotation": 90, "texture": "#0"},
				"south": {"uv": [2.625, 9.75, 2.75, 9.875], "rotation": 90, "texture": "#0"},
				"west": {"uv": [2.625, 9.75, 2.75, 9.875], "rotation": 90, "texture": "#0"},
				"up": {"uv": [2.625, 9.75, 2.75, 9.875], "rotation": 90, "texture": "#0"},
				"down": {"uv": [2.625, 9.75, 2.75, 9.875], "rotation": 90, "texture": "#0"}
			}
		},
		{
			"from": [4.1, 16.00581, 0.80356],
			"to": [4.5, 16.40581, 1.12856],
			"rotation": {"angle": -45, "axis": "z", "origin": [4.29938, 16.22113, 0.80545]},
			"faces": {
				"north": {"uv": [2.625, 9.75, 2.75, 9.875], "rotation": 90, "texture": "#0"},
				"east": {"uv": [2.625, 9.75, 2.75, 9.875], "rotation": 90, "texture": "#0"},
				"south": {"uv": [2.625, 9.75, 2.75, 9.875], "rotation": 90, "texture": "#0"},
				"west": {"uv": [2.625, 9.75, 2.75, 9.875], "rotation": 90, "texture": "#0"},
				"up": {"uv": [2.625, 9.75, 2.75, 9.875], "rotation": 90, "texture": "#0"},
				"down": {"uv": [2.625, 9.75, 2.75, 9.875], "rotation": 90, "texture": "#0"}
			}
		},
		{
			"from": [4, 15.90581, 1.10356],
			"to": [4.6, 16.50581, 1.42856],
			"rotation": {"angle": -45, "axis": "z", "origin": [4.29938, 16.22113, 1.10545]},
			"faces": {
				"north": {"uv": [2.625, 9.75, 2.75, 9.875], "rotation": 90, "texture": "#0"},
				"east": {"uv": [2.625, 9.75, 2.75, 9.875], "rotation": 90, "texture": "#0"},
				"south": {"uv": [2.625, 9.75, 2.75, 9.875], "rotation": 90, "texture": "#0"},
				"west": {"uv": [2.625, 9.75, 2.75, 9.875], "rotation": 90, "texture": "#0"},
				"up": {"uv": [2.625, 9.75, 2.75, 9.875], "rotation": 90, "texture": "#0"},
				"down": {"uv": [2.625, 9.75, 2.75, 9.875], "rotation": 90, "texture": "#0"}
			}
		},
		{
			"from": [3.9, 15.80581, 1.40356],
			"to": [4.7, 16.60581, 1.92856],
			"rotation": {"angle": -45, "axis": "z", "origin": [4.29938, 16.22113, 1.40545]},
			"faces": {
				"north": {"uv": [2.625, 9.75, 2.75, 9.875], "rotation": 90, "texture": "#0"},
				"east": {"uv": [2.625, 9.75, 2.75, 9.875], "rotation": 90, "texture": "#0"},
				"south": {"uv": [2.625, 9.75, 2.75, 9.875], "rotation": 90, "texture": "#0"},
				"west": {"uv": [2.625, 9.75, 2.75, 9.875], "rotation": 90, "texture": "#0"},
				"up": {"uv": [2.625, 9.75, 2.75, 9.875], "rotation": 90, "texture": "#0"},
				"down": {"uv": [2.625, 9.75, 2.75, 9.875], "rotation": 90, "texture": "#0"}
			}
		},
		{
			"from": [4.3, 15.9, 1.775],
			"to": [5.3, 16.9, 2.475],
			"rotation": {"angle": -45, "axis": "z", "origin": [4.3, 16.9, 1.875]},
			"faces": {
				"north": {"uv": [2.625, 9.75, 2.75, 9.875], "rotation": 90, "texture": "#0"},
				"east": {"uv": [2.625, 9.75, 2.75, 9.875], "rotation": 90, "texture": "#0"},
				"south": {"uv": [2.625, 9.75, 2.75, 9.875], "rotation": 90, "texture": "#0"},
				"west": {"uv": [2.625, 9.75, 2.75, 9.875], "rotation": 90, "texture": "#0"},
				"up": {"uv": [2.625, 9.75, 2.75, 9.875], "rotation": 90, "texture": "#0"},
				"down": {"uv": [2.625, 9.75, 2.75, 9.875], "rotation": 90, "texture": "#0"}
			}
		},
		{
			"from": [3.3, 15.2, 2.275],
			"to": [5.3, 17.2, 2.475],
			"rotation": {"angle": -45, "axis": "z", "origin": [4.3, 16.2, 2.375]},
			"faces": {
				"north": {"uv": [5.875, 12.625, 6.25, 13], "rotation": 90, "texture": "#0"},
				"east": {"uv": [5.875, 12.625, 6.25, 13], "rotation": 90, "texture": "#0"},
				"south": {"uv": [5.875, 12.625, 6.25, 13], "rotation": 90, "texture": "#0"},
				"west": {"uv": [5.875, 12.625, 6.25, 13], "rotation": 90, "texture": "#0"},
				"up": {"uv": [5.875, 12.625, 6.25, 13], "rotation": 90, "texture": "#0"},
				"down": {"uv": [5.875, 12.625, 6.25, 13], "rotation": 90, "texture": "#0"}
			}
		},
		{
			"from": [5.5, 15.2, 2.25],
			"to": [5.8, 15.5, 2.45],
			"rotation": {"angle": -45, "axis": "z", "origin": [6.5, 16.2, 2.35]},
			"faces": {
				"north": {"uv": [3.625, 10.625, 3.75, 10.75], "rotation": 90, "texture": "#0"},
				"east": {"uv": [3.625, 10.625, 3.75, 10.75], "rotation": 90, "texture": "#0"},
				"south": {"uv": [3.625, 10.625, 3.75, 10.75], "rotation": 90, "texture": "#0"},
				"west": {"uv": [3.625, 10.625, 3.75, 10.75], "rotation": 90, "texture": "#0"},
				"up": {"uv": [3.625, 10.625, 3.75, 10.75], "rotation": 90, "texture": "#0"},
				"down": {"uv": [3.625, 10.625, 3.75, 10.75], "rotation": 90, "texture": "#0"}
			}
		},
		{
			"from": [3.44081, 15.34289, 2.25],
			"to": [3.74081, 15.64289, 2.45],
			"rotation": {"angle": 45, "axis": "z", "origin": [4.29792, 16.2, 2.35]},
			"faces": {
				"north": {"uv": [3.625, 10.625, 3.75, 10.75], "rotation": 90, "texture": "#0"},
				"east": {"uv": [3.625, 10.625, 3.75, 10.75], "rotation": 90, "texture": "#0"},
				"south": {"uv": [3.625, 10.625, 3.75, 10.75], "rotation": 90, "texture": "#0"},
				"west": {"uv": [3.625, 10.625, 3.75, 10.75], "rotation": 90, "texture": "#0"},
				"up": {"uv": [3.625, 10.625, 3.75, 10.75], "rotation": 90, "texture": "#0"},
				"down": {"uv": [3.625, 10.625, 3.75, 10.75], "rotation": 90, "texture": "#0"}
			}
		},
		{
			"from": [3.5, 15.2, 2.25],
			"to": [3.8, 15.5, 2.45],
			"rotation": {"angle": -45, "axis": "z", "origin": [4.5, 16.2, 2.35]},
			"faces": {
				"north": {"uv": [3.625, 10.625, 3.75, 10.75], "rotation": 90, "texture": "#0"},
				"east": {"uv": [3.625, 10.625, 3.75, 10.75], "rotation": 90, "texture": "#0"},
				"south": {"uv": [3.625, 10.625, 3.75, 10.75], "rotation": 90, "texture": "#0"},
				"west": {"uv": [3.625, 10.625, 3.75, 10.75], "rotation": 90, "texture": "#0"},
				"up": {"uv": [3.625, 10.625, 3.75, 10.75], "rotation": 90, "texture": "#0"},
				"down": {"uv": [3.625, 10.625, 3.75, 10.75], "rotation": 90, "texture": "#0"}
			}
		},
		{
			"from": [4.85503, 16.75711, 2.25],
			"to": [5.15503, 17.05711, 2.45],
			"rotation": {"angle": 45, "axis": "z", "origin": [4.29792, 16.2, 2.35]},
			"faces": {
				"north": {"uv": [3.625, 10.625, 3.75, 10.75], "rotation": 90, "texture": "#0"},
				"east": {"uv": [3.625, 10.625, 3.75, 10.75], "rotation": 90, "texture": "#0"},
				"south": {"uv": [3.625, 10.625, 3.75, 10.75], "rotation": 90, "texture": "#0"},
				"west": {"uv": [3.625, 10.625, 3.75, 10.75], "rotation": 90, "texture": "#0"},
				"up": {"uv": [3.625, 10.625, 3.75, 10.75], "rotation": 90, "texture": "#0"},
				"down": {"uv": [3.625, 10.625, 3.75, 10.75], "rotation": 90, "texture": "#0"}
			}
		},
		{
			"from": [12.275, 10.10581, 0.55356],
			"to": [12.375, 10.20581, 0.67856],
			"rotation": {"angle": -45, "axis": "z", "origin": [12.37438, 10.22113, 0.55545]},
			"faces": {
				"north": {"uv": [2.625, 9.75, 2.75, 9.875], "rotation": 90, "texture": "#0"},
				"east": {"uv": [2.625, 9.75, 2.75, 9.875], "rotation": 90, "texture": "#0"},
				"south": {"uv": [2.625, 9.75, 2.75, 9.875], "rotation": 90, "texture": "#0"},
				"west": {"uv": [2.625, 9.75, 2.75, 9.875], "rotation": 90, "texture": "#0"},
				"up": {"uv": [2.625, 9.75, 2.75, 9.875], "rotation": 90, "texture": "#0"},
				"down": {"uv": [2.625, 9.75, 2.75, 9.875], "rotation": 90, "texture": "#0"}
			}
		},
		{
			"from": [12.2, 10.10581, 0.62856],
			"to": [12.4, 10.30581, 0.82856],
			"rotation": {"angle": -45, "axis": "z", "origin": [12.29938, 10.22113, 0.50545]},
			"faces": {
				"north": {"uv": [2.625, 9.75, 2.75, 9.875], "rotation": 90, "texture": "#0"},
				"east": {"uv": [2.625, 9.75, 2.75, 9.875], "rotation": 90, "texture": "#0"},
				"south": {"uv": [2.625, 9.75, 2.75, 9.875], "rotation": 90, "texture": "#0"},
				"west": {"uv": [2.625, 9.75, 2.75, 9.875], "rotation": 90, "texture": "#0"},
				"up": {"uv": [2.625, 9.75, 2.75, 9.875], "rotation": 90, "texture": "#0"},
				"down": {"uv": [2.625, 9.75, 2.75, 9.875], "rotation": 90, "texture": "#0"}
			}
		},
		{
			"from": [12.1, 10.00581, 0.80356],
			"to": [12.5, 10.40581, 1.12856],
			"rotation": {"angle": -45, "axis": "z", "origin": [12.29938, 10.22113, 0.80545]},
			"faces": {
				"north": {"uv": [2.625, 9.75, 2.75, 9.875], "rotation": 90, "texture": "#0"},
				"east": {"uv": [2.625, 9.75, 2.75, 9.875], "rotation": 90, "texture": "#0"},
				"south": {"uv": [2.625, 9.75, 2.75, 9.875], "rotation": 90, "texture": "#0"},
				"west": {"uv": [2.625, 9.75, 2.75, 9.875], "rotation": 90, "texture": "#0"},
				"up": {"uv": [2.625, 9.75, 2.75, 9.875], "rotation": 90, "texture": "#0"},
				"down": {"uv": [2.625, 9.75, 2.75, 9.875], "rotation": 90, "texture": "#0"}
			}
		},
		{
			"from": [12, 9.90581, 1.10356],
			"to": [12.6, 10.50581, 1.42856],
			"rotation": {"angle": -45, "axis": "z", "origin": [12.29938, 10.22113, 1.10545]},
			"faces": {
				"north": {"uv": [2.625, 9.75, 2.75, 9.875], "rotation": 90, "texture": "#0"},
				"east": {"uv": [2.625, 9.75, 2.75, 9.875], "rotation": 90, "texture": "#0"},
				"south": {"uv": [2.625, 9.75, 2.75, 9.875], "rotation": 90, "texture": "#0"},
				"west": {"uv": [2.625, 9.75, 2.75, 9.875], "rotation": 90, "texture": "#0"},
				"up": {"uv": [2.625, 9.75, 2.75, 9.875], "rotation": 90, "texture": "#0"},
				"down": {"uv": [2.625, 9.75, 2.75, 9.875], "rotation": 90, "texture": "#0"}
			}
		},
		{
			"from": [11.9, 9.80581, 1.40356],
			"to": [12.7, 10.60581, 1.92856],
			"rotation": {"angle": -45, "axis": "z", "origin": [12.29938, 10.22113, 1.40545]},
			"faces": {
				"north": {"uv": [2.625, 9.75, 2.75, 9.875], "rotation": 90, "texture": "#0"},
				"east": {"uv": [2.625, 9.75, 2.75, 9.875], "rotation": 90, "texture": "#0"},
				"south": {"uv": [2.625, 9.75, 2.75, 9.875], "rotation": 90, "texture": "#0"},
				"west": {"uv": [2.625, 9.75, 2.75, 9.875], "rotation": 90, "texture": "#0"},
				"up": {"uv": [2.625, 9.75, 2.75, 9.875], "rotation": 90, "texture": "#0"},
				"down": {"uv": [2.625, 9.75, 2.75, 9.875], "rotation": 90, "texture": "#0"}
			}
		},
		{
			"from": [12.3, 9.9, 1.775],
			"to": [13.3, 10.9, 2.475],
			"rotation": {"angle": -45, "axis": "z", "origin": [12.3, 10.9, 1.875]},
			"faces": {
				"north": {"uv": [2.625, 9.75, 2.75, 9.875], "rotation": 90, "texture": "#0"},
				"east": {"uv": [2.625, 9.75, 2.75, 9.875], "rotation": 90, "texture": "#0"},
				"south": {"uv": [2.625, 9.75, 2.75, 9.875], "rotation": 90, "texture": "#0"},
				"west": {"uv": [2.625, 9.75, 2.75, 9.875], "rotation": 90, "texture": "#0"},
				"up": {"uv": [2.625, 9.75, 2.75, 9.875], "rotation": 90, "texture": "#0"},
				"down": {"uv": [2.625, 9.75, 2.75, 9.875], "rotation": 90, "texture": "#0"}
			}
		},
		{
			"from": [11.3, 9.2, 2.275],
			"to": [13.3, 11.2, 2.475],
			"rotation": {"angle": -45, "axis": "z", "origin": [12.3, 10.2, 2.375]},
			"faces": {
				"north": {"uv": [5.875, 12.625, 6.25, 13], "rotation": 90, "texture": "#0"},
				"east": {"uv": [5.875, 12.625, 6.25, 13], "rotation": 90, "texture": "#0"},
				"south": {"uv": [5.875, 12.625, 6.25, 13], "rotation": 90, "texture": "#0"},
				"west": {"uv": [5.875, 12.625, 6.25, 13], "rotation": 90, "texture": "#0"},
				"up": {"uv": [5.875, 12.625, 6.25, 13], "rotation": 90, "texture": "#0"},
				"down": {"uv": [5.875, 12.625, 6.25, 13], "rotation": 90, "texture": "#0"}
			}
		},
		{
			"from": [13.5, 9.2, 2.25],
			"to": [13.8, 9.5, 2.45],
			"rotation": {"angle": -45, "axis": "z", "origin": [14.5, 10.2, 2.35]},
			"faces": {
				"north": {"uv": [3.625, 10.625, 3.75, 10.75], "rotation": 90, "texture": "#0"},
				"east": {"uv": [3.625, 10.625, 3.75, 10.75], "rotation": 90, "texture": "#0"},
				"south": {"uv": [3.625, 10.625, 3.75, 10.75], "rotation": 90, "texture": "#0"},
				"west": {"uv": [3.625, 10.625, 3.75, 10.75], "rotation": 90, "texture": "#0"},
				"up": {"uv": [3.625, 10.625, 3.75, 10.75], "rotation": 90, "texture": "#0"},
				"down": {"uv": [3.625, 10.625, 3.75, 10.75], "rotation": 90, "texture": "#0"}
			}
		},
		{
			"from": [11.44081, 9.34289, 2.25],
			"to": [11.74081, 9.64289, 2.45],
			"rotation": {"angle": 45, "axis": "z", "origin": [12.29792, 10.2, 2.35]},
			"faces": {
				"north": {"uv": [3.625, 10.625, 3.75, 10.75], "rotation": 90, "texture": "#0"},
				"east": {"uv": [3.625, 10.625, 3.75, 10.75], "rotation": 90, "texture": "#0"},
				"south": {"uv": [3.625, 10.625, 3.75, 10.75], "rotation": 90, "texture": "#0"},
				"west": {"uv": [3.625, 10.625, 3.75, 10.75], "rotation": 90, "texture": "#0"},
				"up": {"uv": [3.625, 10.625, 3.75, 10.75], "rotation": 90, "texture": "#0"},
				"down": {"uv": [3.625, 10.625, 3.75, 10.75], "rotation": 90, "texture": "#0"}
			}
		},
		{
			"from": [11.5, 9.2, 2.25],
			"to": [11.8, 9.5, 2.45],
			"rotation": {"angle": -45, "axis": "z", "origin": [12.5, 10.2, 2.35]},
			"faces": {
				"north": {"uv": [3.625, 10.625, 3.75, 10.75], "rotation": 90, "texture": "#0"},
				"east": {"uv": [3.625, 10.625, 3.75, 10.75], "rotation": 90, "texture": "#0"},
				"south": {"uv": [3.625, 10.625, 3.75, 10.75], "rotation": 90, "texture": "#0"},
				"west": {"uv": [3.625, 10.625, 3.75, 10.75], "rotation": 90, "texture": "#0"},
				"up": {"uv": [3.625, 10.625, 3.75, 10.75], "rotation": 90, "texture": "#0"},
				"down": {"uv": [3.625, 10.625, 3.75, 10.75], "rotation": 90, "texture": "#0"}
			}
		},
		{
			"from": [12.85503, 10.75711, 2.25],
			"to": [13.15503, 11.05711, 2.45],
			"rotation": {"angle": 45, "axis": "z", "origin": [12.29792, 10.2, 2.35]},
			"faces": {
				"north": {"uv": [3.625, 10.625, 3.75, 10.75], "rotation": 90, "texture": "#0"},
				"east": {"uv": [3.625, 10.625, 3.75, 10.75], "rotation": 90, "texture": "#0"},
				"south": {"uv": [3.625, 10.625, 3.75, 10.75], "rotation": 90, "texture": "#0"},
				"west": {"uv": [3.625, 10.625, 3.75, 10.75], "rotation": 90, "texture": "#0"},
				"up": {"uv": [3.625, 10.625, 3.75, 10.75], "rotation": 90, "texture": "#0"},
				"down": {"uv": [3.625, 10.625, 3.75, 10.75], "rotation": 90, "texture": "#0"}
			}
		},
		{
			"from": [8.04792, 3.15905, 0.55356],
			"to": [8.14792, 3.25905, 0.67856],
			"rotation": {"angle": 22.5, "axis": "z", "origin": [8.09462, 3.20383, 1.74025]},
			"faces": {
				"north": {"uv": [2.625, 9.75, 2.75, 9.875], "texture": "#0"},
				"east": {"uv": [2.625, 9.75, 2.75, 9.875], "rotation": 180, "texture": "#0"},
				"south": {"uv": [2.625, 9.75, 2.75, 9.875], "rotation": 180, "texture": "#0"},
				"west": {"uv": [2.625, 9.75, 2.75, 9.875], "rotation": 180, "texture": "#0"},
				"up": {"uv": [2.625, 9.75, 2.75, 9.875], "rotation": 180, "texture": "#0"},
				"down": {"uv": [2.625, 9.75, 2.75, 9.875], "rotation": 180, "texture": "#0"}
			}
		},
		{
			"from": [7.99489, 3.11208, 0.62856],
			"to": [8.19489, 3.31208, 0.82856],
			"rotation": {"angle": 22.5, "axis": "z", "origin": [8.09462, 3.20383, 1.74025]},
			"faces": {
				"north": {"uv": [2.625, 9.75, 2.75, 9.875], "texture": "#0"},
				"east": {"uv": [2.625, 9.75, 2.75, 9.875], "rotation": 180, "texture": "#0"},
				"south": {"uv": [2.625, 9.75, 2.75, 9.875], "rotation": 180, "texture": "#0"},
				"west": {"uv": [2.625, 9.75, 2.75, 9.875], "rotation": 180, "texture": "#0"},
				"up": {"uv": [2.625, 9.75, 2.75, 9.875], "rotation": 180, "texture": "#0"},
				"down": {"uv": [2.625, 9.75, 2.75, 9.875], "rotation": 180, "texture": "#0"}
			}
		},
		{
			"from": [7.89489, 3.01208, 0.80356],
			"to": [8.29489, 3.41208, 1.12856],
			"rotation": {"angle": 22.5, "axis": "z", "origin": [8.09462, 3.20383, 1.74025]},
			"faces": {
				"north": {"uv": [2.625, 9.75, 2.75, 9.875], "texture": "#0"},
				"east": {"uv": [2.625, 9.75, 2.75, 9.875], "rotation": 180, "texture": "#0"},
				"south": {"uv": [2.625, 9.75, 2.75, 9.875], "rotation": 180, "texture": "#0"},
				"west": {"uv": [2.625, 9.75, 2.75, 9.875], "rotation": 180, "texture": "#0"},
				"up": {"uv": [2.625, 9.75, 2.75, 9.875], "rotation": 180, "texture": "#0"},
				"down": {"uv": [2.625, 9.75, 2.75, 9.875], "rotation": 180, "texture": "#0"}
			}
		},
		{
			"from": [7.79489, 2.91208, 1.10356],
			"to": [8.39489, 3.51208, 1.42856],
			"rotation": {"angle": 22.5, "axis": "z", "origin": [8.09462, 3.20383, 1.74025]},
			"faces": {
				"north": {"uv": [2.625, 9.75, 2.75, 9.875], "texture": "#0"},
				"east": {"uv": [2.625, 9.75, 2.75, 9.875], "rotation": 180, "texture": "#0"},
				"south": {"uv": [2.625, 9.75, 2.75, 9.875], "rotation": 180, "texture": "#0"},
				"west": {"uv": [2.625, 9.75, 2.75, 9.875], "rotation": 180, "texture": "#0"},
				"up": {"uv": [2.625, 9.75, 2.75, 9.875], "rotation": 180, "texture": "#0"},
				"down": {"uv": [2.625, 9.75, 2.75, 9.875], "rotation": 180, "texture": "#0"}
			}
		},
		{
			"from": [7.69489, 2.81208, 1.40356],
			"to": [8.49489, 3.61208, 1.92856],
			"rotation": {"angle": 22.5, "axis": "z", "origin": [8.09462, 3.20383, 1.74025]},
			"faces": {
				"north": {"uv": [2.625, 9.75, 2.75, 9.875], "texture": "#0"},
				"east": {"uv": [2.625, 9.75, 2.75, 9.875], "rotation": 180, "texture": "#0"},
				"south": {"uv": [2.625, 9.75, 2.75, 9.875], "rotation": 180, "texture": "#0"},
				"west": {"uv": [2.625, 9.75, 2.75, 9.875], "rotation": 180, "texture": "#0"},
				"up": {"uv": [2.625, 9.75, 2.75, 9.875], "rotation": 180, "texture": "#0"},
				"down": {"uv": [2.625, 9.75, 2.75, 9.875], "rotation": 180, "texture": "#0"}
			}
		},
		{
			"from": [7.59069, 2.6923, 1.775],
			"to": [8.59069, 3.6923, 2.475],
			"rotation": {"angle": 22.5, "axis": "z", "origin": [8.09462, 3.20383, 1.74025]},
			"faces": {
				"north": {"uv": [2.625, 9.75, 2.75, 9.875], "texture": "#0"},
				"east": {"uv": [2.625, 9.75, 2.75, 9.875], "rotation": 180, "texture": "#0"},
				"south": {"uv": [2.625, 9.75, 2.75, 9.875], "rotation": 180, "texture": "#0"},
				"west": {"uv": [2.625, 9.75, 2.75, 9.875], "rotation": 180, "texture": "#0"},
				"up": {"uv": [2.625, 9.75, 2.75, 9.875], "rotation": 180, "texture": "#0"},
				"down": {"uv": [2.625, 9.75, 2.75, 9.875], "rotation": 180, "texture": "#0"}
			}
		},
		{
			"from": [7.09571, 2.19732, 2.275],
			"to": [9.09571, 4.19732, 2.475],
			"rotation": {"angle": 22.5, "axis": "z", "origin": [8.09462, 3.20383, 1.74025]},
			"faces": {
				"north": {"uv": [5.875, 12.625, 6.25, 13], "texture": "#0"},
				"east": {"uv": [5.875, 12.625, 6.25, 13], "rotation": 180, "texture": "#0"},
				"south": {"uv": [5.875, 12.625, 6.25, 13], "rotation": 180, "texture": "#0"},
				"west": {"uv": [5.875, 12.625, 6.25, 13], "rotation": 180, "texture": "#0"},
				"up": {"uv": [5.875, 12.625, 6.25, 13], "rotation": 180, "texture": "#0"},
				"down": {"uv": [5.875, 12.625, 6.25, 13], "rotation": 180, "texture": "#0"}
			}
		},
		{
			"from": [8.65135, 2.34169, 2.25],
			"to": [8.95135, 2.64169, 2.45],
			"rotation": {"angle": 22.5, "axis": "z", "origin": [8.09462, 3.20383, 1.74025]},
			"faces": {
				"north": {"uv": [3.625, 10.625, 3.75, 10.75], "texture": "#0"},
				"east": {"uv": [3.625, 10.625, 3.75, 10.75], "rotation": 180, "texture": "#0"},
				"south": {"uv": [3.625, 10.625, 3.75, 10.75], "rotation": 180, "texture": "#0"},
				"west": {"uv": [3.625, 10.625, 3.75, 10.75], "rotation": 180, "texture": "#0"},
				"up": {"uv": [3.625, 10.625, 3.75, 10.75], "rotation": 180, "texture": "#0"},
				"down": {"uv": [3.625, 10.625, 3.75, 10.75], "rotation": 180, "texture": "#0"}
			}
		},
		{
			"from": [7.23714, 2.34169, 2.25],
			"to": [7.53714, 2.64169, 2.45],
			"rotation": {"angle": 22.5, "axis": "z", "origin": [8.09462, 3.20383, 1.74025]},
			"faces": {
				"north": {"uv": [3.625, 10.625, 3.75, 10.75], "rotation": 90, "texture": "#0"},
				"east": {"uv": [3.625, 10.625, 3.75, 10.75], "rotation": 90, "texture": "#0"},
				"south": {"uv": [3.625, 10.625, 3.75, 10.75], "rotation": 90, "texture": "#0"},
				"west": {"uv": [3.625, 10.625, 3.75, 10.75], "rotation": 90, "texture": "#0"},
				"up": {"uv": [3.625, 10.625, 3.75, 10.75], "rotation": 90, "texture": "#0"},
				"down": {"uv": [3.625, 10.625, 3.75, 10.75], "rotation": 90, "texture": "#0"}
			}
		},
		{
			"from": [7.23714, 3.7559, 2.25],
			"to": [7.53714, 4.0559, 2.45],
			"rotation": {"angle": 22.5, "axis": "z", "origin": [8.09462, 3.20383, 1.74025]},
			"faces": {
				"north": {"uv": [3.625, 10.625, 3.75, 10.75], "texture": "#0"},
				"east": {"uv": [3.625, 10.625, 3.75, 10.75], "rotation": 180, "texture": "#0"},
				"south": {"uv": [3.625, 10.625, 3.75, 10.75], "rotation": 180, "texture": "#0"},
				"west": {"uv": [3.625, 10.625, 3.75, 10.75], "rotation": 180, "texture": "#0"},
				"up": {"uv": [3.625, 10.625, 3.75, 10.75], "rotation": 180, "texture": "#0"},
				"down": {"uv": [3.625, 10.625, 3.75, 10.75], "rotation": 180, "texture": "#0"}
			}
		},
		{
			"from": [8.65135, 3.7559, 2.25],
			"to": [8.95135, 4.0559, 2.45],
			"rotation": {"angle": 22.5, "axis": "z", "origin": [8.09462, 3.20383, 1.74025]},
			"faces": {
				"north": {"uv": [3.625, 10.625, 3.75, 10.75], "rotation": 90, "texture": "#0"},
				"east": {"uv": [3.625, 10.625, 3.75, 10.75], "rotation": 90, "texture": "#0"},
				"south": {"uv": [3.625, 10.625, 3.75, 10.75], "rotation": 90, "texture": "#0"},
				"west": {"uv": [3.625, 10.625, 3.75, 10.75], "rotation": 90, "texture": "#0"},
				"up": {"uv": [3.625, 10.625, 3.75, 10.75], "rotation": 90, "texture": "#0"},
				"down": {"uv": [3.625, 10.625, 3.75, 10.75], "rotation": 90, "texture": "#0"}
			}
		},
		{
			"from": [10.23941, 18.05713, 0.55356],
			"to": [10.33941, 18.15713, 0.67856],
			"rotation": {"angle": 22.5, "axis": "z", "origin": [10.29462, 18.10383, 1.74025]},
			"faces": {
				"north": {"uv": [2.625, 9.75, 2.75, 9.875], "rotation": 90, "texture": "#0"},
				"east": {"uv": [2.625, 9.75, 2.75, 9.875], "rotation": 90, "texture": "#0"},
				"south": {"uv": [2.625, 9.75, 2.75, 9.875], "rotation": 90, "texture": "#0"},
				"west": {"uv": [2.625, 9.75, 2.75, 9.875], "rotation": 90, "texture": "#0"},
				"up": {"uv": [2.625, 9.75, 2.75, 9.875], "rotation": 90, "texture": "#0"},
				"down": {"uv": [2.625, 9.75, 2.75, 9.875], "rotation": 90, "texture": "#0"}
			}
		},
		{
			"from": [10.18637, 18.0041, 0.62856],
			"to": [10.38637, 18.2041, 0.82856],
			"rotation": {"angle": 22.5, "axis": "z", "origin": [10.29462, 18.10383, 1.74025]},
			"faces": {
				"north": {"uv": [2.625, 9.75, 2.75, 9.875], "rotation": 90, "texture": "#0"},
				"east": {"uv": [2.625, 9.75, 2.75, 9.875], "rotation": 90, "texture": "#0"},
				"south": {"uv": [2.625, 9.75, 2.75, 9.875], "rotation": 90, "texture": "#0"},
				"west": {"uv": [2.625, 9.75, 2.75, 9.875], "rotation": 90, "texture": "#0"},
				"up": {"uv": [2.625, 9.75, 2.75, 9.875], "rotation": 90, "texture": "#0"},
				"down": {"uv": [2.625, 9.75, 2.75, 9.875], "rotation": 90, "texture": "#0"}
			}
		},
		{
			"from": [10.08637, 17.9041, 0.80356],
			"to": [10.48637, 18.3041, 1.12856],
			"rotation": {"angle": 22.5, "axis": "z", "origin": [10.29462, 18.10383, 1.74025]},
			"faces": {
				"north": {"uv": [2.625, 9.75, 2.75, 9.875], "rotation": 90, "texture": "#0"},
				"east": {"uv": [2.625, 9.75, 2.75, 9.875], "rotation": 90, "texture": "#0"},
				"south": {"uv": [2.625, 9.75, 2.75, 9.875], "rotation": 90, "texture": "#0"},
				"west": {"uv": [2.625, 9.75, 2.75, 9.875], "rotation": 90, "texture": "#0"},
				"up": {"uv": [2.625, 9.75, 2.75, 9.875], "rotation": 90, "texture": "#0"},
				"down": {"uv": [2.625, 9.75, 2.75, 9.875], "rotation": 90, "texture": "#0"}
			}
		},
		{
			"from": [9.98637, 17.8041, 1.10356],
			"to": [10.58637, 18.4041, 1.42856],
			"rotation": {"angle": 22.5, "axis": "z", "origin": [10.29462, 18.10383, 1.74025]},
			"faces": {
				"north": {"uv": [2.625, 9.75, 2.75, 9.875], "rotation": 90, "texture": "#0"},
				"east": {"uv": [2.625, 9.75, 2.75, 9.875], "rotation": 90, "texture": "#0"},
				"south": {"uv": [2.625, 9.75, 2.75, 9.875], "rotation": 90, "texture": "#0"},
				"west": {"uv": [2.625, 9.75, 2.75, 9.875], "rotation": 90, "texture": "#0"},
				"up": {"uv": [2.625, 9.75, 2.75, 9.875], "rotation": 90, "texture": "#0"},
				"down": {"uv": [2.625, 9.75, 2.75, 9.875], "rotation": 90, "texture": "#0"}
			}
		},
		{
			"from": [9.88637, 17.7041, 1.40356],
			"to": [10.68637, 18.5041, 1.92856],
			"rotation": {"angle": 22.5, "axis": "z", "origin": [10.29462, 18.10383, 1.74025]},
			"faces": {
				"north": {"uv": [2.625, 9.75, 2.75, 9.875], "rotation": 90, "texture": "#0"},
				"east": {"uv": [2.625, 9.75, 2.75, 9.875], "rotation": 90, "texture": "#0"},
				"south": {"uv": [2.625, 9.75, 2.75, 9.875], "rotation": 90, "texture": "#0"},
				"west": {"uv": [2.625, 9.75, 2.75, 9.875], "rotation": 90, "texture": "#0"},
				"up": {"uv": [2.625, 9.75, 2.75, 9.875], "rotation": 90, "texture": "#0"},
				"down": {"uv": [2.625, 9.75, 2.75, 9.875], "rotation": 90, "texture": "#0"}
			}
		},
		{
			"from": [9.80616, 17.5999, 1.775],
			"to": [10.80616, 18.5999, 2.475],
			"rotation": {"angle": 22.5, "axis": "z", "origin": [10.29462, 18.10383, 1.74025]},
			"faces": {
				"north": {"uv": [2.625, 9.75, 2.75, 9.875], "rotation": 90, "texture": "#0"},
				"east": {"uv": [2.625, 9.75, 2.75, 9.875], "rotation": 90, "texture": "#0"},
				"south": {"uv": [2.625, 9.75, 2.75, 9.875], "rotation": 90, "texture": "#0"},
				"west": {"uv": [2.625, 9.75, 2.75, 9.875], "rotation": 90, "texture": "#0"},
				"up": {"uv": [2.625, 9.75, 2.75, 9.875], "rotation": 90, "texture": "#0"},
				"down": {"uv": [2.625, 9.75, 2.75, 9.875], "rotation": 90, "texture": "#0"}
			}
		},
		{
			"from": [9.30114, 17.10492, 2.275],
			"to": [11.30114, 19.10492, 2.475],
			"rotation": {"angle": 22.5, "axis": "z", "origin": [10.29462, 18.10383, 1.74025]},
			"faces": {
				"north": {"uv": [5.875, 12.625, 6.25, 13], "rotation": 90, "texture": "#0"},
				"east": {"uv": [5.875, 12.625, 6.25, 13], "rotation": 90, "texture": "#0"},
				"south": {"uv": [5.875, 12.625, 6.25, 13], "rotation": 90, "texture": "#0"},
				"west": {"uv": [5.875, 12.625, 6.25, 13], "rotation": 90, "texture": "#0"},
				"up": {"uv": [5.875, 12.625, 6.25, 13], "rotation": 90, "texture": "#0"},
				"down": {"uv": [5.875, 12.625, 6.25, 13], "rotation": 90, "texture": "#0"}
			}
		},
		{
			"from": [10.85677, 18.66056, 2.25],
			"to": [11.15677, 18.96056, 2.45],
			"rotation": {"angle": 22.5, "axis": "z", "origin": [10.29462, 18.10383, 1.74025]},
			"faces": {
				"north": {"uv": [3.625, 10.625, 3.75, 10.75], "rotation": 90, "texture": "#0"},
				"east": {"uv": [3.625, 10.625, 3.75, 10.75], "rotation": 90, "texture": "#0"},
				"south": {"uv": [3.625, 10.625, 3.75, 10.75], "rotation": 90, "texture": "#0"},
				"west": {"uv": [3.625, 10.625, 3.75, 10.75], "rotation": 90, "texture": "#0"},
				"up": {"uv": [3.625, 10.625, 3.75, 10.75], "rotation": 90, "texture": "#0"},
				"down": {"uv": [3.625, 10.625, 3.75, 10.75], "rotation": 90, "texture": "#0"}
			}
		},
		{
			"from": [10.85677, 17.24635, 2.25],
			"to": [11.15677, 17.54635, 2.45],
			"rotation": {"angle": 22.5, "axis": "z", "origin": [10.29462, 18.10383, 1.74025]},
			"faces": {
				"north": {"uv": [3.625, 10.625, 3.75, 10.75], "rotation": 180, "texture": "#0"},
				"east": {"uv": [3.625, 10.625, 3.75, 10.75], "texture": "#0"},
				"south": {"uv": [3.625, 10.625, 3.75, 10.75], "texture": "#0"},
				"west": {"uv": [3.625, 10.625, 3.75, 10.75], "texture": "#0"},
				"up": {"uv": [3.625, 10.625, 3.75, 10.75], "texture": "#0"},
				"down": {"uv": [3.625, 10.625, 3.75, 10.75], "texture": "#0"}
			}
		},
		{
			"from": [9.44256, 17.24635, 2.25],
			"to": [9.74256, 17.54635, 2.45],
			"rotation": {"angle": 22.5, "axis": "z", "origin": [10.29462, 18.10383, 1.74025]},
			"faces": {
				"north": {"uv": [3.625, 10.625, 3.75, 10.75], "rotation": 90, "texture": "#0"},
				"east": {"uv": [3.625, 10.625, 3.75, 10.75], "rotation": 90, "texture": "#0"},
				"south": {"uv": [3.625, 10.625, 3.75, 10.75], "rotation": 90, "texture": "#0"},
				"west": {"uv": [3.625, 10.625, 3.75, 10.75], "rotation": 90, "texture": "#0"},
				"up": {"uv": [3.625, 10.625, 3.75, 10.75], "rotation": 90, "texture": "#0"},
				"down": {"uv": [3.625, 10.625, 3.75, 10.75], "rotation": 90, "texture": "#0"}
			}
		},
		{
			"from": [9.44256, 18.66056, 2.25],
			"to": [9.74256, 18.96056, 2.45],
			"rotation": {"angle": 22.5, "axis": "z", "origin": [10.29462, 18.10383, 1.74025]},
			"faces": {
				"north": {"uv": [3.625, 10.625, 3.75, 10.75], "rotation": 180, "texture": "#0"},
				"east": {"uv": [3.625, 10.625, 3.75, 10.75], "texture": "#0"},
				"south": {"uv": [3.625, 10.625, 3.75, 10.75], "texture": "#0"},
				"west": {"uv": [3.625, 10.625, 3.75, 10.75], "texture": "#0"},
				"up": {"uv": [3.625, 10.625, 3.75, 10.75], "texture": "#0"},
				"down": {"uv": [3.625, 10.625, 3.75, 10.75], "texture": "#0"}
			}
		},
		{
			"from": [4.43941, 7.05713, 0.50356],
			"to": [4.53941, 7.15713, 0.62856],
			"rotation": {"angle": 0, "axis": "y", "origin": [4.49462, 7.10383, 1.69025]},
			"faces": {
				"north": {"uv": [2.625, 9.75, 2.75, 9.875], "rotation": 90, "texture": "#0"},
				"east": {"uv": [2.625, 9.75, 2.75, 9.875], "rotation": 90, "texture": "#0"},
				"south": {"uv": [2.625, 9.75, 2.75, 9.875], "rotation": 90, "texture": "#0"},
				"west": {"uv": [2.625, 9.75, 2.75, 9.875], "rotation": 90, "texture": "#0"},
				"up": {"uv": [2.625, 9.75, 2.75, 9.875], "rotation": 90, "texture": "#0"},
				"down": {"uv": [2.625, 9.75, 2.75, 9.875], "rotation": 90, "texture": "#0"}
			}
		},
		{
			"from": [4.38637, 7.0041, 0.57856],
			"to": [4.58637, 7.2041, 0.77856],
			"rotation": {"angle": 0, "axis": "y", "origin": [4.49462, 7.10383, 1.69025]},
			"faces": {
				"north": {"uv": [2.625, 9.75, 2.75, 9.875], "rotation": 90, "texture": "#0"},
				"east": {"uv": [2.625, 9.75, 2.75, 9.875], "rotation": 90, "texture": "#0"},
				"south": {"uv": [2.625, 9.75, 2.75, 9.875], "rotation": 90, "texture": "#0"},
				"west": {"uv": [2.625, 9.75, 2.75, 9.875], "rotation": 90, "texture": "#0"},
				"up": {"uv": [2.625, 9.75, 2.75, 9.875], "rotation": 90, "texture": "#0"},
				"down": {"uv": [2.625, 9.75, 2.75, 9.875], "rotation": 90, "texture": "#0"}
			}
		},
		{
			"from": [4.28637, 6.9041, 0.75356],
			"to": [4.68637, 7.3041, 1.07856],
			"rotation": {"angle": 0, "axis": "y", "origin": [4.49462, 7.10383, 1.69025]},
			"faces": {
				"north": {"uv": [2.625, 9.75, 2.75, 9.875], "rotation": 90, "texture": "#0"},
				"east": {"uv": [2.625, 9.75, 2.75, 9.875], "rotation": 90, "texture": "#0"},
				"south": {"uv": [2.625, 9.75, 2.75, 9.875], "rotation": 90, "texture": "#0"},
				"west": {"uv": [2.625, 9.75, 2.75, 9.875], "rotation": 90, "texture": "#0"},
				"up": {"uv": [2.625, 9.75, 2.75, 9.875], "rotation": 90, "texture": "#0"},
				"down": {"uv": [2.625, 9.75, 2.75, 9.875], "rotation": 90, "texture": "#0"}
			}
		},
		{
			"from": [4.18637, 6.8041, 1.05356],
			"to": [4.78637, 7.4041, 1.37856],
			"rotation": {"angle": 0, "axis": "y", "origin": [4.49462, 7.10383, 1.69025]},
			"faces": {
				"north": {"uv": [2.625, 9.75, 2.75, 9.875], "rotation": 90, "texture": "#0"},
				"east": {"uv": [2.625, 9.75, 2.75, 9.875], "rotation": 90, "texture": "#0"},
				"south": {"uv": [2.625, 9.75, 2.75, 9.875], "rotation": 90, "texture": "#0"},
				"west": {"uv": [2.625, 9.75, 2.75, 9.875], "rotation": 90, "texture": "#0"},
				"up": {"uv": [2.625, 9.75, 2.75, 9.875], "rotation": 90, "texture": "#0"},
				"down": {"uv": [2.625, 9.75, 2.75, 9.875], "rotation": 90, "texture": "#0"}
			}
		},
		{
			"from": [4.08637, 6.7041, 1.35356],
			"to": [4.88637, 7.5041, 1.87856],
			"rotation": {"angle": 0, "axis": "y", "origin": [4.49462, 7.10383, 1.69025]},
			"faces": {
				"north": {"uv": [2.625, 9.75, 2.75, 9.875], "rotation": 90, "texture": "#0"},
				"east": {"uv": [2.625, 9.75, 2.75, 9.875], "rotation": 90, "texture": "#0"},
				"south": {"uv": [2.625, 9.75, 2.75, 9.875], "rotation": 90, "texture": "#0"},
				"west": {"uv": [2.625, 9.75, 2.75, 9.875], "rotation": 90, "texture": "#0"},
				"up": {"uv": [2.625, 9.75, 2.75, 9.875], "rotation": 90, "texture": "#0"},
				"down": {"uv": [2.625, 9.75, 2.75, 9.875], "rotation": 90, "texture": "#0"}
			}
		},
		{
			"from": [4.00616, 6.5999, 1.725],
			"to": [5.00616, 7.5999, 2.425],
			"rotation": {"angle": 0, "axis": "y", "origin": [4.49462, 7.10383, 1.69025]},
			"faces": {
				"north": {"uv": [2.625, 9.75, 2.75, 9.875], "rotation": 90, "texture": "#0"},
				"east": {"uv": [2.625, 9.75, 2.75, 9.875], "rotation": 90, "texture": "#0"},
				"south": {"uv": [2.625, 9.75, 2.75, 9.875], "rotation": 90, "texture": "#0"},
				"west": {"uv": [2.625, 9.75, 2.75, 9.875], "rotation": 90, "texture": "#0"},
				"up": {"uv": [2.625, 9.75, 2.75, 9.875], "rotation": 90, "texture": "#0"},
				"down": {"uv": [2.625, 9.75, 2.75, 9.875], "rotation": 90, "texture": "#0"}
			}
		},
		{
			"from": [3.50114, 6.10492, 2.225],
			"to": [5.50114, 8.10492, 2.425],
			"rotation": {"angle": 0, "axis": "y", "origin": [4.49462, 7.10383, 1.69025]},
			"faces": {
				"north": {"uv": [5.875, 12.625, 6.25, 13], "rotation": 90, "texture": "#0"},
				"east": {"uv": [5.875, 12.625, 6.25, 13], "rotation": 90, "texture": "#0"},
				"south": {"uv": [5.875, 12.625, 6.25, 13], "rotation": 90, "texture": "#0"},
				"west": {"uv": [5.875, 12.625, 6.25, 13], "rotation": 90, "texture": "#0"},
				"up": {"uv": [5.875, 12.625, 6.25, 13], "rotation": 90, "texture": "#0"},
				"down": {"uv": [5.875, 12.625, 6.25, 13], "rotation": 90, "texture": "#0"}
			}
		},
		{
			"from": [5.05677, 7.66056, 2.2],
			"to": [5.35677, 7.96056, 2.4],
			"rotation": {"angle": 0, "axis": "y", "origin": [4.49462, 7.10383, 1.69025]},
			"faces": {
				"north": {"uv": [3.625, 10.625, 3.75, 10.75], "rotation": 90, "texture": "#0"},
				"east": {"uv": [3.625, 10.625, 3.75, 10.75], "rotation": 90, "texture": "#0"},
				"south": {"uv": [3.625, 10.625, 3.75, 10.75], "rotation": 90, "texture": "#0"},
				"west": {"uv": [3.625, 10.625, 3.75, 10.75], "rotation": 90, "texture": "#0"},
				"up": {"uv": [3.625, 10.625, 3.75, 10.75], "rotation": 90, "texture": "#0"},
				"down": {"uv": [3.625, 10.625, 3.75, 10.75], "rotation": 90, "texture": "#0"}
			}
		},
		{
			"from": [5.05677, 6.24635, 2.2],
			"to": [5.35677, 6.54635, 2.4],
			"rotation": {"angle": 0, "axis": "y", "origin": [4.49462, 7.10383, 1.69025]},
			"faces": {
				"north": {"uv": [3.625, 10.625, 3.75, 10.75], "rotation": 180, "texture": "#0"},
				"east": {"uv": [3.625, 10.625, 3.75, 10.75], "texture": "#0"},
				"south": {"uv": [3.625, 10.625, 3.75, 10.75], "texture": "#0"},
				"west": {"uv": [3.625, 10.625, 3.75, 10.75], "texture": "#0"},
				"up": {"uv": [3.625, 10.625, 3.75, 10.75], "texture": "#0"},
				"down": {"uv": [3.625, 10.625, 3.75, 10.75], "texture": "#0"}
			}
		},
		{
			"from": [3.64256, 6.24635, 2.2],
			"to": [3.94256, 6.54635, 2.4],
			"rotation": {"angle": 0, "axis": "y", "origin": [4.49462, 7.10383, 1.69025]},
			"faces": {
				"north": {"uv": [3.625, 10.625, 3.75, 10.75], "rotation": 90, "texture": "#0"},
				"east": {"uv": [3.625, 10.625, 3.75, 10.75], "rotation": 90, "texture": "#0"},
				"south": {"uv": [3.625, 10.625, 3.75, 10.75], "rotation": 90, "texture": "#0"},
				"west": {"uv": [3.625, 10.625, 3.75, 10.75], "rotation": 90, "texture": "#0"},
				"up": {"uv": [3.625, 10.625, 3.75, 10.75], "rotation": 90, "texture": "#0"},
				"down": {"uv": [3.625, 10.625, 3.75, 10.75], "rotation": 90, "texture": "#0"}
			}
		},
		{
			"from": [3.64256, 7.66056, 2.2],
			"to": [3.94256, 7.96056, 2.4],
			"rotation": {"angle": 0, "axis": "y", "origin": [4.49462, 7.10383, 1.69025]},
			"faces": {
				"north": {"uv": [3.625, 10.625, 3.75, 10.75], "rotation": 180, "texture": "#0"},
				"east": {"uv": [3.625, 10.625, 3.75, 10.75], "texture": "#0"},
				"south": {"uv": [3.625, 10.625, 3.75, 10.75], "texture": "#0"},
				"west": {"uv": [3.625, 10.625, 3.75, 10.75], "texture": "#0"},
				"up": {"uv": [3.625, 10.625, 3.75, 10.75], "texture": "#0"},
				"down": {"uv": [3.625, 10.625, 3.75, 10.75], "texture": "#0"}
			}
		},
		{
			"from": [7.43941, 12.05713, 0.60356],
			"to": [7.53941, 12.15713, 0.72856],
			"rotation": {"angle": -22.5, "axis": "z", "origin": [7.49462, 12.10383, 1.79025]},
			"faces": {
				"north": {"uv": [2.625, 9.75, 2.75, 9.875], "rotation": 90, "texture": "#0"},
				"east": {"uv": [2.625, 9.75, 2.75, 9.875], "rotation": 90, "texture": "#0"},
				"south": {"uv": [2.625, 9.75, 2.75, 9.875], "rotation": 90, "texture": "#0"},
				"west": {"uv": [2.625, 9.75, 2.75, 9.875], "rotation": 90, "texture": "#0"},
				"up": {"uv": [2.625, 9.75, 2.75, 9.875], "rotation": 90, "texture": "#0"},
				"down": {"uv": [2.625, 9.75, 2.75, 9.875], "rotation": 90, "texture": "#0"}
			}
		},
		{
			"from": [7.38637, 12.0041, 0.67856],
			"to": [7.58637, 12.2041, 0.87856],
			"rotation": {"angle": -22.5, "axis": "z", "origin": [7.49462, 12.10383, 1.79025]},
			"faces": {
				"north": {"uv": [2.625, 9.75, 2.75, 9.875], "rotation": 90, "texture": "#0"},
				"east": {"uv": [2.625, 9.75, 2.75, 9.875], "rotation": 90, "texture": "#0"},
				"south": {"uv": [2.625, 9.75, 2.75, 9.875], "rotation": 90, "texture": "#0"},
				"west": {"uv": [2.625, 9.75, 2.75, 9.875], "rotation": 90, "texture": "#0"},
				"up": {"uv": [2.625, 9.75, 2.75, 9.875], "rotation": 90, "texture": "#0"},
				"down": {"uv": [2.625, 9.75, 2.75, 9.875], "rotation": 90, "texture": "#0"}
			}
		},
		{
			"from": [7.28637, 11.9041, 0.85356],
			"to": [7.68637, 12.3041, 1.17856],
			"rotation": {"angle": -22.5, "axis": "z", "origin": [7.49462, 12.10383, 1.79025]},
			"faces": {
				"north": {"uv": [2.625, 9.75, 2.75, 9.875], "rotation": 90, "texture": "#0"},
				"east": {"uv": [2.625, 9.75, 2.75, 9.875], "rotation": 90, "texture": "#0"},
				"south": {"uv": [2.625, 9.75, 2.75, 9.875], "rotation": 90, "texture": "#0"},
				"west": {"uv": [2.625, 9.75, 2.75, 9.875], "rotation": 90, "texture": "#0"},
				"up": {"uv": [2.625, 9.75, 2.75, 9.875], "rotation": 90, "texture": "#0"},
				"down": {"uv": [2.625, 9.75, 2.75, 9.875], "rotation": 90, "texture": "#0"}
			}
		},
		{
			"from": [7.18637, 11.8041, 1.15356],
			"to": [7.78637, 12.4041, 1.47856],
			"rotation": {"angle": -22.5, "axis": "z", "origin": [7.49462, 12.10383, 1.79025]},
			"faces": {
				"north": {"uv": [2.625, 9.75, 2.75, 9.875], "rotation": 90, "texture": "#0"},
				"east": {"uv": [2.625, 9.75, 2.75, 9.875], "rotation": 90, "texture": "#0"},
				"south": {"uv": [2.625, 9.75, 2.75, 9.875], "rotation": 90, "texture": "#0"},
				"west": {"uv": [2.625, 9.75, 2.75, 9.875], "rotation": 90, "texture": "#0"},
				"up": {"uv": [2.625, 9.75, 2.75, 9.875], "rotation": 90, "texture": "#0"},
				"down": {"uv": [2.625, 9.75, 2.75, 9.875], "rotation": 90, "texture": "#0"}
			}
		},
		{
			"from": [7.08637, 11.7041, 1.45356],
			"to": [7.88637, 12.5041, 1.97856],
			"rotation": {"angle": -22.5, "axis": "z", "origin": [7.49462, 12.10383, 1.79025]},
			"faces": {
				"north": {"uv": [2.625, 9.75, 2.75, 9.875], "rotation": 90, "texture": "#0"},
				"east": {"uv": [2.625, 9.75, 2.75, 9.875], "rotation": 90, "texture": "#0"},
				"south": {"uv": [2.625, 9.75, 2.75, 9.875], "rotation": 90, "texture": "#0"},
				"west": {"uv": [2.625, 9.75, 2.75, 9.875], "rotation": 90, "texture": "#0"},
				"up": {"uv": [2.625, 9.75, 2.75, 9.875], "rotation": 90, "texture": "#0"},
				"down": {"uv": [2.625, 9.75, 2.75, 9.875], "rotation": 90, "texture": "#0"}
			}
		},
		{
			"from": [7.00616, 11.5999, 1.825],
			"to": [8.00616, 12.5999, 2.525],
			"rotation": {"angle": -22.5, "axis": "z", "origin": [7.49462, 12.10383, 1.79025]},
			"faces": {
				"north": {"uv": [2.625, 9.75, 2.75, 9.875], "rotation": 90, "texture": "#0"},
				"east": {"uv": [2.625, 9.75, 2.75, 9.875], "rotation": 90, "texture": "#0"},
				"south": {"uv": [2.625, 9.75, 2.75, 9.875], "rotation": 90, "texture": "#0"},
				"west": {"uv": [2.625, 9.75, 2.75, 9.875], "rotation": 90, "texture": "#0"},
				"up": {"uv": [2.625, 9.75, 2.75, 9.875], "rotation": 90, "texture": "#0"},
				"down": {"uv": [2.625, 9.75, 2.75, 9.875], "rotation": 90, "texture": "#0"}
			}
		},
		{
			"from": [6.50114, 11.10492, 2.325],
			"to": [8.50114, 13.10492, 2.525],
			"rotation": {"angle": -22.5, "axis": "z", "origin": [7.49462, 12.10383, 1.79025]},
			"faces": {
				"north": {"uv": [5.875, 12.625, 6.25, 13], "rotation": 90, "texture": "#0"},
				"east": {"uv": [5.875, 12.625, 6.25, 13], "rotation": 90, "texture": "#0"},
				"south": {"uv": [5.875, 12.625, 6.25, 13], "rotation": 90, "texture": "#0"},
				"west": {"uv": [5.875, 12.625, 6.25, 13], "rotation": 90, "texture": "#0"},
				"up": {"uv": [5.875, 12.625, 6.25, 13], "rotation": 90, "texture": "#0"},
				"down": {"uv": [5.875, 12.625, 6.25, 13], "rotation": 90, "texture": "#0"}
			}
		},
		{
			"from": [8.05677, 12.66056, 2.3],
			"to": [8.35677, 12.96056, 2.5],
			"rotation": {"angle": -22.5, "axis": "z", "origin": [7.49462, 12.10383, 1.79025]},
			"faces": {
				"north": {"uv": [3.625, 10.625, 3.75, 10.75], "rotation": 90, "texture": "#0"},
				"east": {"uv": [3.625, 10.625, 3.75, 10.75], "rotation": 90, "texture": "#0"},
				"south": {"uv": [3.625, 10.625, 3.75, 10.75], "rotation": 90, "texture": "#0"},
				"west": {"uv": [3.625, 10.625, 3.75, 10.75], "rotation": 90, "texture": "#0"},
				"up": {"uv": [3.625, 10.625, 3.75, 10.75], "rotation": 90, "texture": "#0"},
				"down": {"uv": [3.625, 10.625, 3.75, 10.75], "rotation": 90, "texture": "#0"}
			}
		},
		{
			"from": [8.05677, 11.24635, 2.3],
			"to": [8.35677, 11.54635, 2.5],
			"rotation": {"angle": -22.5, "axis": "z", "origin": [7.49462, 12.10383, 1.79025]},
			"faces": {
				"north": {"uv": [3.625, 10.625, 3.75, 10.75], "rotation": 180, "texture": "#0"},
				"east": {"uv": [3.625, 10.625, 3.75, 10.75], "texture": "#0"},
				"south": {"uv": [3.625, 10.625, 3.75, 10.75], "texture": "#0"},
				"west": {"uv": [3.625, 10.625, 3.75, 10.75], "texture": "#0"},
				"up": {"uv": [3.625, 10.625, 3.75, 10.75], "texture": "#0"},
				"down": {"uv": [3.625, 10.625, 3.75, 10.75], "texture": "#0"}
			}
		},
		{
			"from": [6.64256, 11.24635, 2.3],
			"to": [6.94256, 11.54635, 2.5],
			"rotation": {"angle": -22.5, "axis": "z", "origin": [7.49462, 12.10383, 1.79025]},
			"faces": {
				"north": {"uv": [3.625, 10.625, 3.75, 10.75], "rotation": 90, "texture": "#0"},
				"east": {"uv": [3.625, 10.625, 3.75, 10.75], "rotation": 90, "texture": "#0"},
				"south": {"uv": [3.625, 10.625, 3.75, 10.75], "rotation": 90, "texture": "#0"},
				"west": {"uv": [3.625, 10.625, 3.75, 10.75], "rotation": 90, "texture": "#0"},
				"up": {"uv": [3.625, 10.625, 3.75, 10.75], "rotation": 90, "texture": "#0"},
				"down": {"uv": [3.625, 10.625, 3.75, 10.75], "rotation": 90, "texture": "#0"}
			}
		},
		{
			"from": [6.64256, 12.66056, 2.3],
			"to": [6.94256, 12.96056, 2.5],
			"rotation": {"angle": -22.5, "axis": "z", "origin": [7.49462, 12.10383, 1.79025]},
			"faces": {
				"north": {"uv": [3.625, 10.625, 3.75, 10.75], "rotation": 180, "texture": "#0"},
				"east": {"uv": [3.625, 10.625, 3.75, 10.75], "texture": "#0"},
				"south": {"uv": [3.625, 10.625, 3.75, 10.75], "texture": "#0"},
				"west": {"uv": [3.625, 10.625, 3.75, 10.75], "texture": "#0"},
				"up": {"uv": [3.625, 10.625, 3.75, 10.75], "texture": "#0"},
				"down": {"uv": [3.625, 10.625, 3.75, 10.75], "texture": "#0"}
			}
		},
		{
			"from": [7.875, 21.50581, 0.75356],
			"to": [7.975, 21.60581, 0.87856],
			"rotation": {"angle": -45, "axis": "z", "origin": [7.97438, 21.62113, 0.75545]},
			"faces": {
				"north": {"uv": [2.625, 9.75, 2.75, 9.875], "rotation": 90, "texture": "#0"},
				"east": {"uv": [2.625, 9.75, 2.75, 9.875], "rotation": 90, "texture": "#0"},
				"south": {"uv": [2.625, 9.75, 2.75, 9.875], "rotation": 90, "texture": "#0"},
				"west": {"uv": [2.625, 9.75, 2.75, 9.875], "rotation": 90, "texture": "#0"},
				"up": {"uv": [2.625, 9.75, 2.75, 9.875], "rotation": 90, "texture": "#0"},
				"down": {"uv": [2.625, 9.75, 2.75, 9.875], "rotation": 90, "texture": "#0"}
			}
		},
		{
			"from": [7.8, 21.50581, 0.82856],
			"to": [8, 21.70581, 1.02856],
			"rotation": {"angle": -45, "axis": "z", "origin": [7.89938, 21.62113, 0.70545]},
			"faces": {
				"north": {"uv": [2.625, 9.75, 2.75, 9.875], "rotation": 90, "texture": "#0"},
				"east": {"uv": [2.625, 9.75, 2.75, 9.875], "rotation": 90, "texture": "#0"},
				"south": {"uv": [2.625, 9.75, 2.75, 9.875], "rotation": 90, "texture": "#0"},
				"west": {"uv": [2.625, 9.75, 2.75, 9.875], "rotation": 90, "texture": "#0"},
				"up": {"uv": [2.625, 9.75, 2.75, 9.875], "rotation": 90, "texture": "#0"},
				"down": {"uv": [2.625, 9.75, 2.75, 9.875], "rotation": 90, "texture": "#0"}
			}
		},
		{
			"from": [7.7, 21.40581, 1.00356],
			"to": [8.1, 21.80581, 1.32856],
			"rotation": {"angle": -45, "axis": "z", "origin": [7.89938, 21.62113, 1.00545]},
			"faces": {
				"north": {"uv": [2.625, 9.75, 2.75, 9.875], "rotation": 90, "texture": "#0"},
				"east": {"uv": [2.625, 9.75, 2.75, 9.875], "rotation": 90, "texture": "#0"},
				"south": {"uv": [2.625, 9.75, 2.75, 9.875], "rotation": 90, "texture": "#0"},
				"west": {"uv": [2.625, 9.75, 2.75, 9.875], "rotation": 90, "texture": "#0"},
				"up": {"uv": [2.625, 9.75, 2.75, 9.875], "rotation": 90, "texture": "#0"},
				"down": {"uv": [2.625, 9.75, 2.75, 9.875], "rotation": 90, "texture": "#0"}
			}
		},
		{
			"from": [7.6, 21.30581, 1.30356],
			"to": [8.2, 21.90581, 1.62856],
			"rotation": {"angle": -45, "axis": "z", "origin": [7.89938, 21.62113, 1.30545]},
			"faces": {
				"north": {"uv": [2.625, 9.75, 2.75, 9.875], "rotation": 90, "texture": "#0"},
				"east": {"uv": [2.625, 9.75, 2.75, 9.875], "rotation": 90, "texture": "#0"},
				"south": {"uv": [2.625, 9.75, 2.75, 9.875], "rotation": 90, "texture": "#0"},
				"west": {"uv": [2.625, 9.75, 2.75, 9.875], "rotation": 90, "texture": "#0"},
				"up": {"uv": [2.625, 9.75, 2.75, 9.875], "rotation": 90, "texture": "#0"},
				"down": {"uv": [2.625, 9.75, 2.75, 9.875], "rotation": 90, "texture": "#0"}
			}
		},
		{
			"from": [7.5, 21.20581, 1.60356],
			"to": [8.3, 22.00581, 2.12856],
			"rotation": {"angle": -45, "axis": "z", "origin": [7.89938, 21.62113, 1.60545]},
			"faces": {
				"north": {"uv": [2.625, 9.75, 2.75, 9.875], "rotation": 90, "texture": "#0"},
				"east": {"uv": [2.625, 9.75, 2.75, 9.875], "rotation": 90, "texture": "#0"},
				"south": {"uv": [2.625, 9.75, 2.75, 9.875], "rotation": 90, "texture": "#0"},
				"west": {"uv": [2.625, 9.75, 2.75, 9.875], "rotation": 90, "texture": "#0"},
				"up": {"uv": [2.625, 9.75, 2.75, 9.875], "rotation": 90, "texture": "#0"},
				"down": {"uv": [2.625, 9.75, 2.75, 9.875], "rotation": 90, "texture": "#0"}
			}
		},
		{
			"from": [7.9, 21.3, 1.975],
			"to": [8.9, 22.3, 2.675],
			"rotation": {"angle": -45, "axis": "z", "origin": [7.9, 22.3, 2.075]},
			"faces": {
				"north": {"uv": [2.625, 9.75, 2.75, 9.875], "rotation": 90, "texture": "#0"},
				"east": {"uv": [2.625, 9.75, 2.75, 9.875], "rotation": 90, "texture": "#0"},
				"south": {"uv": [2.625, 9.75, 2.75, 9.875], "rotation": 90, "texture": "#0"},
				"west": {"uv": [2.625, 9.75, 2.75, 9.875], "rotation": 90, "texture": "#0"},
				"up": {"uv": [2.625, 9.75, 2.75, 9.875], "rotation": 90, "texture": "#0"},
				"down": {"uv": [2.625, 9.75, 2.75, 9.875], "rotation": 90, "texture": "#0"}
			}
		},
		{
			"from": [6.9, 20.6, 2.475],
			"to": [8.9, 22.6, 2.875],
			"rotation": {"angle": -45, "axis": "z", "origin": [7.9, 21.6, 2.575]},
			"faces": {
				"north": {"uv": [5.875, 12.625, 6.25, 13], "rotation": 90, "texture": "#0"},
				"east": {"uv": [5.875, 12.625, 6.25, 13], "rotation": 90, "texture": "#0"},
				"south": {"uv": [5.875, 12.625, 6.25, 13], "rotation": 90, "texture": "#0"},
				"west": {"uv": [5.875, 12.625, 6.25, 13], "rotation": 90, "texture": "#0"},
				"up": {"uv": [5.875, 12.625, 6.25, 13], "rotation": 90, "texture": "#0"},
				"down": {"uv": [5.875, 12.625, 6.25, 13], "rotation": 90, "texture": "#0"}
			}
		},
		{
			"from": [9.1, 20.6, 2.45],
			"to": [9.4, 20.9, 2.65],
			"rotation": {"angle": -45, "axis": "z", "origin": [10.1, 21.6, 2.55]},
			"faces": {
				"north": {"uv": [3.625, 10.625, 3.75, 10.75], "rotation": 90, "texture": "#0"},
				"east": {"uv": [3.625, 10.625, 3.75, 10.75], "rotation": 90, "texture": "#0"},
				"south": {"uv": [3.625, 10.625, 3.75, 10.75], "rotation": 90, "texture": "#0"},
				"west": {"uv": [3.625, 10.625, 3.75, 10.75], "rotation": 90, "texture": "#0"},
				"up": {"uv": [3.625, 10.625, 3.75, 10.75], "rotation": 90, "texture": "#0"},
				"down": {"uv": [3.625, 10.625, 3.75, 10.75], "rotation": 90, "texture": "#0"}
			}
		},
		{
			"from": [7.04081, 20.74289, 2.45],
			"to": [7.34081, 21.04289, 2.65],
			"rotation": {"angle": 45, "axis": "z", "origin": [7.89792, 21.6, 2.55]},
			"faces": {
				"north": {"uv": [3.625, 10.625, 3.75, 10.75], "rotation": 90, "texture": "#0"},
				"east": {"uv": [3.625, 10.625, 3.75, 10.75], "rotation": 90, "texture": "#0"},
				"south": {"uv": [3.625, 10.625, 3.75, 10.75], "rotation": 90, "texture": "#0"},
				"west": {"uv": [3.625, 10.625, 3.75, 10.75], "rotation": 90, "texture": "#0"},
				"up": {"uv": [3.625, 10.625, 3.75, 10.75], "rotation": 90, "texture": "#0"},
				"down": {"uv": [3.625, 10.625, 3.75, 10.75], "rotation": 90, "texture": "#0"}
			}
		},
		{
			"from": [7.1, 20.6, 2.45],
			"to": [7.4, 20.9, 2.65],
			"rotation": {"angle": -45, "axis": "z", "origin": [8.1, 21.6, 2.55]},
			"faces": {
				"north": {"uv": [3.625, 10.625, 3.75, 10.75], "rotation": 90, "texture": "#0"},
				"east": {"uv": [3.625, 10.625, 3.75, 10.75], "rotation": 90, "texture": "#0"},
				"south": {"uv": [3.625, 10.625, 3.75, 10.75], "rotation": 90, "texture": "#0"},
				"west": {"uv": [3.625, 10.625, 3.75, 10.75], "rotation": 90, "texture": "#0"},
				"up": {"uv": [3.625, 10.625, 3.75, 10.75], "rotation": 90, "texture": "#0"},
				"down": {"uv": [3.625, 10.625, 3.75, 10.75], "rotation": 90, "texture": "#0"}
			}
		},
		{
			"from": [8.45503, 22.15711, 2.45],
			"to": [8.75503, 22.45711, 2.65],
			"rotation": {"angle": 45, "axis": "z", "origin": [7.89792, 21.6, 2.55]},
			"faces": {
				"north": {"uv": [3.625, 10.625, 3.75, 10.75], "rotation": 90, "texture": "#0"},
				"east": {"uv": [3.625, 10.625, 3.75, 10.75], "rotation": 90, "texture": "#0"},
				"south": {"uv": [3.625, 10.625, 3.75, 10.75], "rotation": 90, "texture": "#0"},
				"west": {"uv": [3.625, 10.625, 3.75, 10.75], "rotation": 90, "texture": "#0"},
				"up": {"uv": [3.625, 10.625, 3.75, 10.75], "rotation": 90, "texture": "#0"},
				"down": {"uv": [3.625, 10.625, 3.75, 10.75], "rotation": 90, "texture": "#0"}
			}
		}
	],
	"display": {
		"thirdperson_righthand": {
			"rotation": [0, -90, 0],
			"translation": [-0.5, -6, 2.75]
		},
		"thirdperson_lefthand": {
			"rotation": [0, -90, 0],
			"translation": [-0.5, -6, 2.75]
		},
		"firstperson_righthand": {
			"rotation": [-5, -77, 13],
			"translation": [-0.25, -4.5, -0.5]
		},
		"firstperson_lefthand": {
			"rotation": [-5, -77, 13],
			"translation": [-0.25, -4.5, -0.5]
		},
		"ground": {
			"rotation": [-90, 0, 0],
			"translation": [0, 2.5, 4.5]
		},
		"gui": {
			"rotation": [0, 141, 39],
			"translation": [1, -1.75, 0],
			"scale": [0.55, 0.55, 0.55]
		},
		"head": {
			"translation": [0, -29.25, 0],
			"scale": [2, 2, 2]
		},
		"fixed": {
			"translation": [0, -4, 3]
		}
	},
	"groups": [0, 1, 2, 3, 4, 5, 6, 7, 8, 9, 10, 11, 12, 13, 14, 15, 16, 17, 18, 19, 20,
		{
			"name": "group",
			"origin": [13.65, 6.65, 2.2],
			"children": [21, 22, 23, 24, 25, 26, 27, 28, 29, 30, 31, 32, 33, 34, 35, 36, 37, 38, 39, 40, 41, 42, 43, 44, 45, 46]
		},
		{
			"name": "group",
			"origin": [9.49792, 4.5, 2.75],
			"children": [47, 48, 49, 50, 51, 52, 53, 54, 55, 56, 57]
		},
		{
			"name": "group",
			"origin": [9.49792, 4.5, 2.75],
			"children": [58, 59, 60, 61, 62, 63, 64, 65, 66, 67, 68]
		},
		{
			"name": "group",
			"origin": [9.49792, 4.5, 2.75],
			"children": [69, 70, 71, 72, 73, 74, 75, 76, 77, 78, 79]
		},
		{
			"name": "group",
			"origin": [9.49792, 4.5, 2.75],
			"children": [80, 81, 82, 83, 84, 85, 86, 87, 88, 89, 90]
		},
		{
			"name": "group",
			"origin": [9.49792, 4.5, 2.75],
			"children": [91, 92, 93, 94, 95, 96, 97, 98, 99, 100, 101]
		},
		{
			"name": "group",
			"origin": [9.49792, 4.5, 2.75],
			"children": [102, 103, 104, 105, 106, 107, 108, 109, 110, 111, 112]
		},
		{
			"name": "group",
			"origin": [9.49792, 4.5, 2.75],
			"children": [113, 114, 115, 116, 117, 118, 119, 120, 121, 122, 123]
		}
	]
}