{
	"credit": "Made with Blockbench",
	"textures": {
		"0": "gci:items/common/mpz",
		"particle": "gci:items/common/mpz"
	},
	"elements": [
		{
			"from": [5.22434, 31.2, 4.56397],
			"to": [5.62434, 31.3, 6.26397],
			"rotation": {"angle": -22.5, "axis": "y", "origin": [5.37434, 29.3, 4.86397]},
			"faces": {
				"north": {"uv": [1.33333, 5.66667, 1.66667, 7.33333], "texture": "#0"},
				"east": {"uv": [1.33333, 5.66667, 1.66667, 7.33333], "texture": "#0"},
				"south": {"uv": [1.33333, 5.66667, 1.66667, 7.33333], "texture": "#0"},
				"west": {"uv": [1.33333, 5.66667, 1.66667, 7.33333], "texture": "#0"},
				"up": {"uv": [1.33333, 5.66667, 1.66667, 7.33333], "texture": "#0"},
				"down": {"uv": [1.33333, 5.66667, 1.66667, 7.33333], "texture": "#0"}
			}
		},
		{
			"from": [4.96006, 31.2, 5.79124],
			"to": [6.06006, 31.3, 6.19124],
			"rotation": {"angle": 0, "axis": "y", "origin": [5.21006, 31.25, 5.99124]},
			"faces": {
				"north": {"uv": [1.33333, 5.66667, 1.66667, 7.33333], "rotation": 270, "texture": "#0"},
				"east": {"uv": [1.33333, 5.66667, 1.66667, 7.33333], "rotation": 270, "texture": "#0"},
				"south": {"uv": [1.33333, 5.66667, 1.66667, 7.33333], "rotation": 270, "texture": "#0"},
				"west": {"uv": [1.33333, 5.66667, 1.66667, 7.33333], "rotation": 270, "texture": "#0"},
				"up": {"uv": [1.33333, 5.66667, 1.66667, 7.33333], "rotation": 270, "texture": "#0"},
				"down": {"uv": [1.33333, 5.66667, 1.66667, 7.33333], "rotation": 270, "texture": "#0"}
			}
		},
		{
			"from": [4.96006, 31.2, 8.79124],
			"to": [6.06006, 31.3, 9.19124],
			"rotation": {"angle": 0, "axis": "y", "origin": [5.21006, 31.25, 8.99124]},
			"faces": {
				"north": {"uv": [1.33333, 5.66667, 1.66667, 7.33333], "rotation": 270, "texture": "#0"},
				"east": {"uv": [1.33333, 5.66667, 1.66667, 7.33333], "rotation": 270, "texture": "#0"},
				"south": {"uv": [1.33333, 5.66667, 1.66667, 7.33333], "rotation": 270, "texture": "#0"},
				"west": {"uv": [1.33333, 5.66667, 1.66667, 7.33333], "rotation": 270, "texture": "#0"},
				"up": {"uv": [1.33333, 5.66667, 1.66667, 7.33333], "rotation": 270, "texture": "#0"},
				"down": {"uv": [1.33333, 5.66667, 1.66667, 7.33333], "rotation": 270, "texture": "#0"}
			}
		},
		{
			"from": [5.2, 31.2, 1.4],
			"to": [5.8, 31.3, 6.1],
			"rotation": {"angle": 0, "axis": "y", "origin": [13, 35.4, 12.2]},
			"faces": {
				"north": {"uv": [1.33333, 5.66667, 1.66667, 7.33333], "texture": "#0"},
				"east": {"uv": [1.33333, 5.66667, 1.66667, 7.33333], "texture": "#0"},
				"south": {"uv": [1.33333, 5.66667, 1.66667, 7.33333], "texture": "#0"},
				"west": {"uv": [1.33333, 5.66667, 1.66667, 7.33333], "texture": "#0"},
				"up": {"uv": [1.33333, 5.66667, 1.66667, 7.33333], "texture": "#0"},
				"down": {"uv": [1.33333, 5.66667, 1.66667, 7.33333], "texture": "#0"}
			}
		},
		{
			"from": [5.37566, 31.2, 4.56397],
			"to": [5.77566, 31.3, 6.26397],
			"rotation": {"angle": 22.5, "axis": "y", "origin": [5.62566, 29.3, 4.86397]},
			"faces": {
				"north": {"uv": [1.33333, 5.66667, 1.66667, 7.33333], "texture": "#0"},
				"east": {"uv": [1.33333, 5.66667, 1.66667, 7.33333], "texture": "#0"},
				"south": {"uv": [1.33333, 5.66667, 1.66667, 7.33333], "texture": "#0"},
				"west": {"uv": [1.33333, 5.66667, 1.66667, 7.33333], "texture": "#0"},
				"up": {"uv": [1.33333, 5.66667, 1.66667, 7.33333], "texture": "#0"},
				"down": {"uv": [1.33333, 5.66667, 1.66667, 7.33333], "texture": "#0"}
			}
		},
		{
			"from": [4.7, 31.2, 6.1],
			"to": [6.3, 31.3, 8.9],
			"rotation": {"angle": 0, "axis": "y", "origin": [13, 35.4, 15]},
			"faces": {
				"north": {"uv": [1.33333, 5.66667, 1.66667, 7.33333], "texture": "#0"},
				"east": {"uv": [1.33333, 5.66667, 1.66667, 7.33333], "texture": "#0"},
				"south": {"uv": [1.33333, 5.66667, 1.66667, 7.33333], "texture": "#0"},
				"west": {"uv": [1.33333, 5.66667, 1.66667, 7.33333], "texture": "#0"},
				"up": {"uv": [1.33333, 5.66667, 1.66667, 7.33333], "texture": "#0"},
				"down": {"uv": [1.33333, 5.66667, 1.66667, 7.33333], "texture": "#0"}
			}
		},
		{
			"from": [5, 24.2, 6.5],
			"to": [6, 31.6, 8.5],
			"rotation": {"angle": 0, "axis": "y", "origin": [13, 35.4, 15]},
			"faces": {
				"north": {"uv": [0.66667, 13.66667, 1.66667, 15.66667], "texture": "#0"},
				"east": {"uv": [0.66667, 13.66667, 1.66667, 15.66667], "texture": "#0"},
				"south": {"uv": [0.66667, 13.66667, 1.66667, 15.66667], "texture": "#0"},
				"west": {"uv": [0.66667, 13.66667, 1.66667, 15.66667], "texture": "#0"},
				"up": {"uv": [0.66667, 13.66667, 1.66667, 15.66667], "texture": "#0"},
				"down": {"uv": [0.66667, 13.66667, 1.66667, 15.66667], "texture": "#0"}
			}
		},
		{
			"from": [5, 22.91146, 5.9287],
			"to": [6, 24.71146, 7.3287],
			"rotation": {"angle": 22.5, "axis": "x", "origin": [5.5, 21.51146, 6.6287]},
			"faces": {
				"north": {"uv": [0.66667, 13.66667, 1.66667, 15.66667], "texture": "#0"},
				"east": {"uv": [0.66667, 13.66667, 1.66667, 15.66667], "texture": "#0"},
				"south": {"uv": [0.66667, 13.66667, 1.66667, 15.66667], "texture": "#0"},
				"west": {"uv": [0.66667, 13.66667, 1.66667, 15.66667], "texture": "#0"},
				"up": {"uv": [0.66667, 13.66667, 1.66667, 15.66667], "texture": "#0"},
				"down": {"uv": [0.66667, 13.66667, 1.66667, 15.66667], "texture": "#0"}
			}
		},
		{
			"from": [5, 21.8, 6.5],
			"to": [6, 24.2, 7.9],
			"rotation": {"angle": 0, "axis": "y", "origin": [13, 29, 15]},
			"faces": {
				"north": {"uv": [0.66667, 13.66667, 1.66667, 15.66667], "texture": "#0"},
				"east": {"uv": [0.66667, 13.66667, 1.66667, 15.66667], "texture": "#0"},
				"south": {"uv": [0.66667, 13.66667, 1.66667, 15.66667], "texture": "#0"},
				"west": {"uv": [0.66667, 13.66667, 1.66667, 15.66667], "texture": "#0"},
				"up": {"uv": [0.66667, 13.66667, 1.66667, 15.66667], "texture": "#0"},
				"down": {"uv": [0.66667, 13.66667, 1.66667, 15.66667], "texture": "#0"}
			}
		},
		{
			"from": [5, 6.9, 6.5],
			"to": [6, 21.8, 7.9],
			"rotation": {"angle": 0, "axis": "y", "origin": [13, 29, 15]},
			"faces": {
				"north": {"uv": [0.66667, 11, 1.66667, 13], "texture": "#0"},
				"east": {"uv": [0.66667, 11, 1.66667, 13], "texture": "#0"},
				"south": {"uv": [0.66667, 11, 1.66667, 13], "texture": "#0"},
				"west": {"uv": [0.66667, 11, 1.66667, 13], "texture": "#0"},
				"up": {"uv": [0.66667, 11, 1.66667, 13], "texture": "#0"},
				"down": {"uv": [0.66667, 11, 1.66667, 13], "texture": "#0"}
			}
		},
		{
			"from": [5, 6.15161, 6.13233],
			"to": [6, 7.25161, 7.53233],
			"rotation": {"angle": 22.5, "axis": "x", "origin": [5.5, 6.15161, 6.83233]},
			"faces": {
				"north": {"uv": [0.66667, 11, 1.66667, 13], "texture": "#0"},
				"east": {"uv": [0.66667, 11, 1.66667, 13], "texture": "#0"},
				"south": {"uv": [0.66667, 11, 1.66667, 13], "texture": "#0"},
				"west": {"uv": [0.66667, 11, 1.66667, 13], "texture": "#0"},
				"up": {"uv": [0.66667, 11, 1.66667, 13], "texture": "#0"},
				"down": {"uv": [0.66667, 11, 1.66667, 13], "texture": "#0"}
			}
		},
		{
			"from": [5, 8.25683, 7.36674],
			"to": [6, 9.35683, 8.26674],
			"rotation": {"angle": -22.5, "axis": "x", "origin": [5.5, 8.25683, 7.56674]},
			"faces": {
				"north": {"uv": [0.66667, 11, 1.66667, 13], "texture": "#0"},
				"east": {"uv": [0.66667, 11, 1.66667, 13], "texture": "#0"},
				"south": {"uv": [0.66667, 11, 1.66667, 13], "texture": "#0"},
				"west": {"uv": [0.66667, 11, 1.66667, 13], "texture": "#0"},
				"up": {"uv": [0.66667, 11, 1.66667, 13], "texture": "#0"},
				"down": {"uv": [0.66667, 11, 1.66667, 13], "texture": "#0"}
			}
		},
		{
			"from": [5, 5.31949, 6.18562],
			"to": [6, 6.41949, 7.58562],
			"rotation": {"angle": 0, "axis": "y", "origin": [5.5, 5.31949, 6.88562]},
			"faces": {
				"north": {"uv": [0.66667, 11, 1.66667, 13], "texture": "#0"},
				"east": {"uv": [0.66667, 11, 1.66667, 13], "texture": "#0"},
				"south": {"uv": [0.66667, 11, 1.66667, 13], "texture": "#0"},
				"west": {"uv": [0.66667, 11, 1.66667, 13], "texture": "#0"},
				"up": {"uv": [0.66667, 11, 1.66667, 13], "texture": "#0"},
				"down": {"uv": [0.66667, 11, 1.66667, 13], "texture": "#0"}
			}
		},
		{
			"from": [5, 5.3247, 6.81346],
			"to": [6, 8.5247, 8.21346],
			"rotation": {"angle": 0, "axis": "y", "origin": [5.5, 5.3247, 7.51346]},
			"faces": {
				"north": {"uv": [0.66667, 11, 1.66667, 13], "texture": "#0"},
				"east": {"uv": [0.66667, 11, 1.66667, 13], "texture": "#0"},
				"south": {"uv": [0.66667, 11, 1.66667, 13], "texture": "#0"},
				"west": {"uv": [0.66667, 11, 1.66667, 13], "texture": "#0"},
				"up": {"uv": [0.66667, 11, 1.66667, 13], "texture": "#0"},
				"down": {"uv": [0.66667, 11, 1.66667, 13], "texture": "#0"}
			}
		},
		{
			"from": [5, 5.21782, 6.28541],
			"to": [6, 5.61782, 7.68541],
			"rotation": {"angle": -22.5, "axis": "x", "origin": [5.5, 5.21782, 6.98541]},
			"faces": {
				"north": {"uv": [0.66667, 11, 1.66667, 13], "texture": "#0"},
				"east": {"uv": [0.66667, 11, 1.66667, 13], "texture": "#0"},
				"south": {"uv": [0.66667, 11, 1.66667, 13], "texture": "#0"},
				"west": {"uv": [0.66667, 11, 1.66667, 13], "texture": "#0"},
				"up": {"uv": [0.66667, 11, 1.66667, 13], "texture": "#0"},
				"down": {"uv": [0.66667, 11, 1.66667, 13], "texture": "#0"}
			}
		},
		{
			"from": [5, 4.94994, 6.33869],
			"to": [6, 5.34994, 7.83869],
			"rotation": {"angle": 0, "axis": "y", "origin": [5.5, 4.94994, 7.03869]},
			"faces": {
				"north": {"uv": [0.66667, 11, 1.66667, 13], "texture": "#0"},
				"east": {"uv": [0.66667, 11, 1.66667, 13], "texture": "#0"},
				"south": {"uv": [0.66667, 11, 1.66667, 13], "texture": "#0"},
				"west": {"uv": [0.66667, 11, 1.66667, 13], "texture": "#0"},
				"up": {"uv": [0.66667, 11, 1.66667, 13], "texture": "#0"},
				"down": {"uv": [0.66667, 11, 1.66667, 13], "texture": "#0"}
			}
		},
		{
			"from": [5, 5.41562, 6.71443],
			"to": [6, 5.94562, 8.11443],
			"rotation": {"angle": 45, "axis": "x", "origin": [5.5, 5.51562, 7.41443]},
			"faces": {
				"north": {"uv": [0.66667, 11, 1.66667, 13], "texture": "#0"},
				"east": {"uv": [0.66667, 11, 1.66667, 13], "texture": "#0"},
				"south": {"uv": [0.66667, 11, 1.66667, 13], "texture": "#0"},
				"west": {"uv": [0.66667, 11, 1.66667, 13], "texture": "#0"},
				"up": {"uv": [0.66667, 11, 1.66667, 13], "texture": "#0"},
				"down": {"uv": [0.66667, 11, 1.66667, 13], "texture": "#0"}
			}
		},
		{
			"from": [5, 27.72737, 5.46512],
			"to": [6, 28.12737, 5.86512],
			"rotation": {"angle": 22.5, "axis": "x", "origin": [5.5, 27.92737, 5.61512]},
			"faces": {
				"north": {"uv": [1, 6.33333, 2, 6.66667], "texture": "#0"},
				"east": {"uv": [1, 6.33333, 2, 6.66667], "texture": "#0"},
				"south": {"uv": [1, 6.33333, 2, 6.66667], "texture": "#0"},
				"west": {"uv": [1, 6.33333, 2, 6.66667], "texture": "#0"},
				"up": {"uv": [1, 6.33333, 2, 6.66667], "texture": "#0"},
				"down": {"uv": [1, 6.33333, 2, 6.66667], "texture": "#0"}
			}
		},
		{
			"from": [5, 27.10542, 5.98707],
			"to": [6, 27.60542, 6.38707],
			"rotation": {"angle": -22.5, "axis": "x", "origin": [5.5, 27.35542, 6.18707]},
			"faces": {
				"north": {"uv": [1, 6.33333, 2, 6.66667], "rotation": 180, "texture": "#0"},
				"east": {"uv": [1, 6.33333, 2, 6.66667], "rotation": 180, "texture": "#0"},
				"south": {"uv": [1, 6.33333, 2, 6.66667], "rotation": 180, "texture": "#0"},
				"west": {"uv": [1, 6.33333, 2, 6.66667], "rotation": 180, "texture": "#0"},
				"up": {"uv": [1, 6.33333, 2, 6.66667], "rotation": 180, "texture": "#0"},
				"down": {"uv": [1, 6.33333, 2, 6.66667], "rotation": 180, "texture": "#0"}
			}
		},
		{
			"from": [5, 27.49828, 5.70798],
			"to": [6, 27.89828, 6.20798],
			"rotation": {"angle": 45, "axis": "x", "origin": [5.5, 27.69828, 5.95798]},
			"faces": {
				"north": {"uv": [1, 6.33333, 2, 6.66667], "texture": "#0"},
				"east": {"uv": [1, 6.33333, 2, 6.66667], "texture": "#0"},
				"south": {"uv": [1, 6.33333, 2, 6.66667], "texture": "#0"},
				"west": {"uv": [1, 6.33333, 2, 6.66667], "texture": "#0"},
				"up": {"uv": [1, 6.33333, 2, 6.66667], "texture": "#0"},
				"down": {"uv": [1, 6.33333, 2, 6.66667], "texture": "#0"}
			}
		},
		{
			"from": [4.7, 27, 6.1],
			"to": [6.3, 31.2, 8.9],
			"rotation": {"angle": 0, "axis": "y", "origin": [13, 35.3, 15]},
			"faces": {
				"north": {"uv": [1, 6.33333, 2, 6.66667], "texture": "#0"},
				"east": {"uv": [1, 6.33333, 2, 6.66667], "texture": "#0"},
				"south": {"uv": [1, 6.33333, 2, 6.66667], "texture": "#0"},
				"west": {"uv": [1, 6.33333, 2, 6.66667], "texture": "#0"},
				"up": {"uv": [1, 6.33333, 2, 6.66667], "texture": "#0"},
				"down": {"uv": [1, 6.33333, 2, 6.66667], "texture": "#0"}
			}
		},
		{
			"from": [5.47566, 27.8, 4.56397],
			"to": [5.77566, 31.2, 6.26397],
			"rotation": {"angle": 22.5, "axis": "y", "origin": [5.62566, 29.2, 4.86397]},
			"faces": {
				"north": {"uv": [1, 6.33333, 2, 6.66667], "texture": "#0"},
				"east": {"uv": [1, 6.33333, 2, 6.66667], "texture": "#0"},
				"south": {"uv": [1, 6.33333, 2, 6.66667], "texture": "#0"},
				"west": {"uv": [1, 6.33333, 2, 6.66667], "texture": "#0"},
				"up": {"uv": [1, 6.33333, 2, 6.66667], "texture": "#0"},
				"down": {"uv": [1, 6.33333, 2, 6.66667], "texture": "#0"}
			}
		},
		{
			"from": [5.2, 27.8, 1.4],
			"to": [5.8, 31.2, 6.1],
			"rotation": {"angle": 0, "axis": "y", "origin": [13, 35.3, 12.2]},
			"faces": {
				"north": {"uv": [1, 6.33333, 2, 6.66667], "texture": "#0"},
				"east": {"uv": [1, 6.33333, 2, 6.66667], "texture": "#0"},
				"south": {"uv": [1, 6.33333, 2, 6.66667], "texture": "#0"},
				"west": {"uv": [1, 6.33333, 2, 6.66667], "texture": "#0"},
				"up": {"uv": [1, 6.33333, 2, 6.66667], "texture": "#0"},
				"down": {"uv": [1, 6.33333, 2, 6.66667], "texture": "#0"}
			}
		},
		{
			"from": [5.22434, 27.8, 4.56397],
			"to": [5.52434, 31.2, 6.26397],
			"rotation": {"angle": -22.5, "axis": "y", "origin": [5.37434, 29.2, 4.86397]},
			"faces": {
				"north": {"uv": [1, 6.33333, 2, 6.66667], "texture": "#0"},
				"east": {"uv": [1, 6.33333, 2, 6.66667], "texture": "#0"},
				"south": {"uv": [1, 6.33333, 2, 6.66667], "texture": "#0"},
				"west": {"uv": [1, 6.33333, 2, 6.66667], "texture": "#0"},
				"up": {"uv": [1, 6.33333, 2, 6.66667], "texture": "#0"},
				"down": {"uv": [1, 6.33333, 2, 6.66667], "texture": "#0"}
			}
		},
		{
			"from": [5.45363, 29.8, 8.69042],
			"to": [5.75363, 31.2, 10.39042],
			"rotation": {"angle": -22.5, "axis": "y", "origin": [5.5, 29.5, 10.1686]},
			"faces": {
				"north": {"uv": [1, 6.33333, 2, 6.66667], "rotation": 180, "texture": "#0"},
				"east": {"uv": [1, 6.33333, 2, 6.66667], "rotation": 180, "texture": "#0"},
				"south": {"uv": [1, 6.33333, 2, 6.66667], "rotation": 180, "texture": "#0"},
				"west": {"uv": [1, 6.33333, 2, 6.66667], "rotation": 180, "texture": "#0"},
				"up": {"uv": [1, 6.33333, 2, 6.66667], "rotation": 180, "texture": "#0"},
				"down": {"uv": [1, 6.33333, 2, 6.66667], "rotation": 180, "texture": "#0"}
			}
		},
		{
			"from": [5.2, 29.8, 8.9],
			"to": [5.8, 31.2, 10.5],
			"rotation": {"angle": 0, "axis": "y", "origin": [5.5, 29.5, 10.1686]},
			"faces": {
				"north": {"uv": [1, 6.33333, 2, 6.66667], "rotation": 180, "texture": "#0"},
				"east": {"uv": [1, 6.33333, 2, 6.66667], "rotation": 180, "texture": "#0"},
				"south": {"uv": [1, 6.33333, 2, 6.66667], "rotation": 180, "texture": "#0"},
				"west": {"uv": [1, 6.33333, 2, 6.66667], "rotation": 180, "texture": "#0"},
				"up": {"uv": [1, 6.33333, 2, 6.66667], "rotation": 180, "texture": "#0"},
				"down": {"uv": [1, 6.33333, 2, 6.66667], "rotation": 180, "texture": "#0"}
			}
		},
		{
			"from": [5.24637, 29.8, 8.69042],
			"to": [5.54637, 31.2, 10.39042],
			"rotation": {"angle": 22.5, "axis": "y", "origin": [5.5, 29.5, 10.1686]},
			"faces": {
				"north": {"uv": [1, 6.33333, 2, 6.66667], "rotation": 180, "texture": "#0"},
				"east": {"uv": [1, 6.33333, 2, 6.66667], "rotation": 180, "texture": "#0"},
				"south": {"uv": [1, 6.33333, 2, 6.66667], "rotation": 180, "texture": "#0"},
				"west": {"uv": [1, 6.33333, 2, 6.66667], "rotation": 180, "texture": "#0"},
				"up": {"uv": [1, 6.33333, 2, 6.66667], "rotation": 180, "texture": "#0"},
				"down": {"uv": [1, 6.33333, 2, 6.66667], "rotation": 180, "texture": "#0"}
			}
		},
		{
			"from": [5, 29.10542, 8.61293],
			"to": [6, 29.60542, 9.01293],
			"rotation": {"angle": 22.5, "axis": "x", "origin": [5.5, 29.35542, 8.81293]},
			"faces": {
				"north": {"uv": [1, 6.33333, 2, 6.66667], "rotation": 180, "texture": "#0"},
				"east": {"uv": [1, 6.33333, 2, 6.66667], "rotation": 180, "texture": "#0"},
				"south": {"uv": [1, 6.33333, 2, 6.66667], "rotation": 180, "texture": "#0"},
				"west": {"uv": [1, 6.33333, 2, 6.66667], "rotation": 180, "texture": "#0"},
				"up": {"uv": [1, 6.33333, 2, 6.66667], "rotation": 180, "texture": "#0"},
				"down": {"uv": [1, 6.33333, 2, 6.66667], "rotation": 180, "texture": "#0"}
			}
		},
		{
			"from": [5.2, 29.85751, 10.21089],
			"to": [5.8, 30.35751, 10.61089],
			"rotation": {"angle": 22.5, "axis": "x", "origin": [5.5, 30.10751, 10.41089]},
			"faces": {
				"north": {"uv": [1, 6.33333, 2, 6.66667], "rotation": 180, "texture": "#0"},
				"east": {"uv": [1, 6.33333, 2, 6.66667], "rotation": 180, "texture": "#0"},
				"south": {"uv": [1, 6.33333, 2, 6.66667], "rotation": 180, "texture": "#0"},
				"west": {"uv": [1, 6.33333, 2, 6.66667], "rotation": 180, "texture": "#0"},
				"up": {"uv": [1, 6.33333, 2, 6.66667], "rotation": 180, "texture": "#0"},
				"down": {"uv": [1, 6.33333, 2, 6.66667], "rotation": 180, "texture": "#0"}
			}
		},
		{
			"from": [5, 29.44828, 8.84202],
			"to": [6, 29.94828, 9.24202],
			"rotation": {"angle": 45, "axis": "x", "origin": [5.5, 29.69828, 9.04202]},
			"faces": {
				"north": {"uv": [1, 6.33333, 2, 6.66667], "rotation": 180, "texture": "#0"},
				"east": {"uv": [1, 6.33333, 2, 6.66667], "rotation": 180, "texture": "#0"},
				"south": {"uv": [1, 6.33333, 2, 6.66667], "rotation": 180, "texture": "#0"},
				"west": {"uv": [1, 6.33333, 2, 6.66667], "rotation": 180, "texture": "#0"},
				"up": {"uv": [1, 6.33333, 2, 6.66667], "rotation": 180, "texture": "#0"},
				"down": {"uv": [1, 6.33333, 2, 6.66667], "rotation": 180, "texture": "#0"}
			}
		},
		{
			"from": [5.2, 30.20037, 10.23999],
			"to": [5.8, 30.80037, 10.83999],
			"rotation": {"angle": 45, "axis": "x", "origin": [5.5, 30.45037, 10.63999]},
			"faces": {
				"north": {"uv": [1, 6.33333, 2, 6.66667], "rotation": 180, "texture": "#0"},
				"east": {"uv": [1, 6.33333, 2, 6.66667], "rotation": 180, "texture": "#0"},
				"south": {"uv": [1, 6.33333, 2, 6.66667], "rotation": 180, "texture": "#0"},
				"west": {"uv": [1, 6.33333, 2, 6.66667], "rotation": 180, "texture": "#0"},
				"up": {"uv": [1, 6.33333, 2, 6.66667], "rotation": 180, "texture": "#0"},
				"down": {"uv": [1, 6.33333, 2, 6.66667], "rotation": 180, "texture": "#0"}
			}
		},
		{
			"from": [5, 29.68911, 9.14249],
			"to": [6, 30.08911, 9.54249],
			"rotation": {"angle": -22.5, "axis": "x", "origin": [5.5, 29.88911, 9.29249]},
			"faces": {
				"north": {"uv": [1, 6.33333, 2, 6.66667], "texture": "#0"},
				"east": {"uv": [1, 6.33333, 2, 6.66667], "texture": "#0"},
				"south": {"uv": [1, 6.33333, 2, 6.66667], "texture": "#0"},
				"west": {"uv": [1, 6.33333, 2, 6.66667], "texture": "#0"},
				"up": {"uv": [1, 6.33333, 2, 6.66667], "texture": "#0"},
				"down": {"uv": [1, 6.33333, 2, 6.66667], "texture": "#0"}
			}
		},
		{
			"from": [5.2, 30.44119, 10.74046],
			"to": [5.8, 30.84119, 12.04046],
			"rotation": {"angle": -22.5, "axis": "x", "origin": [5.5, 30.64119, 10.89046]},
			"faces": {
				"north": {"uv": [1, 6.33333, 2, 6.66667], "texture": "#0"},
				"east": {"uv": [1, 6.33333, 2, 6.66667], "texture": "#0"},
				"south": {"uv": [1, 6.33333, 2, 6.66667], "texture": "#0"},
				"west": {"uv": [1, 6.33333, 2, 6.66667], "texture": "#0"},
				"up": {"uv": [1, 6.33333, 2, 6.66667], "texture": "#0"},
				"down": {"uv": [1, 6.33333, 2, 6.66667], "texture": "#0"}
			}
		},
		{
			"from": [5.2, 30.8, 10.5],
			"to": [5.8, 31.3, 12.1],
			"rotation": {"angle": 0, "axis": "y", "origin": [5.5, 31.1, 10.7]},
			"faces": {
				"north": {"uv": [1, 6.33333, 2, 6.66667], "texture": "#0"},
				"east": {"uv": [1, 6.33333, 2, 6.66667], "texture": "#0"},
				"south": {"uv": [1, 6.33333, 2, 6.66667], "texture": "#0"},
				"west": {"uv": [1, 6.33333, 2, 6.66667], "texture": "#0"},
				"up": {"uv": [1, 6.33333, 2, 6.66667], "texture": "#0"},
				"down": {"uv": [1, 6.33333, 2, 6.66667], "texture": "#0"}
			}
		},
		{
			"from": [5.56606, 30.8, 11.78284],
			"to": [5.99006, 31.3, 12.20684],
			"rotation": {"angle": 45, "axis": "y", "origin": [5.76606, 29.5, 12.38284]},
			"faces": {
				"north": {"uv": [1, 6.33333, 2, 6.66667], "texture": "#0"},
				"east": {"uv": [1, 6.33333, 2, 6.66667], "texture": "#0"},
				"south": {"uv": [1, 6.33333, 2, 6.66667], "texture": "#0"},
				"west": {"uv": [1, 6.33333, 2, 6.66667], "texture": "#0"},
				"up": {"uv": [1, 6.33333, 2, 6.66667], "texture": "#0"},
				"down": {"uv": [1, 6.33333, 2, 6.66667], "texture": "#0"}
			}
		},
		{
			"from": [5.35851, 31.2, 8.68945],
			"to": [5.75851, 31.3, 10.38945],
			"rotation": {"angle": -22.5, "axis": "y", "origin": [5.5, 31.25, 10.15584]},
			"faces": {
				"north": {"uv": [1, 6.33333, 2, 6.66667], "rotation": 180, "texture": "#0"},
				"east": {"uv": [1, 6.33333, 2, 6.66667], "rotation": 180, "texture": "#0"},
				"south": {"uv": [1, 6.33333, 2, 6.66667], "rotation": 180, "texture": "#0"},
				"west": {"uv": [1, 6.33333, 2, 6.66667], "rotation": 180, "texture": "#0"},
				"up": {"uv": [1, 6.33333, 2, 6.66667], "rotation": 180, "texture": "#0"},
				"down": {"uv": [1, 6.33333, 2, 6.66667], "rotation": 180, "texture": "#0"}
			}
		},
		{
			"from": [5.2, 31.2, 8.9],
			"to": [5.8, 31.3, 10.5],
			"rotation": {"angle": 0, "axis": "y", "origin": [5.5, 31.25, 10.15584]},
			"faces": {
				"north": {"uv": [1, 6.33333, 2, 6.66667], "rotation": 180, "texture": "#0"},
				"east": {"uv": [1, 6.33333, 2, 6.66667], "rotation": 180, "texture": "#0"},
				"south": {"uv": [1, 6.33333, 2, 6.66667], "rotation": 180, "texture": "#0"},
				"west": {"uv": [1, 6.33333, 2, 6.66667], "rotation": 180, "texture": "#0"},
				"up": {"uv": [1, 6.33333, 2, 6.66667], "rotation": 180, "texture": "#0"},
				"down": {"uv": [1, 6.33333, 2, 6.66667], "rotation": 180, "texture": "#0"}
			}
		},
		{
			"from": [5.24149, 31.2, 8.68945],
			"to": [5.64149, 31.3, 10.38945],
			"rotation": {"angle": 22.5, "axis": "y", "origin": [5.5, 31.25, 10.15584]},
			"faces": {
				"north": {"uv": [1, 6.33333, 2, 6.66667], "rotation": 180, "texture": "#0"},
				"east": {"uv": [1, 6.33333, 2, 6.66667], "rotation": 180, "texture": "#0"},
				"south": {"uv": [1, 6.33333, 2, 6.66667], "rotation": 180, "texture": "#0"},
				"west": {"uv": [1, 6.33333, 2, 6.66667], "rotation": 180, "texture": "#0"},
				"up": {"uv": [1, 6.33333, 2, 6.66667], "rotation": 180, "texture": "#0"},
				"down": {"uv": [1, 6.33333, 2, 6.66667], "rotation": 180, "texture": "#0"}
			}
		},
		{
			"from": [5.3, 27.8, 0.2],
			"to": [5.7, 31.2, 1.4],
			"rotation": {"angle": 0, "axis": "y", "origin": [13, 35.3, 10.5]},
			"faces": {
				"north": {"uv": [4, 3.33333, 4.33333, 4.66667], "texture": "#0"},
				"east": {"uv": [4, 3.33333, 4.33333, 4.66667], "texture": "#0"},
				"south": {"uv": [4, 3.33333, 4.33333, 4.66667], "texture": "#0"},
				"west": {"uv": [4, 3.33333, 4.33333, 4.66667], "texture": "#0"},
				"up": {"uv": [4, 3.33333, 4.33333, 4.66667], "texture": "#0"},
				"down": {"uv": [4, 3.33333, 4.33333, 4.66667], "texture": "#0"}
			}
		},
		{
			"from": [5.39916, 27.8, 1.09875],
			"to": [5.59916, 31.2, 1.59875],
			"rotation": {"angle": -22.5, "axis": "y", "origin": [5.79916, 29.5, 0.99875]},
			"faces": {
				"north": {"uv": [4, 3.33333, 4.33333, 4.66667], "texture": "#0"},
				"east": {"uv": [4, 3.33333, 4.33333, 4.66667], "texture": "#0"},
				"south": {"uv": [4, 3.33333, 4.33333, 4.66667], "texture": "#0"},
				"west": {"uv": [4, 3.33333, 4.33333, 4.66667], "texture": "#0"},
				"up": {"uv": [4, 3.33333, 4.33333, 4.66667], "texture": "#0"},
				"down": {"uv": [4, 3.33333, 4.33333, 4.66667], "texture": "#0"}
			}
		},
		{
			"from": [5.378, 27.8, 0.98394],
			"to": [5.578, 31.2, 1.48394],
			"rotation": {"angle": 22.5, "axis": "y", "origin": [5.478, 29.5, 0.88394]},
			"faces": {
				"north": {"uv": [4, 3.33333, 4.33333, 4.66667], "texture": "#0"},
				"east": {"uv": [4, 3.33333, 4.33333, 4.66667], "texture": "#0"},
				"south": {"uv": [4, 3.33333, 4.33333, 4.66667], "texture": "#0"},
				"west": {"uv": [4, 3.33333, 4.33333, 4.66667], "texture": "#0"},
				"up": {"uv": [4, 3.33333, 4.33333, 4.66667], "texture": "#0"},
				"down": {"uv": [4, 3.33333, 4.33333, 4.66667], "texture": "#0"}
			}
		},
		{
			"from": [5.66569, 27.8, -0.11716],
			"to": [5.94969, 31.3, 0.16684],
			"rotation": {"angle": 45, "axis": "y", "origin": [5.86569, 29.5, 0.48284]},
			"faces": {
				"north": {"uv": [4, 3.33333, 4.33333, 4.66667], "texture": "#0"},
				"east": {"uv": [4, 3.33333, 4.33333, 4.66667], "texture": "#0"},
				"south": {"uv": [4, 3.33333, 4.33333, 4.66667], "texture": "#0"},
				"west": {"uv": [4, 3.33333, 4.33333, 4.66667], "texture": "#0"},
				"up": {"uv": [4, 3.33333, 4.33333, 4.66667], "texture": "#0"},
				"down": {"uv": [4, 3.33333, 4.33333, 4.66667], "texture": "#0"}
			}
		},
		{
			"from": [5.3, 31.2, 0.2],
			"to": [5.7, 31.3, 1.4],
			"rotation": {"angle": 0, "axis": "y", "origin": [13, 35.4, 10.5]},
			"faces": {
				"north": {"uv": [4, 3.33333, 4.33333, 4.66667], "texture": "#0"},
				"east": {"uv": [4, 3.33333, 4.33333, 4.66667], "texture": "#0"},
				"south": {"uv": [4, 3.33333, 4.33333, 4.66667], "texture": "#0"},
				"west": {"uv": [4, 3.33333, 4.33333, 4.66667], "texture": "#0"},
				"up": {"uv": [4, 3.33333, 4.33333, 4.66667], "texture": "#0"},
				"down": {"uv": [4, 3.33333, 4.33333, 4.66667], "texture": "#0"}
			}
		}
	],
	"display": {
		"thirdperson_righthand": {
			"translation": [2, -11, 2],
			"scale": [0.8, 0.8, 0.8]
		},
		"thirdperson_lefthand": {
			"translation": [-2.25, -11, 2.25],
			"scale": [0.8, 0.8, 0.8]
		},
		"firstperson_righthand": {
			"rotation": [-9, 14, 0],
			"translation": [3, -8, 0],
			"scale": [0.8, 0.8, 0.8]
		},
		"firstperson_lefthand": {
			"rotation": [-9, 0, 0],
			"translation": [0, -8, 0],
			"scale": [0.8, 0.8, 0.8]
		},
		"ground": {
			"rotation": [-32, 0, 0],
			"translation": [1.5, 2.5, 6.25],
			"scale": [0.8, 0.8, 0.8]
		},
		"gui": {
			"rotation": [-51, 37, 51],
			"translation": [4.5, -3.25, 0],
			"scale": [0.5, 0.5, 0.5]
		},
		"head": {
			"rotation": [-90, 28, 90],
			"translation": [9, -20.75, 2.5]
		},
		"fixed": {
			"rotation": [90, 135, -90],
			"translation": [7.5, -6, -3.5],
			"scale": [0.8, 0.8, 0.8]
		}
	},
	"groups": [
		{
			"name": "base",
			"origin": [8, 8, 8],
			"children": [
				{
					"name": "Cap",
					"origin": [13, 19.1, 15],
					"children": [0, 1, 2, 3, 4, 5]
				},
				{
					"name": "Grip",
					"origin": [13, 19.1, 15],
					"children": [6, 7, 8, 9, 10, 11, 12, 13, 14, 15, 16]
				},
				{
					"name": "Blade",
					"origin": [5.37434, 12.9, 4.86397],
					"children": [17, 18, 19, 20, 21, 22, 23,
						{
							"name": "group",
							"origin": [8, 8, 8],
							"children": [24, 25, 26, 27, 28, 29, 30, 31, 32, 33, 34, 35, 36, 37]
						}
					]
				},
				{
					"name": "Razor",
					"origin": [13, 19.1, 10.5],
					"children": [38, 39, 40, 41, 42]
				}
			]
		}
	]
}