{
	"credit": "Made with Blockbench",
	"textures": {
		"0": "gci:items/common/all_in_one",
		"particle": "gci:items/common/all_in_one"
	},
	"elements": [
		{
			"from": [8, 5.2, 7],
			"to": [9, 7, 9],
			"rotation": {"angle": 0, "axis": "y", "origin": [16, 13, 15]},
			"faces": {
				"north": {"uv": [4.5, 9.375, 5, 9.75], "texture": "#0"},
				"east": {"uv": [4.75, 9.375, 5.25, 9.75], "texture": "#0"},
				"south": {"uv": [4.625, 9.5, 5.125, 9.875], "texture": "#0"},
				"west": {"uv": [4.5, 9.375, 5, 9.75], "texture": "#0"},
				"up": {"uv": [4.5, 9.375, 5, 9.75], "texture": "#0"},
				"down": {"uv": [4.5, 9.625, 5, 10], "texture": "#0"}
			}
		},
		{
			"from": [8.9, 6.8, 9.3],
			"to": [9, 8.8, 10.3],
			"rotation": {"angle": 22.5, "axis": "x", "origin": [8.5, 7.8, 9.8]},
			"faces": {
				"north": {"uv": [4.5, 9.625, 5, 10], "rotation": 180, "texture": "#0"},
				"east": {"uv": [4.75, 9.375, 5.25, 9.75], "rotation": 270, "texture": "#0"},
				"south": {"uv": [4.5, 9.375, 5, 9.75], "texture": "#0"},
				"west": {"uv": [4.5, 9.375, 5, 9.75], "rotation": 90, "texture": "#0"},
				"up": {"uv": [4.5, 9.375, 5, 9.75], "rotation": 180, "texture": "#0"},
				"down": {"uv": [4.625, 9.5, 5.125, 9.875], "texture": "#0"}
			}
		},
		{
			"from": [8, 7, 7],
			"to": [9, 7.1, 9],
			"rotation": {"angle": 0, "axis": "y", "origin": [16, 14.1, 15]},
			"faces": {
				"north": {"uv": [9.125, 10.125, 9.25, 10.25], "texture": "#0"},
				"east": {"uv": [9.5, 9.875, 9.625, 10], "texture": "#0"},
				"south": {"uv": [9.375, 9.875, 9.5, 10], "texture": "#0"},
				"west": {"uv": [9.5, 10.5, 9.625, 10.625], "texture": "#0"},
				"up": {"uv": [4.25, 9.625, 4.5, 10.125], "texture": "#0"},
				"down": {"uv": [9.75, 10.625, 9.875, 10.75], "texture": "#0"}
			}
		},
		{
			"from": [8.1, 6.975, 9],
			"to": [8.9, 7.075, 9.1],
			"rotation": {"angle": 45, "axis": "x", "origin": [8.5, 7.05, 9.05]},
			"faces": {
				"north": {"uv": [9.125, 10.125, 9.25, 10.25], "texture": "#0"},
				"east": {"uv": [9.5, 9.875, 9.625, 10], "texture": "#0"},
				"south": {"uv": [9.375, 9.875, 9.5, 10], "texture": "#0"},
				"west": {"uv": [9.5, 10.5, 9.625, 10.625], "texture": "#0"},
				"up": {"uv": [9.125, 10.25, 9.25, 10.375], "texture": "#0"},
				"down": {"uv": [9.75, 10.625, 9.875, 10.75], "texture": "#0"}
			}
		},
		{
			"from": [8, 6.8, 9.3],
			"to": [8.1, 8.8, 10.3],
			"rotation": {"angle": 22.5, "axis": "x", "origin": [8.5, 7.8, 9.8]},
			"faces": {
				"north": {"uv": [4.5, 9.625, 5, 10], "rotation": 180, "texture": "#0"},
				"east": {"uv": [4.75, 9.375, 5.25, 9.75], "rotation": 270, "texture": "#0"},
				"south": {"uv": [4.5, 9.375, 5, 9.75], "texture": "#0"},
				"west": {"uv": [4.5, 9.375, 5, 9.75], "rotation": 90, "texture": "#0"},
				"up": {"uv": [4.5, 9.375, 5, 9.75], "rotation": 180, "texture": "#0"},
				"down": {"uv": [4.625, 9.5, 5.125, 9.875], "texture": "#0"}
			}
		},
		{
			"from": [8.1, 8.7, 9.3],
			"to": [8.9, 8.8, 10.2],
			"rotation": {"angle": 22.5, "axis": "x", "origin": [8.5, 7.8, 9.8]},
			"faces": {
				"north": {"uv": [4.5, 9.625, 5, 10], "rotation": 180, "texture": "#0"},
				"east": {"uv": [4.75, 9.375, 5.25, 9.75], "rotation": 270, "texture": "#0"},
				"south": {"uv": [4.5, 9.375, 5, 9.75], "texture": "#0"},
				"west": {"uv": [4.5, 9.375, 5, 9.75], "rotation": 90, "texture": "#0"},
				"up": {"uv": [4.5, 9.375, 5, 9.75], "rotation": 180, "texture": "#0"},
				"down": {"uv": [4.625, 9.5, 5.125, 9.875], "texture": "#0"}
			}
		},
		{
			"from": [8.1, 6.8, 9.3],
			"to": [8.9, 6.9, 10.3],
			"rotation": {"angle": 22.5, "axis": "x", "origin": [8.5, 7.8, 9.8]},
			"faces": {
				"north": {"uv": [4.5, 9.625, 5, 10], "rotation": 180, "texture": "#0"},
				"east": {"uv": [4.75, 9.375, 5.25, 9.75], "rotation": 270, "texture": "#0"},
				"south": {"uv": [4.5, 9.375, 5, 9.75], "texture": "#0"},
				"west": {"uv": [4.5, 9.375, 5, 9.75], "rotation": 90, "texture": "#0"},
				"up": {"uv": [4.5, 9.375, 5, 9.75], "rotation": 180, "texture": "#0"},
				"down": {"uv": [4.625, 9.5, 5.125, 9.875], "texture": "#0"}
			}
		},
		{
			"from": [8.1, 6.9, 10.2],
			"to": [8.9, 8.8, 10.3],
			"rotation": {"angle": 22.5, "axis": "x", "origin": [8.5, 7.8, 9.8]},
			"faces": {
				"north": {"uv": [4.5, 9.625, 5, 10], "rotation": 180, "texture": "#0"},
				"east": {"uv": [4.75, 9.375, 5.25, 9.75], "rotation": 270, "texture": "#0"},
				"south": {"uv": [4.5, 9.375, 5, 9.75], "texture": "#0"},
				"west": {"uv": [4.5, 9.375, 5, 9.75], "rotation": 90, "texture": "#0"},
				"up": {"uv": [4.5, 9.375, 5, 9.75], "rotation": 180, "texture": "#0"},
				"down": {"uv": [4.625, 9.5, 5.125, 9.875], "texture": "#0"}
			}
		},
		{
			"from": [8.1, 7.1, 7.1],
			"to": [8.9, 7.2, 8.8],
			"rotation": {"angle": 0, "axis": "y", "origin": [16, 14.2, 15]},
			"faces": {
				"north": {"uv": [1, 10.75, 1.125, 10.875], "texture": "#0"},
				"east": {"uv": [0.75, 10.5, 0.875, 10.625], "texture": "#0"},
				"south": {"uv": [0.875, 10.625, 1, 10.75], "texture": "#0"},
				"west": {"uv": [1, 10.75, 1.125, 10.875], "texture": "#0"},
				"up": {"uv": [1.125, 10.5, 1.25, 10.625], "texture": "#0"},
				"down": {"uv": [0.75, 10.875, 0.875, 11], "texture": "#0"}
			}
		},
		{
			"from": [8.2, 7.2, 7.6],
			"to": [8.8, 7.3, 8.5],
			"rotation": {"angle": 0, "axis": "y", "origin": [16, 14.3, 15]},
			"faces": {
				"north": {"uv": [1, 10.75, 1.125, 10.875], "texture": "#0"},
				"east": {"uv": [0.75, 10.5, 0.875, 10.625], "texture": "#0"},
				"south": {"uv": [0.875, 10.625, 1, 10.75], "texture": "#0"},
				"west": {"uv": [1, 10.75, 1.125, 10.875], "texture": "#0"},
				"up": {"uv": [1.125, 10.5, 1.25, 10.625], "texture": "#0"},
				"down": {"uv": [0.75, 10.875, 0.875, 11], "texture": "#0"}
			}
		},
		{
			"from": [8.3, 7.3, 7.6],
			"to": [8.7, 7.4, 7.7],
			"rotation": {"angle": 0, "axis": "y", "origin": [16.1, 14.4, 15]},
			"faces": {
				"north": {"uv": [1, 10.75, 1.125, 10.875], "texture": "#0"},
				"east": {"uv": [0.75, 10.5, 0.875, 10.625], "texture": "#0"},
				"south": {"uv": [0.875, 10.625, 1, 10.75], "texture": "#0"},
				"west": {"uv": [1, 10.75, 1.125, 10.875], "texture": "#0"},
				"up": {"uv": [1.125, 10.5, 1.25, 10.625], "texture": "#0"},
				"down": {"uv": [0.75, 10.875, 0.875, 11], "texture": "#0"}
			}
		},
		{
			"from": [8.3, 7.2, 8.5],
			"to": [8.7, 7.7, 8.6],
			"rotation": {"angle": 0, "axis": "y", "origin": [16.1, 14.4, 16]},
			"faces": {
				"north": {"uv": [1, 10.75, 1.125, 10.875], "texture": "#0"},
				"east": {"uv": [0.75, 10.5, 0.875, 10.625], "texture": "#0"},
				"south": {"uv": [0.875, 10.625, 1, 10.75], "texture": "#0"},
				"west": {"uv": [1, 10.75, 1.125, 10.875], "texture": "#0"},
				"up": {"uv": [1.125, 10.5, 1.25, 10.625], "texture": "#0"},
				"down": {"uv": [0.75, 10.875, 0.875, 11], "texture": "#0"}
			}
		},
		{
			"from": [8.7, 7.4, 7.6],
			"to": [8.8, 7.5, 8.5],
			"rotation": {"angle": 0, "axis": "y", "origin": [16, 14.5, 15]},
			"faces": {
				"north": {"uv": [1, 10.75, 1.125, 10.875], "texture": "#0"},
				"east": {"uv": [0.75, 10.5, 0.875, 10.625], "texture": "#0"},
				"south": {"uv": [0.875, 10.625, 1, 10.75], "texture": "#0"},
				"west": {"uv": [1, 10.75, 1.125, 10.875], "texture": "#0"},
				"up": {"uv": [1.125, 10.5, 1.25, 10.625], "texture": "#0"},
				"down": {"uv": [0.75, 10.875, 0.875, 11], "texture": "#0"}
			}
		},
		{
			"from": [8.7, 7.5, 7.9],
			"to": [8.8, 7.6, 8.2],
			"rotation": {"angle": 0, "axis": "y", "origin": [16, 14.6, 15]},
			"faces": {
				"north": {"uv": [1, 10.75, 1.125, 10.875], "texture": "#0"},
				"east": {"uv": [0.75, 10.5, 0.875, 10.625], "texture": "#0"},
				"south": {"uv": [0.875, 10.625, 1, 10.75], "texture": "#0"},
				"west": {"uv": [1, 10.75, 1.125, 10.875], "texture": "#0"},
				"up": {"uv": [1.125, 10.5, 1.25, 10.625], "texture": "#0"},
				"down": {"uv": [0.75, 10.875, 0.875, 11], "texture": "#0"}
			}
		},
		{
			"from": [8.7, 7.6, 7.6],
			"to": [8.8, 7.7, 8.5],
			"rotation": {"angle": 0, "axis": "y", "origin": [16, 14.7, 15]},
			"faces": {
				"north": {"uv": [1, 10.75, 1.125, 10.875], "texture": "#0"},
				"east": {"uv": [0.75, 10.5, 0.875, 10.625], "texture": "#0"},
				"south": {"uv": [0.875, 10.625, 1, 10.75], "texture": "#0"},
				"west": {"uv": [1, 10.75, 1.125, 10.875], "texture": "#0"},
				"up": {"uv": [1.125, 10.5, 1.25, 10.625], "texture": "#0"},
				"down": {"uv": [0.75, 10.875, 0.875, 11], "texture": "#0"}
			}
		},
		{
			"from": [8.7, 7.7, 8.4],
			"to": [8.8, 7.8, 8.5],
			"rotation": {"angle": 0, "axis": "y", "origin": [16, 14.8, 15]},
			"faces": {
				"north": {"uv": [1, 10.75, 1.125, 10.875], "texture": "#0"},
				"east": {"uv": [0.75, 10.5, 0.875, 10.625], "texture": "#0"},
				"south": {"uv": [0.875, 10.625, 1, 10.75], "texture": "#0"},
				"west": {"uv": [1, 10.75, 1.125, 10.875], "texture": "#0"},
				"up": {"uv": [1.125, 10.5, 1.25, 10.625], "texture": "#0"},
				"down": {"uv": [0.75, 10.875, 0.875, 11], "texture": "#0"}
			}
		},
		{
			"from": [8.7, 7.8, 7.6],
			"to": [8.8, 7.9, 8.5],
			"rotation": {"angle": 0, "axis": "y", "origin": [16, 14.9, 15]},
			"faces": {
				"north": {"uv": [1, 10.75, 1.125, 10.875], "texture": "#0"},
				"east": {"uv": [0.75, 10.5, 0.875, 10.625], "texture": "#0"},
				"south": {"uv": [0.875, 10.625, 1, 10.75], "texture": "#0"},
				"west": {"uv": [1, 10.75, 1.125, 10.875], "texture": "#0"},
				"up": {"uv": [1.125, 10.5, 1.25, 10.625], "texture": "#0"},
				"down": {"uv": [0.75, 10.875, 0.875, 11], "texture": "#0"}
			}
		},
		{
			"from": [8.7, 7.7, 7.6],
			"to": [8.8, 7.8, 7.7],
			"rotation": {"angle": 0, "axis": "y", "origin": [16, 14.8, 14.2]},
			"faces": {
				"north": {"uv": [1, 10.75, 1.125, 10.875], "texture": "#0"},
				"east": {"uv": [0.75, 10.5, 0.875, 10.625], "texture": "#0"},
				"south": {"uv": [0.875, 10.625, 1, 10.75], "texture": "#0"},
				"west": {"uv": [1, 10.75, 1.125, 10.875], "texture": "#0"},
				"up": {"uv": [1.125, 10.5, 1.25, 10.625], "texture": "#0"},
				"down": {"uv": [0.75, 10.875, 0.875, 11], "texture": "#0"}
			}
		},
		{
			"from": [8.7, 7.7, 7.8],
			"to": [8.8, 7.8, 8],
			"rotation": {"angle": 0, "axis": "y", "origin": [16, 14.8, 14.5]},
			"faces": {
				"north": {"uv": [1, 10.75, 1.125, 10.875], "texture": "#0"},
				"east": {"uv": [0.75, 10.5, 0.875, 10.625], "texture": "#0"},
				"south": {"uv": [0.875, 10.625, 1, 10.75], "texture": "#0"},
				"west": {"uv": [1, 10.75, 1.125, 10.875], "texture": "#0"},
				"up": {"uv": [1.125, 10.5, 1.25, 10.625], "texture": "#0"},
				"down": {"uv": [0.75, 10.875, 0.875, 11], "texture": "#0"}
			}
		},
		{
			"from": [8.7, 7.7, 8.1],
			"to": [8.8, 7.8, 8.3],
			"rotation": {"angle": 0, "axis": "y", "origin": [16, 14.8, 14.8]},
			"faces": {
				"north": {"uv": [1, 10.75, 1.125, 10.875], "texture": "#0"},
				"east": {"uv": [0.75, 10.5, 0.875, 10.625], "texture": "#0"},
				"south": {"uv": [0.875, 10.625, 1, 10.75], "texture": "#0"},
				"west": {"uv": [1, 10.75, 1.125, 10.875], "texture": "#0"},
				"up": {"uv": [1.125, 10.5, 1.25, 10.625], "texture": "#0"},
				"down": {"uv": [0.75, 10.875, 0.875, 11], "texture": "#0"}
			}
		},
		{
			"from": [8.7, 7.5, 8.3],
			"to": [8.8, 7.6, 8.5],
			"rotation": {"angle": 0, "axis": "y", "origin": [16, 14.6, 15]},
			"faces": {
				"north": {"uv": [1, 10.75, 1.125, 10.875], "texture": "#0"},
				"east": {"uv": [0.75, 10.5, 0.875, 10.625], "texture": "#0"},
				"south": {"uv": [0.875, 10.625, 1, 10.75], "texture": "#0"},
				"west": {"uv": [1, 10.75, 1.125, 10.875], "texture": "#0"},
				"up": {"uv": [1.125, 10.5, 1.25, 10.625], "texture": "#0"},
				"down": {"uv": [0.75, 10.875, 0.875, 11], "texture": "#0"}
			}
		},
		{
			"from": [8.7, 7.5, 7.6],
			"to": [8.8, 7.6, 7.8],
			"rotation": {"angle": 0, "axis": "y", "origin": [16, 14.6, 15]},
			"faces": {
				"north": {"uv": [1, 10.75, 1.125, 10.875], "texture": "#0"},
				"east": {"uv": [0.75, 10.5, 0.875, 10.625], "texture": "#0"},
				"south": {"uv": [0.875, 10.625, 1, 10.75], "texture": "#0"},
				"west": {"uv": [1, 10.75, 1.125, 10.875], "texture": "#0"},
				"up": {"uv": [1.125, 10.5, 1.25, 10.625], "texture": "#0"},
				"down": {"uv": [0.75, 10.875, 0.875, 11], "texture": "#0"}
			}
		},
		{
			"from": [8.7, 7.3, 8.4],
			"to": [8.8, 7.4, 8.5],
			"rotation": {"angle": 0, "axis": "y", "origin": [16, 14.4, 15]},
			"faces": {
				"north": {"uv": [1, 10.75, 1.125, 10.875], "texture": "#0"},
				"east": {"uv": [0.75, 10.5, 0.875, 10.625], "texture": "#0"},
				"south": {"uv": [0.875, 10.625, 1, 10.75], "texture": "#0"},
				"west": {"uv": [1, 10.75, 1.125, 10.875], "texture": "#0"},
				"up": {"uv": [1.125, 10.5, 1.25, 10.625], "texture": "#0"},
				"down": {"uv": [0.75, 10.875, 0.875, 11], "texture": "#0"}
			}
		},
		{
			"from": [8.7, 7.3, 8.1],
			"to": [8.8, 7.4, 8.3],
			"rotation": {"angle": 0, "axis": "y", "origin": [16, 14.4, 14.8]},
			"faces": {
				"north": {"uv": [1, 10.75, 1.125, 10.875], "texture": "#0"},
				"east": {"uv": [0.75, 10.5, 0.875, 10.625], "texture": "#0"},
				"south": {"uv": [0.875, 10.625, 1, 10.75], "texture": "#0"},
				"west": {"uv": [1, 10.75, 1.125, 10.875], "texture": "#0"},
				"up": {"uv": [1.125, 10.5, 1.25, 10.625], "texture": "#0"},
				"down": {"uv": [0.75, 10.875, 0.875, 11], "texture": "#0"}
			}
		},
		{
			"from": [8.7, 7.3, 7.8],
			"to": [8.8, 7.4, 8],
			"rotation": {"angle": 0, "axis": "y", "origin": [16, 14.4, 14.5]},
			"faces": {
				"north": {"uv": [1, 10.75, 1.125, 10.875], "texture": "#0"},
				"east": {"uv": [0.75, 10.5, 0.875, 10.625], "texture": "#0"},
				"south": {"uv": [0.875, 10.625, 1, 10.75], "texture": "#0"},
				"west": {"uv": [1, 10.75, 1.125, 10.875], "texture": "#0"},
				"up": {"uv": [1.125, 10.5, 1.25, 10.625], "texture": "#0"},
				"down": {"uv": [0.75, 10.875, 0.875, 11], "texture": "#0"}
			}
		},
		{
			"from": [8.7, 7.3, 7.6],
			"to": [8.8, 7.4, 7.7],
			"rotation": {"angle": 0, "axis": "y", "origin": [16, 14.4, 14.2]},
			"faces": {
				"north": {"uv": [1, 10.75, 1.125, 10.875], "texture": "#0"},
				"east": {"uv": [0.75, 10.5, 0.875, 10.625], "texture": "#0"},
				"south": {"uv": [0.875, 10.625, 1, 10.75], "texture": "#0"},
				"west": {"uv": [1, 10.75, 1.125, 10.875], "texture": "#0"},
				"up": {"uv": [1.125, 10.5, 1.25, 10.625], "texture": "#0"},
				"down": {"uv": [0.75, 10.875, 0.875, 11], "texture": "#0"}
			}
		},
		{
			"from": [8.2, 7.8, 7.6],
			"to": [8.3, 7.9, 8.5],
			"rotation": {"angle": 0, "axis": "y", "origin": [15.5, 14.9, 15]},
			"faces": {
				"north": {"uv": [1, 10.75, 1.125, 10.875], "texture": "#0"},
				"east": {"uv": [0.75, 10.5, 0.875, 10.625], "texture": "#0"},
				"south": {"uv": [0.875, 10.625, 1, 10.75], "texture": "#0"},
				"west": {"uv": [1, 10.75, 1.125, 10.875], "texture": "#0"},
				"up": {"uv": [1.125, 10.5, 1.25, 10.625], "texture": "#0"},
				"down": {"uv": [0.75, 10.875, 0.875, 11], "texture": "#0"}
			}
		},
		{
			"from": [8.2, 7.7, 7.6],
			"to": [8.3, 7.8, 7.7],
			"rotation": {"angle": 0, "axis": "y", "origin": [15.5, 14.8, 14.2]},
			"faces": {
				"north": {"uv": [1, 10.75, 1.125, 10.875], "texture": "#0"},
				"east": {"uv": [0.75, 10.5, 0.875, 10.625], "texture": "#0"},
				"south": {"uv": [0.875, 10.625, 1, 10.75], "texture": "#0"},
				"west": {"uv": [1, 10.75, 1.125, 10.875], "texture": "#0"},
				"up": {"uv": [1.125, 10.5, 1.25, 10.625], "texture": "#0"},
				"down": {"uv": [0.75, 10.875, 0.875, 11], "texture": "#0"}
			}
		},
		{
			"from": [8.2, 7.7, 8.4],
			"to": [8.3, 7.8, 8.5],
			"rotation": {"angle": 0, "axis": "y", "origin": [15.5, 14.8, 15]},
			"faces": {
				"north": {"uv": [1, 10.75, 1.125, 10.875], "texture": "#0"},
				"east": {"uv": [0.75, 10.5, 0.875, 10.625], "texture": "#0"},
				"south": {"uv": [0.875, 10.625, 1, 10.75], "texture": "#0"},
				"west": {"uv": [1, 10.75, 1.125, 10.875], "texture": "#0"},
				"up": {"uv": [1.125, 10.5, 1.25, 10.625], "texture": "#0"},
				"down": {"uv": [0.75, 10.875, 0.875, 11], "texture": "#0"}
			}
		},
		{
			"from": [8.2, 7.7, 8.1],
			"to": [8.3, 7.8, 8.3],
			"rotation": {"angle": 0, "axis": "y", "origin": [15.5, 14.8, 14.8]},
			"faces": {
				"north": {"uv": [1, 10.75, 1.125, 10.875], "texture": "#0"},
				"east": {"uv": [0.75, 10.5, 0.875, 10.625], "texture": "#0"},
				"south": {"uv": [0.875, 10.625, 1, 10.75], "texture": "#0"},
				"west": {"uv": [1, 10.75, 1.125, 10.875], "texture": "#0"},
				"up": {"uv": [1.125, 10.5, 1.25, 10.625], "texture": "#0"},
				"down": {"uv": [0.75, 10.875, 0.875, 11], "texture": "#0"}
			}
		},
		{
			"from": [8.2, 7.7, 7.8],
			"to": [8.3, 7.8, 8],
			"rotation": {"angle": 0, "axis": "y", "origin": [15.5, 14.8, 14.5]},
			"faces": {
				"north": {"uv": [1, 10.75, 1.125, 10.875], "texture": "#0"},
				"east": {"uv": [0.75, 10.5, 0.875, 10.625], "texture": "#0"},
				"south": {"uv": [0.875, 10.625, 1, 10.75], "texture": "#0"},
				"west": {"uv": [1, 10.75, 1.125, 10.875], "texture": "#0"},
				"up": {"uv": [1.125, 10.5, 1.25, 10.625], "texture": "#0"},
				"down": {"uv": [0.75, 10.875, 0.875, 11], "texture": "#0"}
			}
		},
		{
			"from": [8.2, 7.6, 7.6],
			"to": [8.3, 7.7, 8.5],
			"rotation": {"angle": 0, "axis": "y", "origin": [15.5, 14.7, 15]},
			"faces": {
				"north": {"uv": [1, 10.75, 1.125, 10.875], "texture": "#0"},
				"east": {"uv": [0.75, 10.5, 0.875, 10.625], "texture": "#0"},
				"south": {"uv": [0.875, 10.625, 1, 10.75], "texture": "#0"},
				"west": {"uv": [1, 10.75, 1.125, 10.875], "texture": "#0"},
				"up": {"uv": [1.125, 10.5, 1.25, 10.625], "texture": "#0"},
				"down": {"uv": [0.75, 10.875, 0.875, 11], "texture": "#0"}
			}
		},
		{
			"from": [8.2, 7.5, 7.9],
			"to": [8.3, 7.6, 8.2],
			"rotation": {"angle": 0, "axis": "y", "origin": [15.5, 14.6, 15]},
			"faces": {
				"north": {"uv": [1, 10.75, 1.125, 10.875], "texture": "#0"},
				"east": {"uv": [0.75, 10.5, 0.875, 10.625], "texture": "#0"},
				"south": {"uv": [0.875, 10.625, 1, 10.75], "texture": "#0"},
				"west": {"uv": [1, 10.75, 1.125, 10.875], "texture": "#0"},
				"up": {"uv": [1.125, 10.5, 1.25, 10.625], "texture": "#0"},
				"down": {"uv": [0.75, 10.875, 0.875, 11], "texture": "#0"}
			}
		},
		{
			"from": [8.2, 7.5, 8.3],
			"to": [8.3, 7.6, 8.5],
			"rotation": {"angle": 0, "axis": "y", "origin": [15.5, 14.6, 15]},
			"faces": {
				"north": {"uv": [1, 10.75, 1.125, 10.875], "texture": "#0"},
				"east": {"uv": [0.75, 10.5, 0.875, 10.625], "texture": "#0"},
				"south": {"uv": [0.875, 10.625, 1, 10.75], "texture": "#0"},
				"west": {"uv": [1, 10.75, 1.125, 10.875], "texture": "#0"},
				"up": {"uv": [1.125, 10.5, 1.25, 10.625], "texture": "#0"},
				"down": {"uv": [0.75, 10.875, 0.875, 11], "texture": "#0"}
			}
		},
		{
			"from": [8.2, 7.5, 7.6],
			"to": [8.3, 7.6, 7.8],
			"rotation": {"angle": 0, "axis": "y", "origin": [15.5, 14.6, 15]},
			"faces": {
				"north": {"uv": [1, 10.75, 1.125, 10.875], "texture": "#0"},
				"east": {"uv": [0.75, 10.5, 0.875, 10.625], "texture": "#0"},
				"south": {"uv": [0.875, 10.625, 1, 10.75], "texture": "#0"},
				"west": {"uv": [1, 10.75, 1.125, 10.875], "texture": "#0"},
				"up": {"uv": [1.125, 10.5, 1.25, 10.625], "texture": "#0"},
				"down": {"uv": [0.75, 10.875, 0.875, 11], "texture": "#0"}
			}
		},
		{
			"from": [8.2, 7.4, 7.6],
			"to": [8.3, 7.5, 8.5],
			"rotation": {"angle": 0, "axis": "y", "origin": [15.5, 14.5, 15]},
			"faces": {
				"north": {"uv": [1, 10.75, 1.125, 10.875], "texture": "#0"},
				"east": {"uv": [0.75, 10.5, 0.875, 10.625], "texture": "#0"},
				"south": {"uv": [0.875, 10.625, 1, 10.75], "texture": "#0"},
				"west": {"uv": [1, 10.75, 1.125, 10.875], "texture": "#0"},
				"up": {"uv": [1.125, 10.5, 1.25, 10.625], "texture": "#0"},
				"down": {"uv": [0.75, 10.875, 0.875, 11], "texture": "#0"}
			}
		},
		{
			"from": [8.2, 7.3, 7.8],
			"to": [8.3, 7.4, 8],
			"rotation": {"angle": 0, "axis": "y", "origin": [15.5, 14.4, 14.5]},
			"faces": {
				"north": {"uv": [1, 10.75, 1.125, 10.875], "texture": "#0"},
				"east": {"uv": [0.75, 10.5, 0.875, 10.625], "texture": "#0"},
				"south": {"uv": [0.875, 10.625, 1, 10.75], "texture": "#0"},
				"west": {"uv": [1, 10.75, 1.125, 10.875], "texture": "#0"},
				"up": {"uv": [1.125, 10.5, 1.25, 10.625], "texture": "#0"},
				"down": {"uv": [0.75, 10.875, 0.875, 11], "texture": "#0"}
			}
		},
		{
			"from": [8.2, 7.3, 8.1],
			"to": [8.3, 7.4, 8.3],
			"rotation": {"angle": 0, "axis": "y", "origin": [15.5, 14.4, 14.8]},
			"faces": {
				"north": {"uv": [1, 10.75, 1.125, 10.875], "texture": "#0"},
				"east": {"uv": [0.75, 10.5, 0.875, 10.625], "texture": "#0"},
				"south": {"uv": [0.875, 10.625, 1, 10.75], "texture": "#0"},
				"west": {"uv": [1, 10.75, 1.125, 10.875], "texture": "#0"},
				"up": {"uv": [1.125, 10.5, 1.25, 10.625], "texture": "#0"},
				"down": {"uv": [0.75, 10.875, 0.875, 11], "texture": "#0"}
			}
		},
		{
			"from": [8.2, 7.3, 8.4],
			"to": [8.3, 7.4, 8.5],
			"rotation": {"angle": 0, "axis": "y", "origin": [15.5, 14.4, 15]},
			"faces": {
				"north": {"uv": [1, 10.75, 1.125, 10.875], "texture": "#0"},
				"east": {"uv": [0.75, 10.5, 0.875, 10.625], "texture": "#0"},
				"south": {"uv": [0.875, 10.625, 1, 10.75], "texture": "#0"},
				"west": {"uv": [1, 10.75, 1.125, 10.875], "texture": "#0"},
				"up": {"uv": [1.125, 10.5, 1.25, 10.625], "texture": "#0"},
				"down": {"uv": [0.75, 10.875, 0.875, 11], "texture": "#0"}
			}
		},
		{
			"from": [8.2, 7.3, 7.6],
			"to": [8.3, 7.4, 7.7],
			"rotation": {"angle": 0, "axis": "y", "origin": [15.5, 14.4, 14.2]},
			"faces": {
				"north": {"uv": [1, 10.75, 1.125, 10.875], "texture": "#0"},
				"east": {"uv": [0.75, 10.5, 0.875, 10.625], "texture": "#0"},
				"south": {"uv": [0.875, 10.625, 1, 10.75], "texture": "#0"},
				"west": {"uv": [1, 10.75, 1.125, 10.875], "texture": "#0"},
				"up": {"uv": [1.125, 10.5, 1.25, 10.625], "texture": "#0"},
				"down": {"uv": [0.75, 10.875, 0.875, 11], "texture": "#0"}
			}
		},
		{
			"from": [8.4, 7.2, 8.6],
			"to": [8.6, 7.5, 8.8],
			"rotation": {"angle": 0, "axis": "y", "origin": [16, 14.2, 15]},
			"faces": {
				"north": {"uv": [1, 10.75, 1.125, 10.875], "texture": "#0"},
				"east": {"uv": [0.75, 10.5, 0.875, 10.625], "texture": "#0"},
				"south": {"uv": [0.875, 10.625, 1, 10.75], "texture": "#0"},
				"west": {"uv": [1, 10.75, 1.125, 10.875], "texture": "#0"},
				"up": {"uv": [1.125, 10.5, 1.25, 10.625], "texture": "#0"},
				"down": {"uv": [0.75, 10.875, 0.875, 11], "texture": "#0"}
			}
		},
		{
			"from": [8.4, 7.3, 8.6],
			"to": [8.6, 7.5, 10],
			"rotation": {"angle": 22.5, "axis": "x", "origin": [8.5, 7.35, 8.7]},
			"faces": {
				"north": {"uv": [1, 10.625, 1.125, 10.75], "texture": "#0"},
				"east": {"uv": [1, 10.875, 1.125, 11], "texture": "#0"},
				"south": {"uv": [0.875, 10.5, 1, 10.625], "texture": "#0"},
				"west": {"uv": [0.875, 10.5, 1, 10.625], "texture": "#0"},
				"up": {"uv": [0.75, 10.875, 0.875, 10.875], "texture": "#0"},
				"down": {"uv": [0.75, 10.375, 0.875, 10.5], "texture": "#0"}
			}
		},
		{
			"from": [8.3, 7.8, 8.5],
			"to": [8.7, 7.9, 8.6],
			"rotation": {"angle": 0, "axis": "y", "origin": [16.1, 14.4, 16]},
			"faces": {
				"north": {"uv": [1, 10.75, 1.125, 10.875], "texture": "#0"},
				"east": {"uv": [0.75, 10.5, 0.875, 10.625], "texture": "#0"},
				"south": {"uv": [0.875, 10.625, 1, 10.75], "texture": "#0"},
				"west": {"uv": [1, 10.75, 1.125, 10.875], "texture": "#0"},
				"up": {"uv": [1.125, 10.5, 1.25, 10.625], "texture": "#0"},
				"down": {"uv": [0.75, 10.875, 0.875, 11], "texture": "#0"}
			}
		},
		{
			"from": [8.3, 7.7, 8.5],
			"to": [8.4, 7.8, 8.6],
			"rotation": {"angle": 0, "axis": "y", "origin": [16.1, 14.4, 16]},
			"faces": {
				"north": {"uv": [1, 10.75, 1.125, 10.875], "texture": "#0"},
				"east": {"uv": [0.75, 10.5, 0.875, 10.625], "texture": "#0"},
				"south": {"uv": [0.875, 10.625, 1, 10.75], "texture": "#0"},
				"west": {"uv": [1, 10.75, 1.125, 10.875], "texture": "#0"},
				"up": {"uv": [1.125, 10.5, 1.25, 10.625], "texture": "#0"},
				"down": {"uv": [0.75, 10.875, 0.875, 11], "texture": "#0"}
			}
		},
		{
			"from": [8.6, 7.7, 8.5],
			"to": [8.7, 7.8, 8.6],
			"rotation": {"angle": 0, "axis": "y", "origin": [16.1, 14.4, 16]},
			"faces": {
				"north": {"uv": [1, 10.75, 1.125, 10.875], "texture": "#0"},
				"east": {"uv": [0.75, 10.5, 0.875, 10.625], "texture": "#0"},
				"south": {"uv": [0.875, 10.625, 1, 10.75], "texture": "#0"},
				"west": {"uv": [1, 10.75, 1.125, 10.875], "texture": "#0"},
				"up": {"uv": [1.125, 10.5, 1.25, 10.625], "texture": "#0"},
				"down": {"uv": [0.75, 10.875, 0.875, 11], "texture": "#0"}
			}
		},
		{
			"from": [8.4, 7.2, 7.4],
			"to": [8.6, 7.3, 7.6],
			"rotation": {"angle": 0, "axis": "y", "origin": [16, 14.2, 15]},
			"faces": {
				"north": {"uv": [0.375, 2.75, 0.5, 2.875], "texture": "#0"},
				"east": {"uv": [0.25, 3, 0.375, 3.125], "texture": "#0"},
				"south": {"uv": [0.125, 2.75, 0.25, 2.875], "texture": "#0"},
				"west": {"uv": [0.25, 3.25, 0.375, 3.375], "texture": "#0"},
				"up": {"uv": [0.375, 2.875, 0.5, 3], "texture": "#0"},
				"down": {"uv": [0.375, 3, 0.5, 3.125], "texture": "#0"}
			}
		},
		{
			"from": [8.4, 7.4, 7.3],
			"to": [8.6, 7.8, 7.7],
			"rotation": {"angle": -45, "axis": "x", "origin": [8.5, 7.6, 7.5]},
			"faces": {
				"north": {"uv": [14.5, 6.5, 14.625, 6.625], "texture": "#0"},
				"east": {"uv": [14.375, 6.5, 14.5, 6.625], "texture": "#0"},
				"south": {"uv": [14, 6.5, 14.125, 6.625], "texture": "#0"},
				"west": {"uv": [14.375, 6.375, 14.5, 6.5], "texture": "#0"},
				"up": {"uv": [14.375, 6.25, 14.5, 6.375], "texture": "#0"},
				"down": {"uv": [14.125, 6.5, 14.25, 6.625], "texture": "#0"}
			}
		},
		{
			"from": [8.3, 7.4, 7.6],
			"to": [8.4, 7.9, 7.7],
			"rotation": {"angle": 0, "axis": "y", "origin": [16.1, 14.6, 15.1]},
			"faces": {
				"north": {"uv": [1, 10.75, 1.125, 10.875], "texture": "#0"},
				"east": {"uv": [0.75, 10.5, 0.875, 10.625], "texture": "#0"},
				"south": {"uv": [0.875, 10.625, 1, 10.75], "texture": "#0"},
				"west": {"uv": [1, 10.75, 1.125, 10.875], "texture": "#0"},
				"up": {"uv": [1.125, 10.5, 1.25, 10.625], "texture": "#0"},
				"down": {"uv": [0.75, 10.875, 0.875, 11], "texture": "#0"}
			}
		},
		{
			"from": [8.6, 7.4, 7.6],
			"to": [8.7, 7.9, 7.7],
			"rotation": {"angle": 0, "axis": "y", "origin": [16.1, 14.6, 15.1]},
			"faces": {
				"north": {"uv": [1, 10.75, 1.125, 10.875], "texture": "#0"},
				"east": {"uv": [0.75, 10.5, 0.875, 10.625], "texture": "#0"},
				"south": {"uv": [0.875, 10.625, 1, 10.75], "texture": "#0"},
				"west": {"uv": [1, 10.75, 1.125, 10.875], "texture": "#0"},
				"up": {"uv": [1.125, 10.5, 1.25, 10.625], "texture": "#0"},
				"down": {"uv": [0.75, 10.875, 0.875, 11], "texture": "#0"}
			}
		},
		{
			"from": [8.6, 7.4, 7.4],
			"to": [8.7, 7.7, 7.6],
			"rotation": {"angle": 0, "axis": "y", "origin": [16.1, 14.6, 14.9]},
			"faces": {
				"north": {"uv": [1, 10.75, 1.125, 10.875], "texture": "#0"},
				"east": {"uv": [0.75, 10.5, 0.875, 10.625], "texture": "#0"},
				"south": {"uv": [0.875, 10.625, 1, 10.75], "texture": "#0"},
				"west": {"uv": [1, 10.75, 1.125, 10.875], "texture": "#0"},
				"up": {"uv": [1.125, 10.5, 1.25, 10.625], "texture": "#0"},
				"down": {"uv": [0.75, 10.875, 0.875, 11], "texture": "#0"}
			}
		},
		{
			"from": [8.3, 7.4, 7.4],
			"to": [8.4, 7.7, 7.6],
			"rotation": {"angle": 0, "axis": "y", "origin": [15.8, 14.6, 14.9]},
			"faces": {
				"north": {"uv": [1, 10.75, 1.125, 10.875], "texture": "#0"},
				"east": {"uv": [0.75, 10.5, 0.875, 10.625], "texture": "#0"},
				"south": {"uv": [0.875, 10.625, 1, 10.75], "texture": "#0"},
				"west": {"uv": [1, 10.75, 1.125, 10.875], "texture": "#0"},
				"up": {"uv": [1.125, 10.5, 1.25, 10.625], "texture": "#0"},
				"down": {"uv": [0.75, 10.875, 0.875, 11], "texture": "#0"}
			}
		},
		{
			"from": [8.4, 7.4, 7.3],
			"to": [8.6, 7.8, 7.7],
			"rotation": {"angle": 0, "axis": "x", "origin": [8.5, 7.6, 7.5]},
			"faces": {
				"north": {"uv": [14.5, 6.5, 14.625, 6.625], "rotation": 180, "texture": "#0"},
				"east": {"uv": [14.375, 6.5, 14.5, 6.625], "rotation": 90, "texture": "#0"},
				"south": {"uv": [14, 6.5, 14.125, 6.625], "texture": "#0"},
				"west": {"uv": [14.375, 6.375, 14.5, 6.5], "rotation": 270, "texture": "#0"},
				"up": {"uv": [14.375, 6.25, 14.5, 6.375], "texture": "#0"},
				"down": {"uv": [14.125, 6.5, 14.25, 6.625], "rotation": 180, "texture": "#0"}
			}
		},
		{
			"from": [8.25, 7.55, 7.45],
			"to": [8.75, 7.65, 7.55],
			"rotation": {"angle": 0, "axis": "x", "origin": [8.7, 7.6, 7.5]},
			"faces": {
				"north": {"uv": [0.625, 9.5, 0.75, 9.625], "rotation": 180, "texture": "#0"},
				"east": {"uv": [1, 9.75, 1.125, 9.875], "rotation": 90, "texture": "#0"},
				"south": {"uv": [1, 9.625, 1.125, 9.75], "texture": "#0"},
				"west": {"uv": [0.75, 9.75, 0.875, 9.875], "rotation": 270, "texture": "#0"},
				"up": {"uv": [0.875, 10, 1, 10.125], "texture": "#0"},
				"down": {"uv": [0.625, 10, 0.75, 10.125], "rotation": 180, "texture": "#0"}
			}
		},
		{
			"from": [8.35, 7.35, 8.65],
			"to": [8.65, 7.45, 8.75],
			"rotation": {"angle": 0, "axis": "y", "origin": [8.7, 7.4, 8.7]},
			"faces": {
				"north": {"uv": [0.625, 9.5, 0.75, 9.625], "rotation": 180, "texture": "#0"},
				"east": {"uv": [1, 9.75, 1.125, 9.875], "rotation": 90, "texture": "#0"},
				"south": {"uv": [1, 9.625, 1.125, 9.75], "texture": "#0"},
				"west": {"uv": [0.75, 9.75, 0.875, 9.875], "rotation": 270, "texture": "#0"},
				"up": {"uv": [0.875, 10, 1, 10.125], "texture": "#0"},
				"down": {"uv": [0.625, 10, 0.75, 10.125], "rotation": 180, "texture": "#0"}
			}
		},
		{
			"from": [8.4, 8.1, 8.2],
			"to": [8.6, 8.5, 8.3],
			"rotation": {"angle": 0, "axis": "y", "origin": [16, 15.8, 14.9]},
			"faces": {
				"north": {"uv": [5.25, 5.5, 5.75, 6], "texture": "#0"},
				"east": {"uv": [4.5, 5.375, 5, 5.875], "texture": "#0"},
				"south": {"uv": [5.25, 5.5, 5.75, 6], "texture": "#0"},
				"west": {"uv": [5.25, 5.5, 5.75, 6], "texture": "#0"},
				"up": {"uv": [5, 5.625, 5.5, 6.125], "texture": "#0"},
				"down": {"uv": [4.75, 5.25, 5.25, 5.75], "texture": "#0"}
			}
		},
		{
			"from": [8.4, 7.8, 8],
			"to": [8.6, 8, 8.2],
			"rotation": {"angle": 0, "axis": "y", "origin": [16, 15.4, 14.9]},
			"faces": {
				"north": {"uv": [7.375, 2.375, 7.625, 2.625], "texture": "#0"},
				"east": {"uv": [7.375, 2.375, 7.625, 2.625], "texture": "#0"},
				"south": {"uv": [7.375, 2.375, 7.625, 2.625], "texture": "#0"},
				"west": {"uv": [7.375, 2.375, 7.625, 2.625], "texture": "#0"},
				"up": {"uv": [7.375, 2.375, 7.625, 2.625], "texture": "#0"},
				"down": {"uv": [7.375, 2.375, 7.625, 2.625], "texture": "#0"}
			}
		},
		{
			"from": [8.4, 8, 7.9],
			"to": [8.6, 8.1, 8.3],
			"rotation": {"angle": 0, "axis": "y", "origin": [16, 16.1, 14.9]},
			"faces": {
				"north": {"uv": [5.25, 5.625, 5.375, 5.75], "texture": "#0"},
				"east": {"uv": [5.25, 5.625, 5.375, 5.75], "texture": "#0"},
				"south": {"uv": [5.25, 5.625, 5.375, 5.75], "texture": "#0"},
				"west": {"uv": [5.25, 5.625, 5.375, 5.75], "texture": "#0"},
				"up": {"uv": [5.25, 5.625, 5.375, 5.75], "texture": "#0"},
				"down": {"uv": [5.25, 5.625, 5.375, 5.75], "texture": "#0"}
			}
		},
		{
			"from": [8.4, 7.9, 8.2],
			"to": [8.6, 8, 8.3],
			"rotation": {"angle": 0, "axis": "y", "origin": [16, 16.1, 14.9]},
			"faces": {
				"north": {"uv": [7.375, 2.375, 7.625, 2.625], "texture": "#0"},
				"east": {"uv": [7.375, 2.375, 7.625, 2.625], "texture": "#0"},
				"south": {"uv": [7.375, 2.375, 7.625, 2.625], "texture": "#0"},
				"west": {"uv": [7.375, 2.375, 7.625, 2.625], "texture": "#0"},
				"up": {"uv": [7.375, 2.375, 7.625, 2.625], "texture": "#0"},
				"down": {"uv": [7.375, 2.375, 7.625, 2.625], "texture": "#0"}
			}
		},
		{
			"from": [8.4, 7.9, 7.9],
			"to": [8.6, 8, 8],
			"rotation": {"angle": 0, "axis": "y", "origin": [16, 16.1, 14.6]},
			"faces": {
				"north": {"uv": [7.375, 2.375, 7.625, 2.625], "texture": "#0"},
				"east": {"uv": [7.375, 2.375, 7.625, 2.625], "texture": "#0"},
				"south": {"uv": [7.375, 2.375, 7.625, 2.625], "texture": "#0"},
				"west": {"uv": [7.375, 2.375, 7.625, 2.625], "texture": "#0"},
				"up": {"uv": [7.375, 2.375, 7.625, 2.625], "texture": "#0"},
				"down": {"uv": [7.375, 2.375, 7.625, 2.625], "texture": "#0"}
			}
		},
		{
			"from": [8.4, 8.1, 7.9],
			"to": [8.6, 8.5, 8],
			"rotation": {"angle": 0, "axis": "y", "origin": [16, 15.8, 14.6]},
			"faces": {
				"north": {"uv": [5.25, 5.5, 5.75, 6], "texture": "#0"},
				"east": {"uv": [4.5, 5.375, 5, 5.875], "texture": "#0"},
				"south": {"uv": [5.25, 5.5, 5.75, 6], "texture": "#0"},
				"west": {"uv": [5.25, 5.5, 5.75, 6], "texture": "#0"},
				"up": {"uv": [5, 5.625, 5.5, 6.125], "texture": "#0"},
				"down": {"uv": [4.75, 5.25, 5.25, 5.75], "texture": "#0"}
			}
		},
		{
			"from": [8.4, 8.2, 8],
			"to": [8.6, 8.6, 8.2],
			"rotation": {"angle": 0, "axis": "y", "origin": [16, 15.8, 14.8]},
			"faces": {
				"north": {"uv": [5.25, 5.5, 5.75, 6], "texture": "#0"},
				"east": {"uv": [4.5, 5.375, 5, 5.875], "texture": "#0"},
				"south": {"uv": [5.25, 5.5, 5.75, 6], "texture": "#0"},
				"west": {"uv": [5.25, 5.5, 5.75, 6], "texture": "#0"},
				"up": {"uv": [5, 5.625, 5.5, 6.125], "texture": "#0"},
				"down": {"uv": [4.75, 5.25, 5.25, 5.75], "texture": "#0"}
			}
		},
		{
			"from": [8.4, 8.1, 8],
			"to": [8.6, 8.2, 8.2],
			"rotation": {"angle": 0, "axis": "y", "origin": [16, 15.8, 14.9]},
			"faces": {
				"north": {"uv": [5.25, 5.625, 5.375, 5.75], "texture": "#0"},
				"east": {"uv": [5.25, 5.625, 5.375, 5.75], "texture": "#0"},
				"south": {"uv": [5.25, 5.625, 5.375, 5.75], "texture": "#0"},
				"west": {"uv": [5.25, 5.625, 5.375, 5.75], "texture": "#0"},
				"up": {"uv": [5.25, 5.625, 5.375, 5.75], "texture": "#0"},
				"down": {"uv": [5.25, 5.625, 5.375, 5.75], "texture": "#0"}
			}
		}
	],
	"display": {
		"thirdperson_righthand": {
			"rotation": [0, 20.25, 0],
			"translation": [-0.5, 1.5, 1.25],
			"scale": [0.75, 0.75, 0.75]
		},
		"thirdperson_lefthand": {
			"rotation": [0, 20.25, 0],
			"translation": [-0.25, 1.5, 1],
			"scale": [0.75, 0.75, 0.75]
		},
		"firstperson_righthand": {
			"rotation": [0, 12.75, 0],
			"translation": [0, 3.25, 0]
		},
		"firstperson_lefthand": {
			"rotation": [0, 12.75, 0],
			"translation": [0, 3.25, 0]
		},
		"gui": {
			"rotation": [0, 61.25, 0],
			"translation": [-1.25, 2.5, 0],
			"scale": [3, 3, 3]
		},
		"fixed": {
			"rotation": [0, -90, 0],
			"translation": [0, 0, -1]
		}
	}
}
