{
	"credit": "Made with Blockbench",
	"texture_size": [48, 48],
	"textures": {
		"0": "gci:items/common/mpz",
		"particle": "gci:items/common/mpz"
	},
	"elements": [
		{
			"from": [8.3, -7, 9.1],
			"to": [8.7, 10, 9.39],
			"rotation": {"angle": 0, "axis": "y", "origin": [16, 8, 8.1]},
			"faces": {
				"north": {"uv": [3.66667, 6, 4.466, 7.666], "texture": "#0"},
				"east": {"uv": [3.66667, 6, 4.466, 7.666], "texture": "#0"},
				"south": {"uv": [3.66667, 6, 4.466, 7.666], "texture": "#0"},
				"west": {"uv": [3.66667, 6, 4.466, 7.666], "texture": "#0"},
				"up": {"uv": [3.66667, 6, 4.466, 7.666], "texture": "#0"},
				"down": {"uv": [3.66667, 6, 4.466, 7.666], "texture": "#0"}
			}
		},
		{
			"from": [5.7, 9.8, 9.37],
			"to": [11.3, 10, 9.4],
			"rotation": {"angle": 0, "axis": "y", "origin": [16, 8, 7.57]},
			"faces": {
				"north": {"uv": [8.66667, 11.66667, 9.86633, 12.733], "texture": "#0"},
				"east": {"uv": [8.66667, 11.66667, 9.86633, 12.733], "texture": "#0"},
				"south": {"uv": [8.66667, 11.66667, 9.86633, 12.733], "texture": "#0"},
				"west": {"uv": [8.66667, 11.66667, 9.86633, 12.733], "texture": "#0"},
				"up": {"uv": [8.66667, 11.66667, 9.86633, 12.733], "texture": "#0"},
				"down": {"uv": [8.66667, 11.66667, 9.86633, 12.733], "texture": "#0"}
			}
		},
		{
			"from": [5.7, 10, 8.9],
			"to": [11.3, 10.03, 9.4],
			"rotation": {"angle": 0, "axis": "y", "origin": [8.5, 10.05, 9.15]},
			"faces": {
				"north": {"uv": [8.66667, 11.66667, 9.86633, 12.733], "texture": "#0"},
				"east": {"uv": [8.66667, 11.66667, 9.86633, 12.733], "texture": "#0"},
				"south": {"uv": [8.66667, 11.66667, 9.86633, 12.733], "texture": "#0"},
				"west": {"uv": [8.66667, 11.66667, 9.86633, 12.733], "texture": "#0"},
				"up": {"uv": [8.66667, 11.66667, 9.86633, 12.733], "texture": "#0"},
				"down": {"uv": [8.66667, 11.66667, 9.86633, 12.733], "texture": "#0"}
			}
		},
		{
			"from": [8.2, 9.9, 8.3],
			"to": [8.3, 10, 9.4],
			"rotation": {"angle": 0, "axis": "y", "origin": [11.4, 9.95, 9.15]},
			"faces": {
				"north": {"uv": [8.66667, 11.66667, 9.86633, 12.733], "texture": "#0"},
				"east": {"uv": [8.66667, 11.66667, 9.86633, 12.733], "texture": "#0"},
				"south": {"uv": [8.66667, 11.66667, 9.86633, 12.733], "texture": "#0"},
				"west": {"uv": [8.66667, 11.66667, 9.86633, 12.733], "texture": "#0"},
				"up": {"uv": [8.66667, 11.66667, 9.86633, 12.733], "texture": "#0"},
				"down": {"uv": [8.66667, 11.66667, 9.86633, 12.733], "texture": "#0"}
			}
		},
		{
			"from": [8.7, 9.9, 8.3],
			"to": [8.8, 10, 9.4],
			"rotation": {"angle": 0, "axis": "y", "origin": [11.9, 9.95, 9.15]},
			"faces": {
				"north": {"uv": [8.66667, 11.66667, 9.86633, 12.733], "texture": "#0"},
				"east": {"uv": [8.66667, 11.66667, 9.86633, 12.733], "texture": "#0"},
				"south": {"uv": [8.66667, 11.66667, 9.86633, 12.733], "texture": "#0"},
				"west": {"uv": [8.66667, 11.66667, 9.86633, 12.733], "texture": "#0"},
				"up": {"uv": [8.66667, 11.66667, 9.86633, 12.733], "texture": "#0"},
				"down": {"uv": [8.66667, 11.66667, 9.86633, 12.733], "texture": "#0"}
			}
		},
		{
			"from": [9.2, 9.9, 8.3],
			"to": [9.3, 10, 9.4],
			"rotation": {"angle": 0, "axis": "y", "origin": [12.4, 9.95, 9.15]},
			"faces": {
				"north": {"uv": [8.66667, 11.66667, 9.86633, 12.733], "texture": "#0"},
				"east": {"uv": [8.66667, 11.66667, 9.86633, 12.733], "texture": "#0"},
				"south": {"uv": [8.66667, 11.66667, 9.86633, 12.733], "texture": "#0"},
				"west": {"uv": [8.66667, 11.66667, 9.86633, 12.733], "texture": "#0"},
				"up": {"uv": [8.66667, 11.66667, 9.86633, 12.733], "texture": "#0"},
				"down": {"uv": [8.66667, 11.66667, 9.86633, 12.733], "texture": "#0"}
			}
		},
		{
			"from": [9.7, 9.9, 8.3],
			"to": [9.8, 10, 9.4],
			"rotation": {"angle": 0, "axis": "y", "origin": [12.9, 9.95, 9.15]},
			"faces": {
				"north": {"uv": [8.66667, 11.66667, 9.86633, 12.733], "texture": "#0"},
				"east": {"uv": [8.66667, 11.66667, 9.86633, 12.733], "texture": "#0"},
				"south": {"uv": [8.66667, 11.66667, 9.86633, 12.733], "texture": "#0"},
				"west": {"uv": [8.66667, 11.66667, 9.86633, 12.733], "texture": "#0"},
				"up": {"uv": [8.66667, 11.66667, 9.86633, 12.733], "texture": "#0"},
				"down": {"uv": [8.66667, 11.66667, 9.86633, 12.733], "texture": "#0"}
			}
		},
		{
			"from": [10.2, 9.9, 8.3],
			"to": [10.3, 10, 9.4],
			"rotation": {"angle": 0, "axis": "y", "origin": [13.4, 9.95, 9.15]},
			"faces": {
				"north": {"uv": [8.66667, 11.66667, 9.86633, 12.733], "texture": "#0"},
				"east": {"uv": [8.66667, 11.66667, 9.86633, 12.733], "texture": "#0"},
				"south": {"uv": [8.66667, 11.66667, 9.86633, 12.733], "texture": "#0"},
				"west": {"uv": [8.66667, 11.66667, 9.86633, 12.733], "texture": "#0"},
				"up": {"uv": [8.66667, 11.66667, 9.86633, 12.733], "texture": "#0"},
				"down": {"uv": [8.66667, 11.66667, 9.86633, 12.733], "texture": "#0"}
			}
		},
		{
			"from": [10.7, 9.9, 8.3],
			"to": [10.8, 10, 9.4],
			"rotation": {"angle": 0, "axis": "y", "origin": [13.9, 9.95, 9.15]},
			"faces": {
				"north": {"uv": [8.66667, 11.66667, 9.86633, 12.733], "texture": "#0"},
				"east": {"uv": [8.66667, 11.66667, 9.86633, 12.733], "texture": "#0"},
				"south": {"uv": [8.66667, 11.66667, 9.86633, 12.733], "texture": "#0"},
				"west": {"uv": [8.66667, 11.66667, 9.86633, 12.733], "texture": "#0"},
				"up": {"uv": [8.66667, 11.66667, 9.86633, 12.733], "texture": "#0"},
				"down": {"uv": [8.66667, 11.66667, 9.86633, 12.733], "texture": "#0"}
			}
		},
		{
			"from": [11.2, 9.9, 8.3],
			"to": [11.3, 10, 9.4],
			"rotation": {"angle": 0, "axis": "y", "origin": [14.4, 9.95, 9.15]},
			"faces": {
				"north": {"uv": [8.66667, 11.66667, 9.86633, 12.733], "texture": "#0"},
				"east": {"uv": [8.66667, 11.66667, 9.86633, 12.733], "texture": "#0"},
				"south": {"uv": [8.66667, 11.66667, 9.86633, 12.733], "texture": "#0"},
				"west": {"uv": [8.66667, 11.66667, 9.86633, 12.733], "texture": "#0"},
				"up": {"uv": [8.66667, 11.66667, 9.86633, 12.733], "texture": "#0"},
				"down": {"uv": [8.66667, 11.66667, 9.86633, 12.733], "texture": "#0"}
			}
		},
		{
			"from": [7.7, 9.9, 8.3],
			"to": [7.8, 10, 9.4],
			"rotation": {"angle": 0, "axis": "y", "origin": [10.9, 9.95, 9.15]},
			"faces": {
				"north": {"uv": [8.66667, 11.66667, 9.86633, 12.733], "texture": "#0"},
				"east": {"uv": [8.66667, 11.66667, 9.86633, 12.733], "texture": "#0"},
				"south": {"uv": [8.66667, 11.66667, 9.86633, 12.733], "texture": "#0"},
				"west": {"uv": [8.66667, 11.66667, 9.86633, 12.733], "texture": "#0"},
				"up": {"uv": [8.66667, 11.66667, 9.86633, 12.733], "texture": "#0"},
				"down": {"uv": [8.66667, 11.66667, 9.86633, 12.733], "texture": "#0"}
			}
		},
		{
			"from": [7.2, 9.9, 8.3],
			"to": [7.3, 10, 9.4],
			"rotation": {"angle": 0, "axis": "y", "origin": [10.4, 9.95, 9.15]},
			"faces": {
				"north": {"uv": [8.66667, 11.66667, 9.86633, 12.733], "texture": "#0"},
				"east": {"uv": [8.66667, 11.66667, 9.86633, 12.733], "texture": "#0"},
				"south": {"uv": [8.66667, 11.66667, 9.86633, 12.733], "texture": "#0"},
				"west": {"uv": [8.66667, 11.66667, 9.86633, 12.733], "texture": "#0"},
				"up": {"uv": [8.66667, 11.66667, 9.86633, 12.733], "texture": "#0"},
				"down": {"uv": [8.66667, 11.66667, 9.86633, 12.733], "texture": "#0"}
			}
		},
		{
			"from": [6.7, 9.9, 8.3],
			"to": [6.8, 10, 9.4],
			"rotation": {"angle": 0, "axis": "y", "origin": [9.9, 9.95, 9.15]},
			"faces": {
				"north": {"uv": [8.66667, 11.66667, 9.86633, 12.733], "texture": "#0"},
				"east": {"uv": [8.66667, 11.66667, 9.86633, 12.733], "texture": "#0"},
				"south": {"uv": [8.66667, 11.66667, 9.86633, 12.733], "texture": "#0"},
				"west": {"uv": [8.66667, 11.66667, 9.86633, 12.733], "texture": "#0"},
				"up": {"uv": [8.66667, 11.66667, 9.86633, 12.733], "texture": "#0"},
				"down": {"uv": [8.66667, 11.66667, 9.86633, 12.733], "texture": "#0"}
			}
		},
		{
			"from": [6.2, 9.9, 8.3],
			"to": [6.3, 10, 9.4],
			"rotation": {"angle": 0, "axis": "y", "origin": [9.4, 9.95, 9.15]},
			"faces": {
				"north": {"uv": [8.66667, 11.66667, 9.86633, 12.733], "texture": "#0"},
				"east": {"uv": [8.66667, 11.66667, 9.86633, 12.733], "texture": "#0"},
				"south": {"uv": [8.66667, 11.66667, 9.86633, 12.733], "texture": "#0"},
				"west": {"uv": [8.66667, 11.66667, 9.86633, 12.733], "texture": "#0"},
				"up": {"uv": [8.66667, 11.66667, 9.86633, 12.733], "texture": "#0"},
				"down": {"uv": [8.66667, 11.66667, 9.86633, 12.733], "texture": "#0"}
			}
		},
		{
			"from": [5.7, 9.9, 8.3],
			"to": [5.8, 10, 9.4],
			"rotation": {"angle": 0, "axis": "y", "origin": [8.9, 9.95, 9.15]},
			"faces": {
				"north": {"uv": [8.66667, 11.66667, 9.86633, 12.733], "texture": "#0"},
				"east": {"uv": [8.66667, 11.66667, 9.86633, 12.733], "texture": "#0"},
				"south": {"uv": [8.66667, 11.66667, 9.86633, 12.733], "texture": "#0"},
				"west": {"uv": [8.66667, 11.66667, 9.86633, 12.733], "texture": "#0"},
				"up": {"uv": [8.66667, 11.66667, 9.86633, 12.733], "texture": "#0"},
				"down": {"uv": [8.66667, 11.66667, 9.86633, 12.733], "texture": "#0"}
			}
		},
		{
			"from": [8.1, 9.2, 9.37],
			"to": [8.3, 10, 9.4],
			"rotation": {"angle": 45, "axis": "z", "origin": [8.2, 9.6, 9.55]},
			"faces": {
				"north": {"uv": [8.66667, 11.66667, 9.86633, 12.733], "texture": "#0"},
				"east": {"uv": [8.66667, 11.66667, 9.86633, 12.733], "texture": "#0"},
				"south": {"uv": [8.66667, 11.66667, 9.86633, 12.733], "texture": "#0"},
				"west": {"uv": [8.66667, 11.66667, 9.86633, 12.733], "texture": "#0"},
				"up": {"uv": [8.66667, 11.66667, 9.86633, 12.733], "texture": "#0"},
				"down": {"uv": [8.66667, 11.66667, 9.86633, 12.733], "texture": "#0"}
			}
		},
		{
			"from": [8.4, 9.5, 9.37],
			"to": [9.2, 9.7, 9.4],
			"rotation": {"angle": 45, "axis": "z", "origin": [8.8, 9.6, 9.55]},
			"faces": {
				"north": {"uv": [8.66667, 11.66667, 9.86633, 12.733], "rotation": 270, "texture": "#0"},
				"east": {"uv": [8.66667, 11.66667, 9.86633, 12.733], "rotation": 270, "texture": "#0"},
				"south": {"uv": [8.66667, 11.66667, 9.86633, 12.733], "rotation": 270, "texture": "#0"},
				"west": {"uv": [8.66667, 11.66667, 9.86633, 12.733], "rotation": 270, "texture": "#0"},
				"up": {"uv": [8.66667, 11.66667, 9.86633, 12.733], "rotation": 270, "texture": "#0"},
				"down": {"uv": [8.66667, 11.66667, 9.86633, 12.733], "rotation": 270, "texture": "#0"}
			}
		},
		{
			"from": [8.41213, 9.24645, 9.37],
			"to": [8.58713, 9.84645, 9.4],
			"rotation": {"angle": 0, "axis": "y", "origin": [8.81213, 9.34645, 9.55]},
			"faces": {
				"north": {"uv": [8.66667, 11.66667, 9.86633, 12.733], "rotation": 270, "texture": "#0"},
				"east": {"uv": [8.66667, 11.66667, 9.86633, 12.733], "rotation": 270, "texture": "#0"},
				"south": {"uv": [8.66667, 11.66667, 9.86633, 12.733], "rotation": 270, "texture": "#0"},
				"west": {"uv": [8.66667, 11.66667, 9.86633, 12.733], "rotation": 270, "texture": "#0"},
				"up": {"uv": [8.66667, 11.66667, 9.86633, 12.733], "rotation": 270, "texture": "#0"},
				"down": {"uv": [8.66667, 11.66667, 9.86633, 12.733], "rotation": 270, "texture": "#0"}
			}
		}
	],
	"display": {
		"thirdperson_righthand": {
			"translation": [-0.75, 5.25, -0.5],
			"scale": [1.5, 1.5, 1.5]
		},
		"thirdperson_lefthand": {
			"translation": [0.5, 5.25, -0.5],
			"scale": [1.5, 1.5, 1.5]
		},
		"firstperson_righthand": {
			"rotation": [-28, 0, 0],
			"translation": [-0.5, 5, 0]
		},
		"firstperson_lefthand": {
			"rotation": [-28, 0, 0],
			"translation": [-0.5, 5, 0]
		},
		"ground": {
			"rotation": [-34, 0, 0],
			"translation": [0, 11.25, -3]
		},
		"gui": {
			"rotation": [-39, 0, -22],
			"translation": [0.25, 4, 0]
		},
		"head": {
			"rotation": [0, -180, 28],
			"translation": [3.5, -9.5, 5]
		},
		"fixed": {
			"rotation": [0, 0, 45],
			"translation": [-5.5, 4.5, -3],
			"scale": [1.5, 1.5, 1.5]
		}
	},
	"groups": [0,
		{
			"name": "group",
			"origin": [8.81213, 9.34645, 9.55],
			"children": [1, 2, 3, 4, 5, 6, 7, 8, 9, 10, 11, 12, 13, 14, 15, 16, 17]
		}
	]
}