{
    "textures": {
        "1": "gci:items/common/mpz", 
        "0": "gci:items/common/all_in_one", 
        "2": "gci:items/common/mpz", 
        "particle": "gci:items/common/all_in_one"
    }, 
    "elements": [
        {
            "to": [
                8.34183, 
                9.62386, 
                -1.048
            ], 
            "rotation": {
                "origin": [
                    8.10041, 
                    9.52386, 
                    -0.118
                ], 
                "angle": 45, 
                "axis": "z"
            }, 
            "from": [
                8.24183, 
                9.42386, 
                -2.484
            ], 
            "faces": {
                "north": {
                    "rotation": 270, 
                    "uv": [
                        7.625, 
                        12.375, 
                        7.625, 
                        12.5
                    ], 
                    "texture": "#0"
                }, 
                "west": {
                    "rotation": 270, 
                    "uv": [
                        7.625, 
                        12.375, 
                        7.625, 
                        12.5
                    ], 
                    "texture": "#0"
                }, 
                "up": {
                    "rotation": 180, 
                    "uv": [
                        4, 
                        3, 
                        4.625, 
                        3
                    ], 
                    "texture": "#0"
                }, 
                "down": {
                    "rotation": 180, 
                    "uv": [
                        4, 
                        3, 
                        4.625, 
                        3
                    ], 
                    "texture": "#0"
                }, 
                "east": {
                    "rotation": 180, 
                    "uv": [
                        4, 
                        3, 
                        4.625, 
                        3
                    ], 
                    "texture": "#0"
                }, 
                "south": {
                    "rotation": 180, 
                    "uv": [
                        4, 
                        3, 
                        4.625, 
                        3
                    ], 
                    "texture": "#0"
                }
            }
        }, 
        {
            "to": [
                7.95898, 
                9.62386, 
                -1.048
            ], 
            "rotation": {
                "origin": [
                    8.10041, 
                    9.52386, 
                    -0.118
                ], 
                "angle": 45, 
                "axis": "z"
            }, 
            "from": [
                7.85898, 
                9.42386, 
                -2.484
            ], 
            "faces": {
                "north": {
                    "rotation": 270, 
                    "uv": [
                        7.625, 
                        12.375, 
                        7.625, 
                        12.5
                    ], 
                    "texture": "#0"
                }, 
                "west": {
                    "rotation": 180, 
                    "uv": [
                        4, 
                        3, 
                        4.625, 
                        3
                    ], 
                    "texture": "#0"
                }, 
                "up": {
                    "rotation": 180, 
                    "uv": [
                        4, 
                        3, 
                        4.625, 
                        3
                    ], 
                    "texture": "#0"
                }, 
                "down": {
                    "rotation": 180, 
                    "uv": [
                        4, 
                        3, 
                        4.625, 
                        3
                    ], 
                    "texture": "#0"
                }, 
                "east": {
                    "rotation": 270, 
                    "uv": [
                        7.625, 
                        12.375, 
                        7.625, 
                        12.5
                    ], 
                    "texture": "#0"
                }, 
                "south": {
                    "rotation": 180, 
                    "uv": [
                        4, 
                        3, 
                        4.625, 
                        3
                    ], 
                    "texture": "#0"
                }
            }
        }, 
        {
            "to": [
                8.20041, 
                9.38244, 
                -1.048
            ], 
            "rotation": {
                "origin": [
                    7.84183, 
                    9.24102, 
                    -13.868
                ], 
                "angle": 0, 
                "axis": "y"
            }, 
            "from": [
                8.00041, 
                9.28244, 
                -2.484
            ], 
            "faces": {
                "north": {
                    "rotation": 270, 
                    "uv": [
                        7.625, 
                        12.375, 
                        7.625, 
                        12.5
                    ], 
                    "texture": "#0"
                }, 
                "west": {
                    "rotation": 270, 
                    "uv": [
                        4, 
                        3, 
                        4.625, 
                        3
                    ], 
                    "texture": "#0"
                }, 
                "up": {
                    "rotation": 270, 
                    "uv": [
                        7.625, 
                        12.375, 
                        7.625, 
                        12.5
                    ], 
                    "texture": "#0"
                }, 
                "down": {
                    "rotation": 270, 
                    "uv": [
                        4, 
                        3, 
                        4.625, 
                        3
                    ], 
                    "texture": "#0"
                }, 
                "east": {
                    "rotation": 270, 
                    "uv": [
                        4, 
                        3, 
                        4.625, 
                        3
                    ], 
                    "texture": "#0"
                }, 
                "south": {
                    "rotation": 270, 
                    "uv": [
                        4, 
                        3, 
                        4.625, 
                        3
                    ], 
                    "texture": "#0"
                }
            }
        }, 
        {
            "to": [
                8.20041, 
                9.76529, 
                -1.048
            ], 
            "rotation": {
                "origin": [
                    7.84183, 
                    9.62386, 
                    -13.868
                ], 
                "angle": 0, 
                "axis": "y"
            }, 
            "from": [
                8.00041, 
                9.66529, 
                -2.484
            ], 
            "faces": {
                "north": {
                    "rotation": 270, 
                    "uv": [
                        7.625, 
                        12.375, 
                        7.625, 
                        12.5
                    ], 
                    "texture": "#0"
                }, 
                "west": {
                    "rotation": 270, 
                    "uv": [
                        4, 
                        3, 
                        4.625, 
                        3
                    ], 
                    "texture": "#0"
                }, 
                "up": {
                    "rotation": 270, 
                    "uv": [
                        4, 
                        3, 
                        4.625, 
                        3
                    ], 
                    "texture": "#0"
                }, 
                "down": {
                    "rotation": 270, 
                    "uv": [
                        7.625, 
                        12.375, 
                        7.625, 
                        12.5
                    ], 
                    "texture": "#0"
                }, 
                "east": {
                    "rotation": 270, 
                    "uv": [
                        4, 
                        3, 
                        4.625, 
                        3
                    ], 
                    "texture": "#0"
                }, 
                "south": {
                    "rotation": 270, 
                    "uv": [
                        4, 
                        3, 
                        4.625, 
                        3
                    ], 
                    "texture": "#0"
                }
            }
        }, 
        {
            "to": [
                8.41909, 
                9.65462, 
                -1.304
            ], 
            "rotation": {
                "origin": [
                    8.31662, 
                    9.52262, 
                    -1.574
                ], 
                "angle": 0, 
                "axis": "y"
            }, 
            "from": [
                8.25509, 
                9.39062, 
                -2.516
            ], 
            "faces": {
                "north": {
                    "uv": [
                        3, 
                        2.75, 
                        3, 
                        2.875
                    ], 
                    "texture": "#0"
                }, 
                "west": {
                    "rotation": 270, 
                    "uv": [
                        7.625, 
                        12.375, 
                        7.625, 
                        12.5
                    ], 
                    "texture": "#0"
                }, 
                "up": {
                    "rotation": 180, 
                    "uv": [
                        3, 
                        2.75, 
                        3, 
                        2.875
                    ], 
                    "texture": "#0"
                }, 
                "down": {
                    "rotation": 180, 
                    "uv": [
                        3, 
                        2.75, 
                        3, 
                        2.875
                    ], 
                    "texture": "#0"
                }, 
                "east": {
                    "rotation": 180, 
                    "uv": [
                        3, 
                        2.75, 
                        3, 
                        2.875
                    ], 
                    "texture": "#0"
                }, 
                "south": {
                    "rotation": 180, 
                    "uv": [
                        3, 
                        2.75, 
                        3, 
                        2.875
                    ], 
                    "texture": "#0"
                }
            }
        }, 
        {
            "to": [
                7.94573, 
                9.65462, 
                -1.304
            ], 
            "rotation": {
                "origin": [
                    7.93825, 
                    9.45545, 
                    -1.574
                ], 
                "angle": 0, 
                "axis": "y"
            }, 
            "from": [
                7.78173, 
                9.39062, 
                -2.516
            ], 
            "faces": {
                "north": {
                    "rotation": 180, 
                    "uv": [
                        3, 
                        2.75, 
                        3, 
                        2.875
                    ], 
                    "texture": "#0"
                }, 
                "west": {
                    "uv": [
                        3, 
                        2.75, 
                        3, 
                        2.875
                    ], 
                    "texture": "#0"
                }, 
                "up": {
                    "uv": [
                        3, 
                        2.75, 
                        3, 
                        2.875
                    ], 
                    "texture": "#0"
                }, 
                "down": {
                    "uv": [
                        3, 
                        2.75, 
                        3, 
                        2.875
                    ], 
                    "texture": "#0"
                }, 
                "east": {
                    "rotation": 270, 
                    "uv": [
                        7.625, 
                        12.375, 
                        7.625, 
                        12.5
                    ], 
                    "texture": "#0"
                }, 
                "south": {
                    "uv": [
                        3, 
                        2.75, 
                        3, 
                        2.875
                    ], 
                    "texture": "#0"
                }
            }
        }, 
        {
            "to": [
                7.88173, 
                9.65462, 
                -2.516
            ], 
            "rotation": {
                "origin": [
                    7.93825, 
                    9.45545, 
                    -1.73
                ], 
                "angle": 0, 
                "axis": "y"
            }, 
            "from": [
                7.78173, 
                9.58262, 
                -2.672
            ], 
            "faces": {
                "north": {
                    "rotation": 180, 
                    "uv": [
                        3, 
                        2.75, 
                        3, 
                        2.875
                    ], 
                    "texture": "#0"
                }, 
                "west": {
                    "uv": [
                        3, 
                        2.75, 
                        3, 
                        2.875
                    ], 
                    "texture": "#0"
                }, 
                "up": {
                    "uv": [
                        3, 
                        2.75, 
                        3, 
                        2.875
                    ], 
                    "texture": "#0"
                }, 
                "down": {
                    "uv": [
                        3, 
                        2.75, 
                        3, 
                        2.875
                    ], 
                    "texture": "#0"
                }, 
                "east": {
                    "uv": [
                        3, 
                        2.75, 
                        3, 
                        2.875
                    ], 
                    "texture": "#0"
                }, 
                "south": {
                    "uv": [
                        3, 
                        2.75, 
                        3, 
                        2.875
                    ], 
                    "texture": "#0"
                }
            }
        }, 
        {
            "to": [
                8.42573, 
                9.65462, 
                -2.516
            ], 
            "rotation": {
                "origin": [
                    8.48225, 
                    9.45545, 
                    -1.73
                ], 
                "angle": 0, 
                "axis": "y"
            }, 
            "from": [
                8.32573, 
                9.58262, 
                -2.672
            ], 
            "faces": {
                "north": {
                    "rotation": 180, 
                    "uv": [
                        3, 
                        2.75, 
                        3, 
                        2.875
                    ], 
                    "texture": "#0"
                }, 
                "west": {
                    "uv": [
                        3, 
                        2.75, 
                        3, 
                        2.875
                    ], 
                    "texture": "#0"
                }, 
                "up": {
                    "uv": [
                        3, 
                        2.75, 
                        3, 
                        2.875
                    ], 
                    "texture": "#0"
                }, 
                "down": {
                    "uv": [
                        3, 
                        2.75, 
                        3, 
                        2.875
                    ], 
                    "texture": "#0"
                }, 
                "east": {
                    "uv": [
                        3, 
                        2.75, 
                        3, 
                        2.875
                    ], 
                    "texture": "#0"
                }, 
                "south": {
                    "uv": [
                        3, 
                        2.75, 
                        3, 
                        2.875
                    ], 
                    "texture": "#0"
                }
            }
        }, 
        {
            "to": [
                7.88173, 
                9.46262, 
                -2.516
            ], 
            "rotation": {
                "origin": [
                    7.93825, 
                    9.29545, 
                    -1.73
                ], 
                "angle": 0, 
                "axis": "y"
            }, 
            "from": [
                7.78173, 
                9.39062, 
                -2.672
            ], 
            "faces": {
                "north": {
                    "rotation": 180, 
                    "uv": [
                        3, 
                        2.75, 
                        3, 
                        2.875
                    ], 
                    "texture": "#0"
                }, 
                "west": {
                    "uv": [
                        3, 
                        2.75, 
                        3, 
                        2.875
                    ], 
                    "texture": "#0"
                }, 
                "up": {
                    "uv": [
                        3, 
                        2.75, 
                        3, 
                        2.875
                    ], 
                    "texture": "#0"
                }, 
                "down": {
                    "uv": [
                        3, 
                        2.75, 
                        3, 
                        2.875
                    ], 
                    "texture": "#0"
                }, 
                "east": {
                    "uv": [
                        3, 
                        2.75, 
                        3, 
                        2.875
                    ], 
                    "texture": "#0"
                }, 
                "south": {
                    "uv": [
                        3, 
                        2.75, 
                        3, 
                        2.875
                    ], 
                    "texture": "#0"
                }
            }
        }, 
        {
            "to": [
                8.42573, 
                9.46262, 
                -2.516
            ], 
            "rotation": {
                "origin": [
                    8.48225, 
                    9.29545, 
                    -1.73
                ], 
                "angle": 0, 
                "axis": "y"
            }, 
            "from": [
                8.32573, 
                9.39062, 
                -2.672
            ], 
            "faces": {
                "north": {
                    "rotation": 180, 
                    "uv": [
                        3, 
                        2.75, 
                        3, 
                        2.875
                    ], 
                    "texture": "#0"
                }, 
                "west": {
                    "uv": [
                        3, 
                        2.75, 
                        3, 
                        2.875
                    ], 
                    "texture": "#0"
                }, 
                "up": {
                    "uv": [
                        3, 
                        2.75, 
                        3, 
                        2.875
                    ], 
                    "texture": "#0"
                }, 
                "down": {
                    "uv": [
                        3, 
                        2.75, 
                        3, 
                        2.875
                    ], 
                    "texture": "#0"
                }, 
                "east": {
                    "uv": [
                        3, 
                        2.75, 
                        3, 
                        2.875
                    ], 
                    "texture": "#0"
                }, 
                "south": {
                    "uv": [
                        3, 
                        2.75, 
                        3, 
                        2.875
                    ], 
                    "texture": "#0"
                }
            }
        }, 
        {
            "to": [
                8.29574, 
                9.68841, 
                -1.304
            ], 
            "rotation": {
                "origin": [
                    8.31662, 
                    9.52262, 
                    -1.574
                ], 
                "angle": -45, 
                "axis": "z"
            }, 
            "from": [
                8.03174, 
                9.52441, 
                -2.516
            ], 
            "faces": {
                "north": {
                    "rotation": 270, 
                    "uv": [
                        3, 
                        2.75, 
                        3, 
                        2.875
                    ], 
                    "texture": "#0"
                }, 
                "west": {
                    "rotation": 270, 
                    "uv": [
                        3, 
                        2.75, 
                        3, 
                        2.875
                    ], 
                    "texture": "#0"
                }, 
                "up": {
                    "rotation": 270, 
                    "uv": [
                        3, 
                        2.75, 
                        3, 
                        2.875
                    ], 
                    "texture": "#0"
                }, 
                "down": {
                    "rotation": 270, 
                    "uv": [
                        7.625, 
                        12.375, 
                        7.625, 
                        12.5
                    ], 
                    "texture": "#0"
                }, 
                "east": {
                    "rotation": 270, 
                    "uv": [
                        3, 
                        2.75, 
                        3, 
                        2.875
                    ], 
                    "texture": "#0"
                }, 
                "south": {
                    "rotation": 270, 
                    "uv": [
                        3, 
                        2.75, 
                        3, 
                        2.875
                    ], 
                    "texture": "#0"
                }
            }
        }, 
        {
            "to": [
                8.29574, 
                9.68841, 
                -2.516
            ], 
            "rotation": {
                "origin": [
                    8.31662, 
                    9.52262, 
                    -1.73
                ], 
                "angle": -45, 
                "axis": "z"
            }, 
            "from": [
                8.03174, 
                9.58841, 
                -2.672
            ], 
            "faces": {
                "north": {
                    "rotation": 270, 
                    "uv": [
                        3, 
                        2.75, 
                        3, 
                        2.875
                    ], 
                    "texture": "#0"
                }, 
                "west": {
                    "rotation": 270, 
                    "uv": [
                        3, 
                        2.75, 
                        3, 
                        2.875
                    ], 
                    "texture": "#0"
                }, 
                "up": {
                    "rotation": 270, 
                    "uv": [
                        3, 
                        2.75, 
                        3, 
                        2.875
                    ], 
                    "texture": "#0"
                }, 
                "down": {
                    "rotation": 270, 
                    "uv": [
                        3, 
                        2.75, 
                        3, 
                        2.875
                    ], 
                    "texture": "#0"
                }, 
                "east": {
                    "rotation": 270, 
                    "uv": [
                        3, 
                        2.75, 
                        3, 
                        2.875
                    ], 
                    "texture": "#0"
                }, 
                "south": {
                    "rotation": 270, 
                    "uv": [
                        3, 
                        2.75, 
                        3, 
                        2.875
                    ], 
                    "texture": "#0"
                }
            }
        }, 
        {
            "to": [
                7.94573, 
                9.52029, 
                -1.304
            ], 
            "rotation": {
                "origin": [
                    7.93825, 
                    9.45545, 
                    -1.574
                ], 
                "angle": 45, 
                "axis": "z"
            }, 
            "from": [
                7.78173, 
                9.25629, 
                -2.516
            ], 
            "faces": {
                "north": {
                    "uv": [
                        3, 
                        2.75, 
                        3, 
                        2.875
                    ], 
                    "texture": "#0"
                }, 
                "west": {
                    "rotation": 180, 
                    "uv": [
                        3, 
                        2.75, 
                        3, 
                        2.875
                    ], 
                    "texture": "#0"
                }, 
                "up": {
                    "rotation": 180, 
                    "uv": [
                        3, 
                        2.75, 
                        3, 
                        2.875
                    ], 
                    "texture": "#0"
                }, 
                "down": {
                    "rotation": 180, 
                    "uv": [
                        3, 
                        2.75, 
                        3, 
                        2.875
                    ], 
                    "texture": "#0"
                }, 
                "east": {
                    "rotation": 270, 
                    "uv": [
                        7.625, 
                        12.375, 
                        7.625, 
                        12.5
                    ], 
                    "texture": "#0"
                }, 
                "south": {
                    "rotation": 180, 
                    "uv": [
                        3, 
                        2.75, 
                        3, 
                        2.875
                    ], 
                    "texture": "#0"
                }
            }
        }, 
        {
            "to": [
                7.88173, 
                9.52029, 
                -2.516
            ], 
            "rotation": {
                "origin": [
                    7.93825, 
                    9.45545, 
                    -1.73
                ], 
                "angle": 45, 
                "axis": "z"
            }, 
            "from": [
                7.78173, 
                9.25629, 
                -2.672
            ], 
            "faces": {
                "north": {
                    "uv": [
                        3, 
                        2.75, 
                        3, 
                        2.875
                    ], 
                    "texture": "#0"
                }, 
                "west": {
                    "rotation": 180, 
                    "uv": [
                        3, 
                        2.75, 
                        3, 
                        2.875
                    ], 
                    "texture": "#0"
                }, 
                "up": {
                    "rotation": 180, 
                    "uv": [
                        3, 
                        2.75, 
                        3, 
                        2.875
                    ], 
                    "texture": "#0"
                }, 
                "down": {
                    "rotation": 180, 
                    "uv": [
                        3, 
                        2.75, 
                        3, 
                        2.875
                    ], 
                    "texture": "#0"
                }, 
                "east": {
                    "rotation": 180, 
                    "uv": [
                        3, 
                        2.75, 
                        3, 
                        2.875
                    ], 
                    "texture": "#0"
                }, 
                "south": {
                    "rotation": 180, 
                    "uv": [
                        3, 
                        2.75, 
                        3, 
                        2.875
                    ], 
                    "texture": "#0"
                }
            }
        }, 
        {
            "to": [
                8.23241, 
                9.8413, 
                -1.304
            ], 
            "rotation": {
                "origin": [
                    8.10041, 
                    9.81129, 
                    -1.574
                ], 
                "angle": 0, 
                "axis": "y"
            }, 
            "from": [
                7.96841, 
                9.6773, 
                -2.516
            ], 
            "faces": {
                "north": {
                    "rotation": 270, 
                    "uv": [
                        3, 
                        2.75, 
                        3, 
                        2.875
                    ], 
                    "texture": "#0"
                }, 
                "west": {
                    "rotation": 270, 
                    "uv": [
                        3, 
                        2.75, 
                        3, 
                        2.875
                    ], 
                    "texture": "#0"
                }, 
                "up": {
                    "rotation": 270, 
                    "uv": [
                        3, 
                        2.75, 
                        3, 
                        2.875
                    ], 
                    "texture": "#0"
                }, 
                "down": {
                    "rotation": 270, 
                    "uv": [
                        7.625, 
                        12.375, 
                        7.625, 
                        12.5
                    ], 
                    "texture": "#0"
                }, 
                "east": {
                    "rotation": 270, 
                    "uv": [
                        3, 
                        2.75, 
                        3, 
                        2.875
                    ], 
                    "texture": "#0"
                }, 
                "south": {
                    "rotation": 270, 
                    "uv": [
                        3, 
                        2.75, 
                        3, 
                        2.875
                    ], 
                    "texture": "#0"
                }
            }
        }, 
        {
            "to": [
                8.23241, 
                9.8413, 
                -2.516
            ], 
            "rotation": {
                "origin": [
                    8.10041, 
                    9.81129, 
                    -1.73
                ], 
                "angle": 0, 
                "axis": "y"
            }, 
            "from": [
                7.96841, 
                9.7413, 
                -2.672
            ], 
            "faces": {
                "north": {
                    "rotation": 270, 
                    "uv": [
                        3, 
                        2.75, 
                        3, 
                        2.875
                    ], 
                    "texture": "#0"
                }, 
                "west": {
                    "rotation": 270, 
                    "uv": [
                        3, 
                        2.75, 
                        3, 
                        2.875
                    ], 
                    "texture": "#0"
                }, 
                "up": {
                    "rotation": 270, 
                    "uv": [
                        3, 
                        2.75, 
                        3, 
                        2.875
                    ], 
                    "texture": "#0"
                }, 
                "down": {
                    "rotation": 270, 
                    "uv": [
                        3, 
                        2.75, 
                        3, 
                        2.875
                    ], 
                    "texture": "#0"
                }, 
                "east": {
                    "rotation": 270, 
                    "uv": [
                        3, 
                        2.75, 
                        3, 
                        2.875
                    ], 
                    "texture": "#0"
                }, 
                "south": {
                    "rotation": 270, 
                    "uv": [
                        3, 
                        2.75, 
                        3, 
                        2.875
                    ], 
                    "texture": "#0"
                }
            }
        }, 
        {
            "to": [
                8.23241, 
                9.36795, 
                -1.304
            ], 
            "rotation": {
                "origin": [
                    7.93825, 
                    9.45545, 
                    -1.574
                ], 
                "angle": 0, 
                "axis": "y"
            }, 
            "from": [
                7.96841, 
                9.20395, 
                -2.516
            ], 
            "faces": {
                "north": {
                    "rotation": 90, 
                    "uv": [
                        3, 
                        2.75, 
                        3, 
                        2.875
                    ], 
                    "texture": "#0"
                }, 
                "west": {
                    "rotation": 90, 
                    "uv": [
                        3, 
                        2.75, 
                        3, 
                        2.875
                    ], 
                    "texture": "#0"
                }, 
                "up": {
                    "rotation": 270, 
                    "uv": [
                        7.625, 
                        12.375, 
                        7.625, 
                        12.5
                    ], 
                    "texture": "#0"
                }, 
                "down": {
                    "rotation": 90, 
                    "uv": [
                        3, 
                        2.75, 
                        3, 
                        2.875
                    ], 
                    "texture": "#0"
                }, 
                "east": {
                    "rotation": 90, 
                    "uv": [
                        3, 
                        2.75, 
                        3, 
                        2.875
                    ], 
                    "texture": "#0"
                }, 
                "south": {
                    "rotation": 90, 
                    "uv": [
                        3, 
                        2.75, 
                        3, 
                        2.875
                    ], 
                    "texture": "#0"
                }
            }
        }, 
        {
            "to": [
                8.23241, 
                9.30395, 
                -2.516
            ], 
            "rotation": {
                "origin": [
                    7.93825, 
                    9.45545, 
                    -1.73
                ], 
                "angle": 0, 
                "axis": "y"
            }, 
            "from": [
                7.96841, 
                9.20395, 
                -2.672
            ], 
            "faces": {
                "north": {
                    "rotation": 90, 
                    "uv": [
                        3, 
                        2.75, 
                        3, 
                        2.875
                    ], 
                    "texture": "#0"
                }, 
                "west": {
                    "rotation": 90, 
                    "uv": [
                        3, 
                        2.75, 
                        3, 
                        2.875
                    ], 
                    "texture": "#0"
                }, 
                "up": {
                    "rotation": 90, 
                    "uv": [
                        3, 
                        2.75, 
                        3, 
                        2.875
                    ], 
                    "texture": "#0"
                }, 
                "down": {
                    "rotation": 90, 
                    "uv": [
                        3, 
                        2.75, 
                        3, 
                        2.875
                    ], 
                    "texture": "#0"
                }, 
                "east": {
                    "rotation": 90, 
                    "uv": [
                        3, 
                        2.75, 
                        3, 
                        2.875
                    ], 
                    "texture": "#0"
                }, 
                "south": {
                    "rotation": 90, 
                    "uv": [
                        3, 
                        2.75, 
                        3, 
                        2.875
                    ], 
                    "texture": "#0"
                }
            }
        }, 
        {
            "to": [
                8.48241, 
                9.50174, 
                -1.304
            ], 
            "rotation": {
                "origin": [
                    8.31662, 
                    9.52262, 
                    -1.574
                ], 
                "angle": -45, 
                "axis": "z"
            }, 
            "from": [
                8.31841, 
                9.23774, 
                -2.516
            ], 
            "faces": {
                "north": {
                    "rotation": 180, 
                    "uv": [
                        3, 
                        2.75, 
                        3, 
                        2.875
                    ], 
                    "texture": "#0"
                }, 
                "west": {
                    "rotation": 270, 
                    "uv": [
                        7.625, 
                        12.375, 
                        7.625, 
                        12.5
                    ], 
                    "texture": "#0"
                }, 
                "up": {
                    "uv": [
                        3, 
                        2.75, 
                        3, 
                        2.875
                    ], 
                    "texture": "#0"
                }, 
                "down": {
                    "uv": [
                        3, 
                        2.75, 
                        3, 
                        2.875
                    ], 
                    "texture": "#0"
                }, 
                "east": {
                    "uv": [
                        3, 
                        2.75, 
                        3, 
                        2.875
                    ], 
                    "texture": "#0"
                }, 
                "south": {
                    "uv": [
                        3, 
                        2.75, 
                        3, 
                        2.875
                    ], 
                    "texture": "#0"
                }
            }
        }, 
        {
            "to": [
                8.48241, 
                9.50174, 
                -2.516
            ], 
            "rotation": {
                "origin": [
                    8.31662, 
                    9.52262, 
                    -1.73
                ], 
                "angle": -45, 
                "axis": "z"
            }, 
            "from": [
                8.38241, 
                9.23774, 
                -2.672
            ], 
            "faces": {
                "north": {
                    "rotation": 180, 
                    "uv": [
                        3, 
                        2.75, 
                        3, 
                        2.875
                    ], 
                    "texture": "#0"
                }, 
                "west": {
                    "uv": [
                        3, 
                        2.75, 
                        3, 
                        2.875
                    ], 
                    "texture": "#0"
                }, 
                "up": {
                    "uv": [
                        3, 
                        2.75, 
                        3, 
                        2.875
                    ], 
                    "texture": "#0"
                }, 
                "down": {
                    "uv": [
                        3, 
                        2.75, 
                        3, 
                        2.875
                    ], 
                    "texture": "#0"
                }, 
                "east": {
                    "uv": [
                        3, 
                        2.75, 
                        3, 
                        2.875
                    ], 
                    "texture": "#0"
                }, 
                "south": {
                    "uv": [
                        3, 
                        2.75, 
                        3, 
                        2.875
                    ], 
                    "texture": "#0"
                }
            }
        }, 
        {
            "to": [
                8.23241, 
                9.70696, 
                -1.304
            ], 
            "rotation": {
                "origin": [
                    7.93825, 
                    9.45545, 
                    -1.574
                ], 
                "angle": 45, 
                "axis": "z"
            }, 
            "from": [
                7.96841, 
                9.54296, 
                -2.516
            ], 
            "faces": {
                "north": {
                    "rotation": 270, 
                    "uv": [
                        3, 
                        2.75, 
                        3, 
                        2.875
                    ], 
                    "texture": "#0"
                }, 
                "west": {
                    "rotation": 270, 
                    "uv": [
                        3, 
                        2.75, 
                        3, 
                        2.875
                    ], 
                    "texture": "#0"
                }, 
                "up": {
                    "rotation": 270, 
                    "uv": [
                        3, 
                        2.75, 
                        3, 
                        2.875
                    ], 
                    "texture": "#0"
                }, 
                "down": {
                    "rotation": 270, 
                    "uv": [
                        7.625, 
                        12.375, 
                        7.625, 
                        12.5
                    ], 
                    "texture": "#0"
                }, 
                "east": {
                    "rotation": 270, 
                    "uv": [
                        3, 
                        2.75, 
                        3, 
                        2.875
                    ], 
                    "texture": "#0"
                }, 
                "south": {
                    "rotation": 270, 
                    "uv": [
                        3, 
                        2.75, 
                        3, 
                        2.875
                    ], 
                    "texture": "#0"
                }
            }
        }, 
        {
            "to": [
                8.23241, 
                9.70696, 
                -2.516
            ], 
            "rotation": {
                "origin": [
                    7.93825, 
                    9.45545, 
                    -1.73
                ], 
                "angle": 45, 
                "axis": "z"
            }, 
            "from": [
                7.96841, 
                9.60696, 
                -2.672
            ], 
            "faces": {
                "north": {
                    "rotation": 270, 
                    "uv": [
                        3, 
                        2.75, 
                        3, 
                        2.875
                    ], 
                    "texture": "#0"
                }, 
                "west": {
                    "rotation": 270, 
                    "uv": [
                        3, 
                        2.75, 
                        3, 
                        2.875
                    ], 
                    "texture": "#0"
                }, 
                "up": {
                    "rotation": 270, 
                    "uv": [
                        3, 
                        2.75, 
                        3, 
                        2.875
                    ], 
                    "texture": "#0"
                }, 
                "down": {
                    "rotation": 270, 
                    "uv": [
                        3, 
                        2.75, 
                        3, 
                        2.875
                    ], 
                    "texture": "#0"
                }, 
                "east": {
                    "rotation": 270, 
                    "uv": [
                        3, 
                        2.75, 
                        3, 
                        2.875
                    ], 
                    "texture": "#0"
                }, 
                "south": {
                    "rotation": 270, 
                    "uv": [
                        3, 
                        2.75, 
                        3, 
                        2.875
                    ], 
                    "texture": "#0"
                }
            }
        }, 
        {
            "to": [
                7.95898, 
                9.62386, 
                -1.048
            ], 
            "rotation": {
                "origin": [
                    7.90898, 
                    9.52386, 
                    -1.118
                ], 
                "angle": 0, 
                "axis": "y"
            }, 
            "from": [
                7.85898, 
                9.42386, 
                -2.484
            ], 
            "faces": {
                "north": {
                    "rotation": 270, 
                    "uv": [
                        7.625, 
                        12.375, 
                        7.625, 
                        12.5
                    ], 
                    "texture": "#0"
                }, 
                "west": {
                    "uv": [
                        4, 
                        3, 
                        4.625, 
                        3
                    ], 
                    "texture": "#0"
                }, 
                "up": {
                    "uv": [
                        4, 
                        3, 
                        4.625, 
                        3
                    ], 
                    "texture": "#0"
                }, 
                "down": {
                    "uv": [
                        4, 
                        3, 
                        4.625, 
                        3
                    ], 
                    "texture": "#0"
                }, 
                "east": {
                    "rotation": 270, 
                    "uv": [
                        7.625, 
                        12.375, 
                        7.625, 
                        12.5
                    ], 
                    "texture": "#0"
                }, 
                "south": {
                    "uv": [
                        4, 
                        3, 
                        4.625, 
                        3
                    ], 
                    "texture": "#0"
                }
            }
        }, 
        {
            "to": [
                8.34183, 
                9.62386, 
                -1.048
            ], 
            "rotation": {
                "origin": [
                    8.29183, 
                    9.52386, 
                    -1.118
                ], 
                "angle": 0, 
                "axis": "y"
            }, 
            "from": [
                8.24183, 
                9.42386, 
                -2.484
            ], 
            "faces": {
                "north": {
                    "rotation": 270, 
                    "uv": [
                        7.625, 
                        12.375, 
                        7.625, 
                        12.5
                    ], 
                    "texture": "#0"
                }, 
                "west": {
                    "rotation": 270, 
                    "uv": [
                        7.625, 
                        12.375, 
                        7.625, 
                        12.5
                    ], 
                    "texture": "#0"
                }, 
                "up": {
                    "uv": [
                        4, 
                        3, 
                        4.625, 
                        3
                    ], 
                    "texture": "#0"
                }, 
                "down": {
                    "uv": [
                        4, 
                        3, 
                        4.625, 
                        3
                    ], 
                    "texture": "#0"
                }, 
                "east": {
                    "uv": [
                        4, 
                        3, 
                        4.625, 
                        3
                    ], 
                    "texture": "#0"
                }, 
                "south": {
                    "uv": [
                        4, 
                        3, 
                        4.625, 
                        3
                    ], 
                    "texture": "#0"
                }
            }
        }, 
        {
            "to": [
                8.20041, 
                9.38244, 
                -1.048
            ], 
            "rotation": {
                "origin": [
                    8.10041, 
                    9.52386, 
                    -0.118
                ], 
                "angle": 45, 
                "axis": "z"
            }, 
            "from": [
                8.00041, 
                9.28244, 
                -2.484
            ], 
            "faces": {
                "north": {
                    "rotation": 270, 
                    "uv": [
                        7.625, 
                        12.375, 
                        7.625, 
                        12.5
                    ], 
                    "texture": "#0"
                }, 
                "west": {
                    "rotation": 90, 
                    "uv": [
                        4, 
                        3, 
                        4.625, 
                        3
                    ], 
                    "texture": "#0"
                }, 
                "up": {
                    "rotation": 270, 
                    "uv": [
                        7.625, 
                        12.375, 
                        7.625, 
                        12.5
                    ], 
                    "texture": "#0"
                }, 
                "down": {
                    "rotation": 90, 
                    "uv": [
                        4, 
                        3, 
                        4.625, 
                        3
                    ], 
                    "texture": "#0"
                }, 
                "east": {
                    "rotation": 90, 
                    "uv": [
                        4, 
                        3, 
                        4.625, 
                        3
                    ], 
                    "texture": "#0"
                }, 
                "south": {
                    "rotation": 90, 
                    "uv": [
                        4, 
                        3, 
                        4.625, 
                        3
                    ], 
                    "texture": "#0"
                }
            }
        }, 
        {
            "to": [
                8.20041, 
                9.76529, 
                -1.048
            ], 
            "rotation": {
                "origin": [
                    8.10041, 
                    9.52386, 
                    -0.118
                ], 
                "angle": 45, 
                "axis": "z"
            }, 
            "from": [
                8.00041, 
                9.66529, 
                -2.484
            ], 
            "faces": {
                "north": {
                    "rotation": 270, 
                    "uv": [
                        7.625, 
                        12.375, 
                        7.625, 
                        12.5
                    ], 
                    "texture": "#0"
                }, 
                "west": {
                    "rotation": 90, 
                    "uv": [
                        4, 
                        3, 
                        4.625, 
                        3
                    ], 
                    "texture": "#0"
                }, 
                "up": {
                    "rotation": 90, 
                    "uv": [
                        4, 
                        3, 
                        4.625, 
                        3
                    ], 
                    "texture": "#0"
                }, 
                "down": {
                    "rotation": 270, 
                    "uv": [
                        7.625, 
                        12.375, 
                        7.625, 
                        12.5
                    ], 
                    "texture": "#0"
                }, 
                "east": {
                    "rotation": 90, 
                    "uv": [
                        4, 
                        3, 
                        4.625, 
                        3
                    ], 
                    "texture": "#0"
                }, 
                "south": {
                    "rotation": 90, 
                    "uv": [
                        4, 
                        3, 
                        4.625, 
                        3
                    ], 
                    "texture": "#0"
                }
            }
        }
    ], 
    "display": {
        "thirdperson_righthand": {
            "rotation": [
                0, 
                0, 
                1
            ], 
            "scale": [
                1.14, 
                1, 
                1
            ], 
            "translation": [
                -1, 
                0, 
                -0.5
            ]
        }, 
        "head": {
            "rotation": [
                0, 
                125, 
                90
            ], 
            "scale": [
                1.64, 
                1.58, 
                1.61
            ], 
            "translation": [
                0, 
                6.5, 
                0
            ]
        }, 
        "thirdperson_lefthand": {
            "rotation": [
                0, 
                0, 
                1
            ], 
            "scale": [
                1.14, 
                1, 
                1
            ], 
            "translation": [
                -0.75, 
                0, 
                -0.75
            ]
        }, 
        "gui": {
            "rotation": [
                23, 
                30, 
                -16
            ], 
            "scale": [
                1.25, 
                1.39, 
                1.22
            ], 
            "translation": [
                -0.5, 
                0, 
                0
            ]
        }, 
        "firstperson_righthand": {
            "translation": [
                -5.25, 
                4.75, 
                2.75
            ]
        }, 
        "firstperson_lefthand": {
            "translation": [
                -5.25, 
                4.75, 
                2.75
            ]
        }, 
        "fixed": {
            "rotation": [
                0, 
                90, 
                0
            ], 
            "scale": [
                1.22, 
                1.22, 
                1.19
            ], 
            "translation": [
                -0.5, 
                0, 
                -0.75
            ]
        }
    }
}