{
    "textures": {
        "0": "gci:items/common/all_in_one", 
        "particle": "gci:items/common/all_in_one"
    }, 
    "elements": [
        {
            "to": [
                8.64561, 
                9.70157, 
                17.28934
            ], 
            "rotation": {
                "origin": [
                    8.29166, 
                    7.71557, 
                    13.11134
                ], 
                "angle": 0, 
                "axis": "y"
            }, 
            "from": [
                8.00171, 
                7.23357, 
                16.86934
            ], 
            "faces": {
                "north": {
                    "uv": [
                        4, 
                        2.75, 
                        4.25, 
                        4.125
                    ], 
                    "texture": "#0"
                }, 
                "west": {
                    "uv": [
                        4, 
                        2.75, 
                        4.25, 
                        4.125
                    ], 
                    "texture": "#0"
                }, 
                "up": {
                    "uv": [
                        4.25, 
                        4, 
                        4.375, 
                        4
                    ], 
                    "texture": "#0"
                }, 
                "down": {
                    "uv": [
                        4.25, 
                        4, 
                        4.375, 
                        4
                    ], 
                    "texture": "#0"
                }, 
                "east": {
                    "uv": [
                        4, 
                        2.75, 
                        4.25, 
                        4.125
                    ], 
                    "texture": "#0"
                }, 
                "south": {
                    "uv": [
                        4, 
                        2.75, 
                        4.25, 
                        4.125
                    ], 
                    "texture": "#0"
                }
            }
        }, 
        {
            "to": [
                8.5175, 
                9.35257, 
                13.55501
            ], 
            "rotation": {
                "origin": [
                    8.29166, 
                    8.74257, 
                    9.40901
                ], 
                "angle": 0, 
                "axis": "y"
            }, 
            "from": [
                8.1298, 
                9.18857, 
                12.39901
            ], 
            "faces": {
                "north": {
                    "rotation": 270, 
                    "uv": [
                        0.25, 
                        2.5, 
                        0.5, 
                        3.875
                    ], 
                    "texture": "#0"
                }, 
                "west": {
                    "uv": [
                        0.25, 
                        2.5, 
                        0.5, 
                        3.875
                    ], 
                    "texture": "#0"
                }, 
                "up": {
                    "rotation": 270, 
                    "uv": [
                        0.25, 
                        2.5, 
                        0.5, 
                        3.875
                    ], 
                    "texture": "#0"
                }, 
                "down": {
                    "rotation": 270, 
                    "uv": [
                        0.25, 
                        2.5, 
                        0.5, 
                        3.875
                    ], 
                    "texture": "#0"
                }, 
                "east": {
                    "rotation": 180, 
                    "uv": [
                        0.25, 
                        2.5, 
                        0.5, 
                        3.875
                    ], 
                    "texture": "#0"
                }, 
                "south": {
                    "rotation": 270, 
                    "uv": [
                        0.25, 
                        2.5, 
                        0.5, 
                        3.875
                    ], 
                    "texture": "#0"
                }
            }
        }, 
        {
            "to": [
                8.51761, 
                9.40773, 
                13.328
            ], 
            "rotation": {
                "origin": [
                    8.32366, 
                    9.14973, 
                    12.51
                ], 
                "angle": 22.5, 
                "axis": "x"
            }, 
            "from": [
                8.12971, 
                8.98773, 
                11.564
            ], 
            "faces": {
                "north": {
                    "rotation": 270, 
                    "uv": [
                        0.25, 
                        2.5, 
                        0.5, 
                        3.875
                    ], 
                    "texture": "#0"
                }, 
                "west": {
                    "rotation": 270, 
                    "uv": [
                        0.25, 
                        2.5, 
                        0.5, 
                        3.875
                    ], 
                    "texture": "#0"
                }, 
                "up": {
                    "rotation": 270, 
                    "uv": [
                        0.25, 
                        2.5, 
                        0.5, 
                        3.875
                    ], 
                    "texture": "#0"
                }, 
                "down": {
                    "rotation": 270, 
                    "uv": [
                        0.25, 
                        2.5, 
                        0.5, 
                        3.875
                    ], 
                    "texture": "#0"
                }, 
                "east": {
                    "rotation": 270, 
                    "uv": [
                        0.25, 
                        2.5, 
                        0.5, 
                        3.875
                    ], 
                    "texture": "#0"
                }, 
                "south": {
                    "rotation": 270, 
                    "uv": [
                        0.25, 
                        2.5, 
                        0.5, 
                        3.875
                    ], 
                    "texture": "#0"
                }
            }
        }, 
        {
            "to": [
                8.45361, 
                9.43973, 
                12.528
            ], 
            "rotation": {
                "origin": [
                    8.32366, 
                    9.14973, 
                    12.51
                ], 
                "angle": 22.5, 
                "axis": "x"
            }, 
            "from": [
                8.19371, 
                8.98773, 
                11.564
            ], 
            "faces": {
                "north": {
                    "rotation": 270, 
                    "uv": [
                        2.25, 
                        2.75, 
                        2.375, 
                        4.125
                    ], 
                    "texture": "#0"
                }, 
                "west": {
                    "rotation": 270, 
                    "uv": [
                        2.25, 
                        2.75, 
                        2.375, 
                        4.125
                    ], 
                    "texture": "#0"
                }, 
                "up": {
                    "rotation": 270, 
                    "uv": [
                        2.25, 
                        2.75, 
                        2.375, 
                        4.125
                    ], 
                    "texture": "#0"
                }, 
                "down": {
                    "rotation": 270, 
                    "uv": [
                        2.25, 
                        2.75, 
                        2.375, 
                        4.125
                    ], 
                    "texture": "#0"
                }, 
                "east": {
                    "rotation": 270, 
                    "uv": [
                        2.25, 
                        2.75, 
                        2.375, 
                        4.125
                    ], 
                    "texture": "#0"
                }, 
                "south": {
                    "rotation": 270, 
                    "uv": [
                        2.25, 
                        2.75, 
                        2.375, 
                        4.125
                    ], 
                    "texture": "#0"
                }
            }
        }, 
        {
            "to": [
                8.51761, 
                9.08773, 
                12.976
            ], 
            "rotation": {
                "origin": [
                    8.32366, 
                    8.76573, 
                    12.19
                ], 
                "angle": 22.5, 
                "axis": "x"
            }, 
            "from": [
                8.16171, 
                8.73173, 
                11.148
            ], 
            "faces": {
                "north": {
                    "rotation": 270, 
                    "uv": [
                        0.25, 
                        2.5, 
                        0.5, 
                        3.875
                    ], 
                    "texture": "#0"
                }, 
                "west": {
                    "rotation": 270, 
                    "uv": [
                        0.25, 
                        2.5, 
                        0.5, 
                        3.875
                    ], 
                    "texture": "#0"
                }, 
                "up": {
                    "rotation": 270, 
                    "uv": [
                        0.25, 
                        2.5, 
                        0.5, 
                        3.875
                    ], 
                    "texture": "#0"
                }, 
                "down": {
                    "rotation": 270, 
                    "uv": [
                        0.25, 
                        2.5, 
                        0.5, 
                        3.875
                    ], 
                    "texture": "#0"
                }, 
                "east": {
                    "rotation": 270, 
                    "uv": [
                        0.25, 
                        2.5, 
                        0.5, 
                        3.875
                    ], 
                    "texture": "#0"
                }, 
                "south": {
                    "rotation": 270, 
                    "uv": [
                        0.25, 
                        2.5, 
                        0.5, 
                        3.875
                    ], 
                    "texture": "#0"
                }
            }
        }, 
        {
            "to": [
                8.54961, 
                9.33255, 
                13.7553
            ], 
            "rotation": {
                "origin": [
                    8.29166, 
                    9.07455, 
                    14.0253
                ], 
                "angle": 0, 
                "axis": "y"
            }, 
            "from": [
                8.09771, 
                8.46455, 
                12.8873
            ], 
            "faces": {
                "north": {
                    "rotation": 270, 
                    "uv": [
                        0.25, 
                        2.5, 
                        0.5, 
                        3.875
                    ], 
                    "texture": "#0"
                }, 
                "west": {
                    "rotation": 270, 
                    "uv": [
                        0.25, 
                        2.5, 
                        0.5, 
                        3.875
                    ], 
                    "texture": "#0"
                }, 
                "up": {
                    "rotation": 270, 
                    "uv": [
                        0.25, 
                        2.5, 
                        0.5, 
                        3.875
                    ], 
                    "texture": "#0"
                }, 
                "down": {
                    "rotation": 270, 
                    "uv": [
                        0.25, 
                        2.5, 
                        0.5, 
                        3.875
                    ], 
                    "texture": "#0"
                }, 
                "east": {
                    "rotation": 270, 
                    "uv": [
                        0.25, 
                        2.5, 
                        0.5, 
                        3.875
                    ], 
                    "texture": "#0"
                }, 
                "south": {
                    "rotation": 270, 
                    "uv": [
                        0.25, 
                        2.5, 
                        0.5, 
                        3.875
                    ], 
                    "texture": "#0"
                }
            }
        }, 
        {
            "to": [
                8.54961, 
                9.58855, 
                12.0273
            ], 
            "rotation": {
                "origin": [
                    8.32366, 
                    9.52255, 
                    11.9613
                ], 
                "angle": -45, 
                "axis": "x"
            }, 
            "from": [
                8.09771, 
                9.45655, 
                11.8953
            ], 
            "faces": {
                "north": {
                    "uv": [
                        4, 
                        3.25, 
                        4.125, 
                        3.25
                    ], 
                    "texture": "#0"
                }, 
                "west": {
                    "uv": [
                        4, 
                        3.25, 
                        4.125, 
                        3.25
                    ], 
                    "texture": "#0"
                }, 
                "up": {
                    "uv": [
                        4, 
                        3.25, 
                        4.125, 
                        3.25
                    ], 
                    "texture": "#0"
                }, 
                "down": {
                    "uv": [
                        4, 
                        3.25, 
                        4.125, 
                        3.25
                    ], 
                    "texture": "#0"
                }, 
                "east": {
                    "uv": [
                        4, 
                        3.25, 
                        4.125, 
                        3.25
                    ], 
                    "texture": "#0"
                }, 
                "south": {
                    "uv": [
                        4, 
                        3.25, 
                        4.125, 
                        3.25
                    ], 
                    "texture": "#0"
                }
            }
        }, 
        {
            "to": [
                8.54961, 
                9.20455, 
                12.5393
            ], 
            "rotation": {
                "origin": [
                    8.32366, 
                    9.13855, 
                    12.4733
                ], 
                "angle": -45, 
                "axis": "x"
            }, 
            "from": [
                8.09771, 
                9.07255, 
                12.4073
            ], 
            "faces": {
                "north": {
                    "uv": [
                        4, 
                        3.25, 
                        4.125, 
                        3.25
                    ], 
                    "texture": "#0"
                }, 
                "west": {
                    "uv": [
                        4, 
                        3.25, 
                        4.125, 
                        3.25
                    ], 
                    "texture": "#0"
                }, 
                "up": {
                    "uv": [
                        4, 
                        3.25, 
                        4.125, 
                        3.25
                    ], 
                    "texture": "#0"
                }, 
                "down": {
                    "uv": [
                        4, 
                        3.25, 
                        4.125, 
                        3.25
                    ], 
                    "texture": "#0"
                }, 
                "east": {
                    "uv": [
                        4, 
                        3.25, 
                        4.125, 
                        3.25
                    ], 
                    "texture": "#0"
                }, 
                "south": {
                    "uv": [
                        4, 
                        3.25, 
                        4.125, 
                        3.25
                    ], 
                    "texture": "#0"
                }
            }
        }, 
        {
            "to": [
                8.58161, 
                8.99605, 
                13.47219
            ], 
            "rotation": {
                "origin": [
                    8.29166, 
                    9.61805, 
                    12.86219
                ], 
                "angle": -45, 
                "axis": "x"
            }, 
            "from": [
                8.06571, 
                8.06405, 
                12.70019
            ], 
            "faces": {
                "north": {
                    "rotation": 90, 
                    "uv": [
                        0.25, 
                        2.5, 
                        0.5, 
                        3.875
                    ], 
                    "texture": "#0"
                }, 
                "west": {
                    "rotation": 90, 
                    "uv": [
                        0.25, 
                        2.5, 
                        0.5, 
                        3.875
                    ], 
                    "texture": "#0"
                }, 
                "up": {
                    "rotation": 90, 
                    "uv": [
                        0.25, 
                        2.5, 
                        0.5, 
                        3.875
                    ], 
                    "texture": "#0"
                }, 
                "down": {
                    "rotation": 270, 
                    "uv": [
                        0.25, 
                        2.5, 
                        0.5, 
                        3.875
                    ], 
                    "texture": "#0"
                }, 
                "east": {
                    "rotation": 90, 
                    "uv": [
                        0.25, 
                        2.5, 
                        0.5, 
                        3.875
                    ], 
                    "texture": "#0"
                }, 
                "south": {
                    "rotation": 270, 
                    "uv": [
                        0.25, 
                        2.5, 
                        0.5, 
                        3.875
                    ], 
                    "texture": "#0"
                }
            }
        }, 
        {
            "to": [
                8.48561, 
                6.88857, 
                15.37901
            ], 
            "rotation": {
                "origin": [
                    8.29166, 
                    6.31057, 
                    11.23301
                ], 
                "angle": -45, 
                "axis": "x"
            }, 
            "from": [
                8.12971, 
                6.85257, 
                14.22301
            ], 
            "faces": {
                "north": {
                    "rotation": 270, 
                    "uv": [
                        0.25, 
                        2.5, 
                        0.5, 
                        3.875
                    ], 
                    "texture": "#0"
                }, 
                "west": {
                    "uv": [
                        0.25, 
                        2.5, 
                        0.5, 
                        3.875
                    ], 
                    "texture": "#0"
                }, 
                "up": {
                    "rotation": 270, 
                    "uv": [
                        0.25, 
                        2.5, 
                        0.5, 
                        3.875
                    ], 
                    "texture": "#0"
                }, 
                "down": {
                    "rotation": 270, 
                    "uv": [
                        0.25, 
                        2.5, 
                        0.5, 
                        3.875
                    ], 
                    "texture": "#0"
                }, 
                "east": {
                    "rotation": 180, 
                    "uv": [
                        0.25, 
                        2.5, 
                        0.5, 
                        3.875
                    ], 
                    "texture": "#0"
                }, 
                "south": {
                    "rotation": 270, 
                    "uv": [
                        0.25, 
                        2.5, 
                        0.5, 
                        3.875
                    ], 
                    "texture": "#0"
                }
            }
        }, 
        {
            "to": [
                8.51761, 
                9.64157, 
                17.25734
            ], 
            "rotation": {
                "origin": [
                    8.29166, 
                    9.06357, 
                    13.11134
                ], 
                "angle": 0, 
                "axis": "y"
            }, 
            "from": [
                8.12971, 
                9.60557, 
                13.73334
            ], 
            "faces": {
                "north": {
                    "rotation": 270, 
                    "uv": [
                        0.25, 
                        2.5, 
                        0.5, 
                        3.875
                    ], 
                    "texture": "#0"
                }, 
                "west": {
                    "uv": [
                        0.25, 
                        2.5, 
                        0.5, 
                        3.875
                    ], 
                    "texture": "#0"
                }, 
                "up": {
                    "rotation": 270, 
                    "uv": [
                        0.25, 
                        2.5, 
                        0.5, 
                        3.875
                    ], 
                    "texture": "#0"
                }, 
                "down": {
                    "rotation": 270, 
                    "uv": [
                        0.25, 
                        2.5, 
                        0.5, 
                        3.875
                    ], 
                    "texture": "#0"
                }, 
                "east": {
                    "rotation": 180, 
                    "uv": [
                        0.25, 
                        2.5, 
                        0.5, 
                        3.875
                    ], 
                    "texture": "#0"
                }, 
                "south": {
                    "rotation": 270, 
                    "uv": [
                        0.25, 
                        2.5, 
                        0.5, 
                        3.875
                    ], 
                    "texture": "#0"
                }
            }
        }, 
        {
            "to": [
                8.61361, 
                9.67357, 
                14.34534
            ], 
            "rotation": {
                "origin": [
                    8.29166, 
                    8.99957, 
                    13.11134
                ], 
                "angle": 0, 
                "axis": "y"
            }, 
            "from": [
                8.03371, 
                8.29357, 
                13.86134
            ], 
            "faces": {
                "north": {
                    "uv": [
                        7.25, 
                        2.375, 
                        7.75, 
                        2.5
                    ], 
                    "texture": "#0"
                }, 
                "west": {
                    "uv": [
                        7.25, 
                        2.375, 
                        7.75, 
                        2.5
                    ], 
                    "texture": "#0"
                }, 
                "up": {
                    "rotation": 90, 
                    "uv": [
                        7.25, 
                        2.375, 
                        7.75, 
                        2.5
                    ], 
                    "texture": "#0"
                }, 
                "down": {
                    "rotation": 270, 
                    "uv": [
                        7.25, 
                        2.375, 
                        7.75, 
                        2.5
                    ], 
                    "texture": "#0"
                }, 
                "east": {
                    "rotation": 180, 
                    "uv": [
                        7.25, 
                        2.375, 
                        7.75, 
                        2.5
                    ], 
                    "texture": "#0"
                }, 
                "south": {
                    "uv": [
                        7.25, 
                        2.375, 
                        7.75, 
                        2.5
                    ], 
                    "texture": "#0"
                }
            }
        }, 
        {
            "to": [
                8.5817, 
                9.97085, 
                17.37394
            ], 
            "rotation": {
                "origin": [
                    8.29166, 
                    9.36085, 
                    13.19594
                ], 
                "angle": 22.5, 
                "axis": "x"
            }, 
            "from": [
                8.0656, 
                8.87885, 
                14.20194
            ], 
            "faces": {
                "north": {
                    "rotation": 270, 
                    "uv": [
                        0.25, 
                        2.5, 
                        0.5, 
                        3.875
                    ], 
                    "texture": "#0"
                }, 
                "west": {
                    "uv": [
                        0.25, 
                        2.5, 
                        0.5, 
                        3.875
                    ], 
                    "texture": "#0"
                }, 
                "up": {
                    "rotation": 270, 
                    "uv": [
                        0.25, 
                        2.5, 
                        0.5, 
                        3.875
                    ], 
                    "texture": "#0"
                }, 
                "down": {
                    "rotation": 270, 
                    "uv": [
                        0.25, 
                        2.5, 
                        0.5, 
                        3.875
                    ], 
                    "texture": "#0"
                }, 
                "east": {
                    "rotation": 180, 
                    "uv": [
                        0.25, 
                        2.5, 
                        0.5, 
                        3.875
                    ], 
                    "texture": "#0"
                }, 
                "south": {
                    "rotation": 270, 
                    "uv": [
                        0.25, 
                        2.5, 
                        0.5, 
                        3.875
                    ], 
                    "texture": "#0"
                }
            }
        }, 
        {
            "to": [
                8.58161, 
                9.60957, 
                17.09734
            ], 
            "rotation": {
                "origin": [
                    8.29166, 
                    8.99957, 
                    13.11134
                ], 
                "angle": 0, 
                "axis": "y"
            }, 
            "from": [
                8.06571, 
                8.32557, 
                13.73334
            ], 
            "faces": {
                "north": {
                    "rotation": 270, 
                    "uv": [
                        0.25, 
                        2.5, 
                        0.5, 
                        3.875
                    ], 
                    "texture": "#0"
                }, 
                "west": {
                    "uv": [
                        0.25, 
                        2.5, 
                        0.5, 
                        3.875
                    ], 
                    "texture": "#0"
                }, 
                "up": {
                    "rotation": 270, 
                    "uv": [
                        0.25, 
                        2.5, 
                        0.5, 
                        3.875
                    ], 
                    "texture": "#0"
                }, 
                "down": {
                    "rotation": 270, 
                    "uv": [
                        0.25, 
                        2.5, 
                        0.5, 
                        3.875
                    ], 
                    "texture": "#0"
                }, 
                "east": {
                    "rotation": 180, 
                    "uv": [
                        0.25, 
                        2.5, 
                        0.5, 
                        3.875
                    ], 
                    "texture": "#0"
                }, 
                "south": {
                    "rotation": 270, 
                    "uv": [
                        0.25, 
                        2.5, 
                        0.5, 
                        3.875
                    ], 
                    "texture": "#0"
                }
            }
        }
    ], 
    "display": {
        "thirdperson_righthand": {
            "translation": [
                -1.25, 
                -1.25, 
                -3.75
            ], 
            "scale": [
                1.7, 
                1.7, 
                1.7
            ]
        }, 
        "head": {
            "rotation": [
                0, 
                -139, 
                90
            ], 
            "scale": [
                1.36, 
                1.36, 
                1.36
            ], 
            "translation": [
                0.75, 
                6.5, 
                0.5
            ]
        }, 
        "thirdperson_lefthand": {
            "translation": [
                0, 
                -1.25, 
                -3.75
            ], 
            "scale": [
                1.7, 
                1.7, 
                1.7
            ]
        }, 
        "gui": {
            "rotation": [
                11, 
                16, 
                -16
            ], 
            "scale": [
                2.2, 
                2.24, 
                2.83
            ], 
            "translation": [
                -2, 
                0, 
                0
            ]
        }, 
        "firstperson_righthand": {
            "rotation": [
                1, 
                1, 
                0
            ], 
            "scale": [
                1.19, 
                1.14, 
                0.87
            ], 
            "translation": [
                -5.25, 
                5, 
                4
            ]
        }, 
        "firstperson_lefthand": {
            "rotation": [
                1, 
                1, 
                0
            ], 
            "scale": [
                1.19, 
                1.14, 
                0.87
            ], 
            "translation": [
                -5.25, 
                5, 
                4
            ]
        }, 
        "fixed": {
            "rotation": [
                90, 
                45, 
                -90
            ], 
            "scale": [
                1.7, 
                1.7, 
                1.7
            ], 
            "translation": [
                -4.75, 
                2.75, 
                -1.75
            ]
        }, 
        "ground": {
            "translation": [
                0, 
                0, 
                -2.75
            ], 
            "scale": [
                1.7, 
                1.7, 
                1.7
            ]
        }
    }
}