{
    "textures": {
        "0": "gci:items/common/all_in_one", 
        "2": "gci:items/common/mpz", 
        "particle": "gci:items/common/all_in_one"
    }, 
    "elements": [
        {
            "to": [
                8.3208, 
                9.60292, 
                11.204
            ], 
            "rotation": {
                "origin": [
                    7.9638, 
                    9.52959, 
                    11.046
                ], 
                "angle": 0, 
                "axis": "y"
            }, 
            "from": [
                7.6328, 
                9.21892, 
                9.544
            ], 
            "faces": {
                "north": {
                    "rotation": 270, 
                    "uv": [
                        2.875, 
                        3, 
                        2.875, 
                        3.25
                    ], 
                    "texture": "#0"
                }, 
                "west": {
                    "rotation": 270, 
                    "uv": [
                        2.875, 
                        3, 
                        2.875, 
                        3.25
                    ], 
                    "texture": "#0"
                }, 
                "up": {
                    "rotation": 270, 
                    "uv": [
                        2.875, 
                        3, 
                        2.875, 
                        3.25
                    ], 
                    "texture": "#0"
                }, 
                "down": {
                    "rotation": 270, 
                    "uv": [
                        2.875, 
                        3, 
                        2.875, 
                        3.25
                    ], 
                    "texture": "#0"
                }, 
                "east": {
                    "rotation": 270, 
                    "uv": [
                        2.875, 
                        3, 
                        2.875, 
                        3.25
                    ], 
                    "texture": "#0"
                }, 
                "south": {
                    "rotation": 270, 
                    "uv": [
                        2.875, 
                        3, 
                        2.875, 
                        3.25
                    ], 
                    "texture": "#0"
                }
            }
        }, 
        {
            "to": [
                8.3528, 
                9.40892, 
                9.798
            ], 
            "rotation": {
                "origin": [
                    7.9768, 
                    9.34692, 
                    9.734
                ], 
                "angle": -45, 
                "axis": "x"
            }, 
            "from": [
                7.6008, 
                9.28492, 
                9.67
            ], 
            "faces": {
                "north": {
                    "uv": [
                        14.25, 
                        6.625, 
                        14.25, 
                        6.625
                    ], 
                    "texture": "#0"
                }, 
                "west": {
                    "uv": [
                        14.25, 
                        6.625, 
                        14.25, 
                        6.625
                    ], 
                    "texture": "#0"
                }, 
                "up": {
                    "uv": [
                        14.25, 
                        6.625, 
                        14.25, 
                        6.625
                    ], 
                    "texture": "#0"
                }, 
                "down": {
                    "uv": [
                        14.25, 
                        6.625, 
                        14.25, 
                        6.625
                    ], 
                    "texture": "#0"
                }, 
                "east": {
                    "uv": [
                        14.25, 
                        6.625, 
                        14.25, 
                        6.625
                    ], 
                    "texture": "#0"
                }, 
                "south": {
                    "uv": [
                        14.25, 
                        6.625, 
                        14.25, 
                        6.625
                    ], 
                    "texture": "#0"
                }
            }
        }, 
        {
            "to": [
                8.3528, 
                9.40892, 
                11.11
            ], 
            "rotation": {
                "origin": [
                    7.9768, 
                    9.34692, 
                    11.046
                ], 
                "angle": -45, 
                "axis": "x"
            }, 
            "from": [
                7.6008, 
                9.28492, 
                10.982
            ], 
            "faces": {
                "north": {
                    "uv": [
                        14.25, 
                        6.625, 
                        14.25, 
                        6.625
                    ], 
                    "texture": "#0"
                }, 
                "west": {
                    "uv": [
                        14.25, 
                        6.625, 
                        14.25, 
                        6.625
                    ], 
                    "texture": "#0"
                }, 
                "up": {
                    "uv": [
                        14.25, 
                        6.625, 
                        14.25, 
                        6.625
                    ], 
                    "texture": "#0"
                }, 
                "down": {
                    "uv": [
                        14.25, 
                        6.625, 
                        14.25, 
                        6.625
                    ], 
                    "texture": "#0"
                }, 
                "east": {
                    "uv": [
                        14.25, 
                        6.625, 
                        14.25, 
                        6.625
                    ], 
                    "texture": "#0"
                }, 
                "south": {
                    "uv": [
                        14.25, 
                        6.625, 
                        14.25, 
                        6.625
                    ], 
                    "texture": "#0"
                }
            }
        }, 
        {
            "to": [
                8.3528, 
                9.85692, 
                11.206
            ], 
            "rotation": {
                "origin": [
                    7.9768, 
                    9.79492, 
                    11.142
                ], 
                "angle": -45, 
                "axis": "x"
            }, 
            "from": [
                7.6008, 
                9.73292, 
                11.078
            ], 
            "faces": {
                "north": {
                    "uv": [
                        2.875, 
                        1, 
                        2.875, 
                        1.25
                    ], 
                    "texture": "#0"
                }, 
                "west": {
                    "uv": [
                        2.875, 
                        1, 
                        2.875, 
                        1.25
                    ], 
                    "texture": "#0"
                }, 
                "up": {
                    "uv": [
                        2.875, 
                        1, 
                        2.875, 
                        1.25
                    ], 
                    "texture": "#0"
                }, 
                "down": {
                    "uv": [
                        2.875, 
                        1, 
                        2.875, 
                        1.25
                    ], 
                    "texture": "#0"
                }, 
                "east": {
                    "uv": [
                        2.875, 
                        1, 
                        2.875, 
                        1.25
                    ], 
                    "texture": "#0"
                }, 
                "south": {
                    "uv": [
                        2.875, 
                        1, 
                        2.875, 
                        1.25
                    ], 
                    "texture": "#0"
                }
            }
        }, 
        {
            "to": [
                8.3208, 
                9.82692, 
                11.62
            ], 
            "rotation": {
                "origin": [
                    7.9638, 
                    9.97759, 
                    11.046
                ], 
                "angle": 0, 
                "axis": "y"
            }, 
            "from": [
                7.6328, 
                9.66692, 
                9.544
            ], 
            "faces": {
                "north": {
                    "rotation": 270, 
                    "uv": [
                        2.875, 
                        3, 
                        2.875, 
                        3.25
                    ], 
                    "texture": "#0"
                }, 
                "west": {
                    "rotation": 270, 
                    "uv": [
                        2.875, 
                        3, 
                        2.875, 
                        3.25
                    ], 
                    "texture": "#0"
                }, 
                "up": {
                    "rotation": 270, 
                    "uv": [
                        2.875, 
                        3, 
                        2.875, 
                        3.25
                    ], 
                    "texture": "#0"
                }, 
                "down": {
                    "rotation": 270, 
                    "uv": [
                        2.875, 
                        3, 
                        2.875, 
                        3.25
                    ], 
                    "texture": "#0"
                }, 
                "east": {
                    "rotation": 270, 
                    "uv": [
                        2.875, 
                        3, 
                        2.875, 
                        3.25
                    ], 
                    "texture": "#0"
                }, 
                "south": {
                    "rotation": 270, 
                    "uv": [
                        2.875, 
                        3, 
                        2.875, 
                        3.25
                    ], 
                    "texture": "#0"
                }
            }
        }, 
        {
            "to": [
                8.0328, 
                9.92692, 
                10.392
            ], 
            "rotation": {
                "origin": [
                    7.9768, 
                    9.89092, 
                    10.336
                ], 
                "angle": -45, 
                "axis": "y"
            }, 
            "from": [
                7.9208, 
                9.82692, 
                10.28
            ], 
            "faces": {
                "north": {
                    "rotation": 270, 
                    "uv": [
                        4.25, 
                        3.125, 
                        4.25, 
                        3.375
                    ], 
                    "texture": "#0"
                }, 
                "west": {
                    "rotation": 270, 
                    "uv": [
                        4.25, 
                        3.125, 
                        4.25, 
                        3.375
                    ], 
                    "texture": "#0"
                }, 
                "up": {
                    "rotation": 270, 
                    "uv": [
                        4.25, 
                        3.125, 
                        4.25, 
                        3.375
                    ], 
                    "texture": "#0"
                }, 
                "down": {
                    "rotation": 270, 
                    "uv": [
                        4.25, 
                        3.125, 
                        4.25, 
                        3.375
                    ], 
                    "texture": "#0"
                }, 
                "east": {
                    "rotation": 270, 
                    "uv": [
                        4.25, 
                        3.125, 
                        4.25, 
                        3.375
                    ], 
                    "texture": "#0"
                }, 
                "south": {
                    "rotation": 270, 
                    "uv": [
                        4.25, 
                        3.125, 
                        4.25, 
                        3.375
                    ], 
                    "texture": "#0"
                }
            }
        }, 
        {
            "to": [
                8.45894, 
                9.92292, 
                10.51153
            ], 
            "rotation": {
                "origin": [
                    8.00694, 
                    9.85892, 
                    10.48753
                ], 
                "angle": 45, 
                "axis": "y"
            }, 
            "from": [
                7.72694, 
                9.82692, 
                10.20753
            ], 
            "faces": {
                "north": {
                    "rotation": 270, 
                    "uv": [
                        14.25, 
                        6.625, 
                        14.25, 
                        6.625
                    ], 
                    "texture": "#0"
                }, 
                "west": {
                    "rotation": 270, 
                    "uv": [
                        14.25, 
                        6.625, 
                        14.25, 
                        6.625
                    ], 
                    "texture": "#0"
                }, 
                "up": {
                    "rotation": 270, 
                    "uv": [
                        14.25, 
                        6.625, 
                        14.25, 
                        6.625
                    ], 
                    "texture": "#0"
                }, 
                "down": {
                    "rotation": 270, 
                    "uv": [
                        14.25, 
                        6.625, 
                        14.25, 
                        6.625
                    ], 
                    "texture": "#0"
                }, 
                "east": {
                    "rotation": 270, 
                    "uv": [
                        14.25, 
                        6.625, 
                        14.25, 
                        6.625
                    ], 
                    "texture": "#0"
                }, 
                "south": {
                    "rotation": 270, 
                    "uv": [
                        14.25, 
                        6.625, 
                        14.25, 
                        6.625
                    ], 
                    "texture": "#0"
                }
            }
        }, 
        {
            "to": [
                8.34324, 
                9.92292, 
                10.48821
            ], 
            "rotation": {
                "origin": [
                    7.97724, 
                    9.87492, 
                    10.33621
                ], 
                "angle": 0, 
                "axis": "y"
            }, 
            "from": [
                7.61124, 
                9.82692, 
                10.18421
            ], 
            "faces": {
                "north": {
                    "rotation": 270, 
                    "uv": [
                        14.25, 
                        6.625, 
                        14.25, 
                        6.625
                    ], 
                    "texture": "#0"
                }, 
                "west": {
                    "rotation": 270, 
                    "uv": [
                        14.25, 
                        6.625, 
                        14.25, 
                        6.625
                    ], 
                    "texture": "#0"
                }, 
                "up": {
                    "rotation": 270, 
                    "uv": [
                        14.25, 
                        6.625, 
                        14.25, 
                        6.625
                    ], 
                    "texture": "#0"
                }, 
                "down": {
                    "rotation": 270, 
                    "uv": [
                        14.25, 
                        6.625, 
                        14.25, 
                        6.625
                    ], 
                    "texture": "#0"
                }, 
                "east": {
                    "rotation": 270, 
                    "uv": [
                        14.25, 
                        6.625, 
                        14.25, 
                        6.625
                    ], 
                    "texture": "#0"
                }, 
                "south": {
                    "rotation": 270, 
                    "uv": [
                        14.25, 
                        6.625, 
                        14.25, 
                        6.625
                    ], 
                    "texture": "#0"
                }
            }
        }, 
        {
            "to": [
                8.12924, 
                9.92292, 
                10.70221
            ], 
            "rotation": {
                "origin": [
                    7.97724, 
                    9.87492, 
                    10.33621
                ], 
                "angle": 45, 
                "axis": "y"
            }, 
            "from": [
                7.82524, 
                9.82692, 
                9.97021
            ], 
            "faces": {
                "north": {
                    "uv": [
                        14.25, 
                        6.625, 
                        14.25, 
                        6.625
                    ], 
                    "texture": "#0"
                }, 
                "west": {
                    "uv": [
                        14.25, 
                        6.625, 
                        14.25, 
                        6.625
                    ], 
                    "texture": "#0"
                }, 
                "up": {
                    "uv": [
                        14.25, 
                        6.625, 
                        14.25, 
                        6.625
                    ], 
                    "texture": "#0"
                }, 
                "down": {
                    "uv": [
                        14.25, 
                        6.625, 
                        14.25, 
                        6.625
                    ], 
                    "texture": "#0"
                }, 
                "east": {
                    "uv": [
                        14.25, 
                        6.625, 
                        14.25, 
                        6.625
                    ], 
                    "texture": "#0"
                }, 
                "south": {
                    "uv": [
                        14.25, 
                        6.625, 
                        14.25, 
                        6.625
                    ], 
                    "texture": "#0"
                }
            }
        }, 
        {
            "to": [
                8.12924, 
                9.92292, 
                10.70221
            ], 
            "rotation": {
                "origin": [
                    7.97724, 
                    9.87492, 
                    10.33621
                ], 
                "angle": 0, 
                "axis": "y"
            }, 
            "from": [
                7.82524, 
                9.82692, 
                9.97021
            ], 
            "faces": {
                "north": {
                    "uv": [
                        14.25, 
                        6.625, 
                        14.25, 
                        6.625
                    ], 
                    "texture": "#0"
                }, 
                "west": {
                    "uv": [
                        14.25, 
                        6.625, 
                        14.25, 
                        6.625
                    ], 
                    "texture": "#0"
                }, 
                "up": {
                    "uv": [
                        14.25, 
                        6.625, 
                        14.25, 
                        6.625
                    ], 
                    "texture": "#0"
                }, 
                "down": {
                    "uv": [
                        14.25, 
                        6.625, 
                        14.25, 
                        6.625
                    ], 
                    "texture": "#0"
                }, 
                "east": {
                    "uv": [
                        14.25, 
                        6.625, 
                        14.25, 
                        6.625
                    ], 
                    "texture": "#0"
                }, 
                "south": {
                    "uv": [
                        14.25, 
                        6.625, 
                        14.25, 
                        6.625
                    ], 
                    "texture": "#0"
                }
            }
        }, 
        {
            "to": [
                8.18636, 
                9.88889, 
                9.924
            ], 
            "rotation": {
                "origin": [
                    8.2834, 
                    10.17058, 
                    9.782
                ], 
                "angle": 22.5, 
                "axis": "z"
            }, 
            "from": [
                7.94636, 
                9.84089, 
                9.64
            ], 
            "faces": {
                "north": {
                    "rotation": 90, 
                    "uv": [
                        2.875, 
                        3, 
                        2.875, 
                        3.25
                    ], 
                    "texture": "#0"
                }, 
                "west": {
                    "rotation": 90, 
                    "uv": [
                        2.875, 
                        3, 
                        2.875, 
                        3.25
                    ], 
                    "texture": "#0"
                }, 
                "up": {
                    "rotation": 90, 
                    "uv": [
                        2.875, 
                        3, 
                        2.875, 
                        3.25
                    ], 
                    "texture": "#0"
                }, 
                "down": {
                    "rotation": 90, 
                    "uv": [
                        2.875, 
                        3, 
                        2.875, 
                        3.25
                    ], 
                    "texture": "#0"
                }, 
                "east": {
                    "rotation": 90, 
                    "uv": [
                        2.875, 
                        3, 
                        2.875, 
                        3.25
                    ], 
                    "texture": "#0"
                }, 
                "south": {
                    "rotation": 90, 
                    "uv": [
                        2.875, 
                        3, 
                        2.875, 
                        3.25
                    ], 
                    "texture": "#0"
                }
            }
        }, 
        {
            "to": [
                8.32445, 
                10.54432, 
                9.924
            ], 
            "rotation": {
                "origin": [
                    7.96745, 
                    10.13499, 
                    11.11
                ], 
                "angle": 0, 
                "axis": "y"
            }, 
            "from": [
                7.63645, 
                10.49632, 
                9.64
            ], 
            "faces": {
                "north": {
                    "rotation": 270, 
                    "uv": [
                        2.875, 
                        3, 
                        2.875, 
                        3.25
                    ], 
                    "texture": "#0"
                }, 
                "west": {
                    "rotation": 270, 
                    "uv": [
                        2.875, 
                        3, 
                        2.875, 
                        3.25
                    ], 
                    "texture": "#0"
                }, 
                "up": {
                    "rotation": 270, 
                    "uv": [
                        2.875, 
                        3, 
                        2.875, 
                        3.25
                    ], 
                    "texture": "#0"
                }, 
                "down": {
                    "rotation": 270, 
                    "uv": [
                        2.875, 
                        3, 
                        2.875, 
                        3.25
                    ], 
                    "texture": "#0"
                }, 
                "east": {
                    "rotation": 270, 
                    "uv": [
                        2.875, 
                        3, 
                        2.875, 
                        3.25
                    ], 
                    "texture": "#0"
                }, 
                "south": {
                    "rotation": 270, 
                    "uv": [
                        2.875, 
                        3, 
                        2.875, 
                        3.25
                    ], 
                    "texture": "#0"
                }
            }
        }, 
        {
            "to": [
                8.0185, 
                10.22432, 
                9.768
            ], 
            "rotation": {
                "origin": [
                    8.31945, 
                    10.42299, 
                    11.11
                ], 
                "angle": 0, 
                "axis": "y"
            }, 
            "from": [
                7.9385, 
                10.14432, 
                9.768
            ], 
            "faces": {
                "north": {
                    "uv": [
                        8.75, 
                        7, 
                        8.75, 
                        7.125
                    ], 
                    "texture": "#0"
                }, 
                "west": {
                    "uv": [
                        8.75, 
                        7, 
                        8.75, 
                        7.125
                    ], 
                    "texture": "#0"
                }, 
                "up": {
                    "uv": [
                        8.75, 
                        7, 
                        8.75, 
                        7.125
                    ], 
                    "texture": "#0"
                }, 
                "down": {
                    "uv": [
                        8.75, 
                        7, 
                        8.75, 
                        7.125
                    ], 
                    "texture": "#0"
                }, 
                "east": {
                    "uv": [
                        8.75, 
                        7, 
                        8.75, 
                        7.125
                    ], 
                    "texture": "#0"
                }, 
                "south": {
                    "uv": [
                        8.75, 
                        7, 
                        8.75, 
                        7.125
                    ], 
                    "texture": "#0"
                }
            }
        }, 
        {
            "to": [
                7.72523, 
                9.77525, 
                9.924
            ], 
            "rotation": {
                "origin": [
                    7.81623, 
                    9.39792, 
                    11.11
                ], 
                "angle": -22.5, 
                "axis": "z"
            }, 
            "from": [
                7.48523, 
                9.72725, 
                9.64
            ], 
            "faces": {
                "north": {
                    "rotation": 270, 
                    "uv": [
                        2.875, 
                        3, 
                        2.875, 
                        3.25
                    ], 
                    "texture": "#0"
                }, 
                "west": {
                    "rotation": 270, 
                    "uv": [
                        2.875, 
                        3, 
                        2.875, 
                        3.25
                    ], 
                    "texture": "#0"
                }, 
                "up": {
                    "rotation": 270, 
                    "uv": [
                        2.875, 
                        3, 
                        2.875, 
                        3.25
                    ], 
                    "texture": "#0"
                }, 
                "down": {
                    "rotation": 270, 
                    "uv": [
                        2.875, 
                        3, 
                        2.875, 
                        3.25
                    ], 
                    "texture": "#0"
                }, 
                "east": {
                    "rotation": 270, 
                    "uv": [
                        2.875, 
                        3, 
                        2.875, 
                        3.25
                    ], 
                    "texture": "#0"
                }, 
                "south": {
                    "rotation": 270, 
                    "uv": [
                        2.875, 
                        3, 
                        2.875, 
                        3.25
                    ], 
                    "texture": "#0"
                }
            }
        }, 
        {
            "to": [
                7.59261, 
                10.32258, 
                9.924
            ], 
            "rotation": {
                "origin": [
                    7.62118, 
                    10.1143, 
                    9.782
                ], 
                "angle": 0, 
                "axis": "y"
            }, 
            "from": [
                7.54461, 
                10.08258, 
                9.64
            ], 
            "faces": {
                "north": {
                    "uv": [
                        2.875, 
                        3, 
                        2.875, 
                        3.25
                    ], 
                    "texture": "#0"
                }, 
                "west": {
                    "rotation": 180, 
                    "uv": [
                        2.875, 
                        3, 
                        2.875, 
                        3.25
                    ], 
                    "texture": "#0"
                }, 
                "up": {
                    "rotation": 180, 
                    "uv": [
                        2.875, 
                        3, 
                        2.875, 
                        3.25
                    ], 
                    "texture": "#0"
                }, 
                "down": {
                    "rotation": 180, 
                    "uv": [
                        2.875, 
                        3, 
                        2.875, 
                        3.25
                    ], 
                    "texture": "#0"
                }, 
                "east": {
                    "rotation": 180, 
                    "uv": [
                        2.875, 
                        3, 
                        2.875, 
                        3.25
                    ], 
                    "texture": "#0"
                }, 
                "south": {
                    "rotation": 180, 
                    "uv": [
                        2.875, 
                        3, 
                        2.875, 
                        3.25
                    ], 
                    "texture": "#0"
                }
            }
        }, 
        {
            "to": [
                8.41176, 
                10.32258, 
                9.924
            ], 
            "rotation": {
                "origin": [
                    8.2834, 
                    10.20258, 
                    9.782
                ], 
                "angle": 0, 
                "axis": "y"
            }, 
            "from": [
                8.36376, 
                10.08258, 
                9.64
            ], 
            "faces": {
                "north": {
                    "rotation": 180, 
                    "uv": [
                        2.875, 
                        3, 
                        2.875, 
                        3.25
                    ], 
                    "texture": "#0"
                }, 
                "west": {
                    "uv": [
                        2.875, 
                        3, 
                        2.875, 
                        3.25
                    ], 
                    "texture": "#0"
                }, 
                "up": {
                    "uv": [
                        2.875, 
                        3, 
                        2.875, 
                        3.25
                    ], 
                    "texture": "#0"
                }, 
                "down": {
                    "uv": [
                        2.875, 
                        3, 
                        2.875, 
                        3.25
                    ], 
                    "texture": "#0"
                }, 
                "east": {
                    "uv": [
                        2.875, 
                        3, 
                        2.875, 
                        3.25
                    ], 
                    "texture": "#0"
                }, 
                "south": {
                    "uv": [
                        2.875, 
                        3, 
                        2.875, 
                        3.25
                    ], 
                    "texture": "#0"
                }
            }
        }, 
        {
            "to": [
                8.3208, 
                9.87492, 
                9.924
            ], 
            "rotation": {
                "origin": [
                    7.9638, 
                    9.43359, 
                    11.11
                ], 
                "angle": 0, 
                "axis": "y"
            }, 
            "from": [
                7.6328, 
                9.76292, 
                9.64
            ], 
            "faces": {
                "north": {
                    "rotation": 270, 
                    "uv": [
                        2.875, 
                        3, 
                        2.875, 
                        3.25
                    ], 
                    "texture": "#0"
                }, 
                "west": {
                    "rotation": 270, 
                    "uv": [
                        2.875, 
                        3, 
                        2.875, 
                        3.25
                    ], 
                    "texture": "#0"
                }, 
                "up": {
                    "rotation": 270, 
                    "uv": [
                        2.875, 
                        3, 
                        2.875, 
                        3.25
                    ], 
                    "texture": "#0"
                }, 
                "down": {
                    "rotation": 270, 
                    "uv": [
                        2.875, 
                        3, 
                        2.875, 
                        3.25
                    ], 
                    "texture": "#0"
                }, 
                "east": {
                    "rotation": 270, 
                    "uv": [
                        2.875, 
                        3, 
                        2.875, 
                        3.25
                    ], 
                    "texture": "#0"
                }, 
                "south": {
                    "rotation": 270, 
                    "uv": [
                        2.875, 
                        3, 
                        2.875, 
                        3.25
                    ], 
                    "texture": "#0"
                }
            }
        }, 
        {
            "to": [
                8.3208, 
                9.97092, 
                11.62
            ], 
            "rotation": {
                "origin": [
                    7.9638, 
                    9.49759, 
                    12.806
                ], 
                "angle": 0, 
                "axis": "y"
            }, 
            "from": [
                7.6328, 
                9.82692, 
                11.176
            ], 
            "faces": {
                "north": {
                    "rotation": 270, 
                    "uv": [
                        2.875, 
                        3, 
                        2.875, 
                        3.25
                    ], 
                    "texture": "#0"
                }, 
                "west": {
                    "rotation": 270, 
                    "uv": [
                        2.875, 
                        3, 
                        2.875, 
                        3.25
                    ], 
                    "texture": "#0"
                }, 
                "up": {
                    "rotation": 270, 
                    "uv": [
                        2.875, 
                        3, 
                        2.875, 
                        3.25
                    ], 
                    "texture": "#0"
                }, 
                "down": {
                    "rotation": 270, 
                    "uv": [
                        2.875, 
                        3, 
                        2.875, 
                        3.25
                    ], 
                    "texture": "#0"
                }, 
                "east": {
                    "rotation": 270, 
                    "uv": [
                        2.875, 
                        3, 
                        2.875, 
                        3.25
                    ], 
                    "texture": "#0"
                }, 
                "south": {
                    "rotation": 270, 
                    "uv": [
                        2.875, 
                        3, 
                        2.875, 
                        3.25
                    ], 
                    "texture": "#0"
                }
            }
        }, 
        {
            "to": [
                8.3208, 
                9.87448, 
                11.29518
            ], 
            "rotation": {
                "origin": [
                    7.9638, 
                    9.40115, 
                    12.12918
                ], 
                "angle": 0, 
                "axis": "y"
            }, 
            "from": [
                7.6328, 
                9.73048, 
                10.72318
            ], 
            "faces": {
                "north": {
                    "rotation": 270, 
                    "uv": [
                        2.875, 
                        3, 
                        2.875, 
                        3.25
                    ], 
                    "texture": "#0"
                }, 
                "west": {
                    "rotation": 270, 
                    "uv": [
                        2.875, 
                        3, 
                        2.875, 
                        3.25
                    ], 
                    "texture": "#0"
                }, 
                "up": {
                    "rotation": 270, 
                    "uv": [
                        2.875, 
                        3, 
                        2.875, 
                        3.25
                    ], 
                    "texture": "#0"
                }, 
                "down": {
                    "rotation": 270, 
                    "uv": [
                        2.875, 
                        3, 
                        2.875, 
                        3.25
                    ], 
                    "texture": "#0"
                }, 
                "east": {
                    "rotation": 270, 
                    "uv": [
                        2.875, 
                        3, 
                        2.875, 
                        3.25
                    ], 
                    "texture": "#0"
                }, 
                "south": {
                    "rotation": 270, 
                    "uv": [
                        2.875, 
                        3, 
                        2.875, 
                        3.25
                    ], 
                    "texture": "#0"
                }
            }
        }, 
        {
            "to": [
                8.3208, 
                10.46081, 
                11.26686
            ], 
            "rotation": {
                "origin": [
                    7.9638, 
                    9.98748, 
                    12.45286
                ], 
                "angle": -22.5, 
                "axis": "x"
            }, 
            "from": [
                7.6328, 
                10.31681, 
                11.01486
            ], 
            "faces": {
                "north": {
                    "rotation": 270, 
                    "uv": [
                        2.875, 
                        3, 
                        2.875, 
                        3.25
                    ], 
                    "texture": "#0"
                }, 
                "west": {
                    "rotation": 270, 
                    "uv": [
                        2.875, 
                        3, 
                        2.875, 
                        3.25
                    ], 
                    "texture": "#0"
                }, 
                "up": {
                    "rotation": 270, 
                    "uv": [
                        2.875, 
                        3, 
                        2.875, 
                        3.25
                    ], 
                    "texture": "#0"
                }, 
                "down": {
                    "rotation": 270, 
                    "uv": [
                        2.875, 
                        3, 
                        2.875, 
                        3.25
                    ], 
                    "texture": "#0"
                }, 
                "east": {
                    "rotation": 270, 
                    "uv": [
                        2.875, 
                        3, 
                        2.875, 
                        3.25
                    ], 
                    "texture": "#0"
                }, 
                "south": {
                    "rotation": 270, 
                    "uv": [
                        2.875, 
                        3, 
                        2.875, 
                        3.25
                    ], 
                    "texture": "#0"
                }
            }
        }, 
        {
            "to": [
                7.7457, 
                10.51622, 
                9.924
            ], 
            "rotation": {
                "origin": [
                    7.7377, 
                    10.68422, 
                    9.782
                ], 
                "angle": -22.5, 
                "axis": "z"
            }, 
            "from": [
                7.6977, 
                10.27622, 
                9.64
            ], 
            "faces": {
                "north": {
                    "rotation": 180, 
                    "uv": [
                        2.875, 
                        3, 
                        2.875, 
                        3.25
                    ], 
                    "texture": "#0"
                }, 
                "west": {
                    "uv": [
                        2.875, 
                        3, 
                        2.875, 
                        3.25
                    ], 
                    "texture": "#0"
                }, 
                "up": {
                    "uv": [
                        2.875, 
                        3, 
                        2.875, 
                        3.25
                    ], 
                    "texture": "#0"
                }, 
                "down": {
                    "uv": [
                        2.875, 
                        3, 
                        2.875, 
                        3.25
                    ], 
                    "texture": "#0"
                }, 
                "east": {
                    "uv": [
                        2.875, 
                        3, 
                        2.875, 
                        3.25
                    ], 
                    "texture": "#0"
                }, 
                "south": {
                    "uv": [
                        2.875, 
                        3, 
                        2.875, 
                        3.25
                    ], 
                    "texture": "#0"
                }
            }
        }, 
        {
            "to": [
                8.44791, 
                10.14084, 
                9.924
            ], 
            "rotation": {
                "origin": [
                    8.2834, 
                    10.20258, 
                    9.782
                ], 
                "angle": -22.5, 
                "axis": "z"
            }, 
            "from": [
                8.39991, 
                9.90084, 
                9.64
            ], 
            "faces": {
                "north": {
                    "uv": [
                        2.875, 
                        3, 
                        2.875, 
                        3.25
                    ], 
                    "texture": "#0"
                }, 
                "west": {
                    "rotation": 180, 
                    "uv": [
                        2.875, 
                        3, 
                        2.875, 
                        3.25
                    ], 
                    "texture": "#0"
                }, 
                "up": {
                    "rotation": 180, 
                    "uv": [
                        2.875, 
                        3, 
                        2.875, 
                        3.25
                    ], 
                    "texture": "#0"
                }, 
                "down": {
                    "rotation": 180, 
                    "uv": [
                        2.875, 
                        3, 
                        2.875, 
                        3.25
                    ], 
                    "texture": "#0"
                }, 
                "east": {
                    "rotation": 180, 
                    "uv": [
                        2.875, 
                        3, 
                        2.875, 
                        3.25
                    ], 
                    "texture": "#0"
                }, 
                "south": {
                    "rotation": 180, 
                    "uv": [
                        2.875, 
                        3, 
                        2.875, 
                        3.25
                    ], 
                    "texture": "#0"
                }
            }
        }, 
        {
            "to": [
                7.59892, 
                10.1143, 
                9.924
            ], 
            "rotation": {
                "origin": [
                    7.62749, 
                    10.08258, 
                    9.782
                ], 
                "angle": 22.5, 
                "axis": "z"
            }, 
            "from": [
                7.55092, 
                9.8743, 
                9.64
            ], 
            "faces": {
                "north": {
                    "rotation": 180, 
                    "uv": [
                        2.875, 
                        3, 
                        2.875, 
                        3.25
                    ], 
                    "texture": "#0"
                }, 
                "west": {
                    "uv": [
                        2.875, 
                        3, 
                        2.875, 
                        3.25
                    ], 
                    "texture": "#0"
                }, 
                "up": {
                    "uv": [
                        2.875, 
                        3, 
                        2.875, 
                        3.25
                    ], 
                    "texture": "#0"
                }, 
                "down": {
                    "uv": [
                        2.875, 
                        3, 
                        2.875, 
                        3.25
                    ], 
                    "texture": "#0"
                }, 
                "east": {
                    "uv": [
                        2.875, 
                        3, 
                        2.875, 
                        3.25
                    ], 
                    "texture": "#0"
                }, 
                "south": {
                    "uv": [
                        2.875, 
                        3, 
                        2.875, 
                        3.25
                    ], 
                    "texture": "#0"
                }
            }
        }, 
        {
            "to": [
                8.44791, 
                10.50433, 
                9.924
            ], 
            "rotation": {
                "origin": [
                    8.2834, 
                    10.20258, 
                    9.782
                ], 
                "angle": 22.5, 
                "axis": "z"
            }, 
            "from": [
                8.39991, 
                10.26433, 
                9.64
            ], 
            "faces": {
                "north": {
                    "uv": [
                        2.875, 
                        3, 
                        2.875, 
                        3.25
                    ], 
                    "texture": "#0"
                }, 
                "west": {
                    "rotation": 180, 
                    "uv": [
                        2.875, 
                        3, 
                        2.875, 
                        3.25
                    ], 
                    "texture": "#0"
                }, 
                "up": {
                    "rotation": 180, 
                    "uv": [
                        2.875, 
                        3, 
                        2.875, 
                        3.25
                    ], 
                    "texture": "#0"
                }, 
                "down": {
                    "rotation": 180, 
                    "uv": [
                        2.875, 
                        3, 
                        2.875, 
                        3.25
                    ], 
                    "texture": "#0"
                }, 
                "east": {
                    "rotation": 180, 
                    "uv": [
                        2.875, 
                        3, 
                        2.875, 
                        3.25
                    ], 
                    "texture": "#0"
                }, 
                "south": {
                    "rotation": 180, 
                    "uv": [
                        2.875, 
                        3, 
                        2.875, 
                        3.25
                    ], 
                    "texture": "#0"
                }
            }
        }, 
        {
            "to": [
                8.2888, 
                9.76292, 
                11.588
            ], 
            "rotation": {
                "origin": [
                    7.9638, 
                    9.91359, 
                    11.046
                ], 
                "angle": 0, 
                "axis": "y"
            }, 
            "from": [
                7.6648, 
                9.57092, 
                9.576
            ], 
            "faces": {
                "north": {
                    "rotation": 270, 
                    "uv": [
                        1.625, 
                        0.875, 
                        1.625, 
                        0.875
                    ], 
                    "texture": "#0"
                }, 
                "west": {
                    "rotation": 270, 
                    "uv": [
                        1.625, 
                        0.875, 
                        1.625, 
                        0.875
                    ], 
                    "texture": "#0"
                }, 
                "up": {
                    "rotation": 270, 
                    "uv": [
                        1.625, 
                        0.875, 
                        1.625, 
                        0.875
                    ], 
                    "texture": "#0"
                }, 
                "down": {
                    "rotation": 270, 
                    "uv": [
                        1.625, 
                        0.875, 
                        1.625, 
                        0.875
                    ], 
                    "texture": "#0"
                }, 
                "east": {
                    "rotation": 270, 
                    "uv": [
                        1.625, 
                        0.875, 
                        1.625, 
                        0.875
                    ], 
                    "texture": "#0"
                }, 
                "south": {
                    "rotation": 270, 
                    "uv": [
                        1.625, 
                        0.875, 
                        1.625, 
                        0.875
                    ], 
                    "texture": "#0"
                }
            }
        }
    ], 
    "display": {
        "thirdperson_righthand": {
            "rotation": [
                -4, 
                -1, 
                6
            ], 
            "scale": [
                0.88, 
                0.88, 
                0.88
            ], 
            "translation": [
                -2, 
                -0.75, 
                -3.5
            ]
        }, 
        "head": {
            "rotation": [
                0, 
                91, 
                90
            ], 
            "scale": [
                1.61, 
                1.5, 
                1.28
            ], 
            "translation": [
                -2, 
                7, 
                0
            ]
        }, 
        "thirdperson_lefthand": {
            "rotation": [
                -4, 
                -1, 
                6
            ], 
            "scale": [
                0.88, 
                0.88, 
                0.88
            ], 
            "translation": [
                -2, 
                -0.75, 
                -3.5
            ]
        }, 
        "gui": {
            "rotation": [
                27, 
                38, 
                -14
            ], 
            "scale": [
                1.11, 
                1.14, 
                0.77
            ], 
            "translation": [
                0, 
                3, 
                1.75
            ]
        }, 
        "firstperson_righthand": {
            "rotation": [
                1, 
                0, 
                0
            ], 
            "scale": [
                1.36, 
                1.36, 
                0.89
            ], 
            "translation": [
                -4.25, 
                5, 
                0.25
            ]
        }, 
        "firstperson_lefthand": {
            "rotation": [
                1, 
                0, 
                0
            ], 
            "scale": [
                1.36, 
                1.36, 
                0.89
            ], 
            "translation": [
                -4.25, 
                5, 
                0.25
            ]
        }, 
        "fixed": {
            "rotation": [
                0, 
                91, 
                0
            ], 
            "scale": [
                0.9, 
                1.28, 
                0.97
            ], 
            "translation": [
                2, 
                -0.25, 
                -1
            ]
        }, 
        "ground": {
            "scale": [
                1, 
                0.99, 
                0.54
            ]
        }
    }
}