{
    "textures": {
        "0": "gci:items/common/all_in_one", 
        "2": "gci:items/common/mpz", 
        "particle": "gci:items/common/all_in_one"
    }, 
    "elements": [
        {
            "to": [
                7.66439, 
                8.27186, 
                -4.812
            ], 
            "rotation": {
                "origin": [
                    7.60239, 
                    8.14786, 
                    -20.87
                ], 
                "angle": 0, 
                "axis": "y"
            }, 
            "from": [
                7.54039, 
                8.02386, 
                -5.556
            ], 
            "faces": {
                "north": {
                    "uv": [
                        14.375, 
                        6.75, 
                        14.625, 
                        6.825
                    ], 
                    "texture": "#0"
                }, 
                "west": {
                    "uv": [
                        14.375, 
                        6.75, 
                        14.625, 
                        6.825
                    ], 
                    "texture": "#0"
                }, 
                "up": {
                    "uv": [
                        14.375, 
                        6.75, 
                        14.625, 
                        6.825
                    ], 
                    "texture": "#0"
                }, 
                "down": {
                    "uv": [
                        14.375, 
                        6.75, 
                        14.625, 
                        6.825
                    ], 
                    "texture": "#0"
                }, 
                "east": {
                    "uv": [
                        14.375, 
                        6.75, 
                        14.625, 
                        6.825
                    ], 
                    "texture": "#0"
                }, 
                "south": {
                    "uv": [
                        14.375, 
                        6.75, 
                        14.625, 
                        6.825
                    ], 
                    "texture": "#0"
                }
            }
        }, 
        {
            "to": [
                7.93198, 
                7.5904, 
                -4.812
            ], 
            "rotation": {
                "origin": [
                    7.15095, 
                    7.48412, 
                    -14.97151
                ], 
                "angle": 45, 
                "axis": "z"
            }, 
            "from": [
                7.80798, 
                7.2184, 
                -5.556
            ], 
            "faces": {
                "north": {
                    "rotation": 180, 
                    "uv": [
                        14.375, 
                        6.75, 
                        14.625, 
                        6.825
                    ], 
                    "texture": "#0"
                }, 
                "west": {
                    "rotation": 180, 
                    "uv": [
                        14.375, 
                        6.75, 
                        14.625, 
                        6.825
                    ], 
                    "texture": "#0"
                }, 
                "up": {
                    "rotation": 180, 
                    "uv": [
                        14.375, 
                        6.75, 
                        14.625, 
                        6.825
                    ], 
                    "texture": "#0"
                }, 
                "down": {
                    "rotation": 180, 
                    "uv": [
                        14.375, 
                        6.75, 
                        14.625, 
                        6.825
                    ], 
                    "texture": "#0"
                }, 
                "east": {
                    "rotation": 180, 
                    "uv": [
                        14.375, 
                        6.75, 
                        14.625, 
                        6.825
                    ], 
                    "texture": "#0"
                }, 
                "south": {
                    "rotation": 180, 
                    "uv": [
                        14.375, 
                        6.75, 
                        14.625, 
                        6.825
                    ], 
                    "texture": "#0"
                }
            }
        }, 
        {
            "to": [
                8.12572, 
                7.88482, 
                -4.812
            ], 
            "rotation": {
                "origin": [
                    7.6068, 
                    7.70946, 
                    -36.68
                ], 
                "angle": 0, 
                "axis": "y"
            }, 
            "from": [
                7.80344, 
                7.76082, 
                -5.556
            ], 
            "faces": {
                "north": {
                    "rotation": 270, 
                    "uv": [
                        14.375, 
                        6.75, 
                        14.625, 
                        6.825
                    ], 
                    "texture": "#0"
                }, 
                "west": {
                    "rotation": 270, 
                    "uv": [
                        14.375, 
                        6.75, 
                        14.625, 
                        6.825
                    ], 
                    "texture": "#0"
                }, 
                "up": {
                    "rotation": 270, 
                    "uv": [
                        14.375, 
                        6.75, 
                        14.625, 
                        6.825
                    ], 
                    "texture": "#0"
                }, 
                "down": {
                    "rotation": 270, 
                    "uv": [
                        14.375, 
                        6.75, 
                        14.625, 
                        6.825
                    ], 
                    "texture": "#0"
                }, 
                "east": {
                    "rotation": 270, 
                    "uv": [
                        14.375, 
                        6.75, 
                        14.625, 
                        6.825
                    ], 
                    "texture": "#0"
                }, 
                "south": {
                    "rotation": 270, 
                    "uv": [
                        14.375, 
                        6.75, 
                        14.625, 
                        6.825
                    ], 
                    "texture": "#0"
                }
            }
        }, 
        {
            "to": [
                8.41592, 
                7.95434, 
                -4.812
            ], 
            "rotation": {
                "origin": [
                    8.16792, 
                    7.89234, 
                    -20.87
                ], 
                "angle": 45, 
                "axis": "z"
            }, 
            "from": [
                8.04392, 
                7.83034, 
                -5.556
            ], 
            "faces": {
                "north": {
                    "rotation": 90, 
                    "uv": [
                        14.375, 
                        6.75, 
                        14.625, 
                        6.825
                    ], 
                    "texture": "#0"
                }, 
                "west": {
                    "rotation": 90, 
                    "uv": [
                        14.375, 
                        6.75, 
                        14.625, 
                        6.825
                    ], 
                    "texture": "#0"
                }, 
                "up": {
                    "rotation": 90, 
                    "uv": [
                        14.375, 
                        6.75, 
                        14.625, 
                        6.825
                    ], 
                    "texture": "#0"
                }, 
                "down": {
                    "rotation": 90, 
                    "uv": [
                        14.375, 
                        6.75, 
                        14.625, 
                        6.825
                    ], 
                    "texture": "#0"
                }, 
                "east": {
                    "rotation": 90, 
                    "uv": [
                        14.375, 
                        6.75, 
                        14.625, 
                        6.825
                    ], 
                    "texture": "#0"
                }, 
                "south": {
                    "rotation": 90, 
                    "uv": [
                        14.375, 
                        6.75, 
                        14.625, 
                        6.825
                    ], 
                    "texture": "#0"
                }
            }
        }, 
        {
            "to": [
                8.38712, 
                8.27186, 
                -4.812
            ], 
            "rotation": {
                "origin": [
                    8.32512, 
                    8.14786, 
                    -20.87
                ], 
                "angle": 0, 
                "axis": "y"
            }, 
            "from": [
                8.26312, 
                8.02386, 
                -5.556
            ], 
            "faces": {
                "north": {
                    "uv": [
                        14.375, 
                        6.75, 
                        14.625, 
                        6.825
                    ], 
                    "texture": "#0"
                }, 
                "west": {
                    "uv": [
                        14.375, 
                        6.75, 
                        14.625, 
                        6.825
                    ], 
                    "texture": "#0"
                }, 
                "up": {
                    "uv": [
                        14.375, 
                        6.75, 
                        14.625, 
                        6.825
                    ], 
                    "texture": "#0"
                }, 
                "down": {
                    "uv": [
                        14.375, 
                        6.75, 
                        14.625, 
                        6.825
                    ], 
                    "texture": "#0"
                }, 
                "east": {
                    "uv": [
                        14.375, 
                        6.75, 
                        14.625, 
                        6.825
                    ], 
                    "texture": "#0"
                }, 
                "south": {
                    "uv": [
                        14.375, 
                        6.75, 
                        14.625, 
                        6.825
                    ], 
                    "texture": "#0"
                }
            }
        }, 
        {
            "to": [
                8.42798, 
                8.01377, 
                -4.812
            ], 
            "rotation": {
                "origin": [
                    7.64695, 
                    7.90749, 
                    -20.79951
                ], 
                "angle": 45, 
                "axis": "z"
            }, 
            "from": [
                8.30398, 
                7.64177, 
                -5.556
            ], 
            "faces": {
                "north": {
                    "rotation": 180, 
                    "uv": [
                        14.375, 
                        6.75, 
                        14.625, 
                        6.825
                    ], 
                    "texture": "#0"
                }, 
                "west": {
                    "rotation": 180, 
                    "uv": [
                        14.375, 
                        6.75, 
                        14.625, 
                        6.825
                    ], 
                    "texture": "#0"
                }, 
                "up": {
                    "rotation": 180, 
                    "uv": [
                        14.375, 
                        6.75, 
                        14.625, 
                        6.825
                    ], 
                    "texture": "#0"
                }, 
                "down": {
                    "rotation": 180, 
                    "uv": [
                        14.375, 
                        6.75, 
                        14.625, 
                        6.825
                    ], 
                    "texture": "#0"
                }, 
                "east": {
                    "rotation": 180, 
                    "uv": [
                        14.375, 
                        6.75, 
                        14.625, 
                        6.825
                    ], 
                    "texture": "#0"
                }, 
                "south": {
                    "rotation": 180, 
                    "uv": [
                        14.375, 
                        6.75, 
                        14.625, 
                        6.825
                    ], 
                    "texture": "#0"
                }
            }
        }, 
        {
            "to": [
                8.12572, 
                8.53491, 
                -4.812
            ], 
            "rotation": {
                "origin": [
                    7.6068, 
                    8.35955, 
                    -36.68
                ], 
                "angle": 0, 
                "axis": "y"
            }, 
            "from": [
                7.80344, 
                8.41091, 
                -5.556
            ], 
            "faces": {
                "north": {
                    "rotation": 270, 
                    "uv": [
                        14.375, 
                        6.75, 
                        14.625, 
                        6.825
                    ], 
                    "texture": "#0"
                }, 
                "west": {
                    "rotation": 270, 
                    "uv": [
                        14.375, 
                        6.75, 
                        14.625, 
                        6.825
                    ], 
                    "texture": "#0"
                }, 
                "up": {
                    "rotation": 270, 
                    "uv": [
                        14.375, 
                        6.75, 
                        14.625, 
                        6.825
                    ], 
                    "texture": "#0"
                }, 
                "down": {
                    "rotation": 270, 
                    "uv": [
                        14.375, 
                        6.75, 
                        14.625, 
                        6.825
                    ], 
                    "texture": "#0"
                }, 
                "east": {
                    "rotation": 270, 
                    "uv": [
                        14.375, 
                        6.75, 
                        14.625, 
                        6.825
                    ], 
                    "texture": "#0"
                }, 
                "south": {
                    "rotation": 270, 
                    "uv": [
                        14.375, 
                        6.75, 
                        14.625, 
                        6.825
                    ], 
                    "texture": "#0"
                }
            }
        }, 
        {
            "to": [
                11.21334, 
                1.25483, 
                -4.456
            ], 
            "rotation": {
                "origin": [
                    11.01334, 
                    1.15483, 
                    -5.156
                ], 
                "angle": 0, 
                "axis": "y"
            }, 
            "from": [
                10.81334, 
                1.05483, 
                -5.856
            ], 
            "faces": {
                "north": {
                    "rotation": 90, 
                    "uv": [
                        14.375, 
                        6.75, 
                        14.625, 
                        6.825
                    ], 
                    "texture": "#0"
                }, 
                "west": {
                    "rotation": 90, 
                    "uv": [
                        14.375, 
                        6.75, 
                        14.625, 
                        6.825
                    ], 
                    "texture": "#0"
                }, 
                "up": {
                    "rotation": 90, 
                    "uv": [
                        14.375, 
                        6.75, 
                        14.625, 
                        6.825
                    ], 
                    "texture": "#0"
                }, 
                "down": {
                    "rotation": 90, 
                    "uv": [
                        14.375, 
                        6.75, 
                        14.625, 
                        6.825
                    ], 
                    "texture": "#0"
                }, 
                "east": {
                    "rotation": 90, 
                    "uv": [
                        14.375, 
                        6.75, 
                        14.625, 
                        6.825
                    ], 
                    "texture": "#0"
                }, 
                "south": {
                    "rotation": 90, 
                    "uv": [
                        14.375, 
                        6.75, 
                        14.625, 
                        6.825
                    ], 
                    "texture": "#0"
                }
            }
        }, 
        {
            "to": [
                6.47537, 
                8.21202, 
                -4.956
            ], 
            "rotation": {
                "origin": [
                    6.37537, 
                    4.71202, 
                    -5.156
                ], 
                "angle": -22.5, 
                "axis": "z"
            }, 
            "from": [
                6.27537, 
                0.76802, 
                -5.356
            ], 
            "faces": {
                "north": {
                    "rotation": 90, 
                    "uv": [
                        14.375, 
                        6.75, 
                        14.625, 
                        6.825
                    ], 
                    "texture": "#0"
                }, 
                "west": {
                    "rotation": 90, 
                    "uv": [
                        14.375, 
                        6.75, 
                        14.625, 
                        6.825
                    ], 
                    "texture": "#0"
                }, 
                "up": {
                    "rotation": 90, 
                    "uv": [
                        14.375, 
                        6.75, 
                        14.625, 
                        6.825
                    ], 
                    "texture": "#0"
                }, 
                "down": {
                    "rotation": 90, 
                    "uv": [
                        14.375, 
                        6.75, 
                        14.625, 
                        6.825
                    ], 
                    "texture": "#0"
                }, 
                "east": {
                    "rotation": 90, 
                    "uv": [
                        14.375, 
                        6.75, 
                        14.625, 
                        6.825
                    ], 
                    "texture": "#0"
                }, 
                "south": {
                    "rotation": 90, 
                    "uv": [
                        14.375, 
                        6.75, 
                        14.625, 
                        6.825
                    ], 
                    "texture": "#0"
                }
            }
        }, 
        {
            "to": [
                5.05025, 
                1.09483, 
                -4.556
            ], 
            "rotation": {
                "origin": [
                    4.85025, 
                    0.99483, 
                    -5.156
                ], 
                "angle": 0, 
                "axis": "y"
            }, 
            "from": [
                4.65025, 
                0.89483, 
                -5.756
            ], 
            "faces": {
                "north": {
                    "rotation": 90, 
                    "uv": [
                        14.375, 
                        6.75, 
                        14.625, 
                        6.825
                    ], 
                    "texture": "#0"
                }, 
                "west": {
                    "rotation": 90, 
                    "uv": [
                        14.375, 
                        6.75, 
                        14.625, 
                        6.825
                    ], 
                    "texture": "#0"
                }, 
                "up": {
                    "rotation": 90, 
                    "uv": [
                        14.375, 
                        6.75, 
                        14.625, 
                        6.825
                    ], 
                    "texture": "#0"
                }, 
                "down": {
                    "rotation": 90, 
                    "uv": [
                        14.375, 
                        6.75, 
                        14.625, 
                        6.825
                    ], 
                    "texture": "#0"
                }, 
                "east": {
                    "rotation": 90, 
                    "uv": [
                        14.375, 
                        6.75, 
                        14.625, 
                        6.825
                    ], 
                    "texture": "#0"
                }, 
                "south": {
                    "rotation": 90, 
                    "uv": [
                        14.375, 
                        6.75, 
                        14.625, 
                        6.825
                    ], 
                    "texture": "#0"
                }
            }
        }, 
        {
            "to": [
                7.91992, 
                8.37771, 
                -4.812
            ], 
            "rotation": {
                "origin": [
                    7.67192, 
                    8.31571, 
                    -20.87
                ], 
                "angle": 45, 
                "axis": "z"
            }, 
            "from": [
                7.54792, 
                8.25371, 
                -5.556
            ], 
            "faces": {
                "north": {
                    "rotation": 90, 
                    "uv": [
                        14.375, 
                        6.75, 
                        14.625, 
                        6.825
                    ], 
                    "texture": "#0"
                }, 
                "west": {
                    "rotation": 90, 
                    "uv": [
                        14.375, 
                        6.75, 
                        14.625, 
                        6.825
                    ], 
                    "texture": "#0"
                }, 
                "up": {
                    "rotation": 90, 
                    "uv": [
                        14.375, 
                        6.75, 
                        14.625, 
                        6.825
                    ], 
                    "texture": "#0"
                }, 
                "down": {
                    "rotation": 90, 
                    "uv": [
                        14.375, 
                        6.75, 
                        14.625, 
                        6.825
                    ], 
                    "texture": "#0"
                }, 
                "east": {
                    "rotation": 90, 
                    "uv": [
                        14.375, 
                        6.75, 
                        14.625, 
                        6.825
                    ], 
                    "texture": "#0"
                }, 
                "south": {
                    "rotation": 90, 
                    "uv": [
                        14.375, 
                        6.75, 
                        14.625, 
                        6.825
                    ], 
                    "texture": "#0"
                }
            }
        }, 
        {
            "to": [
                7.66439, 
                8.27186, 
                -4.812
            ], 
            "rotation": {
                "origin": [
                    7.60239, 
                    8.14786, 
                    -20.87
                ], 
                "angle": 0, 
                "axis": "y"
            }, 
            "from": [
                7.54039, 
                8.02386, 
                -5.556
            ], 
            "faces": {
                "north": {
                    "uv": [
                        14.375, 
                        6.75, 
                        14.625, 
                        6.825
                    ], 
                    "texture": "#0"
                }, 
                "west": {
                    "uv": [
                        14.375, 
                        6.75, 
                        14.625, 
                        6.825
                    ], 
                    "texture": "#0"
                }, 
                "up": {
                    "uv": [
                        14.375, 
                        6.75, 
                        14.625, 
                        6.825
                    ], 
                    "texture": "#0"
                }, 
                "down": {
                    "uv": [
                        14.375, 
                        6.75, 
                        14.625, 
                        6.825
                    ], 
                    "texture": "#0"
                }, 
                "east": {
                    "uv": [
                        14.375, 
                        6.75, 
                        14.625, 
                        6.825
                    ], 
                    "texture": "#0"
                }, 
                "south": {
                    "uv": [
                        14.375, 
                        6.75, 
                        14.625, 
                        6.825
                    ], 
                    "texture": "#0"
                }
            }
        }, 
        {
            "to": [
                7.93198, 
                7.5904, 
                -4.812
            ], 
            "rotation": {
                "origin": [
                    7.15095, 
                    7.48412, 
                    -14.97151
                ], 
                "angle": 45, 
                "axis": "z"
            }, 
            "from": [
                7.80798, 
                7.2184, 
                -5.556
            ], 
            "faces": {
                "north": {
                    "rotation": 180, 
                    "uv": [
                        14.375, 
                        6.75, 
                        14.625, 
                        6.825
                    ], 
                    "texture": "#0"
                }, 
                "west": {
                    "rotation": 180, 
                    "uv": [
                        14.375, 
                        6.75, 
                        14.625, 
                        6.825
                    ], 
                    "texture": "#0"
                }, 
                "up": {
                    "rotation": 180, 
                    "uv": [
                        14.375, 
                        6.75, 
                        14.625, 
                        6.825
                    ], 
                    "texture": "#0"
                }, 
                "down": {
                    "rotation": 180, 
                    "uv": [
                        14.375, 
                        6.75, 
                        14.625, 
                        6.825
                    ], 
                    "texture": "#0"
                }, 
                "east": {
                    "rotation": 180, 
                    "uv": [
                        14.375, 
                        6.75, 
                        14.625, 
                        6.825
                    ], 
                    "texture": "#0"
                }, 
                "south": {
                    "rotation": 180, 
                    "uv": [
                        14.375, 
                        6.75, 
                        14.625, 
                        6.825
                    ], 
                    "texture": "#0"
                }
            }
        }, 
        {
            "to": [
                8.12572, 
                7.88482, 
                -4.812
            ], 
            "rotation": {
                "origin": [
                    7.6068, 
                    7.70946, 
                    -36.68
                ], 
                "angle": 0, 
                "axis": "y"
            }, 
            "from": [
                7.80344, 
                7.76082, 
                -5.556
            ], 
            "faces": {
                "north": {
                    "rotation": 270, 
                    "uv": [
                        14.375, 
                        6.75, 
                        14.625, 
                        6.825
                    ], 
                    "texture": "#0"
                }, 
                "west": {
                    "rotation": 270, 
                    "uv": [
                        14.375, 
                        6.75, 
                        14.625, 
                        6.825
                    ], 
                    "texture": "#0"
                }, 
                "up": {
                    "rotation": 270, 
                    "uv": [
                        14.375, 
                        6.75, 
                        14.625, 
                        6.825
                    ], 
                    "texture": "#0"
                }, 
                "down": {
                    "rotation": 270, 
                    "uv": [
                        14.375, 
                        6.75, 
                        14.625, 
                        6.825
                    ], 
                    "texture": "#0"
                }, 
                "east": {
                    "rotation": 270, 
                    "uv": [
                        14.375, 
                        6.75, 
                        14.625, 
                        6.825
                    ], 
                    "texture": "#0"
                }, 
                "south": {
                    "rotation": 270, 
                    "uv": [
                        14.375, 
                        6.75, 
                        14.625, 
                        6.825
                    ], 
                    "texture": "#0"
                }
            }
        }, 
        {
            "to": [
                8.41592, 
                7.95434, 
                -4.812
            ], 
            "rotation": {
                "origin": [
                    8.16792, 
                    7.89234, 
                    -20.87
                ], 
                "angle": 45, 
                "axis": "z"
            }, 
            "from": [
                8.04392, 
                7.83034, 
                -5.556
            ], 
            "faces": {
                "north": {
                    "rotation": 90, 
                    "uv": [
                        14.375, 
                        6.75, 
                        14.625, 
                        6.825
                    ], 
                    "texture": "#0"
                }, 
                "west": {
                    "rotation": 90, 
                    "uv": [
                        14.375, 
                        6.75, 
                        14.625, 
                        6.825
                    ], 
                    "texture": "#0"
                }, 
                "up": {
                    "rotation": 90, 
                    "uv": [
                        14.375, 
                        6.75, 
                        14.625, 
                        6.825
                    ], 
                    "texture": "#0"
                }, 
                "down": {
                    "rotation": 90, 
                    "uv": [
                        14.375, 
                        6.75, 
                        14.625, 
                        6.825
                    ], 
                    "texture": "#0"
                }, 
                "east": {
                    "rotation": 90, 
                    "uv": [
                        14.375, 
                        6.75, 
                        14.625, 
                        6.825
                    ], 
                    "texture": "#0"
                }, 
                "south": {
                    "rotation": 90, 
                    "uv": [
                        14.375, 
                        6.75, 
                        14.625, 
                        6.825
                    ], 
                    "texture": "#0"
                }
            }
        }, 
        {
            "to": [
                8.38712, 
                8.27186, 
                -4.812
            ], 
            "rotation": {
                "origin": [
                    8.32512, 
                    8.14786, 
                    -20.87
                ], 
                "angle": 0, 
                "axis": "y"
            }, 
            "from": [
                8.26312, 
                8.02386, 
                -5.556
            ], 
            "faces": {
                "north": {
                    "uv": [
                        14.375, 
                        6.75, 
                        14.625, 
                        6.825
                    ], 
                    "texture": "#0"
                }, 
                "west": {
                    "uv": [
                        14.375, 
                        6.75, 
                        14.625, 
                        6.825
                    ], 
                    "texture": "#0"
                }, 
                "up": {
                    "uv": [
                        14.375, 
                        6.75, 
                        14.625, 
                        6.825
                    ], 
                    "texture": "#0"
                }, 
                "down": {
                    "uv": [
                        14.375, 
                        6.75, 
                        14.625, 
                        6.825
                    ], 
                    "texture": "#0"
                }, 
                "east": {
                    "uv": [
                        14.375, 
                        6.75, 
                        14.625, 
                        6.825
                    ], 
                    "texture": "#0"
                }, 
                "south": {
                    "uv": [
                        14.375, 
                        6.75, 
                        14.625, 
                        6.825
                    ], 
                    "texture": "#0"
                }
            }
        }, 
        {
            "to": [
                8.42798, 
                8.01377, 
                -4.812
            ], 
            "rotation": {
                "origin": [
                    7.64695, 
                    7.90749, 
                    -20.79951
                ], 
                "angle": 45, 
                "axis": "z"
            }, 
            "from": [
                8.30398, 
                7.64177, 
                -5.556
            ], 
            "faces": {
                "north": {
                    "rotation": 180, 
                    "uv": [
                        14.375, 
                        6.75, 
                        14.625, 
                        6.825
                    ], 
                    "texture": "#0"
                }, 
                "west": {
                    "rotation": 180, 
                    "uv": [
                        14.375, 
                        6.75, 
                        14.625, 
                        6.825
                    ], 
                    "texture": "#0"
                }, 
                "up": {
                    "rotation": 180, 
                    "uv": [
                        14.375, 
                        6.75, 
                        14.625, 
                        6.825
                    ], 
                    "texture": "#0"
                }, 
                "down": {
                    "rotation": 180, 
                    "uv": [
                        14.375, 
                        6.75, 
                        14.625, 
                        6.825
                    ], 
                    "texture": "#0"
                }, 
                "east": {
                    "rotation": 180, 
                    "uv": [
                        14.375, 
                        6.75, 
                        14.625, 
                        6.825
                    ], 
                    "texture": "#0"
                }, 
                "south": {
                    "rotation": 180, 
                    "uv": [
                        14.375, 
                        6.75, 
                        14.625, 
                        6.825
                    ], 
                    "texture": "#0"
                }
            }
        }, 
        {
            "to": [
                8.12572, 
                8.53491, 
                -4.812
            ], 
            "rotation": {
                "origin": [
                    7.6068, 
                    8.35955, 
                    -36.68
                ], 
                "angle": 0, 
                "axis": "y"
            }, 
            "from": [
                7.80344, 
                8.41091, 
                -5.556
            ], 
            "faces": {
                "north": {
                    "rotation": 270, 
                    "uv": [
                        14.375, 
                        6.75, 
                        14.625, 
                        6.825
                    ], 
                    "texture": "#0"
                }, 
                "west": {
                    "rotation": 270, 
                    "uv": [
                        14.375, 
                        6.75, 
                        14.625, 
                        6.825
                    ], 
                    "texture": "#0"
                }, 
                "up": {
                    "rotation": 270, 
                    "uv": [
                        14.375, 
                        6.75, 
                        14.625, 
                        6.825
                    ], 
                    "texture": "#0"
                }, 
                "down": {
                    "rotation": 270, 
                    "uv": [
                        14.375, 
                        6.75, 
                        14.625, 
                        6.825
                    ], 
                    "texture": "#0"
                }, 
                "east": {
                    "rotation": 270, 
                    "uv": [
                        14.375, 
                        6.75, 
                        14.625, 
                        6.825
                    ], 
                    "texture": "#0"
                }, 
                "south": {
                    "rotation": 270, 
                    "uv": [
                        14.375, 
                        6.75, 
                        14.625, 
                        6.825
                    ], 
                    "texture": "#0"
                }
            }
        }, 
        {
            "to": [
                8.37784, 
                7.91875, 
                -4.956
            ], 
            "rotation": {
                "origin": [
                    8.17784, 
                    7.76875, 
                    -17.806
                ], 
                "angle": 22.5, 
                "axis": "z"
            }, 
            "from": [
                8.17784, 
                0.47475, 
                -5.356
            ], 
            "faces": {
                "north": {
                    "rotation": 90, 
                    "uv": [
                        14.375, 
                        6.75, 
                        14.625, 
                        6.825
                    ], 
                    "texture": "#0"
                }, 
                "west": {
                    "rotation": 90, 
                    "uv": [
                        14.375, 
                        6.75, 
                        14.625, 
                        6.825
                    ], 
                    "texture": "#0"
                }, 
                "up": {
                    "rotation": 90, 
                    "uv": [
                        14.375, 
                        6.75, 
                        14.625, 
                        6.825
                    ], 
                    "texture": "#0"
                }, 
                "down": {
                    "rotation": 90, 
                    "uv": [
                        14.375, 
                        6.75, 
                        14.625, 
                        6.825
                    ], 
                    "texture": "#0"
                }, 
                "east": {
                    "rotation": 90, 
                    "uv": [
                        14.375, 
                        6.75, 
                        14.625, 
                        6.825
                    ], 
                    "texture": "#0"
                }, 
                "south": {
                    "rotation": 90, 
                    "uv": [
                        14.375, 
                        6.75, 
                        14.625, 
                        6.825
                    ], 
                    "texture": "#0"
                }
            }
        }, 
        {
            "to": [
                11.21334, 
                1.25483, 
                -4.456
            ], 
            "rotation": {
                "origin": [
                    11.01334, 
                    1.15483, 
                    -5.156
                ], 
                "angle": 0, 
                "axis": "y"
            }, 
            "from": [
                10.81334, 
                1.05483, 
                -5.856
            ], 
            "faces": {
                "north": {
                    "rotation": 90, 
                    "uv": [
                        14.375, 
                        6.75, 
                        14.625, 
                        6.825
                    ], 
                    "texture": "#0"
                }, 
                "west": {
                    "rotation": 90, 
                    "uv": [
                        14.375, 
                        6.75, 
                        14.625, 
                        6.825
                    ], 
                    "texture": "#0"
                }, 
                "up": {
                    "rotation": 90, 
                    "uv": [
                        14.375, 
                        6.75, 
                        14.625, 
                        6.825
                    ], 
                    "texture": "#0"
                }, 
                "down": {
                    "rotation": 90, 
                    "uv": [
                        14.375, 
                        6.75, 
                        14.625, 
                        6.825
                    ], 
                    "texture": "#0"
                }, 
                "east": {
                    "rotation": 90, 
                    "uv": [
                        14.375, 
                        6.75, 
                        14.625, 
                        6.825
                    ], 
                    "texture": "#0"
                }, 
                "south": {
                    "rotation": 90, 
                    "uv": [
                        14.375, 
                        6.75, 
                        14.625, 
                        6.825
                    ], 
                    "texture": "#0"
                }
            }
        }, 
        {
            "to": [
                6.47537, 
                8.21202, 
                -4.956
            ], 
            "rotation": {
                "origin": [
                    6.37537, 
                    4.71202, 
                    -5.156
                ], 
                "angle": -22.5, 
                "axis": "z"
            }, 
            "from": [
                6.27537, 
                0.76802, 
                -5.356
            ], 
            "faces": {
                "north": {
                    "rotation": 90, 
                    "uv": [
                        14.375, 
                        6.75, 
                        14.625, 
                        6.825
                    ], 
                    "texture": "#0"
                }, 
                "west": {
                    "rotation": 90, 
                    "uv": [
                        14.375, 
                        6.75, 
                        14.625, 
                        6.825
                    ], 
                    "texture": "#0"
                }, 
                "up": {
                    "rotation": 90, 
                    "uv": [
                        14.375, 
                        6.75, 
                        14.625, 
                        6.825
                    ], 
                    "texture": "#0"
                }, 
                "down": {
                    "rotation": 90, 
                    "uv": [
                        14.375, 
                        6.75, 
                        14.625, 
                        6.825
                    ], 
                    "texture": "#0"
                }, 
                "east": {
                    "rotation": 90, 
                    "uv": [
                        14.375, 
                        6.75, 
                        14.625, 
                        6.825
                    ], 
                    "texture": "#0"
                }, 
                "south": {
                    "rotation": 90, 
                    "uv": [
                        14.375, 
                        6.75, 
                        14.625, 
                        6.825
                    ], 
                    "texture": "#0"
                }
            }
        }, 
        {
            "to": [
                5.05025, 
                1.09483, 
                -4.556
            ], 
            "rotation": {
                "origin": [
                    4.85025, 
                    0.99483, 
                    -5.156
                ], 
                "angle": 0, 
                "axis": "y"
            }, 
            "from": [
                4.65025, 
                0.89483, 
                -5.756
            ], 
            "faces": {
                "north": {
                    "rotation": 90, 
                    "uv": [
                        14.375, 
                        6.75, 
                        14.625, 
                        6.825
                    ], 
                    "texture": "#0"
                }, 
                "west": {
                    "rotation": 90, 
                    "uv": [
                        14.375, 
                        6.75, 
                        14.625, 
                        6.825
                    ], 
                    "texture": "#0"
                }, 
                "up": {
                    "rotation": 90, 
                    "uv": [
                        14.375, 
                        6.75, 
                        14.625, 
                        6.825
                    ], 
                    "texture": "#0"
                }, 
                "down": {
                    "rotation": 90, 
                    "uv": [
                        14.375, 
                        6.75, 
                        14.625, 
                        6.825
                    ], 
                    "texture": "#0"
                }, 
                "east": {
                    "rotation": 90, 
                    "uv": [
                        14.375, 
                        6.75, 
                        14.625, 
                        6.825
                    ], 
                    "texture": "#0"
                }, 
                "south": {
                    "rotation": 90, 
                    "uv": [
                        14.375, 
                        6.75, 
                        14.625, 
                        6.825
                    ], 
                    "texture": "#0"
                }
            }
        }
    ], 
    "display": {
        "thirdperson_righthand": {
            "rotation": [
                -4, 
                -1, 
                6
            ], 
            "scale": [
                0.88, 
                0.88, 
                0.88
            ], 
            "translation": [
                -2, 
                -0.75, 
                -3.5
            ]
        }, 
        "head": {
            "rotation": [
                0, 
                91, 
                90
            ], 
            "scale": [
                1.61, 
                1.5, 
                1.28
            ], 
            "translation": [
                -2, 
                7, 
                0
            ]
        }, 
        "thirdperson_lefthand": {
            "rotation": [
                -4, 
                -1, 
                6
            ], 
            "scale": [
                0.88, 
                0.88, 
                0.88
            ], 
            "translation": [
                -2, 
                -0.75, 
                -3.5
            ]
        }, 
        "gui": {
            "rotation": [
                27, 
                38, 
                -14
            ], 
            "scale": [
                1.11, 
                1.14, 
                0.77
            ], 
            "translation": [
                0, 
                3, 
                1.75
            ]
        }, 
        "firstperson_righthand": {
            "rotation": [
                1, 
                0, 
                0
            ], 
            "scale": [
                1.36, 
                1.36, 
                0.89
            ], 
            "translation": [
                -4.25, 
                5, 
                0.25
            ]
        }, 
        "firstperson_lefthand": {
            "rotation": [
                1, 
                0, 
                0
            ], 
            "scale": [
                1.36, 
                1.36, 
                0.89
            ], 
            "translation": [
                -4.25, 
                5, 
                0.25
            ]
        }, 
        "fixed": {
            "rotation": [
                0, 
                91, 
                0
            ], 
            "scale": [
                0.9, 
                1.28, 
                0.97
            ], 
            "translation": [
                2, 
                -0.25, 
                -1
            ]
        }, 
        "ground": {
            "scale": [
                1, 
                0.99, 
                0.54
            ]
        }
    }
}