{
    "textures": {
        "0": "gci:items/common/mpz",
        "1": "gci:items/common/all_in_one",
        "particle": "gci:items/common/mpz"
    },
    "elements": [
        {
            "from": [
                7.71912,
                5.02951,
                9.05505
            ],
            "to": [
                8.3159,
                5.85445,
                9.48541
            ],
            "rotation": {
                "angle": 0,
                "axis": "y",
                "origin": [
                    8.27524,
                    5.68959,
                    -13.57451
                ]
            },
            "faces": {
                "north": {
                    "uv": [
                        1.25,
                        1.125,
                        1.375,
                        1.125
                    ],
                    "rotation": 270,
                    "texture": "#1"
                },
                "east": {
                    "uv": [
                        1.25,
                        1.125,
                        1.375,
                        1.125
                    ],
                    "rotation": 270,
                    "texture": "#1"
                },
                "south": {
                    "uv": [
                        1.25,
                        1.125,
                        1.375,
                        1.125
                    ],
                    "rotation": 270,
                    "texture": "#1"
                },
                "west": {
                    "uv": [
                        1.25,
                        1.125,
                        1.375,
                        1.125
                    ],
                    "rotation": 270,
                    "texture": "#1"
                },
                "up": {
                    "uv": [
                        1.25,
                        1.125,
                        1.375,
                        1.125
                    ],
                    "rotation": 270,
                    "texture": "#1"
                },
                "down": {
                    "uv": [
                        1.25,
                        1.125,
                        1.375,
                        1.125
                    ],
                    "rotation": 270,
                    "texture": "#1"
                }
            }
        },
        {
            "from": [
                8.31194,
                4.98506,
                8.93683
            ],
            "to": [
                8.69524,
                5.8989,
                9.31297
            ],
            "rotation": {
                "angle": 0,
                "axis": "y",
                "origin": [
                    8.69426,
                    5.68959,
                    32.32206
                ]
            },
            "faces": {
                "north": {
                    "uv": [
                        4.375,
                        3.625,
                        4.375,
                        3.625
                    ],
                    "rotation": 270,
                    "texture": "#1"
                },
                "east": {
                    "uv": [
                        4.375,
                        3.625,
                        4.375,
                        3.625
                    ],
                    "rotation": 270,
                    "texture": "#1"
                },
                "south": {
                    "uv": [
                        4.375,
                        3.625,
                        4.375,
                        3.625
                    ],
                    "rotation": 270,
                    "texture": "#1"
                },
                "west": {
                    "uv": [
                        4.375,
                        3.625,
                        4.375,
                        3.625
                    ],
                    "rotation": 270,
                    "texture": "#1"
                },
                "up": {
                    "uv": [
                        4.375,
                        3.625,
                        4.375,
                        3.625
                    ],
                    "rotation": 270,
                    "texture": "#1"
                },
                "down": {
                    "uv": [
                        4.375,
                        3.625,
                        4.375,
                        3.625
                    ],
                    "rotation": 270,
                    "texture": "#1"
                }
            }
        },
        {
            "from": [
                8.42304,
                4.94062,
                8.93683
            ],
            "to": [
                8.58414,
                5.94334,
                9.31297
            ],
            "rotation": {
                "angle": 0,
                "axis": "y",
                "origin": [
                    8.69426,
                    5.68959,
                    32.32206
                ]
            },
            "faces": {
                "north": {
                    "uv": [
                        4.375,
                        3.625,
                        4.375,
                        3.625
                    ],
                    "rotation": 270,
                    "texture": "#1"
                },
                "east": {
                    "uv": [
                        4.375,
                        3.625,
                        4.375,
                        3.625
                    ],
                    "rotation": 270,
                    "texture": "#1"
                },
                "south": {
                    "uv": [
                        4.375,
                        3.625,
                        4.375,
                        3.625
                    ],
                    "rotation": 270,
                    "texture": "#1"
                },
                "west": {
                    "uv": [
                        4.375,
                        3.625,
                        4.375,
                        3.625
                    ],
                    "rotation": 270,
                    "texture": "#1"
                },
                "up": {
                    "uv": [
                        4.375,
                        3.625,
                        4.375,
                        3.625
                    ],
                    "rotation": 270,
                    "texture": "#1"
                },
                "down": {
                    "uv": [
                        4.375,
                        3.625,
                        4.375,
                        3.625
                    ],
                    "rotation": 270,
                    "texture": "#1"
                }
            }
        },
        {
            "from": [
                8.44165,
                5.08297,
                4.52876
            ],
            "to": [
                8.56525,
                6.08568,
                5.01334
            ],
            "rotation": {
                "angle": 0,
                "axis": "y",
                "origin": [
                    8.67536,
                    5.83194,
                    28.02243
                ]
            },
            "faces": {
                "north": {
                    "uv": [
                        4.25,
                        2.125,
                        4.25,
                        2.125
                    ],
                    "rotation": 270,
                    "texture": "#1"
                },
                "east": {
                    "uv": [
                        4.25,
                        2.125,
                        4.25,
                        2.125
                    ],
                    "rotation": 270,
                    "texture": "#1"
                },
                "south": {
                    "uv": [
                        4.25,
                        2.125,
                        4.25,
                        2.125
                    ],
                    "rotation": 270,
                    "texture": "#1"
                },
                "west": {
                    "uv": [
                        4.25,
                        2.125,
                        4.25,
                        2.125
                    ],
                    "rotation": 270,
                    "texture": "#1"
                },
                "up": {
                    "uv": [
                        4.25,
                        2.125,
                        4.25,
                        2.125
                    ],
                    "rotation": 270,
                    "texture": "#1"
                },
                "down": {
                    "uv": [
                        4.25,
                        2.125,
                        4.25,
                        2.125
                    ],
                    "rotation": 270,
                    "texture": "#1"
                }
            }
        },
        {
            "from": [
                8.44165,
                5.79403,
                4.3661
            ],
            "to": [
                8.56525,
                5.91764,
                4.82358
            ],
            "rotation": {
                "angle": 45,
                "axis": "z",
                "origin": [
                    8.50345,
                    5.85584,
                    4.58129
                ]
            },
            "faces": {
                "north": {
                    "uv": [
                        13.875,
                        4.75,
                        13.875,
                        5
                    ],
                    "rotation": 270,
                    "texture": "#1"
                },
                "east": {
                    "uv": [
                        13.875,
                        4.75,
                        13.875,
                        5
                    ],
                    "rotation": 270,
                    "texture": "#1"
                },
                "south": {
                    "uv": [
                        13.875,
                        4.75,
                        13.875,
                        5
                    ],
                    "rotation": 270,
                    "texture": "#1"
                },
                "west": {
                    "uv": [
                        13.875,
                        4.75,
                        13.875,
                        5
                    ],
                    "rotation": 270,
                    "texture": "#1"
                },
                "up": {
                    "uv": [
                        13.875,
                        5,
                        13.875,
                        4.75
                    ],
                    "rotation": 270,
                    "texture": "#1"
                },
                "down": {
                    "uv": [
                        13.875,
                        5,
                        13.875,
                        4.75
                    ],
                    "rotation": 270,
                    "texture": "#1"
                }
            }
        },
        {
            "from": [
                8.44165,
                4.1497,
                4.3661
            ],
            "to": [
                8.56525,
                4.2733,
                4.74225
            ],
            "rotation": {
                "angle": 45,
                "axis": "z",
                "origin": [
                    8.50345,
                    4.2115,
                    4.58129
                ]
            },
            "faces": {
                "north": {
                    "uv": [
                        13.875,
                        4.75,
                        13.875,
                        5
                    ],
                    "rotation": 270,
                    "texture": "#1"
                },
                "east": {
                    "uv": [
                        13.875,
                        4.75,
                        13.875,
                        5
                    ],
                    "rotation": 270,
                    "texture": "#1"
                },
                "south": {
                    "uv": [
                        13.875,
                        4.75,
                        13.875,
                        5
                    ],
                    "rotation": 270,
                    "texture": "#1"
                },
                "west": {
                    "uv": [
                        13.875,
                        4.75,
                        13.875,
                        5
                    ],
                    "rotation": 270,
                    "texture": "#1"
                },
                "up": {
                    "uv": [
                        13.875,
                        5,
                        13.875,
                        4.75
                    ],
                    "rotation": 270,
                    "texture": "#1"
                },
                "down": {
                    "uv": [
                        13.875,
                        5,
                        13.875,
                        4.75
                    ],
                    "rotation": 270,
                    "texture": "#1"
                }
            }
        },
        {
            "from": [
                8.50437,
                5.32572,
                8.93683
            ],
            "to": [
                8.62103,
                5.95068,
                9.31297
            ],
            "rotation": {
                "angle": 22.5,
                "axis": "z",
                "origin": [
                    8.54048,
                    5.44932,
                    9.1249
                ]
            },
            "faces": {
                "north": {
                    "uv": [
                        4.375,
                        3.625,
                        4.375,
                        3.625
                    ],
                    "rotation": 270,
                    "texture": "#1"
                },
                "east": {
                    "uv": [
                        4.375,
                        3.625,
                        4.375,
                        3.625
                    ],
                    "rotation": 270,
                    "texture": "#1"
                },
                "south": {
                    "uv": [
                        4.375,
                        3.625,
                        4.375,
                        3.625
                    ],
                    "rotation": 270,
                    "texture": "#1"
                },
                "west": {
                    "uv": [
                        4.375,
                        3.625,
                        4.375,
                        3.625
                    ],
                    "rotation": 270,
                    "texture": "#1"
                },
                "up": {
                    "uv": [
                        4.375,
                        3.625,
                        4.375,
                        3.625
                    ],
                    "rotation": 270,
                    "texture": "#1"
                },
                "down": {
                    "uv": [
                        4.375,
                        3.625,
                        4.375,
                        3.625
                    ],
                    "rotation": 270,
                    "texture": "#1"
                }
            }
        },
        {
            "from": [
                8.52327,
                5.55695,
                4.52876
            ],
            "to": [
                8.63993,
                6.09302,
                5.01334
            ],
            "rotation": {
                "angle": 22.5,
                "axis": "z",
                "origin": [
                    8.55938,
                    5.59167,
                    4.82527
                ]
            },
            "faces": {
                "north": {
                    "uv": [
                        4.25,
                        2.125,
                        4.25,
                        2.125
                    ],
                    "rotation": 270,
                    "texture": "#1"
                },
                "east": {
                    "uv": [
                        4.25,
                        2.125,
                        4.25,
                        2.125
                    ],
                    "rotation": 270,
                    "texture": "#1"
                },
                "south": {
                    "uv": [
                        4.25,
                        2.125,
                        4.25,
                        2.125
                    ],
                    "rotation": 270,
                    "texture": "#1"
                },
                "west": {
                    "uv": [
                        4.25,
                        2.125,
                        4.25,
                        2.125
                    ],
                    "rotation": 270,
                    "texture": "#1"
                },
                "up": {
                    "uv": [
                        4.25,
                        2.125,
                        4.25,
                        2.125
                    ],
                    "rotation": 270,
                    "texture": "#1"
                },
                "down": {
                    "uv": [
                        4.25,
                        2.125,
                        4.25,
                        2.125
                    ],
                    "rotation": 270,
                    "texture": "#1"
                }
            }
        },
        {
            "from": [
                8.46231,
                4.93327,
                8.93683
            ],
            "to": [
                8.57897,
                5.55823,
                9.31297
            ],
            "rotation": {
                "angle": 22.5,
                "axis": "z",
                "origin": [
                    8.50691,
                    5.25144,
                    9.1249
                ]
            },
            "faces": {
                "north": {
                    "uv": [
                        4.375,
                        3.625,
                        4.375,
                        3.625
                    ],
                    "rotation": 90,
                    "texture": "#1"
                },
                "east": {
                    "uv": [
                        4.375,
                        3.625,
                        4.375,
                        3.625
                    ],
                    "rotation": 90,
                    "texture": "#1"
                },
                "south": {
                    "uv": [
                        4.375,
                        3.625,
                        4.375,
                        3.625
                    ],
                    "rotation": 90,
                    "texture": "#1"
                },
                "west": {
                    "uv": [
                        4.375,
                        3.625,
                        4.375,
                        3.625
                    ],
                    "rotation": 90,
                    "texture": "#1"
                },
                "up": {
                    "uv": [
                        4.375,
                        3.625,
                        4.375,
                        3.625
                    ],
                    "rotation": 90,
                    "texture": "#1"
                },
                "down": {
                    "uv": [
                        4.375,
                        3.625,
                        4.375,
                        3.625
                    ],
                    "rotation": 90,
                    "texture": "#1"
                }
            }
        },
        {
            "from": [
                8.38952,
                5.34272,
                8.93683
            ],
            "to": [
                8.50618,
                5.96768,
                9.31297
            ],
            "rotation": {
                "angle": -22.5,
                "axis": "z",
                "origin": [
                    8.42563,
                    5.46633,
                    9.1249
                ]
            },
            "faces": {
                "north": {
                    "uv": [
                        4.375,
                        3.625,
                        4.375,
                        3.625
                    ],
                    "rotation": 270,
                    "texture": "#1"
                },
                "east": {
                    "uv": [
                        4.375,
                        3.625,
                        4.375,
                        3.625
                    ],
                    "rotation": 270,
                    "texture": "#1"
                },
                "south": {
                    "uv": [
                        4.375,
                        3.625,
                        4.375,
                        3.625
                    ],
                    "rotation": 270,
                    "texture": "#1"
                },
                "west": {
                    "uv": [
                        4.375,
                        3.625,
                        4.375,
                        3.625
                    ],
                    "rotation": 270,
                    "texture": "#1"
                },
                "up": {
                    "uv": [
                        4.375,
                        3.625,
                        4.375,
                        3.625
                    ],
                    "rotation": 270,
                    "texture": "#1"
                },
                "down": {
                    "uv": [
                        4.375,
                        3.625,
                        4.375,
                        3.625
                    ],
                    "rotation": 270,
                    "texture": "#1"
                }
            }
        },
        {
            "from": [
                8.37063,
                5.55173,
                4.52876
            ],
            "to": [
                8.48729,
                6.11003,
                5.01334
            ],
            "rotation": {
                "angle": -22.5,
                "axis": "z",
                "origin": [
                    8.40674,
                    5.60867,
                    4.82527
                ]
            },
            "faces": {
                "north": {
                    "uv": [
                        4.25,
                        2.125,
                        4.25,
                        2.125
                    ],
                    "rotation": 270,
                    "texture": "#1"
                },
                "east": {
                    "uv": [
                        4.25,
                        2.125,
                        4.25,
                        2.125
                    ],
                    "rotation": 270,
                    "texture": "#1"
                },
                "south": {
                    "uv": [
                        4.25,
                        2.125,
                        4.25,
                        2.125
                    ],
                    "rotation": 270,
                    "texture": "#1"
                },
                "west": {
                    "uv": [
                        4.25,
                        2.125,
                        4.25,
                        2.125
                    ],
                    "rotation": 270,
                    "texture": "#1"
                },
                "up": {
                    "uv": [
                        4.25,
                        2.125,
                        4.25,
                        2.125
                    ],
                    "rotation": 270,
                    "texture": "#1"
                },
                "down": {
                    "uv": [
                        4.25,
                        2.125,
                        4.25,
                        2.125
                    ],
                    "rotation": 270,
                    "texture": "#1"
                }
            }
        },
        {
            "from": [
                8.43486,
                4.93327,
                8.93683
            ],
            "to": [
                8.55152,
                5.55823,
                9.31297
            ],
            "rotation": {
                "angle": -22.5,
                "axis": "z",
                "origin": [
                    8.50691,
                    5.25144,
                    9.1249
                ]
            },
            "faces": {
                "north": {
                    "uv": [
                        4.375,
                        3.625,
                        4.375,
                        3.625
                    ],
                    "rotation": 90,
                    "texture": "#1"
                },
                "east": {
                    "uv": [
                        4.375,
                        3.625,
                        4.375,
                        3.625
                    ],
                    "rotation": 90,
                    "texture": "#1"
                },
                "south": {
                    "uv": [
                        4.375,
                        3.625,
                        4.375,
                        3.625
                    ],
                    "rotation": 90,
                    "texture": "#1"
                },
                "west": {
                    "uv": [
                        4.375,
                        3.625,
                        4.375,
                        3.625
                    ],
                    "rotation": 90,
                    "texture": "#1"
                },
                "up": {
                    "uv": [
                        4.375,
                        3.625,
                        4.375,
                        3.625
                    ],
                    "rotation": 90,
                    "texture": "#1"
                },
                "down": {
                    "uv": [
                        4.375,
                        3.625,
                        4.375,
                        3.625
                    ],
                    "rotation": 90,
                    "texture": "#1"
                }
            }
        },
        {
            "from": [
                8.3786,
                5.65169,
                4.57222
            ],
            "to": [
                8.62858,
                5.85445,
                8.93344
            ],
            "rotation": {
                "angle": 0,
                "axis": "y",
                "origin": [
                    8.69426,
                    5.68959,
                    31.50877
                ]
            },
            "faces": {
                "north": {
                    "uv": [
                        4.25,
                        3.5,
                        4.25,
                        3.5
                    ],
                    "rotation": 270,
                    "texture": "#1"
                },
                "east": {
                    "uv": [
                        4.25,
                        3.5,
                        4.25,
                        3.5
                    ],
                    "rotation": 270,
                    "texture": "#1"
                },
                "south": {
                    "uv": [
                        4.25,
                        3.5,
                        4.25,
                        3.5
                    ],
                    "rotation": 270,
                    "texture": "#1"
                },
                "west": {
                    "uv": [
                        4.25,
                        3.5,
                        4.25,
                        3.5
                    ],
                    "rotation": 270,
                    "texture": "#1"
                },
                "up": {
                    "uv": [
                        4.25,
                        3.5,
                        4.25,
                        3.5
                    ],
                    "rotation": 270,
                    "texture": "#1"
                },
                "down": {
                    "uv": [
                        4.25,
                        3.5,
                        4.25,
                        3.5
                    ],
                    "rotation": 270,
                    "texture": "#1"
                }
            }
        },
        {
            "from": [
                8.33416,
                4.39392,
                4.50166
            ],
            "to": [
                8.67302,
                6.04104,
                5.01334
            ],
            "rotation": {
                "angle": 0,
                "axis": "y",
                "origin": [
                    8.69426,
                    5.69841,
                    31.51954
                ]
            },
            "faces": {
                "north": {
                    "uv": [
                        4.25,
                        2.125,
                        4.25,
                        2.125
                    ],
                    "rotation": 270,
                    "texture": "#1"
                },
                "east": {
                    "uv": [
                        4.25,
                        2.125,
                        4.25,
                        2.125
                    ],
                    "rotation": 270,
                    "texture": "#1"
                },
                "south": {
                    "uv": [
                        4.25,
                        2.125,
                        4.25,
                        2.125
                    ],
                    "rotation": 270,
                    "texture": "#1"
                },
                "west": {
                    "uv": [
                        4.25,
                        2.125,
                        4.25,
                        2.125
                    ],
                    "rotation": 270,
                    "texture": "#1"
                },
                "up": {
                    "uv": [
                        4.25,
                        2.125,
                        4.25,
                        2.125
                    ],
                    "rotation": 270,
                    "texture": "#1"
                },
                "down": {
                    "uv": [
                        4.25,
                        2.125,
                        4.25,
                        2.125
                    ],
                    "rotation": 270,
                    "texture": "#1"
                }
            }
        },
        {
            "from": [
                8.42304,
                4.3717,
                4.50166
            ],
            "to": [
                8.56192,
                5.86327,
                5.20311
            ],
            "rotation": {
                "angle": 0,
                "axis": "y",
                "origin": [
                    8.69426,
                    5.69841,
                    31.51954
                ]
            },
            "faces": {
                "north": {
                    "uv": [
                        4.25,
                        2.125,
                        4.25,
                        2.125
                    ],
                    "rotation": 270,
                    "texture": "#1"
                },
                "east": {
                    "uv": [
                        4.25,
                        2.125,
                        4.25,
                        2.125
                    ],
                    "rotation": 270,
                    "texture": "#1"
                },
                "south": {
                    "uv": [
                        4.25,
                        2.125,
                        4.25,
                        2.125
                    ],
                    "rotation": 270,
                    "texture": "#1"
                },
                "west": {
                    "uv": [
                        4.25,
                        2.125,
                        4.25,
                        2.125
                    ],
                    "rotation": 270,
                    "texture": "#1"
                },
                "up": {
                    "uv": [
                        4.25,
                        2.125,
                        4.25,
                        2.125
                    ],
                    "rotation": 270,
                    "texture": "#1"
                },
                "down": {
                    "uv": [
                        4.25,
                        2.125,
                        4.25,
                        2.125
                    ],
                    "rotation": 270,
                    "texture": "#1"
                }
            }
        },
        {
            "from": [
                8.42304,
                5.89986,
                4.94712
            ],
            "to": [
                8.56192,
                6.47483,
                5.2216
            ],
            "rotation": {
                "angle": 45,
                "axis": "x",
                "origin": [
                    8.49248,
                    6.18734,
                    4.31174
                ]
            },
            "faces": {
                "north": {
                    "uv": [
                        4.25,
                        2.125,
                        4.25,
                        2.125
                    ],
                    "texture": "#1"
                },
                "east": {
                    "uv": [
                        4.25,
                        2.125,
                        4.25,
                        2.125
                    ],
                    "texture": "#1"
                },
                "south": {
                    "uv": [
                        4.25,
                        2.125,
                        4.25,
                        2.125
                    ],
                    "texture": "#1"
                },
                "west": {
                    "uv": [
                        4.25,
                        2.125,
                        4.25,
                        2.125
                    ],
                    "texture": "#1"
                },
                "up": {
                    "uv": [
                        4.25,
                        2.125,
                        4.25,
                        2.125
                    ],
                    "texture": "#1"
                },
                "down": {
                    "uv": [
                        4.25,
                        2.125,
                        4.25,
                        2.125
                    ],
                    "texture": "#1"
                }
            }
        },
        {
            "from": [
                8.33416,
                4.02957,
                4.49089
            ],
            "to": [
                8.67302,
                6.01,
                4.78571
            ],
            "rotation": {
                "angle": 0,
                "axis": "y",
                "origin": [
                    8.69426,
                    5.68959,
                    31.50877
                ]
            },
            "faces": {
                "north": {
                    "uv": [
                        4.25,
                        2.125,
                        4.25,
                        2.125
                    ],
                    "rotation": 270,
                    "texture": "#1"
                },
                "east": {
                    "uv": [
                        4.25,
                        2.125,
                        4.25,
                        2.125
                    ],
                    "rotation": 270,
                    "texture": "#1"
                },
                "south": {
                    "uv": [
                        4.25,
                        2.125,
                        4.25,
                        2.125
                    ],
                    "rotation": 270,
                    "texture": "#1"
                },
                "west": {
                    "uv": [
                        4.25,
                        2.125,
                        4.25,
                        2.125
                    ],
                    "rotation": 270,
                    "texture": "#1"
                },
                "up": {
                    "uv": [
                        4.25,
                        2.125,
                        4.25,
                        2.125
                    ],
                    "rotation": 270,
                    "texture": "#1"
                },
                "down": {
                    "uv": [
                        4.25,
                        2.125,
                        4.25,
                        2.125
                    ],
                    "rotation": 270,
                    "texture": "#1"
                }
            }
        },
        {
            "from": [
                8.31194,
                3.98513,
                4.38245
            ],
            "to": [
                8.69524,
                6.09888,
                4.56883
            ],
            "rotation": {
                "angle": 0,
                "axis": "y",
                "origin": [
                    8.69426,
                    5.68959,
                    31.40034
                ]
            },
            "faces": {
                "north": {
                    "uv": [
                        3,
                        2.875,
                        3,
                        3.125
                    ],
                    "rotation": 270,
                    "texture": "#1"
                },
                "east": {
                    "uv": [
                        3,
                        2.875,
                        3,
                        3.125
                    ],
                    "rotation": 270,
                    "texture": "#1"
                },
                "south": {
                    "uv": [
                        3,
                        2.875,
                        3,
                        3.125
                    ],
                    "rotation": 270,
                    "texture": "#1"
                },
                "west": {
                    "uv": [
                        3,
                        2.875,
                        3,
                        3.125
                    ],
                    "rotation": 270,
                    "texture": "#1"
                },
                "up": {
                    "uv": [
                        3,
                        3.125,
                        3,
                        2.875
                    ],
                    "rotation": 270,
                    "texture": "#1"
                },
                "down": {
                    "uv": [
                        3,
                        3.125,
                        3,
                        2.875
                    ],
                    "rotation": 270,
                    "texture": "#1"
                }
            }
        },
        {
            "from": [
                8.33416,
                4.26307,
                4.65507
            ],
            "to": [
                8.67302,
                4.46584,
                4.977
            ],
            "rotation": {
                "angle": -45,
                "axis": "x",
                "origin": [
                    8.50359,
                    4.36446,
                    4.80248
                ]
            },
            "faces": {
                "north": {
                    "uv": [
                        4.25,
                        2.125,
                        4.25,
                        2.125
                    ],
                    "rotation": 270,
                    "texture": "#1"
                },
                "east": {
                    "uv": [
                        4.25,
                        2.125,
                        4.25,
                        2.125
                    ],
                    "rotation": 270,
                    "texture": "#1"
                },
                "south": {
                    "uv": [
                        4.25,
                        2.125,
                        4.25,
                        2.125
                    ],
                    "rotation": 270,
                    "texture": "#1"
                },
                "west": {
                    "uv": [
                        4.25,
                        2.125,
                        4.25,
                        2.125
                    ],
                    "rotation": 270,
                    "texture": "#1"
                },
                "up": {
                    "uv": [
                        4.25,
                        2.125,
                        4.25,
                        2.125
                    ],
                    "rotation": 270,
                    "texture": "#1"
                },
                "down": {
                    "uv": [
                        4.25,
                        2.125,
                        4.25,
                        2.125
                    ],
                    "rotation": 270,
                    "texture": "#1"
                }
            }
        },
        {
            "from": [
                8.42304,
                4.24085,
                4.57375
            ],
            "to": [
                8.56192,
                4.44362,
                5.16677
            ],
            "rotation": {
                "angle": -45,
                "axis": "x",
                "origin": [
                    8.39249,
                    4.34224,
                    4.99225
                ]
            },
            "faces": {
                "north": {
                    "uv": [
                        4.25,
                        2.125,
                        4.25,
                        2.125
                    ],
                    "rotation": 270,
                    "texture": "#1"
                },
                "east": {
                    "uv": [
                        4.25,
                        2.125,
                        4.25,
                        2.125
                    ],
                    "rotation": 270,
                    "texture": "#1"
                },
                "south": {
                    "uv": [
                        4.25,
                        2.125,
                        4.25,
                        2.125
                    ],
                    "rotation": 270,
                    "texture": "#1"
                },
                "west": {
                    "uv": [
                        4.25,
                        2.125,
                        4.25,
                        2.125
                    ],
                    "rotation": 270,
                    "texture": "#1"
                },
                "up": {
                    "uv": [
                        4.25,
                        2.125,
                        4.25,
                        2.125
                    ],
                    "rotation": 270,
                    "texture": "#1"
                },
                "down": {
                    "uv": [
                        4.25,
                        2.125,
                        4.25,
                        2.125
                    ],
                    "rotation": 270,
                    "texture": "#1"
                }
            }
        },
        {
            "from": [
                8.3786,
                5.0531,
                6.94134
            ],
            "to": [
                8.62858,
                5.25586,
                9.05248
            ],
            "rotation": {
                "angle": 0,
                "axis": "y",
                "origin": [
                    8.69426,
                    5.091,
                    32.52242
                ]
            },
            "faces": {
                "north": {
                    "uv": [
                        4.25,
                        3.5,
                        4.25,
                        3.5
                    ],
                    "rotation": 270,
                    "texture": "#1"
                },
                "east": {
                    "uv": [
                        4.25,
                        3.5,
                        4.25,
                        3.5
                    ],
                    "rotation": 270,
                    "texture": "#1"
                },
                "south": {
                    "uv": [
                        4.25,
                        3.5,
                        4.25,
                        3.5
                    ],
                    "rotation": 270,
                    "texture": "#1"
                },
                "west": {
                    "uv": [
                        4.25,
                        3.5,
                        4.25,
                        3.5
                    ],
                    "rotation": 270,
                    "texture": "#1"
                },
                "up": {
                    "uv": [
                        4.25,
                        3.5,
                        4.25,
                        3.5
                    ],
                    "rotation": 270,
                    "texture": "#1"
                },
                "down": {
                    "uv": [
                        4.25,
                        3.5,
                        4.25,
                        3.5
                    ],
                    "rotation": 270,
                    "texture": "#1"
                }
            }
        },
        {
            "from": [
                8.3786,
                4.88789,
                4.5184
            ],
            "to": [
                8.62858,
                5.09066,
                7.00907
            ],
            "rotation": {
                "angle": -22.5,
                "axis": "x",
                "origin": [
                    8.5147,
                    5.03372,
                    6.46857
                ]
            },
            "faces": {
                "north": {
                    "uv": [
                        4.25,
                        3.5,
                        4.25,
                        3.5
                    ],
                    "rotation": 270,
                    "texture": "#1"
                },
                "east": {
                    "uv": [
                        4.25,
                        3.5,
                        4.25,
                        3.5
                    ],
                    "rotation": 270,
                    "texture": "#1"
                },
                "south": {
                    "uv": [
                        4.25,
                        3.5,
                        4.25,
                        3.5
                    ],
                    "rotation": 270,
                    "texture": "#1"
                },
                "west": {
                    "uv": [
                        4.25,
                        3.5,
                        4.25,
                        3.5
                    ],
                    "rotation": 270,
                    "texture": "#1"
                },
                "up": {
                    "uv": [
                        4.25,
                        3.5,
                        4.25,
                        3.5
                    ],
                    "rotation": 270,
                    "texture": "#1"
                },
                "down": {
                    "uv": [
                        4.25,
                        3.5,
                        4.25,
                        3.5
                    ],
                    "rotation": 270,
                    "texture": "#1"
                }
            }
        }
    ],
    "display": {
        "thirdperson_righthand": {
            "translation": [
                -0.75,
                5,
                1.75
            ],
            "scale": [
                1.56,
                1.56,
                1.56
            ]
        },
        "thirdperson_lefthand": {
            "translation": [
                -0.75,
                4.75,
                1.75
            ],
            "scale": [
                1.56,
                1.56,
                1.56
            ]
        },
        "firstperson_righthand": {
            "translation": [
                -6.5,
                9.25,
                8.25
            ]
        },
        "firstperson_lefthand": {
            "translation": [
                -6.5,
                9.25,
                8.25
            ]
        },
        "ground": {
            "translation": [
                0,
                7,
                4
            ],
            "scale": [
                1.2,
                1.2,
                1.2
            ]
        },
        "gui": {
            "rotation": [
                19,
                28,
                -15
            ],
            "translation": [
                2.5,
                7.25,
                0
            ],
            "scale": [
                2.3,
                2.3,
                2.3
            ]
        },
        "head": {
            "rotation": [
                0,
                0,
                50
            ],
            "translation": [
                -5,
                13.25,
                5.5
            ],
            "scale": [
                2,
                2,
                2
            ]
        },
        "fixed": {
            "rotation": [
                90,
                45,
                -90
            ],
            "translation": [
                6.5,
                2,
                -1.75
            ],
            "scale": [
                1.85,
                1.85,
                1.85
            ]
        }
    }
}