{
    "textures": {
        "0": "gci:items/common/mpz",
        "1": "gci:items/common/all_in_one",
        "particle": "gci:items/common/mpz"
    },
    "elements": [
        {
            "from": [
                7.8323,
                1.935,
                8.07451
            ],
            "to": [
                8.17286,
                3.64,
                8.84451
            ],
            "rotation": {
                "angle": -22.5,
                "axis": "x",
                "origin": [
                    8.00217,
                    2.7875,
                    8.42651
                ]
            },
            "faces": {
                "north": {
                    "uv": [
                        5.66667,
                        0.33333,
                        7.682,
                        2.349
                    ],
                    "texture": "#0"
                },
                "east": {
                    "uv": [
                        5.66667,
                        0.33333,
                        7.682,
                        2.349
                    ],
                    "texture": "#0"
                },
                "south": {
                    "uv": [
                        5.66667,
                        0.33333,
                        7.682,
                        2.349
                    ],
                    "texture": "#0"
                },
                "west": {
                    "uv": [
                        5.66667,
                        0.33333,
                        7.682,
                        2.349
                    ],
                    "texture": "#0"
                },
                "up": {
                    "uv": [
                        5.66667,
                        0.33333,
                        7.682,
                        2.349
                    ],
                    "rotation": 270,
                    "texture": "#0"
                },
                "down": {
                    "uv": [
                        5.66667,
                        0.33333,
                        7.682,
                        2.349
                    ],
                    "rotation": 90,
                    "texture": "#0"
                }
            }
        },
        {
            "from": [
                7.79074,
                1.935,
                7.98651
            ],
            "to": [
                8.2136,
                1.99,
                8.86651
            ],
            "rotation": {
                "angle": -22.5,
                "axis": "x",
                "origin": [
                    8.00217,
                    2.7875,
                    8.42651
                ]
            },
            "faces": {
                "north": {
                    "uv": [
                        0.66667,
                        0.66667,
                        2.01533,
                        2.01533
                    ],
                    "texture": "#0"
                },
                "east": {
                    "uv": [
                        0.66667,
                        0.66667,
                        2.01533,
                        2.01533
                    ],
                    "texture": "#0"
                },
                "south": {
                    "uv": [
                        0.66667,
                        0.66667,
                        2.01533,
                        2.01533
                    ],
                    "texture": "#0"
                },
                "west": {
                    "uv": [
                        0.66667,
                        0.66667,
                        2.01533,
                        2.01533
                    ],
                    "texture": "#0"
                },
                "up": {
                    "uv": [
                        0.66667,
                        0.66667,
                        2.01533,
                        2.01533
                    ],
                    "rotation": 270,
                    "texture": "#0"
                },
                "down": {
                    "uv": [
                        0.66667,
                        0.66667,
                        2.01533,
                        2.01533
                    ],
                    "rotation": 90,
                    "texture": "#0"
                }
            }
        }
    ],
    "display": {
        "thirdperson_righthand": {
            "translation": [
                -1.25,
                6,
                1
            ],
            "scale": [
                1.5,
                1.5,
                1.5
            ]
        },
        "thirdperson_lefthand": {
            "translation": [
                0,
                6,
                1.75
            ],
            "scale": [
                1.5,
                1.5,
                1.5
            ]
        },
        "firstperson_righthand": {
            "translation": [
                0,
                8.5,
                2.75
            ],
            "scale": [
                1.5,
                1.5,
                1.5
            ]
        },
        "firstperson_lefthand": {
            "translation": [
                0,
                8.5,
                2.75
            ],
            "scale": [
                1.5,
                1.5,
                1.5
            ]
        },
        "ground": {
            "translation": [
                -2,
                7.75,
                0
            ],
            "scale": [
                2,
                2,
                2
            ]
        },
        "gui": {
            "rotation": [
                30,
                42,
                -34
            ],
            "translation": [
                3.5,
                6.5,
                0
            ],
            "scale": [
                1.59,
                1.61,
                1.62
            ]
        },
        "head": {
            "rotation": [
                0,
                0,
                -39
            ],
            "translation": [
                4.5,
                15,
                -3
            ],
            "scale": [
                2,
                2,
                2
            ]
        },
        "fixed": {
            "rotation": [
                90,
                45,
                -90
            ],
            "translation": [
                9.75,
                6.75,
                -1.25
            ],
            "scale": [
                2.65,
                2.65,
                2.65
            ]
        }
    }
}