{
	"credit": "Made with Blockbench",
	"textures": {
		"1": "gci:items/common/all_in_one",
		"particle": "gci:items/common/mpz2"
	},
	"elements": [
		{
			"from": [5.46706, 11.22512, 3.448],
			"to": [8.18606, 11.80912, 5.504],
			"rotation": {"angle": 0, "axis": "y", "origin": [16.37906, 4.06512, 4.056]},
			"faces": {
				"north": {"uv": [3.75, 2.625, 4.75, 3.5], "texture": "#1"},
				"east": {"uv": [7.25, 9.75, 7.875, 9.75], "rotation": 180, "texture": "#1"},
				"south": {"uv": [3.75, 2.625, 4.75, 3.5], "rotation": 180, "texture": "#1"},
				"west": {"uv": [3.75, 2.625, 4.75, 3.5], "rotation": 180, "texture": "#1"},
				"up": {"uv": [3.75, 2.625, 4.75, 3.5], "rotation": 180, "texture": "#1"},
				"down": {"uv": [3.75, 2.625, 4.75, 3.5], "rotation": 180, "texture": "#1"}
			}
		},
		{
			"from": [3.37294, 11.22698, 3.16599],
			"to": [5.96394, 11.80898, 5.06199],
			"rotation": {"angle": -22.5, "axis": "y", "origin": [4.60444, 11.51712, 4.03399]},
			"faces": {
				"north": {"uv": [3.75, 2.625, 4.75, 3.5], "texture": "#1"},
				"east": {"uv": [3.75, 2.625, 4.75, 3.5], "rotation": 180, "texture": "#1"},
				"south": {"uv": [3.75, 2.625, 4.75, 3.5], "rotation": 180, "texture": "#1"},
				"west": {"uv": [3.75, 2.625, 4.75, 3.5], "rotation": 180, "texture": "#1"},
				"up": {"uv": [3.75, 2.625, 4.75, 3.5], "rotation": 180, "texture": "#1"},
				"down": {"uv": [3.75, 2.625, 4.75, 3.5], "rotation": 180, "texture": "#1"}
			}
		}
	],
	"display": {
		"thirdperson_righthand": {
			"rotation": [3, 0, 13],
			"translation": [-1, -2.75, -4],
			"scale": [1.28, 1.08, 1.11]
		},
		"thirdperson_lefthand": {
			"rotation": [3, 0, 13],
			"translation": [-1.25, -3, -3.5],
			"scale": [1.28, 1, 1]
		},
		"firstperson_righthand": {
			"rotation": [1, 0, 9],
			"translation": [-4, -0.25, -0.25],
			"scale": [1.5, 1.47, 1.39]
		},
		"firstperson_lefthand": {
			"rotation": [1, 1, 9],
			"translation": [-4, -0.25, -0.25],
			"scale": [1.5, 1.47, 1.39]
		},
		"gui": {
			"rotation": [11, 16, -16],
			"translation": [0.5, -2.75, 0],
			"scale": [1.69, 1.5618, 1.53453]
		},
		"head": {
			"rotation": [0, -92.75, 90],
			"translation": [1, 6.5, 4.5],
			"scale": [1.74477, 1.60414, 1.67641]
		},
		"fixed": {
			"rotation": [0, -90, 0],
			"translation": [1, 0, -1.75],
			"scale": [1.58, 1.39, 1.28]
		}
	}
}