{
	"credit": "Made with Blockbench",
	"textures": {
		"1": "gci:items/common/all_in_one",
		"particle": "gci:items/common/mpz2"
	},
	"elements": [
		{
			"from": [7.96, 13.50692, 8.136],
			"to": [8.712, 13.95492, 9.092],
			"rotation": {"angle": 0, "axis": "y", "origin": [8.323, 13.81759, 8.774]},
			"faces": {
				"north": {"uv": [3, 3.125, 3, 3.125], "rotation": 270, "texture": "#1"},
				"east": {"uv": [3, 3.125, 3, 3.125], "rotation": 270, "texture": "#1"},
				"south": {"uv": [3, 3.125, 3, 3.125], "rotation": 270, "texture": "#1"},
				"west": {"uv": [3, 3.125, 3, 3.125], "rotation": 270, "texture": "#1"},
				"up": {"uv": [3, 3.125, 3, 3.125], "rotation": 270, "texture": "#1"},
				"down": {"uv": [3, 3.125, 3, 3.125], "rotation": 270, "texture": "#1"}
			}
		},
		{
			"from": [7.928, 13.60292, 8.68],
			"to": [8.744, 13.72692, 8.804],
			"rotation": {"angle": -45, "axis": "x", "origin": [8.336, 13.66492, 8.742]},
			"faces": {
				"north": {"uv": [1.5, 0.875, 1.5, 0.875], "rotation": 270, "texture": "#1"},
				"east": {"uv": [1.5, 0.875, 1.5, 0.875], "rotation": 270, "texture": "#1"},
				"south": {"uv": [1.5, 0.875, 1.5, 0.875], "rotation": 270, "texture": "#1"},
				"west": {"uv": [1.5, 0.875, 1.5, 0.875], "rotation": 270, "texture": "#1"},
				"up": {"uv": [1.5, 0.875, 1.5, 0.875], "rotation": 270, "texture": "#1"},
				"down": {"uv": [1.5, 0.875, 1.5, 0.875], "rotation": 270, "texture": "#1"}
			}
		},
		{
			"from": [7.928, 13.60292, 7.848],
			"to": [8.744, 13.72692, 7.972],
			"rotation": {"angle": -45, "axis": "x", "origin": [8.336, 13.66492, 7.91]},
			"faces": {
				"north": {"uv": [1.5, 0.875, 1.5, 0.875], "rotation": 270, "texture": "#1"},
				"east": {"uv": [1.5, 0.875, 1.5, 0.875], "rotation": 270, "texture": "#1"},
				"south": {"uv": [1.5, 0.875, 1.5, 0.875], "rotation": 270, "texture": "#1"},
				"west": {"uv": [1.5, 0.875, 1.5, 0.875], "rotation": 270, "texture": "#1"},
				"up": {"uv": [1.5, 0.875, 1.5, 0.875], "rotation": 270, "texture": "#1"},
				"down": {"uv": [1.5, 0.875, 1.5, 0.875], "rotation": 270, "texture": "#1"}
			}
		},
		{
			"from": [8.312, 14.17892, 8.616],
			"to": [8.36, 14.21092, 8.616],
			"rotation": {"angle": 0, "axis": "y", "origin": [8.323, 13.81759, 8.774]},
			"faces": {
				"north": {"uv": [8.75, 7, 8.75, 7], "rotation": 270, "texture": "#1"},
				"east": {"uv": [8.75, 7, 8.75, 7], "rotation": 270, "texture": "#1"},
				"south": {"uv": [8.75, 7, 8.75, 7], "rotation": 270, "texture": "#1"},
				"west": {"uv": [8.75, 7, 8.75, 7], "rotation": 270, "texture": "#1"},
				"up": {"uv": [8.75, 7, 8.75, 7], "rotation": 270, "texture": "#1"},
				"down": {"uv": [8.75, 7, 8.75, 7], "rotation": 270, "texture": "#1"}
			}
		},
		{
			"from": [7.96, 13.41092, 7.688],
			"to": [8.712, 13.69892, 9.092],
			"rotation": {"angle": 0, "axis": "y", "origin": [8.323, 13.81759, 8.774]},
			"faces": {
				"north": {"uv": [3, 3.125, 3, 3.125], "rotation": 270, "texture": "#1"},
				"east": {"uv": [3, 3.125, 3, 3.125], "rotation": 270, "texture": "#1"},
				"south": {"uv": [3, 3.125, 3, 3.125], "rotation": 270, "texture": "#1"},
				"west": {"uv": [3, 3.125, 3, 3.125], "rotation": 270, "texture": "#1"},
				"up": {"uv": [3, 3.125, 3, 3.125], "rotation": 270, "texture": "#1"},
				"down": {"uv": [3, 3.125, 3, 3.125], "rotation": 270, "texture": "#1"}
			}
		},
		{
			"from": [7.96, 13.50605, 7.67509],
			"to": [8.712, 13.69805, 9.07909],
			"rotation": {"angle": 0, "axis": "y", "origin": [8.323, 13.81672, 8.76109]},
			"faces": {
				"north": {"uv": [3, 3.125, 3, 3.125], "rotation": 270, "texture": "#1"},
				"east": {"uv": [3, 3.125, 3, 3.125], "rotation": 270, "texture": "#1"},
				"south": {"uv": [3, 3.125, 3, 3.125], "rotation": 270, "texture": "#1"},
				"west": {"uv": [3, 3.125, 3, 3.125], "rotation": 270, "texture": "#1"},
				"up": {"uv": [3, 3.125, 3, 3.125], "rotation": 270, "texture": "#1"},
				"down": {"uv": [3, 3.125, 3, 3.125], "rotation": 270, "texture": "#1"}
			}
		},
		{
			"from": [7.96, 13.92292, 8.296],
			"to": [8.072, 14.37092, 8.868],
			"rotation": {"angle": 0, "axis": "y", "origin": [8.323, 14.23359, 8.774]},
			"faces": {
				"north": {"uv": [3, 3.125, 3, 3.125], "rotation": 270, "texture": "#1"},
				"east": {"uv": [3, 3.125, 3, 3.125], "rotation": 270, "texture": "#1"},
				"south": {"uv": [3, 3.125, 3, 3.125], "rotation": 270, "texture": "#1"},
				"west": {"uv": [3, 3.125, 3, 3.125], "rotation": 270, "texture": "#1"},
				"up": {"uv": [3, 3.125, 3, 3.125], "rotation": 270, "texture": "#1"},
				"down": {"uv": [3, 3.125, 3, 3.125], "rotation": 270, "texture": "#1"}
			}
		},
		{
			"from": [7.96, 13.92292, 8.488],
			"to": [8.072, 14.43492, 8.772],
			"rotation": {"angle": 0, "axis": "y", "origin": [8.323, 14.23359, 8.774]},
			"faces": {
				"north": {"uv": [3, 3.125, 3, 3.125], "rotation": 270, "texture": "#1"},
				"east": {"uv": [3, 3.125, 3, 3.125], "rotation": 270, "texture": "#1"},
				"south": {"uv": [3, 3.125, 3, 3.125], "rotation": 270, "texture": "#1"},
				"west": {"uv": [3, 3.125, 3, 3.125], "rotation": 270, "texture": "#1"},
				"up": {"uv": [3, 3.125, 3, 3.125], "rotation": 270, "texture": "#1"},
				"down": {"uv": [3, 3.125, 3, 3.125], "rotation": 270, "texture": "#1"}
			}
		},
		{
			"from": [8.6, 13.92292, 8.488],
			"to": [8.712, 14.43492, 8.772],
			"rotation": {"angle": 0, "axis": "y", "origin": [8.963, 14.23359, 8.774]},
			"faces": {
				"north": {"uv": [3, 3.125, 3, 3.125], "rotation": 270, "texture": "#1"},
				"east": {"uv": [3, 3.125, 3, 3.125], "rotation": 270, "texture": "#1"},
				"south": {"uv": [3, 3.125, 3, 3.125], "rotation": 270, "texture": "#1"},
				"west": {"uv": [3, 3.125, 3, 3.125], "rotation": 270, "texture": "#1"},
				"up": {"uv": [3, 3.125, 3, 3.125], "rotation": 270, "texture": "#1"},
				"down": {"uv": [3, 3.125, 3, 3.125], "rotation": 270, "texture": "#1"}
			}
		},
		{
			"from": [7.96, 14.39318, 8.34498],
			"to": [8.072, 14.48918, 8.85298],
			"rotation": {"angle": 0, "axis": "y", "origin": [8.323, 14.22385, 8.75898]},
			"faces": {
				"north": {"uv": [3, 3.125, 3, 3.125], "rotation": 270, "texture": "#1"},
				"east": {"uv": [3, 3.125, 3, 3.125], "rotation": 270, "texture": "#1"},
				"south": {"uv": [3, 3.125, 3, 3.125], "rotation": 270, "texture": "#1"},
				"west": {"uv": [3, 3.125, 3, 3.125], "rotation": 270, "texture": "#1"},
				"up": {"uv": [3, 3.125, 3, 3.125], "rotation": 270, "texture": "#1"},
				"down": {"uv": [3, 3.125, 3, 3.125], "rotation": 270, "texture": "#1"}
			}
		},
		{
			"from": [8.09304, 14.44828, 8.34498],
			"to": [8.58004, 14.54428, 8.85298],
			"rotation": {"angle": 0, "axis": "y", "origin": [8.45604, 14.27895, 8.75898]},
			"faces": {
				"north": {"uv": [3, 3.125, 3, 3.125], "rotation": 270, "texture": "#1"},
				"east": {"uv": [3, 3.125, 3, 3.125], "rotation": 270, "texture": "#1"},
				"south": {"uv": [3, 3.125, 3, 3.125], "rotation": 270, "texture": "#1"},
				"west": {"uv": [3, 3.125, 3, 3.125], "rotation": 270, "texture": "#1"},
				"up": {"uv": [3, 3.125, 3, 3.125], "rotation": 270, "texture": "#1"},
				"down": {"uv": [3, 3.125, 3, 3.125], "rotation": 270, "texture": "#1"}
			}
		},
		{
			"from": [8.6, 14.39318, 8.34498],
			"to": [8.712, 14.48918, 8.85298],
			"rotation": {"angle": 0, "axis": "y", "origin": [8.963, 14.22385, 8.75898]},
			"faces": {
				"north": {"uv": [3, 3.125, 3, 3.125], "rotation": 270, "texture": "#1"},
				"east": {"uv": [3, 3.125, 3, 3.125], "rotation": 270, "texture": "#1"},
				"south": {"uv": [3, 3.125, 3, 3.125], "rotation": 270, "texture": "#1"},
				"west": {"uv": [3, 3.125, 3, 3.125], "rotation": 270, "texture": "#1"},
				"up": {"uv": [3, 3.125, 3, 3.125], "rotation": 270, "texture": "#1"},
				"down": {"uv": [3, 3.125, 3, 3.125], "rotation": 270, "texture": "#1"}
			}
		},
		{
			"from": [8.03391, 14.55229, 8.34498],
			"to": [8.17791, 14.64829, 8.85298],
			"rotation": {"angle": 22.5, "axis": "z", "origin": [8.39691, 14.38296, 8.75898]},
			"faces": {
				"north": {"uv": [3, 3.125, 3, 3.125], "rotation": 270, "texture": "#1"},
				"east": {"uv": [3, 3.125, 3, 3.125], "rotation": 270, "texture": "#1"},
				"south": {"uv": [3, 3.125, 3, 3.125], "rotation": 270, "texture": "#1"},
				"west": {"uv": [3, 3.125, 3, 3.125], "rotation": 270, "texture": "#1"},
				"up": {"uv": [3, 3.125, 3, 3.125], "rotation": 270, "texture": "#1"},
				"down": {"uv": [3, 3.125, 3, 3.125], "rotation": 270, "texture": "#1"}
			}
		},
		{
			"from": [8.55511, 14.42438, 8.34498],
			"to": [8.69911, 14.52038, 8.85298],
			"rotation": {"angle": -22.5, "axis": "z", "origin": [8.62711, 14.47238, 8.59898]},
			"faces": {
				"north": {"uv": [3, 3.125, 3, 3.125], "rotation": 270, "texture": "#1"},
				"east": {"uv": [3, 3.125, 3, 3.125], "rotation": 270, "texture": "#1"},
				"south": {"uv": [3, 3.125, 3, 3.125], "rotation": 270, "texture": "#1"},
				"west": {"uv": [3, 3.125, 3, 3.125], "rotation": 270, "texture": "#1"},
				"up": {"uv": [3, 3.125, 3, 3.125], "rotation": 270, "texture": "#1"},
				"down": {"uv": [3, 3.125, 3, 3.125], "rotation": 270, "texture": "#1"}
			}
		},
		{
			"from": [8.6, 13.78275, 8.61338],
			"to": [8.712, 14.41875, 9.06138],
			"rotation": {"angle": -22.5, "axis": "x", "origin": [8.963, 13.87675, 8.92405]},
			"faces": {
				"north": {"uv": [3, 3.125, 3, 3.125], "rotation": 90, "texture": "#1"},
				"east": {"uv": [3, 3.125, 3, 3.125], "rotation": 180, "texture": "#1"},
				"south": {"uv": [3, 3.125, 3, 3.125], "rotation": 270, "texture": "#1"},
				"west": {"uv": [3, 3.125, 3, 3.125], "texture": "#1"},
				"up": {"uv": [3, 3.125, 3, 3.125], "rotation": 90, "texture": "#1"},
				"down": {"uv": [3, 3.125, 3, 3.125], "rotation": 270, "texture": "#1"}
			}
		},
		{
			"from": [7.96, 13.78275, 8.61338],
			"to": [8.072, 14.41875, 9.06138],
			"rotation": {"angle": -22.5, "axis": "x", "origin": [8.323, 13.87675, 8.92405]},
			"faces": {
				"north": {"uv": [3, 3.125, 3, 3.125], "rotation": 90, "texture": "#1"},
				"east": {"uv": [3, 3.125, 3, 3.125], "rotation": 180, "texture": "#1"},
				"south": {"uv": [3, 3.125, 3, 3.125], "rotation": 270, "texture": "#1"},
				"west": {"uv": [3, 3.125, 3, 3.125], "texture": "#1"},
				"up": {"uv": [3, 3.125, 3, 3.125], "rotation": 90, "texture": "#1"},
				"down": {"uv": [3, 3.125, 3, 3.125], "rotation": 270, "texture": "#1"}
			}
		},
		{
			"from": [7.96, 13.81242, 8.08943],
			"to": [8.072, 14.41642, 8.53743],
			"rotation": {"angle": 22.5, "axis": "x", "origin": [8.323, 13.81042, 8.4001]},
			"faces": {
				"north": {"uv": [3, 3.125, 3, 3.125], "rotation": 90, "texture": "#1"},
				"east": {"uv": [3, 3.125, 3, 3.125], "rotation": 180, "texture": "#1"},
				"south": {"uv": [3, 3.125, 3, 3.125], "rotation": 270, "texture": "#1"},
				"west": {"uv": [3, 3.125, 3, 3.125], "texture": "#1"},
				"up": {"uv": [3, 3.125, 3, 3.125], "rotation": 90, "texture": "#1"},
				"down": {"uv": [3, 3.125, 3, 3.125], "rotation": 270, "texture": "#1"}
			}
		},
		{
			"from": [8.6, 13.81242, 8.08943],
			"to": [8.712, 14.41642, 8.53743],
			"rotation": {"angle": 22.5, "axis": "x", "origin": [8.963, 13.81042, 8.4001]},
			"faces": {
				"north": {"uv": [3, 3.125, 3, 3.125], "rotation": 90, "texture": "#1"},
				"east": {"uv": [3, 3.125, 3, 3.125], "rotation": 180, "texture": "#1"},
				"south": {"uv": [3, 3.125, 3, 3.125], "rotation": 270, "texture": "#1"},
				"west": {"uv": [3, 3.125, 3, 3.125], "texture": "#1"},
				"up": {"uv": [3, 3.125, 3, 3.125], "rotation": 90, "texture": "#1"},
				"down": {"uv": [3, 3.125, 3, 3.125], "rotation": 270, "texture": "#1"}
			}
		},
		{
			"from": [7.96, 13.4349, 7.89886],
			"to": [8.712, 13.7229, 8.31086],
			"rotation": {"angle": -22.5, "axis": "x", "origin": [8.323, 13.41223, 7.67286]},
			"faces": {
				"north": {"uv": [3, 3.125, 3, 3.125], "rotation": 90, "texture": "#1"},
				"east": {"uv": [3, 3.125, 3, 3.125], "rotation": 90, "texture": "#1"},
				"south": {"uv": [3, 3.125, 3, 3.125], "rotation": 90, "texture": "#1"},
				"west": {"uv": [3, 3.125, 3, 3.125], "rotation": 90, "texture": "#1"},
				"up": {"uv": [3, 3.125, 3, 3.125], "rotation": 270, "texture": "#1"},
				"down": {"uv": [3, 3.125, 3, 3.125], "rotation": 270, "texture": "#1"}
			}
		},
		{
			"from": [7.96, 13.42398, 7.9797],
			"to": [8.072, 13.58398, 8.1037],
			"rotation": {"angle": -45, "axis": "x", "origin": [8.323, 13.27331, 7.6897]},
			"faces": {
				"north": {"uv": [3, 3.125, 3, 3.125], "rotation": 90, "texture": "#1"},
				"east": {"uv": [3, 3.125, 3, 3.125], "rotation": 90, "texture": "#1"},
				"south": {"uv": [3, 3.125, 3, 3.125], "rotation": 90, "texture": "#1"},
				"west": {"uv": [3, 3.125, 3, 3.125], "rotation": 90, "texture": "#1"},
				"up": {"uv": [3, 3.125, 3, 3.125], "rotation": 270, "texture": "#1"},
				"down": {"uv": [3, 3.125, 3, 3.125], "rotation": 270, "texture": "#1"}
			}
		},
		{
			"from": [8.6, 13.42398, 7.9797],
			"to": [8.712, 13.58398, 8.1037],
			"rotation": {"angle": -45, "axis": "x", "origin": [8.963, 13.27331, 7.6897]},
			"faces": {
				"north": {"uv": [3, 3.125, 3, 3.125], "rotation": 90, "texture": "#1"},
				"east": {"uv": [3, 3.125, 3, 3.125], "rotation": 90, "texture": "#1"},
				"south": {"uv": [3, 3.125, 3, 3.125], "rotation": 90, "texture": "#1"},
				"west": {"uv": [3, 3.125, 3, 3.125], "rotation": 90, "texture": "#1"},
				"up": {"uv": [3, 3.125, 3, 3.125], "rotation": 270, "texture": "#1"},
				"down": {"uv": [3, 3.125, 3, 3.125], "rotation": 270, "texture": "#1"}
			}
		},
		{
			"from": [8.6, 13.92292, 8.296],
			"to": [8.712, 14.37092, 8.868],
			"rotation": {"angle": 0, "axis": "y", "origin": [8.656, 14.14692, 8.582]},
			"faces": {
				"north": {"uv": [3, 3.125, 3, 3.125], "rotation": 270, "texture": "#1"},
				"east": {"uv": [3, 3.125, 3, 3.125], "rotation": 270, "texture": "#1"},
				"south": {"uv": [3, 3.125, 3, 3.125], "rotation": 270, "texture": "#1"},
				"west": {"uv": [3, 3.125, 3, 3.125], "rotation": 270, "texture": "#1"},
				"up": {"uv": [3, 3.125, 3, 3.125], "rotation": 270, "texture": "#1"},
				"down": {"uv": [3, 3.125, 3, 3.125], "rotation": 270, "texture": "#1"}
			}
		},
		{
			"from": [7.992, 13.57092, 7.08],
			"to": [8.68, 13.89092, 8.868],
			"rotation": {"angle": 0, "axis": "y", "origin": [8.323, 13.81759, 8.646]},
			"faces": {
				"north": {"uv": [4.5, 4, 4.5, 4], "rotation": 270, "texture": "#1"},
				"east": {"uv": [4.5, 4, 4.5, 4], "rotation": 270, "texture": "#1"},
				"south": {"uv": [4.5, 4, 4.5, 4], "rotation": 270, "texture": "#1"},
				"west": {"uv": [4.5, 4, 4.5, 4], "rotation": 270, "texture": "#1"},
				"up": {"uv": [4.5, 4, 4.5, 4], "rotation": 270, "texture": "#1"},
				"down": {"uv": [4.5, 4, 4.5, 4], "rotation": 270, "texture": "#1"}
			}
		},
		{
			"from": [7.992, 13.28292, 7.08],
			"to": [8.68, 13.57092, 9.092],
			"rotation": {"angle": 0, "axis": "y", "origin": [8.323, 13.81759, 8.646]},
			"faces": {
				"north": {"uv": [3, 3.375, 3, 3.375], "rotation": 270, "texture": "#1"},
				"east": {"uv": [3, 3.375, 3, 3.375], "rotation": 270, "texture": "#1"},
				"south": {"uv": [3, 3.375, 3, 3.375], "rotation": 270, "texture": "#1"},
				"west": {"uv": [3, 3.375, 3, 3.375], "rotation": 270, "texture": "#1"},
				"up": {"uv": [3, 3.375, 3, 3.375], "rotation": 270, "texture": "#1"},
				"down": {"uv": [3, 3.375, 3, 3.375], "rotation": 270, "texture": "#1"}
			}
		}
	],
	"display": {
		"thirdperson_righthand": {
			"rotation": [3, 0, 13],
			"translation": [-1, -2.75, -4],
			"scale": [1.28, 1.08, 1.11]
		},
		"thirdperson_lefthand": {
			"rotation": [3, 0, 13],
			"translation": [-1.25, -3, -3.5],
			"scale": [1.28, 1, 1]
		},
		"firstperson_righthand": {
			"rotation": [1, 0, 9],
			"translation": [-4, -0.25, -0.25],
			"scale": [1.5, 1.47, 1.39]
		},
		"firstperson_lefthand": {
			"rotation": [1, 1, 9],
			"translation": [-4, -0.25, -0.25],
			"scale": [1.5, 1.47, 1.39]
		},
		"gui": {
			"rotation": [11, 16, -16],
			"translation": [0.5, -2.75, 0],
			"scale": [1.69, 1.5618, 1.53453]
		},
		"head": {
			"rotation": [0, -92.75, 90],
			"translation": [1, 6.5, 4.5],
			"scale": [1.74477, 1.60414, 1.67641]
		},
		"fixed": {
			"rotation": [0, -90, 0],
			"translation": [1, 0, -1.75],
			"scale": [1.58, 1.39, 1.28]
		}
	}
}