{
    "textures": {
        "0": "gci:items/common/all_in_one",
        "1": "gci:items/common/mpz",
        "particle": "gci:items/common/all_in_one"
    },
    "elements": [
        {
            "from": [
                8.081,
                13.68485,
                12.51754
            ],
            "to": [
                8.557,
                14.03485,
                12.76754
            ],
            "rotation": {
                "angle": 45,
                "axis": "x",
                "origin": [
                    8.29438,
                    13.63027,
                    12.02695
                ]
            },
            "faces": {
                "north": {
                    "uv": [
                        2.875,
                        3.125,
                        3,
                        3.25
                    ],
                    "rotation": 270,
                    "texture": "#0"
                },
                "east": {
                    "uv": [
                        2.875,
                        3.125,
                        3,
                        3.25
                    ],
                    "rotation": 270,
                    "texture": "#0"
                },
                "south": {
                    "uv": [
                        2.875,
                        3.125,
                        3,
                        3.25
                    ],
                    "rotation": 270,
                    "texture": "#0"
                },
                "west": {
                    "uv": [
                        2.875,
                        3.125,
                        3,
                        3.25
                    ],
                    "rotation": 270,
                    "texture": "#0"
                },
                "up": {
                    "uv": [
                        2.875,
                        3.125,
                        3,
                        3.25
                    ],
                    "rotation": 270,
                    "texture": "#0"
                },
                "down": {
                    "uv": [
                        2.875,
                        3.125,
                        3,
                        3.25
                    ],
                    "rotation": 270,
                    "texture": "#0"
                }
            }
        },
        {
            "from": [
                8.081,
                13.468,
                12.51134
            ],
            "to": [
                8.507,
                13.743,
                12.66134
            ],
            "rotation": {
                "angle": 22.5,
                "axis": "x",
                "origin": [
                    8.29438,
                    13.70098,
                    11.95624
                ]
            },
            "faces": {
                "north": {
                    "uv": [
                        2.875,
                        3.125,
                        3,
                        3.25
                    ],
                    "rotation": 270,
                    "texture": "#0"
                },
                "east": {
                    "uv": [
                        2.875,
                        3.125,
                        3,
                        3.25
                    ],
                    "rotation": 270,
                    "texture": "#0"
                },
                "south": {
                    "uv": [
                        2.875,
                        3.125,
                        3,
                        3.25
                    ],
                    "rotation": 270,
                    "texture": "#0"
                },
                "west": {
                    "uv": [
                        2.875,
                        3.125,
                        3,
                        3.25
                    ],
                    "rotation": 270,
                    "texture": "#0"
                },
                "up": {
                    "uv": [
                        2.875,
                        3.125,
                        3,
                        3.25
                    ],
                    "rotation": 270,
                    "texture": "#0"
                },
                "down": {
                    "uv": [
                        2.875,
                        3.125,
                        3,
                        3.25
                    ],
                    "rotation": 270,
                    "texture": "#0"
                }
            }
        },
        {
            "from": [
                8.081,
                13.14268,
                12.33671
            ],
            "to": [
                8.557,
                14.21768,
                12.51171
            ],
            "rotation": {
                "angle": 0,
                "axis": "y",
                "origin": [
                    8.31938,
                    13.68027,
                    12.02695
                ]
            },
            "faces": {
                "north": {
                    "uv": [
                        2.875,
                        3.125,
                        3,
                        3.25
                    ],
                    "rotation": 270,
                    "texture": "#0"
                },
                "east": {
                    "uv": [
                        2.875,
                        3.125,
                        3,
                        3.25
                    ],
                    "rotation": 270,
                    "texture": "#0"
                },
                "south": {
                    "uv": [
                        2.875,
                        3.125,
                        3,
                        3.25
                    ],
                    "rotation": 270,
                    "texture": "#0"
                },
                "west": {
                    "uv": [
                        2.875,
                        3.125,
                        3,
                        3.25
                    ],
                    "rotation": 270,
                    "texture": "#0"
                },
                "up": {
                    "uv": [
                        2.875,
                        3.125,
                        3,
                        3.25
                    ],
                    "rotation": 270,
                    "texture": "#0"
                },
                "down": {
                    "uv": [
                        2.875,
                        3.125,
                        3,
                        3.25
                    ],
                    "rotation": 270,
                    "texture": "#0"
                }
            }
        },
        {
            "from": [
                8.081,
                13.14519,
                12.41422
            ],
            "to": [
                8.557,
                13.27019,
                12.58922
            ],
            "rotation": {
                "angle": 0,
                "axis": "y",
                "origin": [
                    8.31938,
                    13.68278,
                    12.10447
                ]
            },
            "faces": {
                "north": {
                    "uv": [
                        2.875,
                        3.125,
                        3,
                        3.25
                    ],
                    "rotation": 270,
                    "texture": "#0"
                },
                "east": {
                    "uv": [
                        2.875,
                        3.125,
                        3,
                        3.25
                    ],
                    "rotation": 270,
                    "texture": "#0"
                },
                "south": {
                    "uv": [
                        2.875,
                        3.125,
                        3,
                        3.25
                    ],
                    "rotation": 270,
                    "texture": "#0"
                },
                "west": {
                    "uv": [
                        2.875,
                        3.125,
                        3,
                        3.25
                    ],
                    "rotation": 270,
                    "texture": "#0"
                },
                "up": {
                    "uv": [
                        2.875,
                        3.125,
                        3,
                        3.25
                    ],
                    "rotation": 270,
                    "texture": "#0"
                },
                "down": {
                    "uv": [
                        2.875,
                        3.125,
                        3,
                        3.25
                    ],
                    "rotation": 270,
                    "texture": "#0"
                }
            }
        },
        {
            "from": [
                8.131,
                13.29268,
                9.23671
            ],
            "to": [
                8.507,
                14.06768,
                12.41171
            ],
            "rotation": {
                "angle": 0,
                "axis": "y",
                "origin": [
                    8.31938,
                    13.60527,
                    12.07695
                ]
            },
            "faces": {
                "north": {
                    "uv": [
                        3.625,
                        2.75,
                        3.75,
                        2.875
                    ],
                    "rotation": 270,
                    "texture": "#0"
                },
                "east": {
                    "uv": [
                        3.625,
                        2.75,
                        3.75,
                        2.875
                    ],
                    "rotation": 270,
                    "texture": "#0"
                },
                "south": {
                    "uv": [
                        3.625,
                        2.75,
                        3.75,
                        2.875
                    ],
                    "rotation": 270,
                    "texture": "#0"
                },
                "west": {
                    "uv": [
                        3.625,
                        2.75,
                        3.75,
                        2.875
                    ],
                    "rotation": 270,
                    "texture": "#0"
                },
                "up": {
                    "uv": [
                        3.625,
                        2.75,
                        3.75,
                        2.875
                    ],
                    "rotation": 270,
                    "texture": "#0"
                },
                "down": {
                    "uv": [
                        3.625,
                        2.75,
                        3.75,
                        2.875
                    ],
                    "rotation": 270,
                    "texture": "#0"
                }
            }
        },
        {
            "from": [
                8.231,
                14.043,
                9.13671
            ],
            "to": [
                8.407,
                14.068,
                12.31171
            ],
            "rotation": {
                "angle": 0,
                "axis": "y",
                "origin": [
                    8.31938,
                    13.60527,
                    11.97695
                ]
            },
            "faces": {
                "north": {
                    "uv": [
                        7.5,
                        10.125,
                        7.625,
                        10.25
                    ],
                    "rotation": 270,
                    "texture": "#0"
                },
                "east": {
                    "uv": [
                        7.5,
                        10.125,
                        7.625,
                        10.25
                    ],
                    "rotation": 270,
                    "texture": "#0"
                },
                "south": {
                    "uv": [
                        7.5,
                        10.125,
                        7.625,
                        10.25
                    ],
                    "rotation": 270,
                    "texture": "#0"
                },
                "west": {
                    "uv": [
                        7.5,
                        10.125,
                        7.625,
                        10.25
                    ],
                    "rotation": 270,
                    "texture": "#0"
                },
                "up": {
                    "uv": [
                        7.5,
                        10.125,
                        7.625,
                        10.25
                    ],
                    "rotation": 270,
                    "texture": "#0"
                },
                "down": {
                    "uv": [
                        7.5,
                        10.125,
                        7.625,
                        10.25
                    ],
                    "rotation": 270,
                    "texture": "#0"
                }
            }
        },
        {
            "from": [
                8.13,
                12.48528,
                11.1869
            ],
            "to": [
                8.23,
                12.63528,
                11.3369
            ],
            "rotation": {
                "angle": 45,
                "axis": "x",
                "origin": [
                    8.31938,
                    13.60527,
                    12.07695
                ]
            },
            "faces": {
                "north": {
                    "uv": [
                        8,
                        10.5,
                        8.125,
                        10.625
                    ],
                    "rotation": 270,
                    "texture": "#0"
                },
                "east": {
                    "uv": [
                        8,
                        10.5,
                        8.125,
                        10.625
                    ],
                    "rotation": 270,
                    "texture": "#0"
                },
                "south": {
                    "uv": [
                        8,
                        10.5,
                        8.125,
                        10.625
                    ],
                    "rotation": 270,
                    "texture": "#0"
                },
                "west": {
                    "uv": [
                        8,
                        10.5,
                        8.125,
                        10.625
                    ],
                    "rotation": 270,
                    "texture": "#0"
                },
                "up": {
                    "uv": [
                        8,
                        10.5,
                        8.125,
                        10.625
                    ],
                    "rotation": 270,
                    "texture": "#0"
                },
                "down": {
                    "uv": [
                        8,
                        10.5,
                        8.125,
                        10.625
                    ],
                    "rotation": 270,
                    "texture": "#0"
                }
            }
        },
        {
            "from": [
                8.13,
                13.12168,
                11.25761
            ],
            "to": [
                8.23,
                13.27168,
                11.40761
            ],
            "rotation": {
                "angle": 45,
                "axis": "x",
                "origin": [
                    8.31938,
                    13.60527,
                    12.07695
                ]
            },
            "faces": {
                "north": {
                    "uv": [
                        8,
                        10.5,
                        8.125,
                        10.625
                    ],
                    "rotation": 270,
                    "texture": "#0"
                },
                "east": {
                    "uv": [
                        8,
                        10.5,
                        8.125,
                        10.625
                    ],
                    "rotation": 270,
                    "texture": "#0"
                },
                "south": {
                    "uv": [
                        8,
                        10.5,
                        8.125,
                        10.625
                    ],
                    "rotation": 270,
                    "texture": "#0"
                },
                "west": {
                    "uv": [
                        8,
                        10.5,
                        8.125,
                        10.625
                    ],
                    "rotation": 270,
                    "texture": "#0"
                },
                "up": {
                    "uv": [
                        8,
                        10.5,
                        8.125,
                        10.625
                    ],
                    "rotation": 270,
                    "texture": "#0"
                },
                "down": {
                    "uv": [
                        8,
                        10.5,
                        8.125,
                        10.625
                    ],
                    "rotation": 270,
                    "texture": "#0"
                }
            }
        },
        {
            "from": [
                8.13,
                12.48528,
                10.1869
            ],
            "to": [
                8.23,
                12.63528,
                10.3369
            ],
            "rotation": {
                "angle": 45,
                "axis": "x",
                "origin": [
                    8.31938,
                    13.60527,
                    11.07695
                ]
            },
            "faces": {
                "north": {
                    "uv": [
                        8,
                        10.5,
                        8.125,
                        10.625
                    ],
                    "rotation": 270,
                    "texture": "#0"
                },
                "east": {
                    "uv": [
                        8,
                        10.5,
                        8.125,
                        10.625
                    ],
                    "rotation": 270,
                    "texture": "#0"
                },
                "south": {
                    "uv": [
                        8,
                        10.5,
                        8.125,
                        10.625
                    ],
                    "rotation": 270,
                    "texture": "#0"
                },
                "west": {
                    "uv": [
                        8,
                        10.5,
                        8.125,
                        10.625
                    ],
                    "rotation": 270,
                    "texture": "#0"
                },
                "up": {
                    "uv": [
                        8,
                        10.5,
                        8.125,
                        10.625
                    ],
                    "rotation": 270,
                    "texture": "#0"
                },
                "down": {
                    "uv": [
                        8,
                        10.5,
                        8.125,
                        10.625
                    ],
                    "rotation": 270,
                    "texture": "#0"
                }
            }
        },
        {
            "from": [
                8.13,
                13.12168,
                10.25761
            ],
            "to": [
                8.23,
                13.27168,
                10.40761
            ],
            "rotation": {
                "angle": 45,
                "axis": "x",
                "origin": [
                    8.31938,
                    13.60527,
                    11.07695
                ]
            },
            "faces": {
                "north": {
                    "uv": [
                        8,
                        10.5,
                        8.125,
                        10.625
                    ],
                    "rotation": 270,
                    "texture": "#0"
                },
                "east": {
                    "uv": [
                        8,
                        10.5,
                        8.125,
                        10.625
                    ],
                    "rotation": 270,
                    "texture": "#0"
                },
                "south": {
                    "uv": [
                        8,
                        10.5,
                        8.125,
                        10.625
                    ],
                    "rotation": 270,
                    "texture": "#0"
                },
                "west": {
                    "uv": [
                        8,
                        10.5,
                        8.125,
                        10.625
                    ],
                    "rotation": 270,
                    "texture": "#0"
                },
                "up": {
                    "uv": [
                        8,
                        10.5,
                        8.125,
                        10.625
                    ],
                    "rotation": 270,
                    "texture": "#0"
                },
                "down": {
                    "uv": [
                        8,
                        10.5,
                        8.125,
                        10.625
                    ],
                    "rotation": 270,
                    "texture": "#0"
                }
            }
        },
        {
            "from": [
                8.056,
                13.19126,
                12.58047
            ],
            "to": [
                8.582,
                13.94126,
                12.65547
            ],
            "rotation": {
                "angle": -22.5,
                "axis": "x",
                "origin": [
                    8.31938,
                    13.68027,
                    12.02695
                ]
            },
            "faces": {
                "north": {
                    "uv": [
                        3.625,
                        2.75,
                        3.75,
                        2.875
                    ],
                    "rotation": 270,
                    "texture": "#0"
                },
                "east": {
                    "uv": [
                        3.625,
                        2.75,
                        3.75,
                        2.875
                    ],
                    "rotation": 270,
                    "texture": "#0"
                },
                "south": {
                    "uv": [
                        3.625,
                        2.75,
                        3.75,
                        2.875
                    ],
                    "rotation": 270,
                    "texture": "#0"
                },
                "west": {
                    "uv": [
                        3.625,
                        2.75,
                        3.75,
                        2.875
                    ],
                    "rotation": 270,
                    "texture": "#0"
                },
                "up": {
                    "uv": [
                        3.625,
                        2.75,
                        3.75,
                        2.875
                    ],
                    "rotation": 270,
                    "texture": "#0"
                },
                "down": {
                    "uv": [
                        3.625,
                        2.75,
                        3.75,
                        2.875
                    ],
                    "rotation": 270,
                    "texture": "#0"
                }
            }
        },
        {
            "from": [
                8.056,
                13.11626,
                12.48047
            ],
            "to": [
                8.582,
                13.86626,
                12.55547
            ],
            "rotation": {
                "angle": -22.5,
                "axis": "x",
                "origin": [
                    8.31938,
                    13.68027,
                    12.02695
                ]
            },
            "faces": {
                "north": {
                    "uv": [
                        3.625,
                        2.75,
                        3.75,
                        2.875
                    ],
                    "rotation": 270,
                    "texture": "#0"
                },
                "east": {
                    "uv": [
                        3.625,
                        2.75,
                        3.75,
                        2.875
                    ],
                    "rotation": 270,
                    "texture": "#0"
                },
                "south": {
                    "uv": [
                        3.625,
                        2.75,
                        3.75,
                        2.875
                    ],
                    "rotation": 270,
                    "texture": "#0"
                },
                "west": {
                    "uv": [
                        3.625,
                        2.75,
                        3.75,
                        2.875
                    ],
                    "rotation": 270,
                    "texture": "#0"
                },
                "up": {
                    "uv": [
                        3.625,
                        2.75,
                        3.75,
                        2.875
                    ],
                    "rotation": 270,
                    "texture": "#0"
                },
                "down": {
                    "uv": [
                        3.625,
                        2.75,
                        3.75,
                        2.875
                    ],
                    "rotation": 270,
                    "texture": "#0"
                }
            }
        },
        {
            "from": [
                8.056,
                13.06626,
                12.38047
            ],
            "to": [
                8.582,
                13.64126,
                12.45547
            ],
            "rotation": {
                "angle": -22.5,
                "axis": "x",
                "origin": [
                    8.31938,
                    13.68027,
                    12.02695
                ]
            },
            "faces": {
                "north": {
                    "uv": [
                        3.625,
                        2.75,
                        3.75,
                        2.875
                    ],
                    "rotation": 270,
                    "texture": "#0"
                },
                "east": {
                    "uv": [
                        3.625,
                        2.75,
                        3.75,
                        2.875
                    ],
                    "rotation": 270,
                    "texture": "#0"
                },
                "south": {
                    "uv": [
                        3.625,
                        2.75,
                        3.75,
                        2.875
                    ],
                    "rotation": 270,
                    "texture": "#0"
                },
                "west": {
                    "uv": [
                        3.625,
                        2.75,
                        3.75,
                        2.875
                    ],
                    "rotation": 270,
                    "texture": "#0"
                },
                "up": {
                    "uv": [
                        3.625,
                        2.75,
                        3.75,
                        2.875
                    ],
                    "rotation": 270,
                    "texture": "#0"
                },
                "down": {
                    "uv": [
                        3.625,
                        2.75,
                        3.75,
                        2.875
                    ],
                    "rotation": 270,
                    "texture": "#0"
                }
            }
        },
        {
            "from": [
                8.056,
                13.01626,
                12.28047
            ],
            "to": [
                8.582,
                13.41626,
                12.35547
            ],
            "rotation": {
                "angle": -22.5,
                "axis": "x",
                "origin": [
                    8.31938,
                    13.68027,
                    12.02695
                ]
            },
            "faces": {
                "north": {
                    "uv": [
                        3.625,
                        2.75,
                        3.75,
                        2.875
                    ],
                    "rotation": 270,
                    "texture": "#0"
                },
                "east": {
                    "uv": [
                        3.625,
                        2.75,
                        3.75,
                        2.875
                    ],
                    "rotation": 270,
                    "texture": "#0"
                },
                "south": {
                    "uv": [
                        3.625,
                        2.75,
                        3.75,
                        2.875
                    ],
                    "rotation": 270,
                    "texture": "#0"
                },
                "west": {
                    "uv": [
                        3.625,
                        2.75,
                        3.75,
                        2.875
                    ],
                    "rotation": 270,
                    "texture": "#0"
                },
                "up": {
                    "uv": [
                        3.625,
                        2.75,
                        3.75,
                        2.875
                    ],
                    "rotation": 270,
                    "texture": "#0"
                },
                "down": {
                    "uv": [
                        3.625,
                        2.75,
                        3.75,
                        2.875
                    ],
                    "rotation": 270,
                    "texture": "#0"
                }
            }
        },
        {
            "from": [
                8.081,
                13.14126,
                12.58047
            ],
            "to": [
                8.557,
                13.99126,
                12.68047
            ],
            "rotation": {
                "angle": -22.5,
                "axis": "x",
                "origin": [
                    8.31938,
                    13.68027,
                    12.02695
                ]
            },
            "faces": {
                "north": {
                    "uv": [
                        2.875,
                        3.125,
                        3,
                        3.25
                    ],
                    "rotation": 270,
                    "texture": "#0"
                },
                "east": {
                    "uv": [
                        2.875,
                        3.125,
                        3,
                        3.25
                    ],
                    "rotation": 270,
                    "texture": "#0"
                },
                "south": {
                    "uv": [
                        2.875,
                        3.125,
                        3,
                        3.25
                    ],
                    "rotation": 270,
                    "texture": "#0"
                },
                "west": {
                    "uv": [
                        2.875,
                        3.125,
                        3,
                        3.25
                    ],
                    "rotation": 270,
                    "texture": "#0"
                },
                "up": {
                    "uv": [
                        2.875,
                        3.125,
                        3,
                        3.25
                    ],
                    "rotation": 270,
                    "texture": "#0"
                },
                "down": {
                    "uv": [
                        2.875,
                        3.125,
                        3,
                        3.25
                    ],
                    "rotation": 270,
                    "texture": "#0"
                }
            }
        },
        {
            "from": [
                8.081,
                13.39268,
                12.66171
            ],
            "to": [
                8.557,
                13.44268,
                12.83671
            ],
            "rotation": {
                "angle": 0,
                "axis": "y",
                "origin": [
                    8.31938,
                    13.68027,
                    12.02695
                ]
            },
            "faces": {
                "north": {
                    "uv": [
                        2.875,
                        3.125,
                        3,
                        3.25
                    ],
                    "rotation": 270,
                    "texture": "#0"
                },
                "east": {
                    "uv": [
                        2.875,
                        3.125,
                        3,
                        3.25
                    ],
                    "rotation": 270,
                    "texture": "#0"
                },
                "south": {
                    "uv": [
                        2.875,
                        3.125,
                        3,
                        3.25
                    ],
                    "rotation": 270,
                    "texture": "#0"
                },
                "west": {
                    "uv": [
                        2.875,
                        3.125,
                        3,
                        3.25
                    ],
                    "rotation": 270,
                    "texture": "#0"
                },
                "up": {
                    "uv": [
                        2.875,
                        3.125,
                        3,
                        3.25
                    ],
                    "rotation": 270,
                    "texture": "#0"
                },
                "down": {
                    "uv": [
                        2.875,
                        3.125,
                        3,
                        3.25
                    ],
                    "rotation": 270,
                    "texture": "#0"
                }
            }
        },
        {
            "from": [
                8.081,
                13.39268,
                12.51171
            ],
            "to": [
                8.557,
                13.79268,
                12.66171
            ],
            "rotation": {
                "angle": 0,
                "axis": "y",
                "origin": [
                    8.31938,
                    13.68027,
                    12.02695
                ]
            },
            "faces": {
                "north": {
                    "uv": [
                        2.875,
                        3.125,
                        3,
                        3.25
                    ],
                    "rotation": 270,
                    "texture": "#0"
                },
                "east": {
                    "uv": [
                        2.875,
                        3.125,
                        3,
                        3.25
                    ],
                    "rotation": 270,
                    "texture": "#0"
                },
                "south": {
                    "uv": [
                        2.875,
                        3.125,
                        3,
                        3.25
                    ],
                    "rotation": 270,
                    "texture": "#0"
                },
                "west": {
                    "uv": [
                        2.875,
                        3.125,
                        3,
                        3.25
                    ],
                    "rotation": 270,
                    "texture": "#0"
                },
                "up": {
                    "uv": [
                        2.875,
                        3.125,
                        3,
                        3.25
                    ],
                    "rotation": 270,
                    "texture": "#0"
                },
                "down": {
                    "uv": [
                        2.875,
                        3.125,
                        3,
                        3.25
                    ],
                    "rotation": 270,
                    "texture": "#0"
                }
            }
        },
        {
            "from": [
                8.081,
                13.41768,
                12.63671
            ],
            "to": [
                8.557,
                13.64268,
                12.73671
            ],
            "rotation": {
                "angle": 0,
                "axis": "y",
                "origin": [
                    8.31938,
                    13.68027,
                    12.02695
                ]
            },
            "faces": {
                "north": {
                    "uv": [
                        2.875,
                        3.125,
                        3,
                        3.25
                    ],
                    "rotation": 270,
                    "texture": "#0"
                },
                "east": {
                    "uv": [
                        2.875,
                        3.125,
                        3,
                        3.25
                    ],
                    "rotation": 270,
                    "texture": "#0"
                },
                "south": {
                    "uv": [
                        2.875,
                        3.125,
                        3,
                        3.25
                    ],
                    "rotation": 270,
                    "texture": "#0"
                },
                "west": {
                    "uv": [
                        2.875,
                        3.125,
                        3,
                        3.25
                    ],
                    "rotation": 270,
                    "texture": "#0"
                },
                "up": {
                    "uv": [
                        2.875,
                        3.125,
                        3,
                        3.25
                    ],
                    "rotation": 270,
                    "texture": "#0"
                },
                "down": {
                    "uv": [
                        2.875,
                        3.125,
                        3,
                        3.25
                    ],
                    "rotation": 270,
                    "texture": "#0"
                }
            }
        },
        {
            "from": [
                8.081,
                13.74268,
                12.48671
            ],
            "to": [
                8.557,
                13.96768,
                12.58671
            ],
            "rotation": {
                "angle": 0,
                "axis": "y",
                "origin": [
                    8.31938,
                    13.68027,
                    12.02695
                ]
            },
            "faces": {
                "north": {
                    "uv": [
                        2.875,
                        3.125,
                        3,
                        3.25
                    ],
                    "rotation": 270,
                    "texture": "#0"
                },
                "east": {
                    "uv": [
                        2.875,
                        3.125,
                        3,
                        3.25
                    ],
                    "rotation": 270,
                    "texture": "#0"
                },
                "south": {
                    "uv": [
                        2.875,
                        3.125,
                        3,
                        3.25
                    ],
                    "rotation": 270,
                    "texture": "#0"
                },
                "west": {
                    "uv": [
                        2.875,
                        3.125,
                        3,
                        3.25
                    ],
                    "rotation": 270,
                    "texture": "#0"
                },
                "up": {
                    "uv": [
                        2.875,
                        3.125,
                        3,
                        3.25
                    ],
                    "rotation": 270,
                    "texture": "#0"
                },
                "down": {
                    "uv": [
                        2.875,
                        3.125,
                        3,
                        3.25
                    ],
                    "rotation": 270,
                    "texture": "#0"
                }
            }
        },
        {
            "from": [
                8.13,
                13.19239,
                11.89401
            ],
            "to": [
                8.23,
                13.34239,
                12.04401
            ],
            "rotation": {
                "angle": 45,
                "axis": "x",
                "origin": [
                    8.31938,
                    13.60527,
                    12.07695
                ]
            },
            "faces": {
                "north": {
                    "uv": [
                        8,
                        10.5,
                        8.125,
                        10.625
                    ],
                    "rotation": 270,
                    "texture": "#0"
                },
                "east": {
                    "uv": [
                        8,
                        10.5,
                        8.125,
                        10.625
                    ],
                    "rotation": 270,
                    "texture": "#0"
                },
                "south": {
                    "uv": [
                        8,
                        10.5,
                        8.125,
                        10.625
                    ],
                    "rotation": 270,
                    "texture": "#0"
                },
                "west": {
                    "uv": [
                        8,
                        10.5,
                        8.125,
                        10.625
                    ],
                    "rotation": 270,
                    "texture": "#0"
                },
                "up": {
                    "uv": [
                        8,
                        10.5,
                        8.125,
                        10.625
                    ],
                    "rotation": 270,
                    "texture": "#0"
                },
                "down": {
                    "uv": [
                        8,
                        10.5,
                        8.125,
                        10.625
                    ],
                    "rotation": 270,
                    "texture": "#0"
                }
            }
        },
        {
            "from": [
                8.13,
                13.75808,
                11.89401
            ],
            "to": [
                8.23,
                13.90808,
                12.04401
            ],
            "rotation": {
                "angle": 45,
                "axis": "x",
                "origin": [
                    8.31938,
                    13.60527,
                    12.07695
                ]
            },
            "faces": {
                "north": {
                    "uv": [
                        8,
                        10.5,
                        8.125,
                        10.625
                    ],
                    "rotation": 270,
                    "texture": "#0"
                },
                "east": {
                    "uv": [
                        8,
                        10.5,
                        8.125,
                        10.625
                    ],
                    "rotation": 270,
                    "texture": "#0"
                },
                "south": {
                    "uv": [
                        8,
                        10.5,
                        8.125,
                        10.625
                    ],
                    "rotation": 270,
                    "texture": "#0"
                },
                "west": {
                    "uv": [
                        8,
                        10.5,
                        8.125,
                        10.625
                    ],
                    "rotation": 270,
                    "texture": "#0"
                },
                "up": {
                    "uv": [
                        8,
                        10.5,
                        8.125,
                        10.625
                    ],
                    "rotation": 270,
                    "texture": "#0"
                },
                "down": {
                    "uv": [
                        8,
                        10.5,
                        8.125,
                        10.625
                    ],
                    "rotation": 270,
                    "texture": "#0"
                }
            }
        },
        {
            "from": [
                8.41,
                14.63851,
                11.25016
            ],
            "to": [
                8.51,
                14.78851,
                11.40016
            ],
            "rotation": {
                "angle": -45,
                "axis": "x",
                "origin": [
                    8.31938,
                    13.60527,
                    12.07695
                ]
            },
            "faces": {
                "north": {
                    "uv": [
                        8.125,
                        10.625,
                        8,
                        10.5
                    ],
                    "rotation": 270,
                    "texture": "#0"
                },
                "east": {
                    "uv": [
                        8.125,
                        10.625,
                        8,
                        10.5
                    ],
                    "rotation": 270,
                    "texture": "#0"
                },
                "south": {
                    "uv": [
                        8.125,
                        10.625,
                        8,
                        10.5
                    ],
                    "rotation": 270,
                    "texture": "#0"
                },
                "west": {
                    "uv": [
                        8.125,
                        10.625,
                        8,
                        10.5
                    ],
                    "rotation": 270,
                    "texture": "#0"
                },
                "up": {
                    "uv": [
                        8.125,
                        10.625,
                        8,
                        10.5
                    ],
                    "rotation": 270,
                    "texture": "#0"
                },
                "down": {
                    "uv": [
                        8.125,
                        10.625,
                        8,
                        10.5
                    ],
                    "rotation": 270,
                    "texture": "#0"
                }
            }
        },
        {
            "from": [
                8.41,
                14.00212,
                10.32087
            ],
            "to": [
                8.51,
                14.15212,
                10.47087
            ],
            "rotation": {
                "angle": -45,
                "axis": "x",
                "origin": [
                    8.31938,
                    13.60527,
                    11.07695
                ]
            },
            "faces": {
                "north": {
                    "uv": [
                        8.125,
                        10.625,
                        8,
                        10.5
                    ],
                    "rotation": 270,
                    "texture": "#0"
                },
                "east": {
                    "uv": [
                        8.125,
                        10.625,
                        8,
                        10.5
                    ],
                    "rotation": 270,
                    "texture": "#0"
                },
                "south": {
                    "uv": [
                        8.125,
                        10.625,
                        8,
                        10.5
                    ],
                    "rotation": 270,
                    "texture": "#0"
                },
                "west": {
                    "uv": [
                        8.125,
                        10.625,
                        8,
                        10.5
                    ],
                    "rotation": 270,
                    "texture": "#0"
                },
                "up": {
                    "uv": [
                        8.125,
                        10.625,
                        8,
                        10.5
                    ],
                    "rotation": 270,
                    "texture": "#0"
                },
                "down": {
                    "uv": [
                        8.125,
                        10.625,
                        8,
                        10.5
                    ],
                    "rotation": 270,
                    "texture": "#0"
                }
            }
        },
        {
            "from": [
                8.41,
                14.63851,
                10.25016
            ],
            "to": [
                8.51,
                14.78851,
                10.40016
            ],
            "rotation": {
                "angle": -45,
                "axis": "x",
                "origin": [
                    8.31938,
                    13.60527,
                    11.07695
                ]
            },
            "faces": {
                "north": {
                    "uv": [
                        8.125,
                        10.625,
                        8,
                        10.5
                    ],
                    "rotation": 270,
                    "texture": "#0"
                },
                "east": {
                    "uv": [
                        8.125,
                        10.625,
                        8,
                        10.5
                    ],
                    "rotation": 270,
                    "texture": "#0"
                },
                "south": {
                    "uv": [
                        8.125,
                        10.625,
                        8,
                        10.5
                    ],
                    "rotation": 270,
                    "texture": "#0"
                },
                "west": {
                    "uv": [
                        8.125,
                        10.625,
                        8,
                        10.5
                    ],
                    "rotation": 270,
                    "texture": "#0"
                },
                "up": {
                    "uv": [
                        8.125,
                        10.625,
                        8,
                        10.5
                    ],
                    "rotation": 270,
                    "texture": "#0"
                },
                "down": {
                    "uv": [
                        8.125,
                        10.625,
                        8,
                        10.5
                    ],
                    "rotation": 270,
                    "texture": "#0"
                }
            }
        },
        {
            "from": [
                8.41,
                14.00212,
                11.32087
            ],
            "to": [
                8.51,
                14.15212,
                11.47087
            ],
            "rotation": {
                "angle": -45,
                "axis": "x",
                "origin": [
                    8.31938,
                    13.60527,
                    12.07695
                ]
            },
            "faces": {
                "north": {
                    "uv": [
                        8.125,
                        10.625,
                        8,
                        10.5
                    ],
                    "rotation": 270,
                    "texture": "#0"
                },
                "east": {
                    "uv": [
                        8.125,
                        10.625,
                        8,
                        10.5
                    ],
                    "rotation": 270,
                    "texture": "#0"
                },
                "south": {
                    "uv": [
                        8.125,
                        10.625,
                        8,
                        10.5
                    ],
                    "rotation": 270,
                    "texture": "#0"
                },
                "west": {
                    "uv": [
                        8.125,
                        10.625,
                        8,
                        10.5
                    ],
                    "rotation": 270,
                    "texture": "#0"
                },
                "up": {
                    "uv": [
                        8.125,
                        10.625,
                        8,
                        10.5
                    ],
                    "rotation": 270,
                    "texture": "#0"
                },
                "down": {
                    "uv": [
                        8.125,
                        10.625,
                        8,
                        10.5
                    ],
                    "rotation": 270,
                    "texture": "#0"
                }
            }
        },
        {
            "from": [
                8.41,
                13.93141,
                11.95727
            ],
            "to": [
                8.51,
                14.08141,
                12.10727
            ],
            "rotation": {
                "angle": -45,
                "axis": "x",
                "origin": [
                    8.31938,
                    13.60527,
                    12.07695
                ]
            },
            "faces": {
                "north": {
                    "uv": [
                        8.125,
                        10.625,
                        8,
                        10.5
                    ],
                    "rotation": 270,
                    "texture": "#0"
                },
                "east": {
                    "uv": [
                        8.125,
                        10.625,
                        8,
                        10.5
                    ],
                    "rotation": 270,
                    "texture": "#0"
                },
                "south": {
                    "uv": [
                        8.125,
                        10.625,
                        8,
                        10.5
                    ],
                    "rotation": 270,
                    "texture": "#0"
                },
                "west": {
                    "uv": [
                        8.125,
                        10.625,
                        8,
                        10.5
                    ],
                    "rotation": 270,
                    "texture": "#0"
                },
                "up": {
                    "uv": [
                        8.125,
                        10.625,
                        8,
                        10.5
                    ],
                    "rotation": 270,
                    "texture": "#0"
                },
                "down": {
                    "uv": [
                        8.125,
                        10.625,
                        8,
                        10.5
                    ],
                    "rotation": 270,
                    "texture": "#0"
                }
            }
        },
        {
            "from": [
                8.41,
                13.36572,
                11.95727
            ],
            "to": [
                8.51,
                13.51572,
                12.10727
            ],
            "rotation": {
                "angle": -45,
                "axis": "x",
                "origin": [
                    8.31938,
                    13.60527,
                    12.07695
                ]
            },
            "faces": {
                "north": {
                    "uv": [
                        8.125,
                        10.625,
                        8,
                        10.5
                    ],
                    "rotation": 270,
                    "texture": "#0"
                },
                "east": {
                    "uv": [
                        8.125,
                        10.625,
                        8,
                        10.5
                    ],
                    "rotation": 270,
                    "texture": "#0"
                },
                "south": {
                    "uv": [
                        8.125,
                        10.625,
                        8,
                        10.5
                    ],
                    "rotation": 270,
                    "texture": "#0"
                },
                "west": {
                    "uv": [
                        8.125,
                        10.625,
                        8,
                        10.5
                    ],
                    "rotation": 270,
                    "texture": "#0"
                },
                "up": {
                    "uv": [
                        8.125,
                        10.625,
                        8,
                        10.5
                    ],
                    "rotation": 270,
                    "texture": "#0"
                },
                "down": {
                    "uv": [
                        8.125,
                        10.625,
                        8,
                        10.5
                    ],
                    "rotation": 270,
                    "texture": "#0"
                }
            }
        }
    ],
    "display": {
        "thirdperson_righthand": {
            "translation": [
                -0.75,
                -6.5,
                1.5
            ],
            "scale": [
                1.28,
                1.28,
                1.28
            ]
        },
        "thirdperson_lefthand": {
            "translation": [
                0.25,
                -6.5,
                1.5
            ],
            "scale": [
                1.28,
                1.28,
                1.28
            ]
        },
        "firstperson_righthand": {
            "rotation": [
                0,
                -10,
                0
            ],
            "translation": [
                -2.25,
                0,
                3.75
            ]
        },
        "firstperson_lefthand": {
            "rotation": [
                0,
                -10,
                0
            ],
            "translation": [
                -2.25,
                0,
                3.75
            ]
        },
        "ground": {
            "rotation": [
                0,
                0,
                90
            ],
            "scale": [
                1.28,
                1.28,
                1.28
            ]
        },
        "gui": {
            "rotation": [
                -23,
                144,
                0
            ],
            "translation": [
                3.5,
                -9.75,
                0
            ],
            "scale": [
                1.6,
                1.6,
                1.6
            ]
        },
        "head": {
            "rotation": [
                0,
                122,
                90
            ],
            "translation": [
                -3.25,
                6.5,
                -10.5
            ],
            "scale": [
                2,
                2,
                2
            ]
        },
        "fixed": {
            "rotation": [
                90,
                45,
                -90
            ],
            "translation": [
                -4.5,
                -11,
                -1.75
            ],
            "scale": [
                2,
                2,
                1.632
            ]
        }
    }
}