{
    "textures": {
        "0": "gci:items/common/all_in_one",
        "2": "gci:items/common/mpz",
        "particle": "gci:items/common/all_in_one"
    },
    "elements": [
        {
            "name": "octagon",
            "from": [
                8.57218,
                -2.21828,
                8.25315
            ],
            "to": [
                9.42782,
                2.93172,
                10.03315
            ],
            "rotation": {
                "angle": -22.5,
                "axis": "x",
                "origin": [
                    9,
                    3.93172,
                    9.29315
                ]
            },
            "faces": {
                "north": {
                    "uv": [
                        7.5,
                        10.375,
                        7.625,
                        10.5
                    ],
                    "texture": "#0"
                },
                "east": {
                    "uv": [
                        7.5,
                        10.375,
                        7.625,
                        10.5
                    ],
                    "texture": "#0"
                },
                "south": {
                    "uv": [
                        7.5,
                        10.375,
                        7.625,
                        10.5
                    ],
                    "texture": "#0"
                },
                "west": {
                    "uv": [
                        7.5,
                        10.375,
                        7.625,
                        10.5
                    ],
                    "texture": "#0"
                },
                "up": {
                    "uv": [
                        7.5,
                        10.375,
                        7.625,
                        10.5
                    ],
                    "texture": "#0"
                },
                "down": {
                    "uv": [
                        7.5,
                        10.375,
                        7.625,
                        10.5
                    ],
                    "texture": "#0"
                }
            }
        },
        {
            "name": "octagon",
            "from": [
                8.57218,
                -2.16919,
                10.63495
            ],
            "to": [
                9.42782,
                -1.41919,
                12.31495
            ],
            "rotation": {
                "angle": 0,
                "axis": "y",
                "origin": [
                    9,
                    0.00581,
                    10.77495
                ]
            },
            "faces": {
                "north": {
                    "uv": [
                        7.5,
                        10.375,
                        7.625,
                        10.5
                    ],
                    "texture": "#0"
                },
                "east": {
                    "uv": [
                        7.5,
                        10.375,
                        7.625,
                        10.5
                    ],
                    "texture": "#0"
                },
                "south": {
                    "uv": [
                        7.5,
                        10.375,
                        7.625,
                        10.5
                    ],
                    "texture": "#0"
                },
                "west": {
                    "uv": [
                        7.5,
                        10.375,
                        7.625,
                        10.5
                    ],
                    "texture": "#0"
                },
                "up": {
                    "uv": [
                        7.5,
                        10.375,
                        7.625,
                        10.5
                    ],
                    "texture": "#0"
                },
                "down": {
                    "uv": [
                        7.5,
                        10.375,
                        7.625,
                        10.5
                    ],
                    "texture": "#0"
                }
            }
        },
        {
            "name": "Mag_uni_medium",
            "from": [
                8.27218,
                -2.43452,
                10.01061
            ],
            "to": [
                9.72782,
                -2.18452,
                12.79061
            ],
            "rotation": {
                "angle": 0,
                "axis": "y",
                "origin": [
                    9,
                    5.36548,
                    10.35061
                ]
            },
            "faces": {
                "north": {
                    "uv": [
                        7.5,
                        10.75,
                        7.625,
                        10.875
                    ],
                    "texture": "#0"
                },
                "east": {
                    "uv": [
                        7.5,
                        10.75,
                        7.625,
                        10.875
                    ],
                    "texture": "#0"
                },
                "south": {
                    "uv": [
                        7.5,
                        10.75,
                        7.625,
                        10.875
                    ],
                    "texture": "#0"
                },
                "west": {
                    "uv": [
                        7.5,
                        10.75,
                        7.625,
                        10.875
                    ],
                    "texture": "#0"
                },
                "up": {
                    "uv": [
                        7.5,
                        10.75,
                        7.625,
                        10.875
                    ],
                    "rotation": 180,
                    "texture": "#0"
                },
                "down": {
                    "uv": [
                        7.5,
                        10.75,
                        7.625,
                        10.875
                    ],
                    "rotation": 180,
                    "texture": "#0"
                }
            }
        }
    ],
    "display": {
        "thirdperson_righthand": {
            "translation": [
                -0.75,
                3.25,
                0.5
            ],
            "scale": [
                0.8,
                0.8,
                0.8
            ]
        },
        "thirdperson_lefthand": {
            "translation": [
                0.5,
                3.5,
                0.5
            ],
            "scale": [
                0.8,
                0.8,
                0.8
            ]
        },
        "firstperson_righthand": {
            "translation": [
                -5.5,
                6.5,
                1.25
            ],
            "scale": [
                1,
                1,
                0.9
            ]
        },
        "firstperson_lefthand": {
            "translation": [
                -5,
                6.75,
                1.75
            ],
            "scale": [
                1,
                1,
                0.9
            ]
        },
        "ground": {
            "translation": [
                0,
                2.5,
                0
            ],
            "scale": [
                0.88,
                0.88,
                0.88
            ]
        },
        "gui": {
            "rotation": [
                20,
                27,
                -14
            ],
            "translation": [
                -0.25,
                4.75,
                0
            ],
            "scale": [
                1.35547,
                1.35547,
                1.35547
            ]
        },
        "head": {
            "rotation": [
                0,
                122,
                90
            ],
            "translation": [
                -3.25,
                7.25,
                1.75
            ]
        },
        "fixed": {
            "rotation": [
                -45,
                90,
                45
            ],
            "translation": [
                0.25,
                4,
                0.25
            ]
        }
    }
}