{
    "textures": {
        "0": "gci:items/common/all_in_one",
        "2": "gci:items/common/mpz",
        "particle": "gci:items/common/all_in_one"
    },
    "elements": [
        {
            "from": [
                8.64292,
                6.7648,
                7.62644
            ],
            "to": [
                9.32632,
                6.90148,
                8.03648
            ],
            "rotation": {
                "angle": 0,
                "axis": "y",
                "origin": [
                    19.57732,
                    17.42584,
                    18.97088
                ]
            },
            "faces": {
                "north": {
                    "uv": [
                        9,
                        0.33333,
                        10.33333,
                        2.33333
                    ],
                    "texture": "#2"
                },
                "east": {
                    "uv": [
                        9,
                        0.33333,
                        10.33333,
                        2.33333
                    ],
                    "texture": "#2"
                },
                "south": {
                    "uv": [
                        9,
                        0.33333,
                        10.33333,
                        2.33333
                    ],
                    "texture": "#2"
                },
                "west": {
                    "uv": [
                        9,
                        0.33333,
                        10.33333,
                        2.33333
                    ],
                    "texture": "#2"
                },
                "up": {
                    "uv": [
                        9,
                        0.33333,
                        10.33333,
                        2.33333
                    ],
                    "texture": "#2"
                },
                "down": {
                    "uv": [
                        9,
                        0.33333,
                        10.33333,
                        2.33333
                    ],
                    "texture": "#2"
                }
            }
        },
        {
            "from": [
                8.95045,
                6.66229,
                7.5581
            ],
            "to": [
                9.01879,
                6.73063,
                7.69478
            ],
            "rotation": {
                "angle": -45,
                "axis": "z",
                "origin": [
                    8.95045,
                    6.66229,
                    7.5581
                ]
            },
            "faces": {
                "north": {
                    "uv": [
                        9,
                        0.33333,
                        10.33333,
                        2.33333
                    ],
                    "rotation": 90,
                    "texture": "#2"
                },
                "east": {
                    "uv": [
                        9,
                        0.33333,
                        10.33333,
                        2.33333
                    ],
                    "rotation": 90,
                    "texture": "#2"
                },
                "south": {
                    "uv": [
                        9,
                        0.33333,
                        10.33333,
                        2.33333
                    ],
                    "rotation": 90,
                    "texture": "#2"
                },
                "west": {
                    "uv": [
                        9,
                        0.33333,
                        10.33333,
                        2.33333
                    ],
                    "rotation": 90,
                    "texture": "#2"
                },
                "up": {
                    "uv": [
                        9,
                        0.33333,
                        10.33333,
                        2.33333
                    ],
                    "rotation": 90,
                    "texture": "#2"
                },
                "down": {
                    "uv": [
                        9,
                        0.33333,
                        10.33333,
                        2.33333
                    ],
                    "rotation": 90,
                    "texture": "#2"
                }
            }
        },
        {
            "from": [
                9.18964,
                6.83314,
                7.69478
            ],
            "to": [
                9.25798,
                7.1065,
                7.8998
            ],
            "rotation": {
                "angle": 0,
                "axis": "y",
                "origin": [
                    2.58897,
                    2.15771,
                    -7.61338
                ]
            },
            "faces": {
                "north": {
                    "uv": [
                        9,
                        0.33333,
                        10.33333,
                        2.33333
                    ],
                    "texture": "#2"
                },
                "east": {
                    "uv": [
                        9,
                        0.33333,
                        10.33333,
                        2.33333
                    ],
                    "texture": "#2"
                },
                "south": {
                    "uv": [
                        9,
                        0.33333,
                        10.33333,
                        2.33333
                    ],
                    "texture": "#2"
                },
                "west": {
                    "uv": [
                        9,
                        0.33333,
                        10.33333,
                        2.33333
                    ],
                    "texture": "#2"
                },
                "up": {
                    "uv": [
                        9,
                        0.33333,
                        10.33333,
                        2.33333
                    ],
                    "texture": "#2"
                },
                "down": {
                    "uv": [
                        9,
                        0.33333,
                        10.33333,
                        2.33333
                    ],
                    "texture": "#2"
                }
            }
        },
        {
            "from": [
                8.71126,
                6.83314,
                7.69478
            ],
            "to": [
                8.7796,
                7.1065,
                7.8998
            ],
            "rotation": {
                "angle": 0,
                "axis": "y",
                "origin": [
                    2.58897,
                    2.15771,
                    -7.61338
                ]
            },
            "faces": {
                "north": {
                    "uv": [
                        9,
                        0.33333,
                        10.33333,
                        2.33333
                    ],
                    "texture": "#2"
                },
                "east": {
                    "uv": [
                        9,
                        0.33333,
                        10.33333,
                        2.33333
                    ],
                    "texture": "#2"
                },
                "south": {
                    "uv": [
                        9,
                        0.33333,
                        10.33333,
                        2.33333
                    ],
                    "texture": "#2"
                },
                "west": {
                    "uv": [
                        9,
                        0.33333,
                        10.33333,
                        2.33333
                    ],
                    "texture": "#2"
                },
                "up": {
                    "uv": [
                        9,
                        0.33333,
                        10.33333,
                        2.33333
                    ],
                    "texture": "#2"
                },
                "down": {
                    "uv": [
                        9,
                        0.33333,
                        10.33333,
                        2.33333
                    ],
                    "texture": "#2"
                }
            }
        },
        {
            "from": [
                8.57458,
                6.35476,
                8.17316
            ],
            "to": [
                8.64292,
                6.7648,
                8.37818
            ],
            "rotation": {
                "angle": 0,
                "axis": "y",
                "origin": [
                    2.58897,
                    2.15771,
                    -7.61338
                ]
            },
            "faces": {
                "north": {
                    "uv": [
                        9,
                        0.33333,
                        10.33333,
                        2.33333
                    ],
                    "texture": "#2"
                },
                "east": {
                    "uv": [
                        9,
                        0.33333,
                        10.33333,
                        2.33333
                    ],
                    "texture": "#2"
                },
                "south": {
                    "uv": [
                        9,
                        0.33333,
                        10.33333,
                        2.33333
                    ],
                    "texture": "#2"
                },
                "west": {
                    "uv": [
                        9,
                        0.33333,
                        10.33333,
                        2.33333
                    ],
                    "texture": "#2"
                },
                "up": {
                    "uv": [
                        9,
                        0.33333,
                        10.33333,
                        2.33333
                    ],
                    "texture": "#2"
                },
                "down": {
                    "uv": [
                        9,
                        0.33333,
                        10.33333,
                        2.33333
                    ],
                    "texture": "#2"
                }
            }
        },
        {
            "from": [
                8.57458,
                6.35476,
                7.65378
            ],
            "to": [
                8.64292,
                6.7648,
                7.8588
            ],
            "rotation": {
                "angle": 0,
                "axis": "y",
                "origin": [
                    2.58897,
                    2.15771,
                    -7.61338
                ]
            },
            "faces": {
                "north": {
                    "uv": [
                        9,
                        0.33333,
                        10.33333,
                        2.33333
                    ],
                    "texture": "#2"
                },
                "east": {
                    "uv": [
                        9,
                        0.33333,
                        10.33333,
                        2.33333
                    ],
                    "texture": "#2"
                },
                "south": {
                    "uv": [
                        9,
                        0.33333,
                        10.33333,
                        2.33333
                    ],
                    "texture": "#2"
                },
                "west": {
                    "uv": [
                        9,
                        0.33333,
                        10.33333,
                        2.33333
                    ],
                    "texture": "#2"
                },
                "up": {
                    "uv": [
                        9,
                        0.33333,
                        10.33333,
                        2.33333
                    ],
                    "texture": "#2"
                },
                "down": {
                    "uv": [
                        9,
                        0.33333,
                        10.33333,
                        2.33333
                    ],
                    "texture": "#2"
                }
            }
        },
        {
            "from": [
                9.32632,
                6.35476,
                7.65378
            ],
            "to": [
                9.39466,
                6.7648,
                7.8588
            ],
            "rotation": {
                "angle": 0,
                "axis": "y",
                "origin": [
                    3.95577,
                    2.15771,
                    -7.61338
                ]
            },
            "faces": {
                "north": {
                    "uv": [
                        9,
                        0.33333,
                        10.33333,
                        2.33333
                    ],
                    "texture": "#2"
                },
                "east": {
                    "uv": [
                        9,
                        0.33333,
                        10.33333,
                        2.33333
                    ],
                    "texture": "#2"
                },
                "south": {
                    "uv": [
                        9,
                        0.33333,
                        10.33333,
                        2.33333
                    ],
                    "texture": "#2"
                },
                "west": {
                    "uv": [
                        9,
                        0.33333,
                        10.33333,
                        2.33333
                    ],
                    "texture": "#2"
                },
                "up": {
                    "uv": [
                        9,
                        0.33333,
                        10.33333,
                        2.33333
                    ],
                    "texture": "#2"
                },
                "down": {
                    "uv": [
                        9,
                        0.33333,
                        10.33333,
                        2.33333
                    ],
                    "texture": "#2"
                }
            }
        },
        {
            "from": [
                9.32632,
                6.35476,
                8.17316
            ],
            "to": [
                9.39466,
                6.7648,
                8.37818
            ],
            "rotation": {
                "angle": 0,
                "axis": "y",
                "origin": [
                    3.95577,
                    2.15771,
                    -7.61338
                ]
            },
            "faces": {
                "north": {
                    "uv": [
                        9,
                        0.33333,
                        10.33333,
                        2.33333
                    ],
                    "texture": "#2"
                },
                "east": {
                    "uv": [
                        9,
                        0.33333,
                        10.33333,
                        2.33333
                    ],
                    "texture": "#2"
                },
                "south": {
                    "uv": [
                        9,
                        0.33333,
                        10.33333,
                        2.33333
                    ],
                    "texture": "#2"
                },
                "west": {
                    "uv": [
                        9,
                        0.33333,
                        10.33333,
                        2.33333
                    ],
                    "texture": "#2"
                },
                "up": {
                    "uv": [
                        9,
                        0.33333,
                        10.33333,
                        2.33333
                    ],
                    "texture": "#2"
                },
                "down": {
                    "uv": [
                        9,
                        0.33333,
                        10.33333,
                        2.33333
                    ],
                    "texture": "#2"
                }
            }
        },
        {
            "from": [
                6.32859,
                13.16531,
                7.69478
            ],
            "to": [
                6.39693,
                13.37033,
                7.8998
            ],
            "rotation": {
                "angle": -45,
                "axis": "z",
                "origin": [
                    0.20629,
                    7.25976,
                    -7.61338
                ]
            },
            "faces": {
                "north": {
                    "uv": [
                        9,
                        0.33333,
                        10.33333,
                        2.33333
                    ],
                    "texture": "#2"
                },
                "east": {
                    "uv": [
                        9,
                        0.33333,
                        10.33333,
                        2.33333
                    ],
                    "texture": "#2"
                },
                "south": {
                    "uv": [
                        9,
                        0.33333,
                        10.33333,
                        2.33333
                    ],
                    "texture": "#2"
                },
                "west": {
                    "uv": [
                        9,
                        0.33333,
                        10.33333,
                        2.33333
                    ],
                    "texture": "#2"
                },
                "up": {
                    "uv": [
                        9,
                        0.33333,
                        10.33333,
                        2.33333
                    ],
                    "texture": "#2"
                },
                "down": {
                    "uv": [
                        9,
                        0.33333,
                        10.33333,
                        2.33333
                    ],
                    "texture": "#2"
                }
            }
        },
        {
            "from": [
                15.17868,
                4.45876,
                7.69478
            ],
            "to": [
                15.24702,
                4.66378,
                7.8998
            ],
            "rotation": {
                "angle": 45,
                "axis": "z",
                "origin": [
                    9.05639,
                    -1.4468,
                    -7.61338
                ]
            },
            "faces": {
                "north": {
                    "uv": [
                        9,
                        0.33333,
                        10.33333,
                        2.33333
                    ],
                    "texture": "#2"
                },
                "east": {
                    "uv": [
                        9,
                        0.33333,
                        10.33333,
                        2.33333
                    ],
                    "texture": "#2"
                },
                "south": {
                    "uv": [
                        9,
                        0.33333,
                        10.33333,
                        2.33333
                    ],
                    "texture": "#2"
                },
                "west": {
                    "uv": [
                        9,
                        0.33333,
                        10.33333,
                        2.33333
                    ],
                    "texture": "#2"
                },
                "up": {
                    "uv": [
                        9,
                        0.33333,
                        10.33333,
                        2.33333
                    ],
                    "texture": "#2"
                },
                "down": {
                    "uv": [
                        9,
                        0.33333,
                        10.33333,
                        2.33333
                    ],
                    "texture": "#2"
                }
            }
        },
        {
            "from": [
                8.85331,
                7.18314,
                7.69478
            ],
            "to": [
                9.113,
                7.25148,
                7.8998
            ],
            "rotation": {
                "angle": 0,
                "axis": "y",
                "origin": [
                    14.96388,
                    1.06084,
                    -7.61338
                ]
            },
            "faces": {
                "north": {
                    "uv": [
                        9,
                        0.33333,
                        10.33333,
                        2.33333
                    ],
                    "rotation": 270,
                    "texture": "#2"
                },
                "east": {
                    "uv": [
                        9,
                        0.33333,
                        10.33333,
                        2.33333
                    ],
                    "rotation": 270,
                    "texture": "#2"
                },
                "south": {
                    "uv": [
                        9,
                        0.33333,
                        10.33333,
                        2.33333
                    ],
                    "rotation": 270,
                    "texture": "#2"
                },
                "west": {
                    "uv": [
                        9,
                        0.33333,
                        10.33333,
                        2.33333
                    ],
                    "rotation": 270,
                    "texture": "#2"
                },
                "up": {
                    "uv": [
                        9,
                        0.33333,
                        10.33333,
                        2.33333
                    ],
                    "rotation": 270,
                    "texture": "#2"
                },
                "down": {
                    "uv": [
                        9,
                        0.33333,
                        10.33333,
                        2.33333
                    ],
                    "rotation": 270,
                    "texture": "#2"
                }
            }
        },
        {
            "from": [
                8.94979,
                6.99018,
                7.83548
            ],
            "to": [
                9.01652,
                7.05852,
                7.83548
            ],
            "rotation": {
                "angle": 0,
                "axis": "y",
                "origin": [
                    14.96388,
                    0.86788,
                    -7.61338
                ]
            },
            "faces": {
                "north": {
                    "uv": [
                        5.66667,
                        14,
                        7,
                        16
                    ],
                    "rotation": 270,
                    "texture": "#2"
                },
                "east": {
                    "uv": [
                        5.66667,
                        14,
                        7,
                        16
                    ],
                    "rotation": 270,
                    "texture": "#2"
                },
                "south": {
                    "uv": [
                        5.66667,
                        14,
                        7,
                        16
                    ],
                    "rotation": 270,
                    "texture": "#2"
                },
                "west": {
                    "uv": [
                        5.66667,
                        14,
                        7,
                        16
                    ],
                    "rotation": 270,
                    "texture": "#2"
                },
                "up": {
                    "uv": [
                        5.66667,
                        14,
                        7,
                        16
                    ],
                    "rotation": 270,
                    "texture": "#2"
                },
                "down": {
                    "uv": [
                        5.66667,
                        14,
                        7,
                        16
                    ],
                    "rotation": 270,
                    "texture": "#2"
                }
            }
        },
        {
            "from": [
                8.64292,
                6.55978,
                7.62644
            ],
            "to": [
                9.32632,
                6.7648,
                8.9249
            ],
            "rotation": {
                "angle": 0,
                "axis": "y",
                "origin": [
                    19.57732,
                    17.42584,
                    18.97088
                ]
            },
            "faces": {
                "north": {
                    "uv": [
                        9,
                        0.33333,
                        10.33333,
                        2.33333
                    ],
                    "texture": "#2"
                },
                "east": {
                    "uv": [
                        9,
                        0.33333,
                        10.33333,
                        2.33333
                    ],
                    "texture": "#2"
                },
                "south": {
                    "uv": [
                        9,
                        0.33333,
                        10.33333,
                        2.33333
                    ],
                    "texture": "#2"
                },
                "west": {
                    "uv": [
                        9,
                        0.33333,
                        10.33333,
                        2.33333
                    ],
                    "texture": "#2"
                },
                "up": {
                    "uv": [
                        9,
                        0.33333,
                        10.33333,
                        2.33333
                    ],
                    "texture": "#2"
                },
                "down": {
                    "uv": [
                        9,
                        0.33333,
                        10.33333,
                        2.33333
                    ],
                    "texture": "#2"
                }
            }
        },
        {
            "from": [
                8.64292,
                6.7648,
                7.62644
            ],
            "to": [
                9.32632,
                6.90148,
                8.03648
            ],
            "rotation": {
                "angle": 0,
                "axis": "y",
                "origin": [
                    19.57732,
                    17.42584,
                    18.97088
                ]
            },
            "faces": {
                "north": {
                    "uv": [
                        9,
                        0.33333,
                        10.33333,
                        2.33333
                    ],
                    "texture": "#2"
                },
                "east": {
                    "uv": [
                        9,
                        0.33333,
                        10.33333,
                        2.33333
                    ],
                    "texture": "#2"
                },
                "south": {
                    "uv": [
                        9,
                        0.33333,
                        10.33333,
                        2.33333
                    ],
                    "texture": "#2"
                },
                "west": {
                    "uv": [
                        9,
                        0.33333,
                        10.33333,
                        2.33333
                    ],
                    "texture": "#2"
                },
                "up": {
                    "uv": [
                        9,
                        0.33333,
                        10.33333,
                        2.33333
                    ],
                    "texture": "#2"
                },
                "down": {
                    "uv": [
                        9,
                        0.33333,
                        10.33333,
                        2.33333
                    ],
                    "texture": "#2"
                }
            }
        },
        {
            "from": [
                8.95045,
                6.66229,
                7.5581
            ],
            "to": [
                9.01879,
                6.73063,
                7.69478
            ],
            "rotation": {
                "angle": -45,
                "axis": "z",
                "origin": [
                    8.95045,
                    6.66229,
                    7.5581
                ]
            },
            "faces": {
                "north": {
                    "uv": [
                        9,
                        0.33333,
                        10.33333,
                        2.33333
                    ],
                    "rotation": 90,
                    "texture": "#2"
                },
                "east": {
                    "uv": [
                        9,
                        0.33333,
                        10.33333,
                        2.33333
                    ],
                    "rotation": 90,
                    "texture": "#2"
                },
                "south": {
                    "uv": [
                        9,
                        0.33333,
                        10.33333,
                        2.33333
                    ],
                    "rotation": 90,
                    "texture": "#2"
                },
                "west": {
                    "uv": [
                        9,
                        0.33333,
                        10.33333,
                        2.33333
                    ],
                    "rotation": 90,
                    "texture": "#2"
                },
                "up": {
                    "uv": [
                        9,
                        0.33333,
                        10.33333,
                        2.33333
                    ],
                    "rotation": 90,
                    "texture": "#2"
                },
                "down": {
                    "uv": [
                        9,
                        0.33333,
                        10.33333,
                        2.33333
                    ],
                    "rotation": 90,
                    "texture": "#2"
                }
            }
        },
        {
            "from": [
                9.18964,
                6.83314,
                7.69478
            ],
            "to": [
                9.25798,
                7.1065,
                7.8998
            ],
            "rotation": {
                "angle": 0,
                "axis": "y",
                "origin": [
                    2.58897,
                    2.15771,
                    -7.61338
                ]
            },
            "faces": {
                "north": {
                    "uv": [
                        9,
                        0.33333,
                        10.33333,
                        2.33333
                    ],
                    "texture": "#2"
                },
                "east": {
                    "uv": [
                        9,
                        0.33333,
                        10.33333,
                        2.33333
                    ],
                    "texture": "#2"
                },
                "south": {
                    "uv": [
                        9,
                        0.33333,
                        10.33333,
                        2.33333
                    ],
                    "texture": "#2"
                },
                "west": {
                    "uv": [
                        9,
                        0.33333,
                        10.33333,
                        2.33333
                    ],
                    "texture": "#2"
                },
                "up": {
                    "uv": [
                        9,
                        0.33333,
                        10.33333,
                        2.33333
                    ],
                    "texture": "#2"
                },
                "down": {
                    "uv": [
                        9,
                        0.33333,
                        10.33333,
                        2.33333
                    ],
                    "texture": "#2"
                }
            }
        },
        {
            "from": [
                8.71126,
                6.83314,
                7.69478
            ],
            "to": [
                8.7796,
                7.1065,
                7.8998
            ],
            "rotation": {
                "angle": 0,
                "axis": "y",
                "origin": [
                    2.58897,
                    2.15771,
                    -7.61338
                ]
            },
            "faces": {
                "north": {
                    "uv": [
                        9,
                        0.33333,
                        10.33333,
                        2.33333
                    ],
                    "texture": "#2"
                },
                "east": {
                    "uv": [
                        9,
                        0.33333,
                        10.33333,
                        2.33333
                    ],
                    "texture": "#2"
                },
                "south": {
                    "uv": [
                        9,
                        0.33333,
                        10.33333,
                        2.33333
                    ],
                    "texture": "#2"
                },
                "west": {
                    "uv": [
                        9,
                        0.33333,
                        10.33333,
                        2.33333
                    ],
                    "texture": "#2"
                },
                "up": {
                    "uv": [
                        9,
                        0.33333,
                        10.33333,
                        2.33333
                    ],
                    "texture": "#2"
                },
                "down": {
                    "uv": [
                        9,
                        0.33333,
                        10.33333,
                        2.33333
                    ],
                    "texture": "#2"
                }
            }
        },
        {
            "from": [
                8.57458,
                6.35476,
                8.17316
            ],
            "to": [
                8.64292,
                6.7648,
                8.37818
            ],
            "rotation": {
                "angle": 0,
                "axis": "y",
                "origin": [
                    2.58897,
                    2.15771,
                    -7.61338
                ]
            },
            "faces": {
                "north": {
                    "uv": [
                        9,
                        0.33333,
                        10.33333,
                        2.33333
                    ],
                    "texture": "#2"
                },
                "east": {
                    "uv": [
                        9,
                        0.33333,
                        10.33333,
                        2.33333
                    ],
                    "texture": "#2"
                },
                "south": {
                    "uv": [
                        9,
                        0.33333,
                        10.33333,
                        2.33333
                    ],
                    "texture": "#2"
                },
                "west": {
                    "uv": [
                        9,
                        0.33333,
                        10.33333,
                        2.33333
                    ],
                    "texture": "#2"
                },
                "up": {
                    "uv": [
                        9,
                        0.33333,
                        10.33333,
                        2.33333
                    ],
                    "texture": "#2"
                },
                "down": {
                    "uv": [
                        9,
                        0.33333,
                        10.33333,
                        2.33333
                    ],
                    "texture": "#2"
                }
            }
        },
        {
            "from": [
                8.57458,
                6.35476,
                7.65378
            ],
            "to": [
                8.64292,
                6.7648,
                7.8588
            ],
            "rotation": {
                "angle": 0,
                "axis": "y",
                "origin": [
                    2.58897,
                    2.15771,
                    -7.61338
                ]
            },
            "faces": {
                "north": {
                    "uv": [
                        9,
                        0.33333,
                        10.33333,
                        2.33333
                    ],
                    "texture": "#2"
                },
                "east": {
                    "uv": [
                        9,
                        0.33333,
                        10.33333,
                        2.33333
                    ],
                    "texture": "#2"
                },
                "south": {
                    "uv": [
                        9,
                        0.33333,
                        10.33333,
                        2.33333
                    ],
                    "texture": "#2"
                },
                "west": {
                    "uv": [
                        9,
                        0.33333,
                        10.33333,
                        2.33333
                    ],
                    "texture": "#2"
                },
                "up": {
                    "uv": [
                        9,
                        0.33333,
                        10.33333,
                        2.33333
                    ],
                    "texture": "#2"
                },
                "down": {
                    "uv": [
                        9,
                        0.33333,
                        10.33333,
                        2.33333
                    ],
                    "texture": "#2"
                }
            }
        },
        {
            "from": [
                9.32632,
                6.35476,
                7.65378
            ],
            "to": [
                9.39466,
                6.7648,
                7.8588
            ],
            "rotation": {
                "angle": 0,
                "axis": "y",
                "origin": [
                    3.95577,
                    2.15771,
                    -7.61338
                ]
            },
            "faces": {
                "north": {
                    "uv": [
                        9,
                        0.33333,
                        10.33333,
                        2.33333
                    ],
                    "texture": "#2"
                },
                "east": {
                    "uv": [
                        9,
                        0.33333,
                        10.33333,
                        2.33333
                    ],
                    "texture": "#2"
                },
                "south": {
                    "uv": [
                        9,
                        0.33333,
                        10.33333,
                        2.33333
                    ],
                    "texture": "#2"
                },
                "west": {
                    "uv": [
                        9,
                        0.33333,
                        10.33333,
                        2.33333
                    ],
                    "texture": "#2"
                },
                "up": {
                    "uv": [
                        9,
                        0.33333,
                        10.33333,
                        2.33333
                    ],
                    "texture": "#2"
                },
                "down": {
                    "uv": [
                        9,
                        0.33333,
                        10.33333,
                        2.33333
                    ],
                    "texture": "#2"
                }
            }
        },
        {
            "from": [
                9.32632,
                6.35476,
                8.17316
            ],
            "to": [
                9.39466,
                6.7648,
                8.37818
            ],
            "rotation": {
                "angle": 0,
                "axis": "y",
                "origin": [
                    3.95577,
                    2.15771,
                    -7.61338
                ]
            },
            "faces": {
                "north": {
                    "uv": [
                        9,
                        0.33333,
                        10.33333,
                        2.33333
                    ],
                    "texture": "#2"
                },
                "east": {
                    "uv": [
                        9,
                        0.33333,
                        10.33333,
                        2.33333
                    ],
                    "texture": "#2"
                },
                "south": {
                    "uv": [
                        9,
                        0.33333,
                        10.33333,
                        2.33333
                    ],
                    "texture": "#2"
                },
                "west": {
                    "uv": [
                        9,
                        0.33333,
                        10.33333,
                        2.33333
                    ],
                    "texture": "#2"
                },
                "up": {
                    "uv": [
                        9,
                        0.33333,
                        10.33333,
                        2.33333
                    ],
                    "texture": "#2"
                },
                "down": {
                    "uv": [
                        9,
                        0.33333,
                        10.33333,
                        2.33333
                    ],
                    "texture": "#2"
                }
            }
        },
        {
            "from": [
                6.32859,
                13.16531,
                7.69478
            ],
            "to": [
                6.39693,
                13.37033,
                7.8998
            ],
            "rotation": {
                "angle": -45,
                "axis": "z",
                "origin": [
                    0.20629,
                    7.25976,
                    -7.61338
                ]
            },
            "faces": {
                "north": {
                    "uv": [
                        9,
                        0.33333,
                        10.33333,
                        2.33333
                    ],
                    "texture": "#2"
                },
                "east": {
                    "uv": [
                        9,
                        0.33333,
                        10.33333,
                        2.33333
                    ],
                    "texture": "#2"
                },
                "south": {
                    "uv": [
                        9,
                        0.33333,
                        10.33333,
                        2.33333
                    ],
                    "texture": "#2"
                },
                "west": {
                    "uv": [
                        9,
                        0.33333,
                        10.33333,
                        2.33333
                    ],
                    "texture": "#2"
                },
                "up": {
                    "uv": [
                        9,
                        0.33333,
                        10.33333,
                        2.33333
                    ],
                    "texture": "#2"
                },
                "down": {
                    "uv": [
                        9,
                        0.33333,
                        10.33333,
                        2.33333
                    ],
                    "texture": "#2"
                }
            }
        },
        {
            "from": [
                15.17868,
                4.45876,
                7.69478
            ],
            "to": [
                15.24702,
                4.66378,
                7.8998
            ],
            "rotation": {
                "angle": 45,
                "axis": "z",
                "origin": [
                    9.05639,
                    -1.4468,
                    -7.61338
                ]
            },
            "faces": {
                "north": {
                    "uv": [
                        9,
                        0.33333,
                        10.33333,
                        2.33333
                    ],
                    "texture": "#2"
                },
                "east": {
                    "uv": [
                        9,
                        0.33333,
                        10.33333,
                        2.33333
                    ],
                    "texture": "#2"
                },
                "south": {
                    "uv": [
                        9,
                        0.33333,
                        10.33333,
                        2.33333
                    ],
                    "texture": "#2"
                },
                "west": {
                    "uv": [
                        9,
                        0.33333,
                        10.33333,
                        2.33333
                    ],
                    "texture": "#2"
                },
                "up": {
                    "uv": [
                        9,
                        0.33333,
                        10.33333,
                        2.33333
                    ],
                    "texture": "#2"
                },
                "down": {
                    "uv": [
                        9,
                        0.33333,
                        10.33333,
                        2.33333
                    ],
                    "texture": "#2"
                }
            }
        },
        {
            "from": [
                8.85331,
                7.18314,
                7.69478
            ],
            "to": [
                9.113,
                7.25148,
                7.8998
            ],
            "rotation": {
                "angle": 0,
                "axis": "y",
                "origin": [
                    14.96388,
                    1.06084,
                    -7.61338
                ]
            },
            "faces": {
                "north": {
                    "uv": [
                        9,
                        0.33333,
                        10.33333,
                        2.33333
                    ],
                    "rotation": 270,
                    "texture": "#2"
                },
                "east": {
                    "uv": [
                        9,
                        0.33333,
                        10.33333,
                        2.33333
                    ],
                    "rotation": 270,
                    "texture": "#2"
                },
                "south": {
                    "uv": [
                        9,
                        0.33333,
                        10.33333,
                        2.33333
                    ],
                    "rotation": 270,
                    "texture": "#2"
                },
                "west": {
                    "uv": [
                        9,
                        0.33333,
                        10.33333,
                        2.33333
                    ],
                    "rotation": 270,
                    "texture": "#2"
                },
                "up": {
                    "uv": [
                        9,
                        0.33333,
                        10.33333,
                        2.33333
                    ],
                    "rotation": 270,
                    "texture": "#2"
                },
                "down": {
                    "uv": [
                        9,
                        0.33333,
                        10.33333,
                        2.33333
                    ],
                    "rotation": 270,
                    "texture": "#2"
                }
            }
        },
        {
            "from": [
                8.94979,
                6.99018,
                7.83548
            ],
            "to": [
                9.01652,
                7.05852,
                7.83548
            ],
            "rotation": {
                "angle": 0,
                "axis": "y",
                "origin": [
                    14.96388,
                    0.86788,
                    -7.61338
                ]
            },
            "faces": {
                "north": {
                    "uv": [
                        5.66667,
                        14,
                        7,
                        16
                    ],
                    "rotation": 270,
                    "texture": "#2"
                },
                "east": {
                    "uv": [
                        5.66667,
                        14,
                        7,
                        16
                    ],
                    "rotation": 270,
                    "texture": "#2"
                },
                "south": {
                    "uv": [
                        5.66667,
                        14,
                        7,
                        16
                    ],
                    "rotation": 270,
                    "texture": "#2"
                },
                "west": {
                    "uv": [
                        5.66667,
                        14,
                        7,
                        16
                    ],
                    "rotation": 270,
                    "texture": "#2"
                },
                "up": {
                    "uv": [
                        5.66667,
                        14,
                        7,
                        16
                    ],
                    "rotation": 270,
                    "texture": "#2"
                },
                "down": {
                    "uv": [
                        5.66667,
                        14,
                        7,
                        16
                    ],
                    "rotation": 270,
                    "texture": "#2"
                }
            }
        }
    ],
    "display": {
        "thirdperson_righthand": {
            "translation": [
                -0.75,
                3.25,
                0.5
            ],
            "scale": [
                0.8,
                0.8,
                0.8
            ]
        },
        "thirdperson_lefthand": {
            "translation": [
                0.5,
                3.5,
                0.5
            ],
            "scale": [
                0.8,
                0.8,
                0.8
            ]
        },
        "firstperson_righthand": {
            "translation": [
                -5.5,
                6.5,
                1.25
            ],
            "scale": [
                1,
                1,
                0.9
            ]
        },
        "firstperson_lefthand": {
            "translation": [
                -5,
                6.75,
                1.75
            ],
            "scale": [
                1,
                1,
                0.9
            ]
        },
        "ground": {
            "translation": [
                0,
                2.5,
                0
            ],
            "scale": [
                0.88,
                0.88,
                0.88
            ]
        },
        "gui": {
            "rotation": [
                20,
                27,
                -14
            ],
            "translation": [
                -0.25,
                4.75,
                0
            ],
            "scale": [
                1.35547,
                1.35547,
                1.35547
            ]
        },
        "head": {
            "rotation": [
                0,
                122,
                90
            ],
            "translation": [
                -3.25,
                7.25,
                1.75
            ]
        },
        "fixed": {
            "rotation": [
                -45,
                90,
                45
            ],
            "translation": [
                0.25,
                4,
                0.25
            ]
        }
    }
}