{
    "textures": {
        "0": "gci:items/common/all_in_one",
        "2": "gci:items/common/mpz",
        "particle": "gci:items/common/all_in_one"
    },
    "elements": [
        {
            "from": [
                8.70492,
                6.4839,
                7.58472
            ],
            "to": [
                9.26492,
                6.6939,
                9.53072
            ],
            "rotation": {
                "angle": 0,
                "axis": "y",
                "origin": [
                    8.71892,
                    6.49244,
                    7.85772
                ]
            },
            "faces": {
                "north": {
                    "uv": [
                        8.66667,
                        0.66667,
                        9.66667,
                        2
                    ],
                    "rotation": 180,
                    "texture": "#2"
                },
                "east": {
                    "uv": [
                        8.66667,
                        0.66667,
                        9.66667,
                        2
                    ],
                    "rotation": 180,
                    "texture": "#2"
                },
                "south": {
                    "uv": [
                        8.66667,
                        0.66667,
                        9.66667,
                        2
                    ],
                    "rotation": 180,
                    "texture": "#2"
                },
                "west": {
                    "uv": [
                        8.66667,
                        0.66667,
                        9.66667,
                        2
                    ],
                    "rotation": 180,
                    "texture": "#2"
                },
                "up": {
                    "uv": [
                        8.66667,
                        0.66667,
                        9.66667,
                        2
                    ],
                    "rotation": 180,
                    "texture": "#2"
                },
                "down": {
                    "uv": [
                        8.66667,
                        0.66667,
                        9.66667,
                        2
                    ],
                    "rotation": 180,
                    "texture": "#2"
                }
            }
        },
        {
            "from": [
                8.70492,
                6.63239,
                7.73321
            ],
            "to": [
                9.26492,
                6.84239,
                9.53921
            ],
            "rotation": {
                "angle": 0,
                "axis": "y",
                "origin": [
                    8.71892,
                    6.64093,
                    7.86621
                ]
            },
            "faces": {
                "north": {
                    "uv": [
                        8.66667,
                        0.66667,
                        9.66667,
                        2
                    ],
                    "rotation": 180,
                    "texture": "#2"
                },
                "east": {
                    "uv": [
                        8.66667,
                        0.66667,
                        9.66667,
                        2
                    ],
                    "rotation": 180,
                    "texture": "#2"
                },
                "south": {
                    "uv": [
                        8.66667,
                        0.66667,
                        9.66667,
                        2
                    ],
                    "rotation": 180,
                    "texture": "#2"
                },
                "west": {
                    "uv": [
                        8.66667,
                        0.66667,
                        9.66667,
                        2
                    ],
                    "rotation": 180,
                    "texture": "#2"
                },
                "up": {
                    "uv": [
                        8.66667,
                        0.66667,
                        9.66667,
                        2
                    ],
                    "rotation": 180,
                    "texture": "#2"
                },
                "down": {
                    "uv": [
                        8.66667,
                        0.66667,
                        9.66667,
                        2
                    ],
                    "rotation": 180,
                    "texture": "#2"
                }
            }
        },
        {
            "from": [
                8.70492,
                6.5889,
                7.62821
            ],
            "to": [
                9.26492,
                6.7989,
                7.83821
            ],
            "rotation": {
                "angle": 45,
                "axis": "x",
                "origin": [
                    8.98492,
                    6.6939,
                    7.73321
                ]
            },
            "faces": {
                "north": {
                    "uv": [
                        8.66667,
                        0.66667,
                        9.66667,
                        2
                    ],
                    "rotation": 180,
                    "texture": "#2"
                },
                "east": {
                    "uv": [
                        8.66667,
                        0.66667,
                        9.66667,
                        2
                    ],
                    "rotation": 180,
                    "texture": "#2"
                },
                "south": {
                    "uv": [
                        8.66667,
                        0.66667,
                        9.66667,
                        2
                    ],
                    "rotation": 180,
                    "texture": "#2"
                },
                "west": {
                    "uv": [
                        8.66667,
                        0.66667,
                        9.66667,
                        2
                    ],
                    "rotation": 180,
                    "texture": "#2"
                },
                "up": {
                    "uv": [
                        8.66667,
                        0.66667,
                        9.66667,
                        2
                    ],
                    "rotation": 180,
                    "texture": "#2"
                },
                "down": {
                    "uv": [
                        8.66667,
                        0.66667,
                        9.66667,
                        2
                    ],
                    "rotation": 180,
                    "texture": "#2"
                }
            }
        },
        {
            "from": [
                8.70492,
                6.474,
                8.42061
            ],
            "to": [
                8.71892,
                7.244,
                8.84061
            ],
            "rotation": {
                "angle": 45,
                "axis": "x",
                "origin": [
                    8.71192,
                    6.859,
                    8.63761
                ]
            },
            "faces": {
                "north": {
                    "uv": [
                        8.66667,
                        0.66667,
                        9.66667,
                        2
                    ],
                    "rotation": 180,
                    "texture": "#2"
                },
                "east": {
                    "uv": [
                        8.66667,
                        0.66667,
                        9.66667,
                        2
                    ],
                    "rotation": 180,
                    "texture": "#2"
                },
                "south": {
                    "uv": [
                        8.66667,
                        0.66667,
                        9.66667,
                        2
                    ],
                    "rotation": 180,
                    "texture": "#2"
                },
                "west": {
                    "uv": [
                        8.66667,
                        0.66667,
                        9.66667,
                        2
                    ],
                    "rotation": 180,
                    "texture": "#2"
                },
                "up": {
                    "uv": [
                        8.66667,
                        0.66667,
                        9.66667,
                        2
                    ],
                    "rotation": 180,
                    "texture": "#2"
                },
                "down": {
                    "uv": [
                        8.66667,
                        0.66667,
                        9.66667,
                        2
                    ],
                    "rotation": 180,
                    "texture": "#2"
                }
            }
        },
        {
            "from": [
                8.70492,
                6.51467,
                8.7564
            ],
            "to": [
                8.71892,
                7.28467,
                9.1624
            ],
            "rotation": {
                "angle": 0,
                "axis": "y",
                "origin": [
                    8.71192,
                    6.89967,
                    8.9594
                ]
            },
            "faces": {
                "north": {
                    "uv": [
                        8.66667,
                        0.66667,
                        9.66667,
                        2
                    ],
                    "rotation": 180,
                    "texture": "#2"
                },
                "east": {
                    "uv": [
                        8.66667,
                        0.66667,
                        9.66667,
                        2
                    ],
                    "rotation": 180,
                    "texture": "#2"
                },
                "south": {
                    "uv": [
                        8.66667,
                        0.66667,
                        9.66667,
                        2
                    ],
                    "rotation": 180,
                    "texture": "#2"
                },
                "west": {
                    "uv": [
                        8.66667,
                        0.66667,
                        9.66667,
                        2
                    ],
                    "rotation": 180,
                    "texture": "#2"
                },
                "up": {
                    "uv": [
                        8.66667,
                        0.66667,
                        9.66667,
                        2
                    ],
                    "rotation": 180,
                    "texture": "#2"
                },
                "down": {
                    "uv": [
                        8.66667,
                        0.66667,
                        9.66667,
                        2
                    ],
                    "rotation": 180,
                    "texture": "#2"
                }
            }
        },
        {
            "from": [
                9.25092,
                6.51467,
                8.7564
            ],
            "to": [
                9.26492,
                7.28467,
                9.1624
            ],
            "rotation": {
                "angle": 0,
                "axis": "y",
                "origin": [
                    9.25792,
                    6.89967,
                    8.9594
                ]
            },
            "faces": {
                "north": {
                    "uv": [
                        8.66667,
                        0.66667,
                        9.66667,
                        2
                    ],
                    "rotation": 180,
                    "texture": "#2"
                },
                "east": {
                    "uv": [
                        8.66667,
                        0.66667,
                        9.66667,
                        2
                    ],
                    "rotation": 180,
                    "texture": "#2"
                },
                "south": {
                    "uv": [
                        8.66667,
                        0.66667,
                        9.66667,
                        2
                    ],
                    "rotation": 180,
                    "texture": "#2"
                },
                "west": {
                    "uv": [
                        8.66667,
                        0.66667,
                        9.66667,
                        2
                    ],
                    "rotation": 180,
                    "texture": "#2"
                },
                "up": {
                    "uv": [
                        8.66667,
                        0.66667,
                        9.66667,
                        2
                    ],
                    "rotation": 180,
                    "texture": "#2"
                },
                "down": {
                    "uv": [
                        8.66667,
                        0.66667,
                        9.66667,
                        2
                    ],
                    "rotation": 180,
                    "texture": "#2"
                }
            }
        },
        {
            "from": [
                8.70492,
                7.27067,
                8.7564
            ],
            "to": [
                9.25092,
                7.28467,
                9.1624
            ],
            "rotation": {
                "angle": 0,
                "axis": "y",
                "origin": [
                    8.71192,
                    7.65567,
                    8.9594
                ]
            },
            "faces": {
                "north": {
                    "uv": [
                        8.66667,
                        0.66667,
                        9.66667,
                        2
                    ],
                    "rotation": 180,
                    "texture": "#2"
                },
                "east": {
                    "uv": [
                        8.66667,
                        0.66667,
                        9.66667,
                        2
                    ],
                    "rotation": 180,
                    "texture": "#2"
                },
                "south": {
                    "uv": [
                        8.66667,
                        0.66667,
                        9.66667,
                        2
                    ],
                    "rotation": 180,
                    "texture": "#2"
                },
                "west": {
                    "uv": [
                        8.66667,
                        0.66667,
                        9.66667,
                        2
                    ],
                    "rotation": 180,
                    "texture": "#2"
                },
                "up": {
                    "uv": [
                        8.66667,
                        0.66667,
                        9.66667,
                        2
                    ],
                    "rotation": 180,
                    "texture": "#2"
                },
                "down": {
                    "uv": [
                        8.66667,
                        0.66667,
                        9.66667,
                        2
                    ],
                    "rotation": 180,
                    "texture": "#2"
                }
            }
        },
        {
            "from": [
                8.70492,
                6.60021,
                8.21194
            ],
            "to": [
                8.71892,
                6.74021,
                8.61794
            ],
            "rotation": {
                "angle": 0,
                "axis": "y",
                "origin": [
                    8.71192,
                    6.98521,
                    8.41494
                ]
            },
            "faces": {
                "north": {
                    "uv": [
                        8.66667,
                        0.66667,
                        9.66667,
                        2
                    ],
                    "rotation": 180,
                    "texture": "#2"
                },
                "east": {
                    "uv": [
                        8.66667,
                        0.66667,
                        9.66667,
                        2
                    ],
                    "rotation": 180,
                    "texture": "#2"
                },
                "south": {
                    "uv": [
                        8.66667,
                        0.66667,
                        9.66667,
                        2
                    ],
                    "rotation": 180,
                    "texture": "#2"
                },
                "west": {
                    "uv": [
                        8.66667,
                        0.66667,
                        9.66667,
                        2
                    ],
                    "rotation": 180,
                    "texture": "#2"
                },
                "up": {
                    "uv": [
                        8.66667,
                        0.66667,
                        9.66667,
                        2
                    ],
                    "rotation": 180,
                    "texture": "#2"
                },
                "down": {
                    "uv": [
                        8.66667,
                        0.66667,
                        9.66667,
                        2
                    ],
                    "rotation": 180,
                    "texture": "#2"
                }
            }
        },
        {
            "from": [
                9.25092,
                6.60021,
                8.21194
            ],
            "to": [
                9.26492,
                6.74021,
                8.61794
            ],
            "rotation": {
                "angle": 0,
                "axis": "y",
                "origin": [
                    9.25792,
                    6.98521,
                    8.41494
                ]
            },
            "faces": {
                "north": {
                    "uv": [
                        8.66667,
                        0.66667,
                        9.66667,
                        2
                    ],
                    "rotation": 180,
                    "texture": "#2"
                },
                "east": {
                    "uv": [
                        8.66667,
                        0.66667,
                        9.66667,
                        2
                    ],
                    "rotation": 180,
                    "texture": "#2"
                },
                "south": {
                    "uv": [
                        8.66667,
                        0.66667,
                        9.66667,
                        2
                    ],
                    "rotation": 180,
                    "texture": "#2"
                },
                "west": {
                    "uv": [
                        8.66667,
                        0.66667,
                        9.66667,
                        2
                    ],
                    "rotation": 180,
                    "texture": "#2"
                },
                "up": {
                    "uv": [
                        8.66667,
                        0.66667,
                        9.66667,
                        2
                    ],
                    "rotation": 180,
                    "texture": "#2"
                },
                "down": {
                    "uv": [
                        8.66667,
                        0.66667,
                        9.66667,
                        2
                    ],
                    "rotation": 180,
                    "texture": "#2"
                }
            }
        },
        {
            "from": [
                9.25092,
                6.474,
                8.42061
            ],
            "to": [
                9.26492,
                7.244,
                8.84061
            ],
            "rotation": {
                "angle": 45,
                "axis": "x",
                "origin": [
                    9.27192,
                    6.859,
                    8.63761
                ]
            },
            "faces": {
                "north": {
                    "uv": [
                        8.66667,
                        0.66667,
                        9.66667,
                        2
                    ],
                    "rotation": 180,
                    "texture": "#2"
                },
                "east": {
                    "uv": [
                        8.66667,
                        0.66667,
                        9.66667,
                        2
                    ],
                    "rotation": 180,
                    "texture": "#2"
                },
                "south": {
                    "uv": [
                        8.66667,
                        0.66667,
                        9.66667,
                        2
                    ],
                    "rotation": 180,
                    "texture": "#2"
                },
                "west": {
                    "uv": [
                        8.66667,
                        0.66667,
                        9.66667,
                        2
                    ],
                    "rotation": 180,
                    "texture": "#2"
                },
                "up": {
                    "uv": [
                        8.66667,
                        0.66667,
                        9.66667,
                        2
                    ],
                    "rotation": 180,
                    "texture": "#2"
                },
                "down": {
                    "uv": [
                        8.66667,
                        0.66667,
                        9.66667,
                        2
                    ],
                    "rotation": 180,
                    "texture": "#2"
                }
            }
        },
        {
            "from": [
                8.68008,
                6.48621,
                7.58472
            ],
            "to": [
                8.79208,
                6.59821,
                9.53072
            ],
            "rotation": {
                "angle": -22.5,
                "axis": "z",
                "origin": [
                    8.73608,
                    6.54221,
                    8.55772
                ]
            },
            "faces": {
                "north": {
                    "uv": [
                        8.66667,
                        0.66667,
                        9.66667,
                        2
                    ],
                    "rotation": 90,
                    "texture": "#2"
                },
                "east": {
                    "uv": [
                        8.66667,
                        0.66667,
                        9.66667,
                        2
                    ],
                    "rotation": 90,
                    "texture": "#2"
                },
                "south": {
                    "uv": [
                        8.66667,
                        0.66667,
                        9.66667,
                        2
                    ],
                    "rotation": 90,
                    "texture": "#2"
                },
                "west": {
                    "uv": [
                        8.66667,
                        0.66667,
                        9.66667,
                        2
                    ],
                    "rotation": 90,
                    "texture": "#2"
                },
                "up": {
                    "uv": [
                        8.66667,
                        0.66667,
                        9.66667,
                        2
                    ],
                    "rotation": 90,
                    "texture": "#2"
                },
                "down": {
                    "uv": [
                        8.66667,
                        0.66667,
                        9.66667,
                        2
                    ],
                    "rotation": 90,
                    "texture": "#2"
                }
            }
        },
        {
            "from": [
                8.70492,
                6.5119,
                7.58472
            ],
            "to": [
                9.26492,
                6.6239,
                9.53072
            ],
            "rotation": {
                "angle": 0,
                "axis": "y",
                "origin": [
                    8.71892,
                    6.52044,
                    7.85772
                ]
            },
            "faces": {
                "north": {
                    "uv": [
                        8.66667,
                        0.66667,
                        9.66667,
                        2
                    ],
                    "rotation": 180,
                    "texture": "#2"
                },
                "east": {
                    "uv": [
                        8.66667,
                        0.66667,
                        9.66667,
                        2
                    ],
                    "rotation": 180,
                    "texture": "#2"
                },
                "south": {
                    "uv": [
                        8.66667,
                        0.66667,
                        9.66667,
                        2
                    ],
                    "rotation": 180,
                    "texture": "#2"
                },
                "west": {
                    "uv": [
                        8.66667,
                        0.66667,
                        9.66667,
                        2
                    ],
                    "rotation": 180,
                    "texture": "#2"
                },
                "up": {
                    "uv": [
                        8.66667,
                        0.66667,
                        9.66667,
                        2
                    ],
                    "rotation": 180,
                    "texture": "#2"
                },
                "down": {
                    "uv": [
                        8.66667,
                        0.66667,
                        9.66667,
                        2
                    ],
                    "rotation": 180,
                    "texture": "#2"
                }
            }
        },
        {
            "from": [
                8.66292,
                6.3719,
                7.58472
            ],
            "to": [
                9.30692,
                6.5119,
                9.53072
            ],
            "rotation": {
                "angle": 0,
                "axis": "y",
                "origin": [
                    8.71892,
                    6.38044,
                    7.85772
                ]
            },
            "faces": {
                "north": {
                    "uv": [
                        8.66667,
                        0.66667,
                        9.66667,
                        2
                    ],
                    "rotation": 180,
                    "texture": "#2"
                },
                "east": {
                    "uv": [
                        6,
                        0.66667,
                        7,
                        2
                    ],
                    "rotation": 180,
                    "texture": "#2"
                },
                "south": {
                    "uv": [
                        8.66667,
                        0.66667,
                        9.66667,
                        2
                    ],
                    "rotation": 180,
                    "texture": "#2"
                },
                "west": {
                    "uv": [
                        6,
                        0.66667,
                        7,
                        2
                    ],
                    "rotation": 180,
                    "texture": "#2"
                },
                "up": {
                    "uv": [
                        8.66667,
                        0.66667,
                        9.66667,
                        2
                    ],
                    "rotation": 180,
                    "texture": "#2"
                },
                "down": {
                    "uv": [
                        0.33333,
                        1,
                        1.33333,
                        2.33333
                    ],
                    "rotation": 180,
                    "texture": "#2"
                }
            }
        },
        {
            "from": [
                9.17775,
                6.48621,
                7.58472
            ],
            "to": [
                9.28975,
                6.59821,
                9.53072
            ],
            "rotation": {
                "angle": 22.5,
                "axis": "z",
                "origin": [
                    9.23375,
                    6.54221,
                    8.55772
                ]
            },
            "faces": {
                "north": {
                    "uv": [
                        8.66667,
                        0.66667,
                        9.66667,
                        2
                    ],
                    "rotation": 90,
                    "texture": "#2"
                },
                "east": {
                    "uv": [
                        8.66667,
                        0.66667,
                        9.66667,
                        2
                    ],
                    "rotation": 90,
                    "texture": "#2"
                },
                "south": {
                    "uv": [
                        8.66667,
                        0.66667,
                        9.66667,
                        2
                    ],
                    "rotation": 90,
                    "texture": "#2"
                },
                "west": {
                    "uv": [
                        8.66667,
                        0.66667,
                        9.66667,
                        2
                    ],
                    "rotation": 90,
                    "texture": "#2"
                },
                "up": {
                    "uv": [
                        8.66667,
                        0.66667,
                        9.66667,
                        2
                    ],
                    "rotation": 90,
                    "texture": "#2"
                },
                "down": {
                    "uv": [
                        8.66667,
                        0.66667,
                        9.66667,
                        2
                    ],
                    "rotation": 90,
                    "texture": "#2"
                }
            }
        },
        {
            "from": [
                8.95292,
                7.0231,
                8.93992
            ],
            "to": [
                9.03092,
                7.1011,
                8.93992
            ],
            "rotation": {
                "angle": 0,
                "axis": "y",
                "origin": [
                    8.9649,
                    7.00289,
                    8.8315
                ]
            },
            "faces": {
                "north": {
                    "uv": [
                        5.66667,
                        14.33333,
                        6.66667,
                        15.66667
                    ],
                    "rotation": 90,
                    "texture": "#2"
                },
                "east": {
                    "uv": [
                        5.66667,
                        14.33333,
                        6.66667,
                        15.66667
                    ],
                    "rotation": 90,
                    "texture": "#2"
                },
                "south": {
                    "uv": [
                        5.66667,
                        14.33333,
                        6.66667,
                        15.66667
                    ],
                    "rotation": 90,
                    "texture": "#2"
                },
                "west": {
                    "uv": [
                        5.66667,
                        14.33333,
                        6.66667,
                        15.66667
                    ],
                    "rotation": 90,
                    "texture": "#2"
                },
                "up": {
                    "uv": [
                        5.66667,
                        14.33333,
                        6.66667,
                        15.66667
                    ],
                    "rotation": 90,
                    "texture": "#2"
                },
                "down": {
                    "uv": [
                        5.66667,
                        14.33333,
                        6.66667,
                        15.66667
                    ],
                    "rotation": 90,
                    "texture": "#2"
                }
            }
        },
        {
            "from": [
                8.56492,
                6.32444,
                9.12472
            ],
            "to": [
                9.40492,
                6.43644,
                9.39072
            ],
            "rotation": {
                "angle": 0,
                "axis": "y",
                "origin": [
                    8.71892,
                    6.38044,
                    9.25772
                ]
            },
            "faces": {
                "north": {
                    "uv": [
                        0.66667,
                        0.66667,
                        1.66667,
                        2
                    ],
                    "rotation": 180,
                    "texture": "#2"
                },
                "east": {
                    "uv": [
                        0.66667,
                        0.66667,
                        1.66667,
                        2
                    ],
                    "rotation": 180,
                    "texture": "#2"
                },
                "south": {
                    "uv": [
                        0.66667,
                        0.66667,
                        1.66667,
                        2
                    ],
                    "rotation": 180,
                    "texture": "#2"
                },
                "west": {
                    "uv": [
                        0.66667,
                        0.66667,
                        1.66667,
                        2
                    ],
                    "rotation": 180,
                    "texture": "#2"
                },
                "up": {
                    "uv": [
                        0.66667,
                        0.66667,
                        1.66667,
                        2
                    ],
                    "rotation": 180,
                    "texture": "#2"
                },
                "down": {
                    "uv": [
                        0.66667,
                        0.66667,
                        1.66667,
                        2
                    ],
                    "rotation": 180,
                    "texture": "#2"
                }
            }
        },
        {
            "from": [
                8.56492,
                6.24744,
                9.20172
            ],
            "to": [
                9.40492,
                6.51344,
                9.31372
            ],
            "rotation": {
                "angle": 45,
                "axis": "x",
                "origin": [
                    8.71892,
                    6.38044,
                    9.25772
                ]
            },
            "faces": {
                "north": {
                    "uv": [
                        0.66667,
                        0.66667,
                        1.66667,
                        2
                    ],
                    "rotation": 90,
                    "texture": "#2"
                },
                "east": {
                    "uv": [
                        0.66667,
                        0.66667,
                        1.66667,
                        2
                    ],
                    "rotation": 90,
                    "texture": "#2"
                },
                "south": {
                    "uv": [
                        0.66667,
                        0.66667,
                        1.66667,
                        2
                    ],
                    "rotation": 90,
                    "texture": "#2"
                },
                "west": {
                    "uv": [
                        0.66667,
                        0.66667,
                        1.66667,
                        2
                    ],
                    "rotation": 90,
                    "texture": "#2"
                },
                "up": {
                    "uv": [
                        0.66667,
                        0.66667,
                        1.66667,
                        2
                    ],
                    "rotation": 90,
                    "texture": "#2"
                },
                "down": {
                    "uv": [
                        0.66667,
                        0.66667,
                        1.66667,
                        2
                    ],
                    "rotation": 90,
                    "texture": "#2"
                }
            }
        },
        {
            "from": [
                8.56492,
                6.24744,
                9.20172
            ],
            "to": [
                9.40492,
                6.51344,
                9.31372
            ],
            "rotation": {
                "angle": -45,
                "axis": "x",
                "origin": [
                    8.71892,
                    6.38044,
                    9.25772
                ]
            },
            "faces": {
                "north": {
                    "uv": [
                        0.66667,
                        0.66667,
                        1.66667,
                        2
                    ],
                    "rotation": 90,
                    "texture": "#2"
                },
                "east": {
                    "uv": [
                        0.66667,
                        0.66667,
                        1.66667,
                        2
                    ],
                    "rotation": 90,
                    "texture": "#2"
                },
                "south": {
                    "uv": [
                        0.66667,
                        0.66667,
                        1.66667,
                        2
                    ],
                    "rotation": 90,
                    "texture": "#2"
                },
                "west": {
                    "uv": [
                        0.66667,
                        0.66667,
                        1.66667,
                        2
                    ],
                    "rotation": 90,
                    "texture": "#2"
                },
                "up": {
                    "uv": [
                        0.66667,
                        0.66667,
                        1.66667,
                        2
                    ],
                    "rotation": 90,
                    "texture": "#2"
                },
                "down": {
                    "uv": [
                        0.66667,
                        0.66667,
                        1.66667,
                        2
                    ],
                    "rotation": 90,
                    "texture": "#2"
                }
            }
        },
        {
            "from": [
                8.56492,
                6.24744,
                9.20172
            ],
            "to": [
                9.40492,
                6.51344,
                9.31372
            ],
            "rotation": {
                "angle": 0,
                "axis": "y",
                "origin": [
                    8.71892,
                    6.38044,
                    9.25772
                ]
            },
            "faces": {
                "north": {
                    "uv": [
                        0.66667,
                        0.66667,
                        1.66667,
                        2
                    ],
                    "rotation": 90,
                    "texture": "#2"
                },
                "east": {
                    "uv": [
                        0.66667,
                        0.66667,
                        1.66667,
                        2
                    ],
                    "rotation": 90,
                    "texture": "#2"
                },
                "south": {
                    "uv": [
                        0.66667,
                        0.66667,
                        1.66667,
                        2
                    ],
                    "rotation": 90,
                    "texture": "#2"
                },
                "west": {
                    "uv": [
                        0.66667,
                        0.66667,
                        1.66667,
                        2
                    ],
                    "rotation": 90,
                    "texture": "#2"
                },
                "up": {
                    "uv": [
                        0.66667,
                        0.66667,
                        1.66667,
                        2
                    ],
                    "rotation": 90,
                    "texture": "#2"
                },
                "down": {
                    "uv": [
                        0.66667,
                        0.66667,
                        1.66667,
                        2
                    ],
                    "rotation": 90,
                    "texture": "#2"
                }
            }
        },
        {
            "from": [
                8.56492,
                6.24744,
                7.80172
            ],
            "to": [
                9.40492,
                6.51344,
                7.91372
            ],
            "rotation": {
                "angle": -45,
                "axis": "x",
                "origin": [
                    8.71892,
                    6.38044,
                    7.85772
                ]
            },
            "faces": {
                "north": {
                    "uv": [
                        0.66667,
                        0.66667,
                        1.66667,
                        2
                    ],
                    "rotation": 90,
                    "texture": "#2"
                },
                "east": {
                    "uv": [
                        0.66667,
                        0.66667,
                        1.66667,
                        2
                    ],
                    "rotation": 90,
                    "texture": "#2"
                },
                "south": {
                    "uv": [
                        0.66667,
                        0.66667,
                        1.66667,
                        2
                    ],
                    "rotation": 90,
                    "texture": "#2"
                },
                "west": {
                    "uv": [
                        0.66667,
                        0.66667,
                        1.66667,
                        2
                    ],
                    "rotation": 90,
                    "texture": "#2"
                },
                "up": {
                    "uv": [
                        0.66667,
                        0.66667,
                        1.66667,
                        2
                    ],
                    "rotation": 90,
                    "texture": "#2"
                },
                "down": {
                    "uv": [
                        0.66667,
                        0.66667,
                        1.66667,
                        2
                    ],
                    "rotation": 90,
                    "texture": "#2"
                }
            }
        },
        {
            "from": [
                8.56492,
                6.32444,
                7.72472
            ],
            "to": [
                9.40492,
                6.43644,
                7.99072
            ],
            "rotation": {
                "angle": 0,
                "axis": "y",
                "origin": [
                    8.71892,
                    6.38044,
                    7.85772
                ]
            },
            "faces": {
                "north": {
                    "uv": [
                        0.66667,
                        0.66667,
                        1.66667,
                        2
                    ],
                    "rotation": 180,
                    "texture": "#2"
                },
                "east": {
                    "uv": [
                        0.66667,
                        0.66667,
                        1.66667,
                        2
                    ],
                    "rotation": 180,
                    "texture": "#2"
                },
                "south": {
                    "uv": [
                        0.66667,
                        0.66667,
                        1.66667,
                        2
                    ],
                    "rotation": 180,
                    "texture": "#2"
                },
                "west": {
                    "uv": [
                        0.66667,
                        0.66667,
                        1.66667,
                        2
                    ],
                    "rotation": 180,
                    "texture": "#2"
                },
                "up": {
                    "uv": [
                        0.66667,
                        0.66667,
                        1.66667,
                        2
                    ],
                    "rotation": 180,
                    "texture": "#2"
                },
                "down": {
                    "uv": [
                        0.66667,
                        0.66667,
                        1.66667,
                        2
                    ],
                    "rotation": 180,
                    "texture": "#2"
                }
            }
        },
        {
            "from": [
                8.56492,
                6.24744,
                7.80172
            ],
            "to": [
                9.40492,
                6.51344,
                7.91372
            ],
            "rotation": {
                "angle": 45,
                "axis": "x",
                "origin": [
                    8.71892,
                    6.38044,
                    7.85772
                ]
            },
            "faces": {
                "north": {
                    "uv": [
                        0.66667,
                        0.66667,
                        1.66667,
                        2
                    ],
                    "rotation": 90,
                    "texture": "#2"
                },
                "east": {
                    "uv": [
                        0.66667,
                        0.66667,
                        1.66667,
                        2
                    ],
                    "rotation": 90,
                    "texture": "#2"
                },
                "south": {
                    "uv": [
                        0.66667,
                        0.66667,
                        1.66667,
                        2
                    ],
                    "rotation": 90,
                    "texture": "#2"
                },
                "west": {
                    "uv": [
                        0.66667,
                        0.66667,
                        1.66667,
                        2
                    ],
                    "rotation": 90,
                    "texture": "#2"
                },
                "up": {
                    "uv": [
                        0.66667,
                        0.66667,
                        1.66667,
                        2
                    ],
                    "rotation": 90,
                    "texture": "#2"
                },
                "down": {
                    "uv": [
                        0.66667,
                        0.66667,
                        1.66667,
                        2
                    ],
                    "rotation": 90,
                    "texture": "#2"
                }
            }
        },
        {
            "from": [
                8.56492,
                6.24744,
                7.80172
            ],
            "to": [
                9.40492,
                6.51344,
                7.91372
            ],
            "rotation": {
                "angle": 0,
                "axis": "y",
                "origin": [
                    8.71892,
                    6.38044,
                    7.85772
                ]
            },
            "faces": {
                "north": {
                    "uv": [
                        0.66667,
                        0.66667,
                        1.66667,
                        2
                    ],
                    "rotation": 90,
                    "texture": "#2"
                },
                "east": {
                    "uv": [
                        0.66667,
                        0.66667,
                        1.66667,
                        2
                    ],
                    "rotation": 90,
                    "texture": "#2"
                },
                "south": {
                    "uv": [
                        0.66667,
                        0.66667,
                        1.66667,
                        2
                    ],
                    "rotation": 90,
                    "texture": "#2"
                },
                "west": {
                    "uv": [
                        0.66667,
                        0.66667,
                        1.66667,
                        2
                    ],
                    "rotation": 90,
                    "texture": "#2"
                },
                "up": {
                    "uv": [
                        0.66667,
                        0.66667,
                        1.66667,
                        2
                    ],
                    "rotation": 90,
                    "texture": "#2"
                },
                "down": {
                    "uv": [
                        0.66667,
                        0.66667,
                        1.66667,
                        2
                    ],
                    "rotation": 90,
                    "texture": "#2"
                }
            }
        }
    ],
    "display": {
        "thirdperson_righthand": {
            "translation": [
                -0.75,
                3.25,
                0.5
            ],
            "scale": [
                0.8,
                0.8,
                0.8
            ]
        },
        "thirdperson_lefthand": {
            "translation": [
                0.5,
                3.5,
                0.5
            ],
            "scale": [
                0.8,
                0.8,
                0.8
            ]
        },
        "firstperson_righthand": {
            "translation": [
                -5.5,
                6.5,
                1.25
            ],
            "scale": [
                1,
                1,
                0.9
            ]
        },
        "firstperson_lefthand": {
            "translation": [
                -5,
                6.75,
                1.75
            ],
            "scale": [
                1,
                1,
                0.9
            ]
        },
        "ground": {
            "translation": [
                0,
                2.5,
                0
            ],
            "scale": [
                0.88,
                0.88,
                0.88
            ]
        },
        "gui": {
            "rotation": [
                20,
                27,
                -14
            ],
            "translation": [
                -0.25,
                4.75,
                0
            ],
            "scale": [
                1.35547,
                1.35547,
                1.35547
            ]
        },
        "head": {
            "rotation": [
                0,
                122,
                90
            ],
            "translation": [
                -3.25,
                7.25,
                1.75
            ]
        },
        "fixed": {
            "rotation": [
                -45,
                90,
                45
            ],
            "translation": [
                0.25,
                4,
                0.25
            ]
        }
    }
}