{
	"credit": "Made with Blockbench",
	"textures": {
		"0": "gci:items/common/all_in_one",
		"particle": "gci:items/common/all_in_one"
	},
	"elements": [
		{
			"from": [8.175, 8.14368, -6.41229],
			"to": [8.475, 8.44368, 3.67571],
			"rotation": {"angle": 0, "axis": "z", "origin": [8.325, 8.29368, -1.36829]},
			"faces": {
				"north": {"uv": [3.875, 11.625, 4, 11.75], "rotation": 270, "texture": "#0"},
				"east": {"uv": [3.75, 11.5, 3.875, 11.625], "rotation": 270, "texture": "#0"},
				"south": {"uv": [4, 11.625, 4.125, 11.75], "rotation": 270, "texture": "#0"},
				"west": {"uv": [3.75, 11.75, 3.875, 11.875], "rotation": 270, "texture": "#0"},
				"up": {"uv": [3.875, 11.375, 4, 11.5], "rotation": 270, "texture": "#0"},
				"down": {"uv": [4, 11.5, 4.125, 11.625], "rotation": 270, "texture": "#0"}
			}
		},
		{
			"from": [8.075, 8.04368, -6.31229],
			"to": [8.575, 8.54368, -5.82429],
			"rotation": {"angle": -45, "axis": "z", "origin": [8.325, 8.29368, -6.06829]},
			"faces": {
				"north": {"uv": [3.875, 11.625, 4, 11.75], "texture": "#0"},
				"east": {"uv": [3.75, 11.5, 3.875, 11.625], "rotation": 180, "texture": "#0"},
				"south": {"uv": [4, 11.625, 4.125, 11.75], "rotation": 180, "texture": "#0"},
				"west": {"uv": [3.75, 11.75, 3.875, 11.875], "rotation": 180, "texture": "#0"},
				"up": {"uv": [3.875, 11.375, 4, 11.5], "rotation": 180, "texture": "#0"},
				"down": {"uv": [4, 11.5, 4.125, 11.625], "rotation": 180, "texture": "#0"}
			}
		},
		{
			"from": [7.875, 7.84368, -5.91229],
			"to": [8.775, 8.74368, -5.82429],
			"rotation": {"angle": 45, "axis": "z", "origin": [8.325, 8.29368, -6.46829]},
			"faces": {
				"north": {"uv": [3.875, 11.625, 4, 11.75], "rotation": 270, "texture": "#0"},
				"east": {"uv": [3.75, 11.5, 3.875, 11.625], "rotation": 270, "texture": "#0"},
				"south": {"uv": [4, 11.625, 4.125, 11.75], "rotation": 270, "texture": "#0"},
				"west": {"uv": [3.75, 11.75, 3.875, 11.875], "rotation": 270, "texture": "#0"},
				"up": {"uv": [3.875, 11.375, 4, 11.5], "rotation": 270, "texture": "#0"},
				"down": {"uv": [4, 11.5, 4.125, 11.625], "rotation": 270, "texture": "#0"}
			}
		},
		{
			"from": [7.875, 7.84368, -5.21229],
			"to": [8.775, 8.74368, -5.12429],
			"rotation": {"angle": 45, "axis": "z", "origin": [8.325, 8.29368, -5.76829]},
			"faces": {
				"north": {"uv": [3.875, 11.625, 4, 11.75], "rotation": 270, "texture": "#0"},
				"east": {"uv": [3.75, 11.5, 3.875, 11.625], "rotation": 270, "texture": "#0"},
				"south": {"uv": [4, 11.625, 4.125, 11.75], "rotation": 270, "texture": "#0"},
				"west": {"uv": [3.75, 11.75, 3.875, 11.875], "rotation": 270, "texture": "#0"},
				"up": {"uv": [3.875, 11.375, 4, 11.5], "rotation": 270, "texture": "#0"},
				"down": {"uv": [4, 11.5, 4.125, 11.625], "rotation": 270, "texture": "#0"}
			}
		},
		{
			"from": [7.875, 7.84368, -4.51229],
			"to": [8.775, 8.74368, -4.42429],
			"rotation": {"angle": 45, "axis": "z", "origin": [8.325, 8.29368, -5.06829]},
			"faces": {
				"north": {"uv": [3.875, 11.625, 4, 11.75], "rotation": 270, "texture": "#0"},
				"east": {"uv": [3.75, 11.5, 3.875, 11.625], "rotation": 270, "texture": "#0"},
				"south": {"uv": [4, 11.625, 4.125, 11.75], "rotation": 270, "texture": "#0"},
				"west": {"uv": [3.75, 11.75, 3.875, 11.875], "rotation": 270, "texture": "#0"},
				"up": {"uv": [3.875, 11.375, 4, 11.5], "rotation": 270, "texture": "#0"},
				"down": {"uv": [4, 11.5, 4.125, 11.625], "rotation": 270, "texture": "#0"}
			}
		},
		{
			"from": [7.875, 7.84368, -3.81229],
			"to": [8.775, 8.74368, -3.72429],
			"rotation": {"angle": 45, "axis": "z", "origin": [8.325, 8.29368, -4.36829]},
			"faces": {
				"north": {"uv": [3.875, 11.625, 4, 11.75], "rotation": 270, "texture": "#0"},
				"east": {"uv": [3.75, 11.5, 3.875, 11.625], "rotation": 270, "texture": "#0"},
				"south": {"uv": [4, 11.625, 4.125, 11.75], "rotation": 270, "texture": "#0"},
				"west": {"uv": [3.75, 11.75, 3.875, 11.875], "rotation": 270, "texture": "#0"},
				"up": {"uv": [3.875, 11.375, 4, 11.5], "rotation": 270, "texture": "#0"},
				"down": {"uv": [4, 11.5, 4.125, 11.625], "rotation": 270, "texture": "#0"}
			}
		},
		{
			"from": [7.875, 7.84368, -3.11229],
			"to": [8.775, 8.74368, -3.02429],
			"rotation": {"angle": 45, "axis": "z", "origin": [8.325, 8.29368, -3.66829]},
			"faces": {
				"north": {"uv": [3.875, 11.625, 4, 11.75], "rotation": 270, "texture": "#0"},
				"east": {"uv": [3.75, 11.5, 3.875, 11.625], "rotation": 270, "texture": "#0"},
				"south": {"uv": [4, 11.625, 4.125, 11.75], "rotation": 270, "texture": "#0"},
				"west": {"uv": [3.75, 11.75, 3.875, 11.875], "rotation": 270, "texture": "#0"},
				"up": {"uv": [3.875, 11.375, 4, 11.5], "rotation": 270, "texture": "#0"},
				"down": {"uv": [4, 11.5, 4.125, 11.625], "rotation": 270, "texture": "#0"}
			}
		},
		{
			"from": [7.875, 7.84368, -2.41229],
			"to": [8.775, 8.74368, -2.32429],
			"rotation": {"angle": 45, "axis": "z", "origin": [8.325, 8.29368, -2.96829]},
			"faces": {
				"north": {"uv": [3.875, 11.625, 4, 11.75], "rotation": 270, "texture": "#0"},
				"east": {"uv": [3.75, 11.5, 3.875, 11.625], "rotation": 270, "texture": "#0"},
				"south": {"uv": [4, 11.625, 4.125, 11.75], "rotation": 270, "texture": "#0"},
				"west": {"uv": [3.75, 11.75, 3.875, 11.875], "rotation": 270, "texture": "#0"},
				"up": {"uv": [3.875, 11.375, 4, 11.5], "rotation": 270, "texture": "#0"},
				"down": {"uv": [4, 11.5, 4.125, 11.625], "rotation": 270, "texture": "#0"}
			}
		},
		{
			"from": [7.875, 7.84368, -1.71229],
			"to": [8.775, 8.74368, -1.62429],
			"rotation": {"angle": 45, "axis": "z", "origin": [8.325, 8.29368, -2.26829]},
			"faces": {
				"north": {"uv": [3.875, 11.625, 4, 11.75], "rotation": 270, "texture": "#0"},
				"east": {"uv": [3.75, 11.5, 3.875, 11.625], "rotation": 270, "texture": "#0"},
				"south": {"uv": [4, 11.625, 4.125, 11.75], "rotation": 270, "texture": "#0"},
				"west": {"uv": [3.75, 11.75, 3.875, 11.875], "rotation": 270, "texture": "#0"},
				"up": {"uv": [3.875, 11.375, 4, 11.5], "rotation": 270, "texture": "#0"},
				"down": {"uv": [4, 11.5, 4.125, 11.625], "rotation": 270, "texture": "#0"}
			}
		},
		{
			"from": [7.875, 7.84368, -1.01229],
			"to": [8.775, 8.74368, -0.92429],
			"rotation": {"angle": 45, "axis": "z", "origin": [8.325, 8.29368, -1.56829]},
			"faces": {
				"north": {"uv": [3.875, 11.625, 4, 11.75], "rotation": 270, "texture": "#0"},
				"east": {"uv": [3.75, 11.5, 3.875, 11.625], "rotation": 270, "texture": "#0"},
				"south": {"uv": [4, 11.625, 4.125, 11.75], "rotation": 270, "texture": "#0"},
				"west": {"uv": [3.75, 11.75, 3.875, 11.875], "rotation": 270, "texture": "#0"},
				"up": {"uv": [3.875, 11.375, 4, 11.5], "rotation": 270, "texture": "#0"},
				"down": {"uv": [4, 11.5, 4.125, 11.625], "rotation": 270, "texture": "#0"}
			}
		},
		{
			"from": [7.875, 7.84368, -0.31229],
			"to": [8.775, 8.74368, -0.22429],
			"rotation": {"angle": 45, "axis": "z", "origin": [8.325, 8.29368, -0.86829]},
			"faces": {
				"north": {"uv": [3.875, 11.625, 4, 11.75], "rotation": 270, "texture": "#0"},
				"east": {"uv": [3.75, 11.5, 3.875, 11.625], "rotation": 270, "texture": "#0"},
				"south": {"uv": [4, 11.625, 4.125, 11.75], "rotation": 270, "texture": "#0"},
				"west": {"uv": [3.75, 11.75, 3.875, 11.875], "rotation": 270, "texture": "#0"},
				"up": {"uv": [3.875, 11.375, 4, 11.5], "rotation": 270, "texture": "#0"},
				"down": {"uv": [4, 11.5, 4.125, 11.625], "rotation": 270, "texture": "#0"}
			}
		},
		{
			"from": [7.775, 7.74368, 0.38771],
			"to": [8.875, 8.84368, 0.47571],
			"rotation": {"angle": 45, "axis": "z", "origin": [8.325, 8.29368, -0.16829]},
			"faces": {
				"north": {"uv": [3.875, 11.625, 4, 11.75], "rotation": 270, "texture": "#0"},
				"east": {"uv": [3.75, 11.5, 3.875, 11.625], "rotation": 270, "texture": "#0"},
				"south": {"uv": [4, 11.625, 4.125, 11.75], "rotation": 270, "texture": "#0"},
				"west": {"uv": [3.75, 11.75, 3.875, 11.875], "rotation": 270, "texture": "#0"},
				"up": {"uv": [3.875, 11.375, 4, 11.5], "rotation": 270, "texture": "#0"},
				"down": {"uv": [4, 11.5, 4.125, 11.625], "rotation": 270, "texture": "#0"}
			}
		},
		{
			"from": [7.8025, 7.64058, 0.85],
			"to": [8.8525, 8.90058, 0.97],
			"rotation": {"angle": 0, "axis": "y", "origin": [8.3233, 6.76838, -1.36829]},
			"faces": {
				"north": {"uv": [0.875, 10.625, 1, 10.75], "rotation": 270, "texture": "#0"},
				"east": {"uv": [1, 10.75, 1.125, 10.875], "rotation": 270, "texture": "#0"},
				"south": {"uv": [0.75, 10.75, 0.875, 10.875], "rotation": 270, "texture": "#0"},
				"west": {"uv": [1, 10.375, 1.125, 10.5], "rotation": 270, "texture": "#0"},
				"up": {"uv": [1, 10.875, 1.125, 11], "rotation": 270, "texture": "#0"},
				"down": {"uv": [1, 10.625, 1.125, 10.75], "rotation": 270, "texture": "#0"}
			}
		},
		{
			"from": [7.575, 7.34368, 1.05],
			"to": [9.075, 9.14368, 1.17],
			"rotation": {"angle": 0, "axis": "y", "origin": [8.319, 6.09768, -1.16829]},
			"faces": {
				"north": {"uv": [0.875, 10.625, 1, 10.75], "rotation": 270, "texture": "#0"},
				"east": {"uv": [1, 10.75, 1.125, 10.875], "rotation": 270, "texture": "#0"},
				"south": {"uv": [0.75, 10.75, 0.875, 10.875], "rotation": 270, "texture": "#0"},
				"west": {"uv": [1, 10.375, 1.125, 10.5], "rotation": 270, "texture": "#0"},
				"up": {"uv": [1, 10.875, 1.125, 11], "rotation": 270, "texture": "#0"},
				"down": {"uv": [1, 10.625, 1.125, 10.75], "rotation": 270, "texture": "#0"}
			}
		},
		{
			"from": [7.63, 3.85242, 1.05],
			"to": [9.43, 6.01242, 1.17],
			"rotation": {"angle": 0, "axis": "y", "origin": [8.5228, 2.35722, -1.16829]},
			"faces": {
				"north": {"uv": [0.875, 10.625, 1, 10.75], "rotation": 270, "texture": "#0"},
				"east": {"uv": [1, 10.75, 1.125, 10.875], "rotation": 270, "texture": "#0"},
				"south": {"uv": [0.75, 10.75, 0.875, 10.875], "rotation": 270, "texture": "#0"},
				"west": {"uv": [1, 10.375, 1.125, 10.5], "rotation": 270, "texture": "#0"},
				"up": {"uv": [1, 10.875, 1.125, 11], "rotation": 270, "texture": "#0"},
				"down": {"uv": [1, 10.625, 1.125, 10.75], "rotation": 270, "texture": "#0"}
			}
		},
		{
			"from": [7.903, 4.20869, 0.85],
			"to": [9.163, 5.72069, 0.97],
			"rotation": {"angle": 0, "axis": "y", "origin": [8.52796, 3.16205, -1.36829]},
			"faces": {
				"north": {"uv": [0.875, 10.625, 1, 10.75], "rotation": 270, "texture": "#0"},
				"east": {"uv": [1, 10.75, 1.125, 10.875], "rotation": 270, "texture": "#0"},
				"south": {"uv": [0.75, 10.75, 0.875, 10.875], "rotation": 270, "texture": "#0"},
				"west": {"uv": [1, 10.375, 1.125, 10.5], "rotation": 270, "texture": "#0"},
				"up": {"uv": [1, 10.875, 1.125, 11], "rotation": 270, "texture": "#0"},
				"down": {"uv": [1, 10.625, 1.125, 10.75], "rotation": 270, "texture": "#0"}
			}
		},
		{
			"from": [7.875, 4.34368, 0.38771],
			"to": [9.175, 5.64368, 0.47571],
			"rotation": {"angle": 0, "axis": "z", "origin": [8.525, 4.99368, 0.43171]},
			"faces": {
				"north": {"uv": [3.875, 11.625, 4, 11.75], "texture": "#0"},
				"east": {"uv": [3.75, 11.5, 3.875, 11.625], "rotation": 180, "texture": "#0"},
				"south": {"uv": [4, 11.625, 4.125, 11.75], "rotation": 180, "texture": "#0"},
				"west": {"uv": [3.75, 11.75, 3.875, 11.875], "rotation": 180, "texture": "#0"},
				"up": {"uv": [3.875, 11.375, 4, 11.5], "rotation": 180, "texture": "#0"},
				"down": {"uv": [4, 11.5, 4.125, 11.625], "rotation": 180, "texture": "#0"}
			}
		},
		{
			"from": [7.975, 4.44368, -0.31229],
			"to": [9.075, 5.54368, -0.22429],
			"rotation": {"angle": 0, "axis": "z", "origin": [8.525, 4.99368, -0.86829]},
			"faces": {
				"north": {"uv": [3.875, 11.625, 4, 11.75], "texture": "#0"},
				"east": {"uv": [3.75, 11.5, 3.875, 11.625], "rotation": 180, "texture": "#0"},
				"south": {"uv": [4, 11.625, 4.125, 11.75], "rotation": 180, "texture": "#0"},
				"west": {"uv": [3.75, 11.75, 3.875, 11.875], "rotation": 180, "texture": "#0"},
				"up": {"uv": [3.875, 11.375, 4, 11.5], "rotation": 180, "texture": "#0"},
				"down": {"uv": [4, 11.5, 4.125, 11.625], "rotation": 180, "texture": "#0"}
			}
		},
		{
			"from": [7.975, 4.44368, -1.01229],
			"to": [9.075, 5.54368, -0.92429],
			"rotation": {"angle": 0, "axis": "y", "origin": [8.525, 4.99368, -1.56829]},
			"faces": {
				"north": {"uv": [3.875, 11.625, 4, 11.75], "texture": "#0"},
				"east": {"uv": [3.75, 11.5, 3.875, 11.625], "rotation": 180, "texture": "#0"},
				"south": {"uv": [4, 11.625, 4.125, 11.75], "rotation": 180, "texture": "#0"},
				"west": {"uv": [3.75, 11.75, 3.875, 11.875], "rotation": 180, "texture": "#0"},
				"up": {"uv": [3.875, 11.375, 4, 11.5], "rotation": 180, "texture": "#0"},
				"down": {"uv": [4, 11.5, 4.125, 11.625], "rotation": 180, "texture": "#0"}
			}
		},
		{
			"from": [7.975, 4.44368, -1.71229],
			"to": [9.075, 5.54368, -1.62429],
			"rotation": {"angle": 0, "axis": "y", "origin": [8.525, 4.99368, -2.26829]},
			"faces": {
				"north": {"uv": [3.875, 11.625, 4, 11.75], "texture": "#0"},
				"east": {"uv": [3.75, 11.5, 3.875, 11.625], "rotation": 180, "texture": "#0"},
				"south": {"uv": [4, 11.625, 4.125, 11.75], "rotation": 180, "texture": "#0"},
				"west": {"uv": [3.75, 11.75, 3.875, 11.875], "rotation": 180, "texture": "#0"},
				"up": {"uv": [3.875, 11.375, 4, 11.5], "rotation": 180, "texture": "#0"},
				"down": {"uv": [4, 11.5, 4.125, 11.625], "rotation": 180, "texture": "#0"}
			}
		},
		{
			"from": [7.975, 4.44368, -2.41229],
			"to": [9.075, 5.54368, -2.32429],
			"rotation": {"angle": 0, "axis": "y", "origin": [8.525, 4.99368, -2.96829]},
			"faces": {
				"north": {"uv": [3.875, 11.625, 4, 11.75], "texture": "#0"},
				"east": {"uv": [3.75, 11.5, 3.875, 11.625], "rotation": 180, "texture": "#0"},
				"south": {"uv": [4, 11.625, 4.125, 11.75], "rotation": 180, "texture": "#0"},
				"west": {"uv": [3.75, 11.75, 3.875, 11.875], "rotation": 180, "texture": "#0"},
				"up": {"uv": [3.875, 11.375, 4, 11.5], "rotation": 180, "texture": "#0"},
				"down": {"uv": [4, 11.5, 4.125, 11.625], "rotation": 180, "texture": "#0"}
			}
		},
		{
			"from": [7.975, 4.44368, -3.11229],
			"to": [9.075, 5.54368, -3.02429],
			"rotation": {"angle": 0, "axis": "y", "origin": [8.525, 4.99368, -3.66829]},
			"faces": {
				"north": {"uv": [3.875, 11.625, 4, 11.75], "texture": "#0"},
				"east": {"uv": [3.75, 11.5, 3.875, 11.625], "rotation": 180, "texture": "#0"},
				"south": {"uv": [4, 11.625, 4.125, 11.75], "rotation": 180, "texture": "#0"},
				"west": {"uv": [3.75, 11.75, 3.875, 11.875], "rotation": 180, "texture": "#0"},
				"up": {"uv": [3.875, 11.375, 4, 11.5], "rotation": 180, "texture": "#0"},
				"down": {"uv": [4, 11.5, 4.125, 11.625], "rotation": 180, "texture": "#0"}
			}
		},
		{
			"from": [7.975, 4.44368, -3.81229],
			"to": [9.075, 5.54368, -3.72429],
			"rotation": {"angle": 0, "axis": "y", "origin": [8.525, 4.99368, -4.36829]},
			"faces": {
				"north": {"uv": [3.875, 11.625, 4, 11.75], "texture": "#0"},
				"east": {"uv": [3.75, 11.5, 3.875, 11.625], "rotation": 180, "texture": "#0"},
				"south": {"uv": [4, 11.625, 4.125, 11.75], "rotation": 180, "texture": "#0"},
				"west": {"uv": [3.75, 11.75, 3.875, 11.875], "rotation": 180, "texture": "#0"},
				"up": {"uv": [3.875, 11.375, 4, 11.5], "rotation": 180, "texture": "#0"},
				"down": {"uv": [4, 11.5, 4.125, 11.625], "rotation": 180, "texture": "#0"}
			}
		},
		{
			"from": [7.975, 4.44368, -4.51229],
			"to": [9.075, 5.54368, -4.42429],
			"rotation": {"angle": 0, "axis": "y", "origin": [8.525, 4.99368, -5.06829]},
			"faces": {
				"north": {"uv": [3.875, 11.625, 4, 11.75], "texture": "#0"},
				"east": {"uv": [3.75, 11.5, 3.875, 11.625], "rotation": 180, "texture": "#0"},
				"south": {"uv": [4, 11.625, 4.125, 11.75], "rotation": 180, "texture": "#0"},
				"west": {"uv": [3.75, 11.75, 3.875, 11.875], "rotation": 180, "texture": "#0"},
				"up": {"uv": [3.875, 11.375, 4, 11.5], "rotation": 180, "texture": "#0"},
				"down": {"uv": [4, 11.5, 4.125, 11.625], "rotation": 180, "texture": "#0"}
			}
		},
		{
			"from": [8.375, 4.84368, -5.81229],
			"to": [8.675, 5.14368, 1.27571],
			"rotation": {"angle": 45, "axis": "z", "origin": [8.525, 4.99368, -2.06829]},
			"faces": {
				"north": {"uv": [3.875, 11.625, 4, 11.75], "rotation": 270, "texture": "#0"},
				"east": {"uv": [3.75, 11.5, 3.875, 11.625], "rotation": 270, "texture": "#0"},
				"south": {"uv": [4, 11.625, 4.125, 11.75], "rotation": 270, "texture": "#0"},
				"west": {"uv": [3.75, 11.75, 3.875, 11.875], "rotation": 270, "texture": "#0"},
				"up": {"uv": [3.875, 11.375, 4, 11.5], "rotation": 270, "texture": "#0"},
				"down": {"uv": [4, 11.5, 4.125, 11.625], "rotation": 270, "texture": "#0"}
			}
		},
		{
			"from": [7.975, 4.44368, -5.21229],
			"to": [9.075, 5.54368, -5.12429],
			"rotation": {"angle": 0, "axis": "y", "origin": [8.525, 4.99368, -5.76829]},
			"faces": {
				"north": {"uv": [3.875, 11.625, 4, 11.75], "texture": "#0"},
				"east": {"uv": [3.75, 11.5, 3.875, 11.625], "rotation": 180, "texture": "#0"},
				"south": {"uv": [4, 11.625, 4.125, 11.75], "rotation": 180, "texture": "#0"},
				"west": {"uv": [3.75, 11.75, 3.875, 11.875], "rotation": 180, "texture": "#0"},
				"up": {"uv": [3.875, 11.375, 4, 11.5], "rotation": 180, "texture": "#0"},
				"down": {"uv": [4, 11.5, 4.125, 11.625], "rotation": 180, "texture": "#0"}
			}
		},
		{
			"from": [8.275, 4.74368, -5.71229],
			"to": [8.775, 5.24368, -5.12429],
			"rotation": {"angle": 0, "axis": "z", "origin": [8.525, 4.99368, -2.06829]},
			"faces": {
				"north": {"uv": [3.875, 11.625, 4, 11.75], "rotation": 270, "texture": "#0"},
				"east": {"uv": [3.75, 11.5, 3.875, 11.625], "rotation": 270, "texture": "#0"},
				"south": {"uv": [4, 11.625, 4.125, 11.75], "rotation": 270, "texture": "#0"},
				"west": {"uv": [3.75, 11.75, 3.875, 11.875], "rotation": 270, "texture": "#0"},
				"up": {"uv": [3.875, 11.375, 4, 11.5], "rotation": 270, "texture": "#0"},
				"down": {"uv": [4, 11.5, 4.125, 11.625], "rotation": 270, "texture": "#0"}
			}
		},
		{
			"from": [7.633, 8.81, 1.05],
			"to": [8.443, 9.31, 1.17],
			"rotation": {"angle": 22.5, "axis": "z", "origin": [8.025, 9.09368, 1.11]},
			"faces": {
				"north": {"uv": [0.875, 10.625, 1, 10.75], "rotation": 270, "texture": "#0"},
				"east": {"uv": [1, 10.75, 1.125, 10.875], "rotation": 270, "texture": "#0"},
				"south": {"uv": [0.75, 10.75, 0.875, 10.875], "rotation": 270, "texture": "#0"},
				"west": {"uv": [1, 10.375, 1.125, 10.5], "rotation": 270, "texture": "#0"},
				"up": {"uv": [1, 10.875, 1.125, 11], "rotation": 270, "texture": "#0"},
				"down": {"uv": [1, 10.625, 1.125, 10.75], "rotation": 270, "texture": "#0"}
			}
		},
		{
			"from": [8.22, 8.775, 1.05],
			"to": [9.03, 9.275, 1.17],
			"rotation": {"angle": -22.5, "axis": "z", "origin": [8.725, 9.09368, 1.11]},
			"faces": {
				"north": {"uv": [0.875, 10.625, 1, 10.75], "rotation": 270, "texture": "#0"},
				"east": {"uv": [1, 10.75, 1.125, 10.875], "rotation": 270, "texture": "#0"},
				"south": {"uv": [0.75, 10.75, 0.875, 10.875], "rotation": 270, "texture": "#0"},
				"west": {"uv": [1, 10.375, 1.125, 10.5], "rotation": 270, "texture": "#0"},
				"up": {"uv": [1, 10.875, 1.125, 11], "rotation": 270, "texture": "#0"},
				"down": {"uv": [1, 10.625, 1.125, 10.75], "rotation": 270, "texture": "#0"}
			}
		},
		{
			"from": [8.254, 8.6425, 0.85],
			"to": [8.821, 8.9925, 0.97],
			"rotation": {"angle": -22.5, "axis": "z", "origin": [8.6075, 8.86558, 0.91]},
			"faces": {
				"north": {"uv": [0.875, 10.625, 1, 10.75], "rotation": 270, "texture": "#0"},
				"east": {"uv": [1, 10.75, 1.125, 10.875], "rotation": 270, "texture": "#0"},
				"south": {"uv": [0.75, 10.75, 0.875, 10.875], "rotation": 270, "texture": "#0"},
				"west": {"uv": [1, 10.375, 1.125, 10.5], "rotation": 270, "texture": "#0"},
				"up": {"uv": [1, 10.875, 1.125, 11], "rotation": 270, "texture": "#0"},
				"down": {"uv": [1, 10.625, 1.125, 10.75], "rotation": 270, "texture": "#0"}
			}
		},
		{
			"from": [7.8431, 8.667, 0.85],
			"to": [8.4101, 9.017, 0.97],
			"rotation": {"angle": 22.5, "axis": "z", "origin": [8.1175, 8.86558, 0.91]},
			"faces": {
				"north": {"uv": [0.875, 10.625, 1, 10.75], "rotation": 270, "texture": "#0"},
				"east": {"uv": [1, 10.75, 1.125, 10.875], "rotation": 270, "texture": "#0"},
				"south": {"uv": [0.75, 10.75, 0.875, 10.875], "rotation": 270, "texture": "#0"},
				"west": {"uv": [1, 10.375, 1.125, 10.5], "rotation": 270, "texture": "#0"},
				"up": {"uv": [1, 10.875, 1.125, 11], "rotation": 270, "texture": "#0"},
				"down": {"uv": [1, 10.625, 1.125, 10.75], "rotation": 270, "texture": "#0"}
			}
		},
		{
			"from": [7.8795, 7.4455, 0.85],
			"to": [8.4465, 7.7955, 0.97],
			"rotation": {"angle": -22.5, "axis": "z", "origin": [8.32968, 7.72761, 0.91]},
			"faces": {
				"north": {"uv": [0.875, 10.625, 1, 10.75], "rotation": 90, "texture": "#0"},
				"east": {"uv": [1, 10.75, 1.125, 10.875], "rotation": 90, "texture": "#0"},
				"south": {"uv": [0.75, 10.75, 0.875, 10.875], "rotation": 90, "texture": "#0"},
				"west": {"uv": [1, 10.375, 1.125, 10.5], "rotation": 90, "texture": "#0"},
				"up": {"uv": [1, 10.875, 1.125, 11], "rotation": 90, "texture": "#0"},
				"down": {"uv": [1, 10.625, 1.125, 10.75], "rotation": 90, "texture": "#0"}
			}
		},
		{
			"from": [8.212, 7.4455, 0.85],
			"to": [8.779, 7.7955, 0.97],
			"rotation": {"angle": 22.5, "axis": "z", "origin": [8.32968, 7.72761, 0.91]},
			"faces": {
				"north": {"uv": [0.875, 10.625, 1, 10.75], "rotation": 90, "texture": "#0"},
				"east": {"uv": [1, 10.75, 1.125, 10.875], "rotation": 90, "texture": "#0"},
				"south": {"uv": [0.75, 10.75, 0.875, 10.875], "rotation": 90, "texture": "#0"},
				"west": {"uv": [1, 10.375, 1.125, 10.5], "rotation": 90, "texture": "#0"},
				"up": {"uv": [1, 10.875, 1.125, 11], "rotation": 90, "texture": "#0"},
				"down": {"uv": [1, 10.625, 1.125, 10.75], "rotation": 90, "texture": "#0"}
			}
		},
		{
			"from": [7.685, 7.065, 1.05],
			"to": [8.495, 7.565, 1.17],
			"rotation": {"angle": -22.5, "axis": "z", "origin": [8.32811, 7.46802, 1.11]},
			"faces": {
				"north": {"uv": [0.875, 10.625, 1, 10.75], "rotation": 90, "texture": "#0"},
				"east": {"uv": [1, 10.75, 1.125, 10.875], "rotation": 90, "texture": "#0"},
				"south": {"uv": [0.75, 10.75, 0.875, 10.875], "rotation": 90, "texture": "#0"},
				"west": {"uv": [1, 10.375, 1.125, 10.5], "rotation": 90, "texture": "#0"},
				"up": {"uv": [1, 10.875, 1.125, 11], "rotation": 90, "texture": "#0"},
				"down": {"uv": [1, 10.625, 1.125, 10.75], "rotation": 90, "texture": "#0"}
			}
		},
		{
			"from": [8.16, 7.065, 1.05],
			"to": [8.97, 7.565, 1.17],
			"rotation": {"angle": 22.5, "axis": "z", "origin": [8.32811, 7.46802, 1.11]},
			"faces": {
				"north": {"uv": [0.875, 10.625, 1, 10.75], "rotation": 90, "texture": "#0"},
				"east": {"uv": [1, 10.75, 1.125, 10.875], "rotation": 90, "texture": "#0"},
				"south": {"uv": [0.75, 10.75, 0.875, 10.875], "rotation": 90, "texture": "#0"},
				"west": {"uv": [1, 10.375, 1.125, 10.5], "rotation": 90, "texture": "#0"},
				"up": {"uv": [1, 10.875, 1.125, 11], "rotation": 90, "texture": "#0"},
				"down": {"uv": [1, 10.625, 1.125, 10.75], "rotation": 90, "texture": "#0"}
			}
		},
		{
			"from": [7.6996, 5.612, 1.05],
			"to": [8.6716, 6.212, 1.17],
			"rotation": {"angle": 22.5, "axis": "z", "origin": [8.17, 5.95242, 1.11]},
			"faces": {
				"north": {"uv": [0.875, 10.625, 1, 10.75], "rotation": 270, "texture": "#0"},
				"east": {"uv": [1, 10.75, 1.125, 10.875], "rotation": 270, "texture": "#0"},
				"south": {"uv": [0.75, 10.75, 0.875, 10.875], "rotation": 270, "texture": "#0"},
				"west": {"uv": [1, 10.375, 1.125, 10.5], "rotation": 270, "texture": "#0"},
				"up": {"uv": [1, 10.875, 1.125, 11], "rotation": 270, "texture": "#0"},
				"down": {"uv": [1, 10.625, 1.125, 10.75], "rotation": 270, "texture": "#0"}
			}
		},
		{
			"from": [8.404, 5.57, 1.05],
			"to": [9.376, 6.17, 1.17],
			"rotation": {"angle": -22.5, "axis": "z", "origin": [9.01, 5.95242, 1.11]},
			"faces": {
				"north": {"uv": [0.875, 10.625, 1, 10.75], "rotation": 270, "texture": "#0"},
				"east": {"uv": [1, 10.75, 1.125, 10.875], "rotation": 270, "texture": "#0"},
				"south": {"uv": [0.75, 10.75, 0.875, 10.875], "rotation": 270, "texture": "#0"},
				"west": {"uv": [1, 10.375, 1.125, 10.5], "rotation": 270, "texture": "#0"},
				"up": {"uv": [1, 10.875, 1.125, 11], "rotation": 270, "texture": "#0"},
				"down": {"uv": [1, 10.625, 1.125, 10.75], "rotation": 270, "texture": "#0"}
			}
		},
		{
			"from": [7.95172, 5.4404, 0.85],
			"to": [8.63212, 5.8604, 0.97],
			"rotation": {"angle": 22.5, "axis": "z", "origin": [8.281, 5.67869, 0.91]},
			"faces": {
				"north": {"uv": [0.875, 10.625, 1, 10.75], "rotation": 270, "texture": "#0"},
				"east": {"uv": [1, 10.75, 1.125, 10.875], "rotation": 270, "texture": "#0"},
				"south": {"uv": [0.75, 10.75, 0.875, 10.875], "rotation": 270, "texture": "#0"},
				"west": {"uv": [1, 10.375, 1.125, 10.5], "rotation": 270, "texture": "#0"},
				"up": {"uv": [1, 10.875, 1.125, 11], "rotation": 270, "texture": "#0"},
				"down": {"uv": [1, 10.625, 1.125, 10.75], "rotation": 270, "texture": "#0"}
			}
		},
		{
			"from": [8.4448, 5.411, 0.85],
			"to": [9.1252, 5.831, 0.97],
			"rotation": {"angle": -22.5, "axis": "z", "origin": [8.869, 5.67869, 0.91]},
			"faces": {
				"north": {"uv": [0.875, 10.625, 1, 10.75], "rotation": 270, "texture": "#0"},
				"east": {"uv": [1, 10.75, 1.125, 10.875], "rotation": 270, "texture": "#0"},
				"south": {"uv": [0.75, 10.75, 0.875, 10.875], "rotation": 270, "texture": "#0"},
				"west": {"uv": [1, 10.375, 1.125, 10.5], "rotation": 270, "texture": "#0"},
				"up": {"uv": [1, 10.875, 1.125, 11], "rotation": 270, "texture": "#0"},
				"down": {"uv": [1, 10.625, 1.125, 10.75], "rotation": 270, "texture": "#0"}
			}
		},
		{
			"from": [7.762, 3.518, 1.05],
			"to": [8.734, 4.118, 1.17],
			"rotation": {"angle": -22.5, "axis": "z", "origin": [8.53374, 4.00162, 1.11]},
			"faces": {
				"north": {"uv": [0.875, 10.625, 1, 10.75], "rotation": 90, "texture": "#0"},
				"east": {"uv": [1, 10.75, 1.125, 10.875], "rotation": 90, "texture": "#0"},
				"south": {"uv": [0.75, 10.75, 0.875, 10.875], "rotation": 90, "texture": "#0"},
				"west": {"uv": [1, 10.375, 1.125, 10.5], "rotation": 90, "texture": "#0"},
				"up": {"uv": [1, 10.875, 1.125, 11], "rotation": 90, "texture": "#0"},
				"down": {"uv": [1, 10.625, 1.125, 10.75], "rotation": 90, "texture": "#0"}
			}
		},
		{
			"from": [7.9954, 3.9746, 0.85],
			"to": [8.6758, 4.3946, 0.97],
			"rotation": {"angle": -22.5, "axis": "z", "origin": [8.53562, 4.31313, 0.91]},
			"faces": {
				"north": {"uv": [0.875, 10.625, 1, 10.75], "rotation": 90, "texture": "#0"},
				"east": {"uv": [1, 10.75, 1.125, 10.875], "rotation": 90, "texture": "#0"},
				"south": {"uv": [0.75, 10.75, 0.875, 10.875], "rotation": 90, "texture": "#0"},
				"west": {"uv": [1, 10.375, 1.125, 10.5], "rotation": 90, "texture": "#0"},
				"up": {"uv": [1, 10.875, 1.125, 11], "rotation": 90, "texture": "#0"},
				"down": {"uv": [1, 10.625, 1.125, 10.75], "rotation": 90, "texture": "#0"}
			}
		},
		{
			"from": [8.3944, 3.9746, 0.85],
			"to": [9.0748, 4.3946, 0.97],
			"rotation": {"angle": 22.5, "axis": "z", "origin": [8.53562, 4.31313, 0.91]},
			"faces": {
				"north": {"uv": [0.875, 10.625, 1, 10.75], "rotation": 90, "texture": "#0"},
				"east": {"uv": [1, 10.75, 1.125, 10.875], "rotation": 90, "texture": "#0"},
				"south": {"uv": [0.75, 10.75, 0.875, 10.875], "rotation": 90, "texture": "#0"},
				"west": {"uv": [1, 10.375, 1.125, 10.5], "rotation": 90, "texture": "#0"},
				"up": {"uv": [1, 10.875, 1.125, 11], "rotation": 90, "texture": "#0"},
				"down": {"uv": [1, 10.625, 1.125, 10.75], "rotation": 90, "texture": "#0"}
			}
		},
		{
			"from": [8.332, 3.518, 1.05],
			"to": [9.304, 4.118, 1.17],
			"rotation": {"angle": 22.5, "axis": "z", "origin": [8.53374, 4.00162, 1.11]},
			"faces": {
				"north": {"uv": [0.875, 10.625, 1, 10.75], "rotation": 90, "texture": "#0"},
				"east": {"uv": [1, 10.75, 1.125, 10.875], "rotation": 90, "texture": "#0"},
				"south": {"uv": [0.75, 10.75, 0.875, 10.875], "rotation": 90, "texture": "#0"},
				"west": {"uv": [1, 10.375, 1.125, 10.5], "rotation": 90, "texture": "#0"},
				"up": {"uv": [1, 10.875, 1.125, 11], "rotation": 90, "texture": "#0"},
				"down": {"uv": [1, 10.625, 1.125, 10.75], "rotation": 90, "texture": "#0"}
			}
		},
		{
			"from": [7.927, 6.64368, 2.97],
			"to": [8.711, 7.67568, 6.39],
			"rotation": {"angle": 0, "axis": "y", "origin": [8.319, 5.29768, 8.93171]},
			"faces": {
				"north": {"uv": [14.375, 6.875, 14.5, 7], "rotation": 270, "texture": "#0"},
				"east": {"uv": [14.375, 6.375, 14.5, 6.5], "rotation": 270, "texture": "#0"},
				"south": {"uv": [14.5, 6.75, 14.625, 6.875], "rotation": 270, "texture": "#0"},
				"west": {"uv": [14.375, 6.625, 14.5, 6.75], "rotation": 270, "texture": "#0"},
				"up": {"uv": [14.375, 6.625, 14.5, 6.75], "rotation": 270, "texture": "#0"},
				"down": {"uv": [14.375, 6.5, 14.5, 6.625], "rotation": 270, "texture": "#0"}
			}
		},
		{
			"from": [8.043, 9.21044, 9.444],
			"to": [8.603, 9.33844, 9.696],
			"rotation": {"angle": 0, "axis": "y", "origin": [8.06442, 9.16902, -4.532]},
			"faces": {
				"north": {"uv": [13.875, 4.875, 14, 5], "rotation": 270, "texture": "#0"},
				"east": {"uv": [13.75, 5, 13.875, 5.125], "rotation": 270, "texture": "#0"},
				"south": {"uv": [13.75, 5.25, 13.875, 5.375], "rotation": 270, "texture": "#0"},
				"west": {"uv": [14, 4.75, 14.125, 4.875], "rotation": 270, "texture": "#0"},
				"up": {"uv": [14, 5, 14.125, 5.125], "rotation": 270, "texture": "#0"},
				"down": {"uv": [13.5, 4.625, 13.625, 4.75], "rotation": 270, "texture": "#0"}
			}
		},
		{
			"from": [8.043, 9.21044, 9.956],
			"to": [8.603, 9.33844, 10.208],
			"rotation": {"angle": 0, "axis": "y", "origin": [8.06442, 9.16902, -4.02]},
			"faces": {
				"north": {"uv": [13.875, 4.875, 14, 5], "rotation": 270, "texture": "#0"},
				"east": {"uv": [13.75, 5, 13.875, 5.125], "rotation": 270, "texture": "#0"},
				"south": {"uv": [13.75, 5.25, 13.875, 5.375], "rotation": 270, "texture": "#0"},
				"west": {"uv": [14, 4.75, 14.125, 4.875], "rotation": 270, "texture": "#0"},
				"up": {"uv": [14, 5, 14.125, 5.125], "rotation": 270, "texture": "#0"},
				"down": {"uv": [13.5, 4.625, 13.625, 4.75], "rotation": 270, "texture": "#0"}
			}
		},
		{
			"from": [8.043, 9.21044, 10.468],
			"to": [8.603, 9.33844, 10.72],
			"rotation": {"angle": 0, "axis": "y", "origin": [8.06442, 9.16902, -3.508]},
			"faces": {
				"north": {"uv": [13.875, 4.875, 14, 5], "rotation": 270, "texture": "#0"},
				"east": {"uv": [13.75, 5, 13.875, 5.125], "rotation": 270, "texture": "#0"},
				"south": {"uv": [13.75, 5.25, 13.875, 5.375], "rotation": 270, "texture": "#0"},
				"west": {"uv": [14, 4.75, 14.125, 4.875], "rotation": 270, "texture": "#0"},
				"up": {"uv": [14, 5, 14.125, 5.125], "rotation": 270, "texture": "#0"},
				"down": {"uv": [13.5, 4.625, 13.625, 4.75], "rotation": 270, "texture": "#0"}
			}
		},
		{
			"from": [8.043, 9.21044, 10.968],
			"to": [8.603, 9.33844, 11.22],
			"rotation": {"angle": 0, "axis": "y", "origin": [8.06442, 9.16902, -3.008]},
			"faces": {
				"north": {"uv": [13.875, 4.875, 14, 5], "rotation": 270, "texture": "#0"},
				"east": {"uv": [13.75, 5, 13.875, 5.125], "rotation": 270, "texture": "#0"},
				"south": {"uv": [13.75, 5.25, 13.875, 5.375], "rotation": 270, "texture": "#0"},
				"west": {"uv": [14, 4.75, 14.125, 4.875], "rotation": 270, "texture": "#0"},
				"up": {"uv": [14, 5, 14.125, 5.125], "rotation": 270, "texture": "#0"},
				"down": {"uv": [13.5, 4.625, 13.625, 4.75], "rotation": 270, "texture": "#0"}
			}
		},
		{
			"from": [8.527, 4.44368, 3.08771],
			"to": [8.911, 4.77568, 4.17571],
			"rotation": {"angle": 0, "axis": "y", "origin": [8.619, 2.69768, 8.93171]},
			"faces": {
				"north": {"uv": [6.125, 2.5, 6.25, 2.625], "rotation": 270, "texture": "#0"},
				"east": {"uv": [6.375, 2.375, 6.5, 2.5], "rotation": 270, "texture": "#0"},
				"south": {"uv": [6.375, 2.5, 6.5, 2.625], "rotation": 270, "texture": "#0"},
				"west": {"uv": [6.25, 2.5, 6.375, 2.625], "rotation": 270, "texture": "#0"},
				"up": {"uv": [6.125, 2.25, 6.25, 2.375], "rotation": 270, "texture": "#0"},
				"down": {"uv": [6.125, 2.375, 6.25, 2.5], "rotation": 270, "texture": "#0"}
			}
		},
		{
			"from": [7.727, 5.64368, 11.18771],
			"to": [8.911, 8.97568, 13.87571],
			"rotation": {"angle": 0, "axis": "y", "origin": [8.319, 6.19768, 18.93171]},
			"faces": {
				"north": {"uv": [6.125, 2.5, 6.25, 2.625], "rotation": 270, "texture": "#0"},
				"east": {"uv": [6.375, 2.375, 6.5, 2.5], "rotation": 270, "texture": "#0"},
				"south": {"uv": [6.375, 2.5, 6.5, 2.625], "rotation": 270, "texture": "#0"},
				"west": {"uv": [6.25, 2.5, 6.375, 2.625], "rotation": 270, "texture": "#0"},
				"up": {"uv": [6.125, 2.25, 6.25, 2.375], "rotation": 270, "texture": "#0"},
				"down": {"uv": [6.125, 2.375, 6.25, 2.5], "rotation": 270, "texture": "#0"}
			}
		},
		{
			"from": [7.727, 3.91568, 12.21571],
			"to": [8.911, 6.60368, 14.04771],
			"rotation": {"angle": 45, "axis": "x", "origin": [8.319, 5.25968, 13.13171]},
			"faces": {
				"north": {"uv": [6.125, 2.5, 6.25, 2.625], "rotation": 90, "texture": "#0"},
				"east": {"uv": [6.375, 2.375, 6.5, 2.5], "texture": "#0"},
				"south": {"uv": [6.375, 2.5, 6.5, 2.625], "rotation": 270, "texture": "#0"},
				"west": {"uv": [6.25, 2.5, 6.375, 2.625], "rotation": 180, "texture": "#0"},
				"up": {"uv": [6.125, 2.25, 6.25, 2.375], "rotation": 270, "texture": "#0"},
				"down": {"uv": [6.125, 2.375, 6.25, 2.5], "rotation": 90, "texture": "#0"}
			}
		},
		{
			"from": [8.027, 3.665, 12.5],
			"to": [8.611, 6.353, 12.832],
			"rotation": {"angle": 0, "axis": "x", "origin": [8.319, 4.95968, 11.93171]},
			"faces": {
				"north": {"uv": [6.125, 2.5, 6.25, 2.625], "rotation": 90, "texture": "#0"},
				"east": {"uv": [6.375, 2.375, 6.5, 2.5], "texture": "#0"},
				"south": {"uv": [6.375, 2.5, 6.5, 2.625], "rotation": 270, "texture": "#0"},
				"west": {"uv": [6.25, 2.5, 6.375, 2.625], "rotation": 180, "texture": "#0"},
				"up": {"uv": [6.125, 2.25, 6.25, 2.375], "rotation": 270, "texture": "#0"},
				"down": {"uv": [6.125, 2.375, 6.25, 2.5], "rotation": 90, "texture": "#0"}
			}
		},
		{
			"from": [7.727, 4.74368, 13.78771],
			"to": [8.911, 8.97568, 16.47571],
			"rotation": {"angle": 0, "axis": "y", "origin": [8.319, 6.19768, 21.53171]},
			"faces": {
				"north": {"uv": [6.125, 2.5, 6.25, 2.625], "rotation": 270, "texture": "#0"},
				"east": {"uv": [6.375, 2.375, 6.5, 2.5], "rotation": 270, "texture": "#0"},
				"south": {"uv": [6.375, 2.5, 6.5, 2.625], "rotation": 270, "texture": "#0"},
				"west": {"uv": [6.25, 2.5, 6.375, 2.625], "rotation": 270, "texture": "#0"},
				"up": {"uv": [6.125, 2.25, 6.25, 2.375], "rotation": 270, "texture": "#0"},
				"down": {"uv": [6.125, 2.375, 6.25, 2.5], "rotation": 270, "texture": "#0"}
			}
		},
		{
			"from": [7.726, 4.528, 11.895],
			"to": [8.913, 8.516, 11.927],
			"rotation": {"angle": -22.5, "axis": "x", "origin": [8.319, 7.20968, 10.43171]},
			"faces": {
				"north": {"uv": [7.75, 12.375, 7.875, 12.5], "rotation": 90, "texture": "#0"},
				"east": {"uv": [7.125, 12.5, 7.25, 12.625], "rotation": 180, "texture": "#0"},
				"south": {"uv": [7.375, 12.25, 7.5, 12.375], "rotation": 270, "texture": "#0"},
				"west": {"uv": [7.5, 12, 7.625, 12.125], "texture": "#0"},
				"up": {"uv": [7.375, 12.875, 7.5, 13], "rotation": 90, "texture": "#0"},
				"down": {"uv": [7.75, 12.5, 7.875, 12.625], "rotation": 270, "texture": "#0"}
			}
		},
		{
			"from": [7.726, 3.68, 12.81],
			"to": [8.913, 5.268, 12.842],
			"rotation": {"angle": 0, "axis": "x", "origin": [8.319, 6.40968, 11.33171]},
			"faces": {
				"north": {"uv": [7.75, 12.375, 7.875, 12.5], "rotation": 90, "texture": "#0"},
				"east": {"uv": [7.125, 12.5, 7.25, 12.625], "rotation": 180, "texture": "#0"},
				"south": {"uv": [7.375, 12.25, 7.5, 12.375], "rotation": 270, "texture": "#0"},
				"west": {"uv": [7.5, 12, 7.625, 12.125], "texture": "#0"},
				"up": {"uv": [7.375, 12.875, 7.5, 13], "rotation": 90, "texture": "#0"},
				"down": {"uv": [7.75, 12.5, 7.875, 12.625], "rotation": 270, "texture": "#0"}
			}
		},
		{
			"from": [7.726, 5.215, 12.81],
			"to": [8.913, 5.303, 12.842],
			"rotation": {"angle": 0, "axis": "y", "origin": [8.319, 7.80968, 11.33171]},
			"faces": {
				"north": {"uv": [7.75, 12.375, 7.875, 12.5], "rotation": 90, "texture": "#0"},
				"east": {"uv": [7.125, 12.5, 7.25, 12.625], "rotation": 180, "texture": "#0"},
				"south": {"uv": [7.375, 12.25, 7.5, 12.375], "rotation": 270, "texture": "#0"},
				"west": {"uv": [7.5, 12, 7.625, 12.125], "texture": "#0"},
				"up": {"uv": [7.375, 12.875, 7.5, 13], "rotation": 90, "texture": "#0"},
				"down": {"uv": [7.75, 12.5, 7.875, 12.625], "rotation": 270, "texture": "#0"}
			}
		},
		{
			"from": [7.227, 7.44368, 1.48771],
			"to": [7.711, 8.67568, 2.57571],
			"rotation": {"angle": 0, "axis": "y", "origin": [7.319, 5.99768, 9.23171]},
			"faces": {
				"north": {"uv": [7, 9.25, 7.125, 9.375], "rotation": 270, "texture": "#0"},
				"east": {"uv": [7, 10.375, 7.125, 10.5], "rotation": 270, "texture": "#0"},
				"south": {"uv": [7.5, 10, 7.625, 10.125], "rotation": 270, "texture": "#0"},
				"west": {"uv": [7.125, 10.125, 7.25, 10.25], "rotation": 270, "texture": "#0"},
				"up": {"uv": [7.125, 9.625, 7.25, 9.75], "rotation": 270, "texture": "#0"},
				"down": {"uv": [7.125, 10, 7.25, 10.125], "rotation": 270, "texture": "#0"}
			}
		},
		{
			"from": [7.227, 7.44368, 2.88771],
			"to": [7.711, 8.67568, 3.97571],
			"rotation": {"angle": 0, "axis": "y", "origin": [7.319, 5.99768, 10.63171]},
			"faces": {
				"north": {"uv": [7, 9.25, 7.125, 9.375], "rotation": 270, "texture": "#0"},
				"east": {"uv": [7, 10.375, 7.125, 10.5], "rotation": 270, "texture": "#0"},
				"south": {"uv": [7.5, 10, 7.625, 10.125], "rotation": 270, "texture": "#0"},
				"west": {"uv": [7.125, 10.125, 7.25, 10.25], "rotation": 270, "texture": "#0"},
				"up": {"uv": [7.125, 9.625, 7.25, 9.75], "rotation": 270, "texture": "#0"},
				"down": {"uv": [7.125, 10, 7.25, 10.125], "rotation": 270, "texture": "#0"}
			}
		},
		{
			"from": [7.227, 7.44368, 5.58771],
			"to": [7.711, 8.67568, 6.67571],
			"rotation": {"angle": 0, "axis": "y", "origin": [7.319, 5.99768, 13.33171]},
			"faces": {
				"north": {"uv": [7, 9.25, 7.125, 9.375], "rotation": 270, "texture": "#0"},
				"east": {"uv": [7, 10.375, 7.125, 10.5], "rotation": 270, "texture": "#0"},
				"south": {"uv": [7.5, 10, 7.625, 10.125], "rotation": 270, "texture": "#0"},
				"west": {"uv": [7.125, 10.125, 7.25, 10.25], "rotation": 270, "texture": "#0"},
				"up": {"uv": [7.125, 9.625, 7.25, 9.75], "rotation": 270, "texture": "#0"},
				"down": {"uv": [7.125, 10, 7.25, 10.125], "rotation": 270, "texture": "#0"}
			}
		},
		{
			"from": [7.227, 7.44368, 4.18771],
			"to": [7.711, 8.67568, 5.27571],
			"rotation": {"angle": 0, "axis": "y", "origin": [7.319, 5.99768, 11.93171]},
			"faces": {
				"north": {"uv": [7, 9.25, 7.125, 9.375], "rotation": 270, "texture": "#0"},
				"east": {"uv": [7, 10.375, 7.125, 10.5], "rotation": 270, "texture": "#0"},
				"south": {"uv": [7.5, 10, 7.625, 10.125], "rotation": 270, "texture": "#0"},
				"west": {"uv": [7.125, 10.125, 7.25, 10.25], "rotation": 270, "texture": "#0"},
				"up": {"uv": [7.125, 9.625, 7.25, 9.75], "rotation": 270, "texture": "#0"},
				"down": {"uv": [7.125, 10, 7.25, 10.125], "rotation": 270, "texture": "#0"}
			}
		},
		{
			"from": [8.927, 7.44368, 5.58771],
			"to": [9.411, 8.67568, 6.67571],
			"rotation": {"angle": 0, "axis": "y", "origin": [8.919, 5.99768, 13.33171]},
			"faces": {
				"north": {"uv": [7, 9.25, 7.125, 9.375], "rotation": 270, "texture": "#0"},
				"east": {"uv": [7, 10.375, 7.125, 10.5], "rotation": 270, "texture": "#0"},
				"south": {"uv": [7.5, 10, 7.625, 10.125], "rotation": 270, "texture": "#0"},
				"west": {"uv": [7.125, 10.125, 7.25, 10.25], "rotation": 270, "texture": "#0"},
				"up": {"uv": [7.125, 9.625, 7.25, 9.75], "rotation": 270, "texture": "#0"},
				"down": {"uv": [7.125, 10, 7.25, 10.125], "rotation": 270, "texture": "#0"}
			}
		},
		{
			"from": [8.927, 7.44368, 4.18771],
			"to": [9.411, 8.67568, 5.27571],
			"rotation": {"angle": 0, "axis": "y", "origin": [8.919, 5.99768, 11.93171]},
			"faces": {
				"north": {"uv": [7, 9.25, 7.125, 9.375], "rotation": 270, "texture": "#0"},
				"east": {"uv": [7, 10.375, 7.125, 10.5], "rotation": 270, "texture": "#0"},
				"south": {"uv": [7.5, 10, 7.625, 10.125], "rotation": 270, "texture": "#0"},
				"west": {"uv": [7.125, 10.125, 7.25, 10.25], "rotation": 270, "texture": "#0"},
				"up": {"uv": [7.125, 9.625, 7.25, 9.75], "rotation": 270, "texture": "#0"},
				"down": {"uv": [7.125, 10, 7.25, 10.125], "rotation": 270, "texture": "#0"}
			}
		},
		{
			"from": [8.927, 7.44368, 2.88771],
			"to": [9.411, 8.67568, 3.97571],
			"rotation": {"angle": 0, "axis": "y", "origin": [8.919, 5.99768, 10.63171]},
			"faces": {
				"north": {"uv": [7, 9.25, 7.125, 9.375], "rotation": 270, "texture": "#0"},
				"east": {"uv": [7, 10.375, 7.125, 10.5], "rotation": 270, "texture": "#0"},
				"south": {"uv": [7.5, 10, 7.625, 10.125], "rotation": 270, "texture": "#0"},
				"west": {"uv": [7.125, 10.125, 7.25, 10.25], "rotation": 270, "texture": "#0"},
				"up": {"uv": [7.125, 9.625, 7.25, 9.75], "rotation": 270, "texture": "#0"},
				"down": {"uv": [7.125, 10, 7.25, 10.125], "rotation": 270, "texture": "#0"}
			}
		},
		{
			"from": [8.927, 7.44368, 1.48771],
			"to": [9.411, 8.67568, 2.57571],
			"rotation": {"angle": 0, "axis": "y", "origin": [8.919, 5.99768, 9.23171]},
			"faces": {
				"north": {"uv": [7, 9.25, 7.125, 9.375], "rotation": 270, "texture": "#0"},
				"east": {"uv": [7, 10.375, 7.125, 10.5], "rotation": 270, "texture": "#0"},
				"south": {"uv": [7.5, 10, 7.625, 10.125], "rotation": 270, "texture": "#0"},
				"west": {"uv": [7.125, 10.125, 7.25, 10.25], "rotation": 270, "texture": "#0"},
				"up": {"uv": [7.125, 9.625, 7.25, 9.75], "rotation": 270, "texture": "#0"},
				"down": {"uv": [7.125, 10, 7.25, 10.125], "rotation": 270, "texture": "#0"}
			}
		},
		{
			"from": [8.627, 7.34368, 5.98771],
			"to": [9.511, 8.27568, 6.27571],
			"rotation": {"angle": 0, "axis": "y", "origin": [9.019, 5.89768, 13.33171]},
			"faces": {
				"north": {"uv": [6.125, 2.5, 6.25, 2.625], "rotation": 270, "texture": "#0"},
				"east": {"uv": [6.375, 2.375, 6.5, 2.5], "rotation": 270, "texture": "#0"},
				"south": {"uv": [6.375, 2.5, 6.5, 2.625], "rotation": 270, "texture": "#0"},
				"west": {"uv": [6.25, 2.5, 6.375, 2.625], "rotation": 270, "texture": "#0"},
				"up": {"uv": [6.125, 2.25, 6.25, 2.375], "rotation": 270, "texture": "#0"},
				"down": {"uv": [6.125, 2.375, 6.25, 2.5], "rotation": 270, "texture": "#0"}
			}
		},
		{
			"from": [8.627, 7.34368, 4.58771],
			"to": [9.511, 8.27568, 4.87571],
			"rotation": {"angle": 0, "axis": "y", "origin": [9.019, 5.89768, 11.93171]},
			"faces": {
				"north": {"uv": [6.125, 2.5, 6.25, 2.625], "rotation": 270, "texture": "#0"},
				"east": {"uv": [6.375, 2.375, 6.5, 2.5], "rotation": 270, "texture": "#0"},
				"south": {"uv": [6.375, 2.5, 6.5, 2.625], "rotation": 270, "texture": "#0"},
				"west": {"uv": [6.25, 2.5, 6.375, 2.625], "rotation": 270, "texture": "#0"},
				"up": {"uv": [6.125, 2.25, 6.25, 2.375], "rotation": 270, "texture": "#0"},
				"down": {"uv": [6.125, 2.375, 6.25, 2.5], "rotation": 270, "texture": "#0"}
			}
		},
		{
			"from": [8.627, 7.34368, 3.28771],
			"to": [9.511, 8.27568, 3.57571],
			"rotation": {"angle": 0, "axis": "y", "origin": [9.019, 5.89768, 10.63171]},
			"faces": {
				"north": {"uv": [6.125, 2.5, 6.25, 2.625], "rotation": 270, "texture": "#0"},
				"east": {"uv": [6.375, 2.375, 6.5, 2.5], "rotation": 270, "texture": "#0"},
				"south": {"uv": [6.375, 2.5, 6.5, 2.625], "rotation": 270, "texture": "#0"},
				"west": {"uv": [6.25, 2.5, 6.375, 2.625], "rotation": 270, "texture": "#0"},
				"up": {"uv": [6.125, 2.25, 6.25, 2.375], "rotation": 270, "texture": "#0"},
				"down": {"uv": [6.125, 2.375, 6.25, 2.5], "rotation": 270, "texture": "#0"}
			}
		},
		{
			"from": [8.627, 7.34368, 1.88771],
			"to": [9.511, 8.27568, 2.17571],
			"rotation": {"angle": 0, "axis": "y", "origin": [9.019, 5.89768, 9.23171]},
			"faces": {
				"north": {"uv": [6.125, 2.5, 6.25, 2.625], "rotation": 270, "texture": "#0"},
				"east": {"uv": [6.375, 2.375, 6.5, 2.5], "rotation": 270, "texture": "#0"},
				"south": {"uv": [6.375, 2.5, 6.5, 2.625], "rotation": 270, "texture": "#0"},
				"west": {"uv": [6.25, 2.5, 6.375, 2.625], "rotation": 270, "texture": "#0"},
				"up": {"uv": [6.125, 2.25, 6.25, 2.375], "rotation": 270, "texture": "#0"},
				"down": {"uv": [6.125, 2.375, 6.25, 2.5], "rotation": 270, "texture": "#0"}
			}
		},
		{
			"from": [8.727, 7.94368, 5.48771],
			"to": [9.511, 8.27568, 6.77571],
			"rotation": {"angle": 0, "axis": "y", "origin": [8.919, 5.99768, 13.33171]},
			"faces": {
				"north": {"uv": [6.125, 2.5, 6.25, 2.625], "rotation": 270, "texture": "#0"},
				"east": {"uv": [6.375, 2.375, 6.5, 2.5], "rotation": 270, "texture": "#0"},
				"south": {"uv": [6.375, 2.5, 6.5, 2.625], "rotation": 270, "texture": "#0"},
				"west": {"uv": [6.25, 2.5, 6.375, 2.625], "rotation": 270, "texture": "#0"},
				"up": {"uv": [6.125, 2.25, 6.25, 2.375], "rotation": 270, "texture": "#0"},
				"down": {"uv": [6.125, 2.375, 6.25, 2.5], "rotation": 270, "texture": "#0"}
			}
		},
		{
			"from": [8.727, 7.94368, 1.38771],
			"to": [9.511, 8.27568, 2.67571],
			"rotation": {"angle": 0, "axis": "y", "origin": [8.919, 5.99768, 9.23171]},
			"faces": {
				"north": {"uv": [6.125, 2.5, 6.25, 2.625], "rotation": 270, "texture": "#0"},
				"east": {"uv": [6.375, 2.375, 6.5, 2.5], "rotation": 270, "texture": "#0"},
				"south": {"uv": [6.375, 2.5, 6.5, 2.625], "rotation": 270, "texture": "#0"},
				"west": {"uv": [6.25, 2.5, 6.375, 2.625], "rotation": 270, "texture": "#0"},
				"up": {"uv": [6.125, 2.25, 6.25, 2.375], "rotation": 270, "texture": "#0"},
				"down": {"uv": [6.125, 2.375, 6.25, 2.5], "rotation": 270, "texture": "#0"}
			}
		},
		{
			"from": [8.727, 7.94368, 2.78771],
			"to": [9.511, 8.27568, 4.07571],
			"rotation": {"angle": 0, "axis": "y", "origin": [8.919, 5.99768, 10.63171]},
			"faces": {
				"north": {"uv": [6.125, 2.5, 6.25, 2.625], "rotation": 270, "texture": "#0"},
				"east": {"uv": [6.375, 2.375, 6.5, 2.5], "rotation": 270, "texture": "#0"},
				"south": {"uv": [6.375, 2.5, 6.5, 2.625], "rotation": 270, "texture": "#0"},
				"west": {"uv": [6.25, 2.5, 6.375, 2.625], "rotation": 270, "texture": "#0"},
				"up": {"uv": [6.125, 2.25, 6.25, 2.375], "rotation": 270, "texture": "#0"},
				"down": {"uv": [6.125, 2.375, 6.25, 2.5], "rotation": 270, "texture": "#0"}
			}
		},
		{
			"from": [8.727, 7.94368, 4.08771],
			"to": [9.511, 8.27568, 5.37571],
			"rotation": {"angle": 0, "axis": "y", "origin": [8.919, 5.99768, 11.93171]},
			"faces": {
				"north": {"uv": [6.125, 2.5, 6.25, 2.625], "rotation": 270, "texture": "#0"},
				"east": {"uv": [6.375, 2.375, 6.5, 2.5], "rotation": 270, "texture": "#0"},
				"south": {"uv": [6.375, 2.5, 6.5, 2.625], "rotation": 270, "texture": "#0"},
				"west": {"uv": [6.25, 2.5, 6.375, 2.625], "rotation": 270, "texture": "#0"},
				"up": {"uv": [6.125, 2.25, 6.25, 2.375], "rotation": 270, "texture": "#0"},
				"down": {"uv": [6.125, 2.375, 6.25, 2.5], "rotation": 270, "texture": "#0"}
			}
		},
		{
			"from": [7.127, 7.34368, 1.88771],
			"to": [7.911, 8.17568, 2.17571],
			"rotation": {"angle": 0, "axis": "y", "origin": [7.319, 5.99768, 9.23171]},
			"faces": {
				"north": {"uv": [6.125, 2.5, 6.25, 2.625], "rotation": 270, "texture": "#0"},
				"east": {"uv": [6.375, 2.375, 6.5, 2.5], "rotation": 270, "texture": "#0"},
				"south": {"uv": [6.375, 2.5, 6.5, 2.625], "rotation": 270, "texture": "#0"},
				"west": {"uv": [6.25, 2.5, 6.375, 2.625], "rotation": 270, "texture": "#0"},
				"up": {"uv": [6.125, 2.25, 6.25, 2.375], "rotation": 270, "texture": "#0"},
				"down": {"uv": [6.125, 2.375, 6.25, 2.5], "rotation": 270, "texture": "#0"}
			}
		},
		{
			"from": [7.127, 7.34368, 3.28771],
			"to": [7.911, 8.17568, 3.57571],
			"rotation": {"angle": 0, "axis": "y", "origin": [7.319, 5.99768, 10.63171]},
			"faces": {
				"north": {"uv": [6.125, 2.5, 6.25, 2.625], "rotation": 270, "texture": "#0"},
				"east": {"uv": [6.375, 2.375, 6.5, 2.5], "rotation": 270, "texture": "#0"},
				"south": {"uv": [6.375, 2.5, 6.5, 2.625], "rotation": 270, "texture": "#0"},
				"west": {"uv": [6.25, 2.5, 6.375, 2.625], "rotation": 270, "texture": "#0"},
				"up": {"uv": [6.125, 2.25, 6.25, 2.375], "rotation": 270, "texture": "#0"},
				"down": {"uv": [6.125, 2.375, 6.25, 2.5], "rotation": 270, "texture": "#0"}
			}
		},
		{
			"from": [7.127, 7.34368, 4.58771],
			"to": [7.911, 8.17568, 4.87571],
			"rotation": {"angle": 0, "axis": "y", "origin": [7.319, 5.99768, 11.93171]},
			"faces": {
				"north": {"uv": [6.125, 2.5, 6.25, 2.625], "rotation": 270, "texture": "#0"},
				"east": {"uv": [6.375, 2.375, 6.5, 2.5], "rotation": 270, "texture": "#0"},
				"south": {"uv": [6.375, 2.5, 6.5, 2.625], "rotation": 270, "texture": "#0"},
				"west": {"uv": [6.25, 2.5, 6.375, 2.625], "rotation": 270, "texture": "#0"},
				"up": {"uv": [6.125, 2.25, 6.25, 2.375], "rotation": 270, "texture": "#0"},
				"down": {"uv": [6.125, 2.375, 6.25, 2.5], "rotation": 270, "texture": "#0"}
			}
		},
		{
			"from": [7.127, 7.34368, 5.98771],
			"to": [7.911, 8.17568, 6.27571],
			"rotation": {"angle": 0, "axis": "y", "origin": [7.319, 5.99768, 13.33171]},
			"faces": {
				"north": {"uv": [6.125, 2.5, 6.25, 2.625], "rotation": 270, "texture": "#0"},
				"east": {"uv": [6.375, 2.375, 6.5, 2.5], "rotation": 270, "texture": "#0"},
				"south": {"uv": [6.375, 2.5, 6.5, 2.625], "rotation": 270, "texture": "#0"},
				"west": {"uv": [6.25, 2.5, 6.375, 2.625], "rotation": 270, "texture": "#0"},
				"up": {"uv": [6.125, 2.25, 6.25, 2.375], "rotation": 270, "texture": "#0"},
				"down": {"uv": [6.125, 2.375, 6.25, 2.5], "rotation": 270, "texture": "#0"}
			}
		},
		{
			"from": [7.127, 7.94368, 1.38771],
			"to": [7.711, 8.27568, 2.67571],
			"rotation": {"angle": 0, "axis": "y", "origin": [7.319, 5.99768, 9.23171]},
			"faces": {
				"north": {"uv": [6.125, 2.5, 6.25, 2.625], "rotation": 270, "texture": "#0"},
				"east": {"uv": [6.375, 2.375, 6.5, 2.5], "rotation": 270, "texture": "#0"},
				"south": {"uv": [6.375, 2.5, 6.5, 2.625], "rotation": 270, "texture": "#0"},
				"west": {"uv": [6.25, 2.5, 6.375, 2.625], "rotation": 270, "texture": "#0"},
				"up": {"uv": [6.125, 2.25, 6.25, 2.375], "rotation": 270, "texture": "#0"},
				"down": {"uv": [6.125, 2.375, 6.25, 2.5], "rotation": 270, "texture": "#0"}
			}
		},
		{
			"from": [7.127, 7.94368, 2.78771],
			"to": [7.711, 8.27568, 4.07571],
			"rotation": {"angle": 0, "axis": "y", "origin": [7.319, 5.99768, 10.63171]},
			"faces": {
				"north": {"uv": [6.125, 2.5, 6.25, 2.625], "rotation": 270, "texture": "#0"},
				"east": {"uv": [6.375, 2.375, 6.5, 2.5], "rotation": 270, "texture": "#0"},
				"south": {"uv": [6.375, 2.5, 6.5, 2.625], "rotation": 270, "texture": "#0"},
				"west": {"uv": [6.25, 2.5, 6.375, 2.625], "rotation": 270, "texture": "#0"},
				"up": {"uv": [6.125, 2.25, 6.25, 2.375], "rotation": 270, "texture": "#0"},
				"down": {"uv": [6.125, 2.375, 6.25, 2.5], "rotation": 270, "texture": "#0"}
			}
		},
		{
			"from": [7.127, 7.94368, 4.08771],
			"to": [7.711, 8.27568, 5.37571],
			"rotation": {"angle": 0, "axis": "y", "origin": [7.319, 5.99768, 11.93171]},
			"faces": {
				"north": {"uv": [6.125, 2.5, 6.25, 2.625], "rotation": 270, "texture": "#0"},
				"east": {"uv": [6.375, 2.375, 6.5, 2.5], "rotation": 270, "texture": "#0"},
				"south": {"uv": [6.375, 2.5, 6.5, 2.625], "rotation": 270, "texture": "#0"},
				"west": {"uv": [6.25, 2.5, 6.375, 2.625], "rotation": 270, "texture": "#0"},
				"up": {"uv": [6.125, 2.25, 6.25, 2.375], "rotation": 270, "texture": "#0"},
				"down": {"uv": [6.125, 2.375, 6.25, 2.5], "rotation": 270, "texture": "#0"}
			}
		},
		{
			"from": [7.127, 7.94368, 5.48771],
			"to": [7.711, 8.27568, 6.77571],
			"rotation": {"angle": 0, "axis": "y", "origin": [7.319, 5.99768, 13.33171]},
			"faces": {
				"north": {"uv": [6.125, 2.5, 6.25, 2.625], "rotation": 270, "texture": "#0"},
				"east": {"uv": [6.375, 2.375, 6.5, 2.5], "rotation": 270, "texture": "#0"},
				"south": {"uv": [6.375, 2.5, 6.5, 2.625], "rotation": 270, "texture": "#0"},
				"west": {"uv": [6.25, 2.5, 6.375, 2.625], "rotation": 270, "texture": "#0"},
				"up": {"uv": [6.125, 2.25, 6.25, 2.375], "rotation": 270, "texture": "#0"},
				"down": {"uv": [6.125, 2.375, 6.25, 2.5], "rotation": 270, "texture": "#0"}
			}
		},
		{
			"from": [8.843, 8.61044, 6.228],
			"to": [9.403, 8.73844, 6.48],
			"rotation": {"angle": -22.5, "axis": "z", "origin": [9.123, 8.67444, 6.354]},
			"faces": {
				"north": {"uv": [14, 9.625, 14.125, 9.75], "rotation": 270, "texture": "#0"},
				"east": {"uv": [5.75, 11.75, 5.875, 11.875], "rotation": 270, "texture": "#0"},
				"south": {"uv": [14.125, 9.625, 14.25, 9.75], "rotation": 270, "texture": "#0"},
				"west": {"uv": [14, 9.75, 14.125, 9.875], "rotation": 270, "texture": "#0"},
				"up": {"uv": [14, 9.625, 14.125, 9.75], "rotation": 270, "texture": "#0"},
				"down": {"uv": [14, 9.5, 14.125, 9.625], "rotation": 270, "texture": "#0"}
			}
		},
		{
			"from": [8.843, 8.61044, 5.828],
			"to": [9.403, 8.73844, 6.08],
			"rotation": {"angle": -22.5, "axis": "z", "origin": [9.123, 8.67444, 5.954]},
			"faces": {
				"north": {"uv": [6.375, 3.625, 6.5, 3.75], "rotation": 270, "texture": "#0"},
				"east": {"uv": [6.25, 3.5, 6.375, 3.625], "rotation": 270, "texture": "#0"},
				"south": {"uv": [6.375, 3.5, 6.5, 3.625], "rotation": 270, "texture": "#0"},
				"west": {"uv": [6.375, 3.625, 6.5, 3.75], "rotation": 270, "texture": "#0"},
				"up": {"uv": [6.125, 4, 6.25, 4.125], "rotation": 270, "texture": "#0"},
				"down": {"uv": [6.125, 3.375, 6.25, 3.5], "rotation": 270, "texture": "#0"}
			}
		},
		{
			"from": [8.843, 8.61044, 4.428],
			"to": [9.403, 8.73844, 4.68],
			"rotation": {"angle": -22.5, "axis": "z", "origin": [9.123, 8.67444, 4.554]},
			"faces": {
				"north": {"uv": [6.375, 3.625, 6.5, 3.75], "rotation": 270, "texture": "#0"},
				"east": {"uv": [6.25, 3.5, 6.375, 3.625], "rotation": 270, "texture": "#0"},
				"south": {"uv": [6.375, 3.5, 6.5, 3.625], "rotation": 270, "texture": "#0"},
				"west": {"uv": [6.375, 3.625, 6.5, 3.75], "rotation": 270, "texture": "#0"},
				"up": {"uv": [6.125, 4, 6.25, 4.125], "rotation": 270, "texture": "#0"},
				"down": {"uv": [6.125, 3.375, 6.25, 3.5], "rotation": 270, "texture": "#0"}
			}
		},
		{
			"from": [8.843, 8.61044, 4.828],
			"to": [9.403, 8.73844, 5.08],
			"rotation": {"angle": -22.5, "axis": "z", "origin": [9.123, 8.67444, 4.954]},
			"faces": {
				"north": {"uv": [14, 9.625, 14.125, 9.75], "rotation": 270, "texture": "#0"},
				"east": {"uv": [5.75, 11.75, 5.875, 11.875], "rotation": 270, "texture": "#0"},
				"south": {"uv": [14.125, 9.625, 14.25, 9.75], "rotation": 270, "texture": "#0"},
				"west": {"uv": [14, 9.75, 14.125, 9.875], "rotation": 270, "texture": "#0"},
				"up": {"uv": [14, 9.625, 14.125, 9.75], "rotation": 270, "texture": "#0"},
				"down": {"uv": [14, 9.5, 14.125, 9.625], "rotation": 270, "texture": "#0"}
			}
		},
		{
			"from": [8.843, 8.61044, 3.128],
			"to": [9.403, 8.73844, 3.38],
			"rotation": {"angle": -22.5, "axis": "z", "origin": [9.123, 8.67444, 3.254]},
			"faces": {
				"north": {"uv": [6.375, 3.625, 6.5, 3.75], "rotation": 270, "texture": "#0"},
				"east": {"uv": [6.25, 3.5, 6.375, 3.625], "rotation": 270, "texture": "#0"},
				"south": {"uv": [6.375, 3.5, 6.5, 3.625], "rotation": 270, "texture": "#0"},
				"west": {"uv": [6.375, 3.625, 6.5, 3.75], "rotation": 270, "texture": "#0"},
				"up": {"uv": [6.125, 4, 6.25, 4.125], "rotation": 270, "texture": "#0"},
				"down": {"uv": [6.125, 3.375, 6.25, 3.5], "rotation": 270, "texture": "#0"}
			}
		},
		{
			"from": [8.843, 8.61044, 3.528],
			"to": [9.403, 8.73844, 3.78],
			"rotation": {"angle": -22.5, "axis": "z", "origin": [9.123, 8.67444, 3.654]},
			"faces": {
				"north": {"uv": [14, 9.625, 14.125, 9.75], "rotation": 270, "texture": "#0"},
				"east": {"uv": [5.75, 11.75, 5.875, 11.875], "rotation": 270, "texture": "#0"},
				"south": {"uv": [14.125, 9.625, 14.25, 9.75], "rotation": 270, "texture": "#0"},
				"west": {"uv": [14, 9.75, 14.125, 9.875], "rotation": 270, "texture": "#0"},
				"up": {"uv": [14, 9.625, 14.125, 9.75], "rotation": 270, "texture": "#0"},
				"down": {"uv": [14, 9.5, 14.125, 9.625], "rotation": 270, "texture": "#0"}
			}
		},
		{
			"from": [8.843, 8.61044, 1.728],
			"to": [9.403, 8.73844, 1.98],
			"rotation": {"angle": -22.5, "axis": "z", "origin": [9.123, 8.67444, 1.854]},
			"faces": {
				"north": {"uv": [6.375, 3.625, 6.5, 3.75], "rotation": 270, "texture": "#0"},
				"east": {"uv": [6.25, 3.5, 6.375, 3.625], "rotation": 270, "texture": "#0"},
				"south": {"uv": [6.375, 3.5, 6.5, 3.625], "rotation": 270, "texture": "#0"},
				"west": {"uv": [6.375, 3.625, 6.5, 3.75], "rotation": 270, "texture": "#0"},
				"up": {"uv": [6.125, 4, 6.25, 4.125], "rotation": 270, "texture": "#0"},
				"down": {"uv": [6.125, 3.375, 6.25, 3.5], "rotation": 270, "texture": "#0"}
			}
		},
		{
			"from": [8.843, 8.61044, 2.128],
			"to": [9.403, 8.73844, 2.38],
			"rotation": {"angle": -22.5, "axis": "z", "origin": [9.123, 8.67444, 2.254]},
			"faces": {
				"north": {"uv": [14, 9.625, 14.125, 9.75], "rotation": 270, "texture": "#0"},
				"east": {"uv": [5.75, 11.75, 5.875, 11.875], "rotation": 270, "texture": "#0"},
				"south": {"uv": [14.125, 9.625, 14.25, 9.75], "rotation": 270, "texture": "#0"},
				"west": {"uv": [14, 9.75, 14.125, 9.875], "rotation": 270, "texture": "#0"},
				"up": {"uv": [14, 9.625, 14.125, 9.75], "rotation": 270, "texture": "#0"},
				"down": {"uv": [14, 9.5, 14.125, 9.625], "rotation": 270, "texture": "#0"}
			}
		},
		{
			"from": [7.243, 8.61044, 5.828],
			"to": [7.803, 8.73844, 6.08],
			"rotation": {"angle": 22.5, "axis": "z", "origin": [7.523, 8.67444, 5.954]},
			"faces": {
				"north": {"uv": [14, 9.625, 14.125, 9.75], "rotation": 270, "texture": "#0"},
				"east": {"uv": [5.75, 11.75, 5.875, 11.875], "rotation": 270, "texture": "#0"},
				"south": {"uv": [14.125, 9.625, 14.25, 9.75], "rotation": 270, "texture": "#0"},
				"west": {"uv": [14, 9.75, 14.125, 9.875], "rotation": 270, "texture": "#0"},
				"up": {"uv": [14, 9.625, 14.125, 9.75], "rotation": 270, "texture": "#0"},
				"down": {"uv": [14, 9.5, 14.125, 9.625], "rotation": 270, "texture": "#0"}
			}
		},
		{
			"from": [7.243, 8.61044, 6.228],
			"to": [7.803, 8.73844, 6.48],
			"rotation": {"angle": 22.5, "axis": "z", "origin": [7.523, 8.67444, 6.354]},
			"faces": {
				"north": {"uv": [6.375, 3.625, 6.5, 3.75], "rotation": 270, "texture": "#0"},
				"east": {"uv": [6.25, 3.5, 6.375, 3.625], "rotation": 270, "texture": "#0"},
				"south": {"uv": [6.375, 3.5, 6.5, 3.625], "rotation": 270, "texture": "#0"},
				"west": {"uv": [6.375, 3.625, 6.5, 3.75], "rotation": 270, "texture": "#0"},
				"up": {"uv": [6.125, 4, 6.25, 4.125], "rotation": 270, "texture": "#0"},
				"down": {"uv": [6.125, 3.375, 6.25, 3.5], "rotation": 270, "texture": "#0"}
			}
		},
		{
			"from": [7.243, 8.61044, 4.828],
			"to": [7.803, 8.73844, 5.08],
			"rotation": {"angle": 22.5, "axis": "z", "origin": [7.523, 8.67444, 4.954]},
			"faces": {
				"north": {"uv": [6.375, 3.625, 6.5, 3.75], "rotation": 270, "texture": "#0"},
				"east": {"uv": [6.25, 3.5, 6.375, 3.625], "rotation": 270, "texture": "#0"},
				"south": {"uv": [6.375, 3.5, 6.5, 3.625], "rotation": 270, "texture": "#0"},
				"west": {"uv": [6.375, 3.625, 6.5, 3.75], "rotation": 270, "texture": "#0"},
				"up": {"uv": [6.125, 4, 6.25, 4.125], "rotation": 270, "texture": "#0"},
				"down": {"uv": [6.125, 3.375, 6.25, 3.5], "rotation": 270, "texture": "#0"}
			}
		},
		{
			"from": [7.243, 8.61044, 4.428],
			"to": [7.803, 8.73844, 4.68],
			"rotation": {"angle": 22.5, "axis": "z", "origin": [7.523, 8.67444, 4.554]},
			"faces": {
				"north": {"uv": [14, 9.625, 14.125, 9.75], "rotation": 270, "texture": "#0"},
				"east": {"uv": [5.75, 11.75, 5.875, 11.875], "rotation": 270, "texture": "#0"},
				"south": {"uv": [14.125, 9.625, 14.25, 9.75], "rotation": 270, "texture": "#0"},
				"west": {"uv": [14, 9.75, 14.125, 9.875], "rotation": 270, "texture": "#0"},
				"up": {"uv": [14, 9.625, 14.125, 9.75], "rotation": 270, "texture": "#0"},
				"down": {"uv": [14, 9.5, 14.125, 9.625], "rotation": 270, "texture": "#0"}
			}
		},
		{
			"from": [7.243, 8.61044, 3.528],
			"to": [7.803, 8.73844, 3.78],
			"rotation": {"angle": 22.5, "axis": "z", "origin": [7.523, 8.67444, 3.654]},
			"faces": {
				"north": {"uv": [6.375, 3.625, 6.5, 3.75], "rotation": 270, "texture": "#0"},
				"east": {"uv": [6.25, 3.5, 6.375, 3.625], "rotation": 270, "texture": "#0"},
				"south": {"uv": [6.375, 3.5, 6.5, 3.625], "rotation": 270, "texture": "#0"},
				"west": {"uv": [6.375, 3.625, 6.5, 3.75], "rotation": 270, "texture": "#0"},
				"up": {"uv": [6.125, 4, 6.25, 4.125], "rotation": 270, "texture": "#0"},
				"down": {"uv": [6.125, 3.375, 6.25, 3.5], "rotation": 270, "texture": "#0"}
			}
		},
		{
			"from": [7.243, 8.61044, 3.128],
			"to": [7.803, 8.73844, 3.38],
			"rotation": {"angle": 22.5, "axis": "z", "origin": [7.523, 8.67444, 3.254]},
			"faces": {
				"north": {"uv": [14, 9.625, 14.125, 9.75], "rotation": 270, "texture": "#0"},
				"east": {"uv": [5.75, 11.75, 5.875, 11.875], "rotation": 270, "texture": "#0"},
				"south": {"uv": [14.125, 9.625, 14.25, 9.75], "rotation": 270, "texture": "#0"},
				"west": {"uv": [14, 9.75, 14.125, 9.875], "rotation": 270, "texture": "#0"},
				"up": {"uv": [14, 9.625, 14.125, 9.75], "rotation": 270, "texture": "#0"},
				"down": {"uv": [14, 9.5, 14.125, 9.625], "rotation": 270, "texture": "#0"}
			}
		},
		{
			"from": [7.243, 8.61044, 2.128],
			"to": [7.803, 8.73844, 2.38],
			"rotation": {"angle": 22.5, "axis": "z", "origin": [7.523, 8.67444, 2.254]},
			"faces": {
				"north": {"uv": [6.375, 3.625, 6.5, 3.75], "rotation": 270, "texture": "#0"},
				"east": {"uv": [6.25, 3.5, 6.375, 3.625], "rotation": 270, "texture": "#0"},
				"south": {"uv": [6.375, 3.5, 6.5, 3.625], "rotation": 270, "texture": "#0"},
				"west": {"uv": [6.375, 3.625, 6.5, 3.75], "rotation": 270, "texture": "#0"},
				"up": {"uv": [6.125, 4, 6.25, 4.125], "rotation": 270, "texture": "#0"},
				"down": {"uv": [6.125, 3.375, 6.25, 3.5], "rotation": 270, "texture": "#0"}
			}
		},
		{
			"from": [7.243, 8.61044, 1.728],
			"to": [7.803, 8.73844, 1.98],
			"rotation": {"angle": 22.5, "axis": "z", "origin": [7.523, 8.67444, 1.854]},
			"faces": {
				"north": {"uv": [14, 9.625, 14.125, 9.75], "rotation": 270, "texture": "#0"},
				"east": {"uv": [5.75, 11.75, 5.875, 11.875], "rotation": 270, "texture": "#0"},
				"south": {"uv": [14.125, 9.625, 14.25, 9.75], "rotation": 270, "texture": "#0"},
				"west": {"uv": [14, 9.75, 14.125, 9.875], "rotation": 270, "texture": "#0"},
				"up": {"uv": [14, 9.625, 14.125, 9.75], "rotation": 270, "texture": "#0"},
				"down": {"uv": [14, 9.5, 14.125, 9.625], "rotation": 270, "texture": "#0"}
			}
		},
		{
			"from": [7.927, 6.74368, 6.38771],
			"to": [8.711, 7.67568, 6.77571],
			"rotation": {"angle": 0, "axis": "y", "origin": [8.319, 5.29768, 8.93171]},
			"faces": {
				"north": {"uv": [6.125, 2.5, 6.25, 2.625], "rotation": 270, "texture": "#0"},
				"east": {"uv": [6.375, 2.25, 6.5, 2.375], "rotation": 270, "texture": "#0"},
				"south": {"uv": [6, 2.5, 6.125, 2.625], "rotation": 270, "texture": "#0"},
				"west": {"uv": [6.125, 2.375, 6.25, 2.5], "rotation": 270, "texture": "#0"},
				"up": {"uv": [6.375, 2.5, 6.5, 2.625], "rotation": 270, "texture": "#0"},
				"down": {"uv": [6, 2.125, 6.125, 2.25], "rotation": 270, "texture": "#0"}
			}
		},
		{
			"from": [8.043, 9.21044, 8.456],
			"to": [8.603, 9.33844, 8.708],
			"rotation": {"angle": 0, "axis": "y", "origin": [8.06442, 9.16902, -5.52]},
			"faces": {
				"north": {"uv": [13.875, 5.125, 14, 5.25], "rotation": 270, "texture": "#0"},
				"east": {"uv": [13.625, 5, 13.75, 5.125], "rotation": 270, "texture": "#0"},
				"south": {"uv": [14, 5, 14.125, 5.125], "rotation": 270, "texture": "#0"},
				"west": {"uv": [13.5, 5.125, 13.625, 5.25], "rotation": 270, "texture": "#0"},
				"up": {"uv": [14, 4.875, 14.125, 5], "rotation": 270, "texture": "#0"},
				"down": {"uv": [13.875, 5.125, 14, 5.25], "rotation": 270, "texture": "#0"}
			}
		},
		{
			"from": [8.043, 9.21044, 8.968],
			"to": [8.603, 9.33844, 9.22],
			"rotation": {"angle": 0, "axis": "y", "origin": [8.06442, 9.16902, -5.008]},
			"faces": {
				"north": {"uv": [13.875, 5.125, 14, 5.25], "rotation": 270, "texture": "#0"},
				"east": {"uv": [13.625, 5, 13.75, 5.125], "rotation": 270, "texture": "#0"},
				"south": {"uv": [14, 5, 14.125, 5.125], "rotation": 270, "texture": "#0"},
				"west": {"uv": [13.5, 5.125, 13.625, 5.25], "rotation": 270, "texture": "#0"},
				"up": {"uv": [14, 4.875, 14.125, 5], "rotation": 270, "texture": "#0"},
				"down": {"uv": [13.875, 5.125, 14, 5.25], "rotation": 270, "texture": "#0"}
			}
		},
		{
			"from": [8.043, 9.21044, 7.944],
			"to": [8.603, 9.33844, 8.196],
			"rotation": {"angle": 0, "axis": "y", "origin": [8.06442, 9.16902, -6.032]},
			"faces": {
				"north": {"uv": [13.875, 5.125, 14, 5.25], "rotation": 270, "texture": "#0"},
				"east": {"uv": [13.625, 5, 13.75, 5.125], "rotation": 270, "texture": "#0"},
				"south": {"uv": [14, 5, 14.125, 5.125], "rotation": 270, "texture": "#0"},
				"west": {"uv": [13.5, 5.125, 13.625, 5.25], "rotation": 270, "texture": "#0"},
				"up": {"uv": [14, 4.875, 14.125, 5], "rotation": 270, "texture": "#0"},
				"down": {"uv": [13.875, 5.125, 14, 5.25], "rotation": 270, "texture": "#0"}
			}
		},
		{
			"from": [8.043, 9.21044, 7.464],
			"to": [8.603, 9.33844, 7.716],
			"rotation": {"angle": 0, "axis": "y", "origin": [8.06442, 9.16902, -6.512]},
			"faces": {
				"north": {"uv": [13.875, 5.125, 14, 5.25], "rotation": 270, "texture": "#0"},
				"east": {"uv": [13.625, 5, 13.75, 5.125], "rotation": 270, "texture": "#0"},
				"south": {"uv": [14, 5, 14.125, 5.125], "rotation": 270, "texture": "#0"},
				"west": {"uv": [13.5, 5.125, 13.625, 5.25], "rotation": 270, "texture": "#0"},
				"up": {"uv": [14, 4.875, 14.125, 5], "rotation": 270, "texture": "#0"},
				"down": {"uv": [13.875, 5.125, 14, 5.25], "rotation": 270, "texture": "#0"}
			}
		},
		{
			"from": [8.043, 9.21044, 6.44],
			"to": [8.603, 9.33844, 6.692],
			"rotation": {"angle": 0, "axis": "y", "origin": [8.06442, 9.16902, -7.536]},
			"faces": {
				"north": {"uv": [13.875, 5.125, 14, 5.25], "rotation": 270, "texture": "#0"},
				"east": {"uv": [13.625, 5, 13.75, 5.125], "rotation": 270, "texture": "#0"},
				"south": {"uv": [14, 5, 14.125, 5.125], "rotation": 270, "texture": "#0"},
				"west": {"uv": [13.5, 5.125, 13.625, 5.25], "rotation": 270, "texture": "#0"},
				"up": {"uv": [14, 4.875, 14.125, 5], "rotation": 270, "texture": "#0"},
				"down": {"uv": [13.875, 5.125, 14, 5.25], "rotation": 270, "texture": "#0"}
			}
		},
		{
			"from": [8.043, 9.21044, 5.94],
			"to": [8.603, 9.33844, 6.192],
			"rotation": {"angle": 0, "axis": "y", "origin": [8.06442, 9.16902, -8.036]},
			"faces": {
				"north": {"uv": [13.875, 5.125, 14, 5.25], "rotation": 270, "texture": "#0"},
				"east": {"uv": [13.625, 5, 13.75, 5.125], "rotation": 270, "texture": "#0"},
				"south": {"uv": [14, 5, 14.125, 5.125], "rotation": 270, "texture": "#0"},
				"west": {"uv": [13.5, 5.125, 13.625, 5.25], "rotation": 270, "texture": "#0"},
				"up": {"uv": [14, 4.875, 14.125, 5], "rotation": 270, "texture": "#0"},
				"down": {"uv": [13.875, 5.125, 14, 5.25], "rotation": 270, "texture": "#0"}
			}
		},
		{
			"from": [8.043, 9.21044, 6.952],
			"to": [8.603, 9.33844, 7.204],
			"rotation": {"angle": 0, "axis": "y", "origin": [8.06442, 9.16902, -7.024]},
			"faces": {
				"north": {"uv": [13.875, 5.125, 14, 5.25], "rotation": 270, "texture": "#0"},
				"east": {"uv": [13.625, 5, 13.75, 5.125], "rotation": 270, "texture": "#0"},
				"south": {"uv": [14, 5, 14.125, 5.125], "rotation": 270, "texture": "#0"},
				"west": {"uv": [13.5, 5.125, 13.625, 5.25], "rotation": 270, "texture": "#0"},
				"up": {"uv": [14, 4.875, 14.125, 5], "rotation": 270, "texture": "#0"},
				"down": {"uv": [13.875, 5.125, 14, 5.25], "rotation": 270, "texture": "#0"}
			}
		},
		{
			"from": [8.043, 9.01444, 5.716],
			"to": [8.603, 9.21044, 11.216],
			"rotation": {"angle": 0, "axis": "y", "origin": [8.06442, 9.07302, -11.448]},
			"faces": {
				"north": {"uv": [13.875, 5.125, 14, 5.25], "rotation": 270, "texture": "#0"},
				"east": {"uv": [13.625, 5, 13.75, 5.125], "rotation": 270, "texture": "#0"},
				"south": {"uv": [14, 5, 14.125, 5.125], "rotation": 270, "texture": "#0"},
				"west": {"uv": [13.5, 5.125, 13.625, 5.25], "rotation": 270, "texture": "#0"},
				"up": {"uv": [14, 4.875, 14.125, 5], "rotation": 270, "texture": "#0"},
				"down": {"uv": [13.875, 5.125, 14, 5.25], "rotation": 270, "texture": "#0"}
			}
		},
		{
			"from": [7.927, 8.94368, 5.68771],
			"to": [8.711, 9.07568, 11.27571],
			"rotation": {"angle": 0, "axis": "y", "origin": [8.319, 7.39768, 11.93171]},
			"faces": {
				"north": {"uv": [6.125, 2.5, 6.25, 2.625], "rotation": 270, "texture": "#0"},
				"east": {"uv": [6.375, 2.375, 6.5, 2.5], "rotation": 270, "texture": "#0"},
				"south": {"uv": [6.375, 2.5, 6.5, 2.625], "rotation": 270, "texture": "#0"},
				"west": {"uv": [6.25, 2.5, 6.375, 2.625], "rotation": 270, "texture": "#0"},
				"up": {"uv": [6.125, 2.25, 6.25, 2.375], "rotation": 270, "texture": "#0"},
				"down": {"uv": [6.125, 2.375, 6.25, 2.5], "rotation": 270, "texture": "#0"}
			}
		},
		{
			"from": [8.027, 3.64368, 1.18771],
			"to": [8.611, 4.77568, 12.77571],
			"rotation": {"angle": 0, "axis": "y", "origin": [8.319, 2.69768, 8.93171]},
			"faces": {
				"north": {"uv": [6.125, 2.5, 6.25, 2.625], "rotation": 270, "texture": "#0"},
				"east": {"uv": [6.375, 2.375, 6.5, 2.5], "rotation": 270, "texture": "#0"},
				"south": {"uv": [6.375, 2.5, 6.5, 2.625], "rotation": 270, "texture": "#0"},
				"west": {"uv": [6.25, 2.5, 6.375, 2.625], "rotation": 270, "texture": "#0"},
				"up": {"uv": [6.375, 2.375, 6.5, 2.5], "rotation": 270, "texture": "#0"},
				"down": {"uv": [6.125, 2.375, 6.25, 2.5], "rotation": 270, "texture": "#0"}
			}
		},
		{
			"from": [7.727, 7.54368, 1.18771],
			"to": [8.911, 8.97568, 11.27571],
			"rotation": {"angle": 0, "axis": "y", "origin": [8.319, 6.19768, 8.93171]},
			"faces": {
				"north": {"uv": [6.125, 2.5, 6.25, 2.625], "rotation": 270, "texture": "#0"},
				"east": {"uv": [6.375, 2.375, 6.5, 2.5], "rotation": 270, "texture": "#0"},
				"south": {"uv": [6.375, 2.5, 6.5, 2.625], "rotation": 270, "texture": "#0"},
				"west": {"uv": [6.25, 2.5, 6.375, 2.625], "rotation": 270, "texture": "#0"},
				"up": {"uv": [6.125, 2.25, 6.25, 2.375], "rotation": 270, "texture": "#0"},
				"down": {"uv": [6.125, 2.375, 6.25, 2.5], "rotation": 270, "texture": "#0"}
			}
		},
		{
			"from": [7.727, 3.86568, 10.46571],
			"to": [8.911, 8.45368, 11.79771],
			"rotation": {"angle": -22.5, "axis": "x", "origin": [8.319, 7.20968, 10.33171]},
			"faces": {
				"north": {"uv": [6.125, 2.5, 6.25, 2.625], "rotation": 90, "texture": "#0"},
				"east": {"uv": [6.375, 2.375, 6.5, 2.5], "rotation": 180, "texture": "#0"},
				"south": {"uv": [6.375, 2.5, 6.5, 2.625], "rotation": 270, "texture": "#0"},
				"west": {"uv": [6.25, 2.5, 6.375, 2.625], "texture": "#0"},
				"up": {"uv": [6.125, 2.25, 6.25, 2.375], "rotation": 90, "texture": "#0"},
				"down": {"uv": [6.125, 2.375, 6.25, 2.5], "rotation": 270, "texture": "#0"}
			}
		},
		{
			"from": [8.027, 6.94368, 6.18771],
			"to": [8.611, 7.77568, 10.67571],
			"rotation": {"angle": 0, "axis": "y", "origin": [8.319, 5.39768, 8.93171]},
			"faces": {
				"north": {"uv": [6.125, 2.5, 6.25, 2.625], "rotation": 270, "texture": "#0"},
				"east": {"uv": [6, 9.625, 6.125, 9.75], "rotation": 270, "texture": "#0"},
				"south": {"uv": [6.375, 2.5, 6.5, 2.625], "rotation": 270, "texture": "#0"},
				"west": {"uv": [5.625, 9.75, 5.75, 9.875], "rotation": 270, "texture": "#0"},
				"up": {"uv": [6.125, 2.25, 6.25, 2.375], "rotation": 270, "texture": "#0"},
				"down": {"uv": [5.75, 9.5, 5.875, 9.625], "rotation": 270, "texture": "#0"}
			}
		},
		{
			"from": [7.927, 6.965, 1.28],
			"to": [8.711, 7.797, 2.868],
			"rotation": {"angle": 22.5, "axis": "x", "origin": [8.319, 7.35968, 2.73171]},
			"faces": {
				"north": {"uv": [6.125, 2.5, 6.25, 2.625], "rotation": 270, "texture": "#0"},
				"east": {"uv": [6.375, 2.375, 6.5, 2.5], "rotation": 270, "texture": "#0"},
				"south": {"uv": [6.375, 2.5, 6.5, 2.625], "rotation": 270, "texture": "#0"},
				"west": {"uv": [6.25, 2.5, 6.375, 2.625], "rotation": 270, "texture": "#0"},
				"up": {"uv": [6.125, 2.25, 6.25, 2.375], "rotation": 270, "texture": "#0"},
				"down": {"uv": [6.125, 2.375, 6.25, 2.5], "rotation": 270, "texture": "#0"}
			}
		},
		{
			"from": [7.727, 3.94368, 1.18771],
			"to": [8.911, 4.47568, 12.57571],
			"rotation": {"angle": 0, "axis": "y", "origin": [8.319, 2.39768, 8.93171]},
			"faces": {
				"north": {"uv": [6.125, 2.5, 6.25, 2.625], "rotation": 270, "texture": "#0"},
				"east": {"uv": [6.375, 2.375, 6.5, 2.5], "rotation": 270, "texture": "#0"},
				"south": {"uv": [6.375, 2.5, 6.5, 2.625], "rotation": 270, "texture": "#0"},
				"west": {"uv": [6.25, 2.5, 6.375, 2.625], "rotation": 270, "texture": "#0"},
				"up": {"uv": [6.125, 2.25, 6.25, 2.375], "rotation": 270, "texture": "#0"},
				"down": {"uv": [6.125, 2.375, 6.25, 2.5], "rotation": 270, "texture": "#0"}
			}
		},
		{
			"from": [8.4, 4.415, 1.18771],
			"to": [8.825, 4.715, 11.47571],
			"rotation": {"angle": -45, "axis": "z", "origin": [8.577, 4.49368, 6.33171]},
			"faces": {
				"north": {"uv": [6.125, 2.5, 6.25, 2.625], "rotation": 270, "texture": "#0"},
				"east": {"uv": [6.375, 2.375, 6.5, 2.5], "rotation": 270, "texture": "#0"},
				"south": {"uv": [6.375, 2.5, 6.5, 2.625], "rotation": 270, "texture": "#0"},
				"west": {"uv": [6.25, 2.5, 6.375, 2.625], "rotation": 270, "texture": "#0"},
				"up": {"uv": [6.375, 2.5, 6.5, 2.625], "rotation": 270, "texture": "#0"},
				"down": {"uv": [6.125, 2.375, 6.25, 2.5], "rotation": 270, "texture": "#0"}
			}
		},
		{
			"from": [7.76, 4.348, 1.18771],
			"to": [8.185, 4.648, 11.47571],
			"rotation": {"angle": 45, "axis": "z", "origin": [7.95253, 4.51901, 6.33171]},
			"faces": {
				"north": {"uv": [6.125, 2.5, 6.25, 2.625], "rotation": 270, "texture": "#0"},
				"east": {"uv": [6.375, 2.375, 6.5, 2.5], "rotation": 270, "texture": "#0"},
				"south": {"uv": [6.375, 2.5, 6.5, 2.625], "rotation": 270, "texture": "#0"},
				"west": {"uv": [6.25, 2.5, 6.375, 2.625], "rotation": 270, "texture": "#0"},
				"up": {"uv": [6.375, 2.5, 6.5, 2.625], "rotation": 270, "texture": "#0"},
				"down": {"uv": [6.125, 2.375, 6.25, 2.5], "rotation": 270, "texture": "#0"}
			}
		},
		{
			"from": [8.027, 4.71568, 1.51571],
			"to": [8.611, 7.60368, 2.64771],
			"rotation": {"angle": 0, "axis": "x", "origin": [8.319, 7.35968, 2.23171]},
			"faces": {
				"north": {"uv": [6.125, 2.5, 6.25, 2.625], "rotation": 90, "texture": "#0"},
				"east": {"uv": [6.375, 2.375, 6.5, 2.5], "texture": "#0"},
				"south": {"uv": [6.375, 2.5, 6.5, 2.625], "rotation": 270, "texture": "#0"},
				"west": {"uv": [6.25, 2.5, 6.375, 2.625], "rotation": 180, "texture": "#0"},
				"up": {"uv": [6.125, 2.25, 6.25, 2.375], "rotation": 270, "texture": "#0"},
				"down": {"uv": [6.125, 2.375, 6.25, 2.5], "rotation": 90, "texture": "#0"}
			}
		},
		{
			"from": [7.927, 6.74368, 2.58771],
			"to": [8.711, 7.67568, 2.97571],
			"rotation": {"angle": 0, "axis": "y", "origin": [8.319, 5.29768, 8.93171]},
			"faces": {
				"north": {"uv": [6.125, 2.5, 6.25, 2.625], "rotation": 270, "texture": "#0"},
				"east": {"uv": [6.375, 2.25, 6.5, 2.375], "rotation": 270, "texture": "#0"},
				"south": {"uv": [6, 2.5, 6.125, 2.625], "rotation": 270, "texture": "#0"},
				"west": {"uv": [6.125, 2.375, 6.25, 2.5], "rotation": 270, "texture": "#0"},
				"up": {"uv": [6.375, 2.5, 6.5, 2.625], "rotation": 270, "texture": "#0"},
				"down": {"uv": [6, 2.125, 6.125, 2.25], "rotation": 270, "texture": "#0"}
			}
		},
		{
			"from": [8.027, 4.21507, 1.33822],
			"to": [8.611, 5.04707, 2.92622],
			"rotation": {"angle": -22.5, "axis": "x", "origin": [8.319, 4.63107, 2.13222]},
			"faces": {
				"north": {"uv": [6.125, 2.5, 6.25, 2.625], "rotation": 270, "texture": "#0"},
				"east": {"uv": [6.375, 2.375, 6.5, 2.5], "rotation": 270, "texture": "#0"},
				"south": {"uv": [6.375, 2.5, 6.5, 2.625], "rotation": 270, "texture": "#0"},
				"west": {"uv": [6.25, 2.5, 6.375, 2.625], "rotation": 270, "texture": "#0"},
				"up": {"uv": [6.125, 2.25, 6.25, 2.375], "rotation": 270, "texture": "#0"},
				"down": {"uv": [6.125, 2.375, 6.25, 2.5], "rotation": 270, "texture": "#0"}
			}
		},
		{
			"from": [8.027, 4.194, 2.386],
			"to": [8.911, 5.026, 4.074],
			"rotation": {"angle": 22.5, "axis": "x", "origin": [8.319, 4.63107, 3.33222]},
			"faces": {
				"north": {"uv": [6.125, 2.5, 6.25, 2.625], "rotation": 270, "texture": "#0"},
				"east": {"uv": [6.375, 2.375, 6.5, 2.5], "rotation": 270, "texture": "#0"},
				"south": {"uv": [6.375, 2.5, 6.5, 2.625], "rotation": 270, "texture": "#0"},
				"west": {"uv": [6.25, 2.5, 6.375, 2.625], "rotation": 270, "texture": "#0"},
				"up": {"uv": [6.125, 2.25, 6.25, 2.375], "rotation": 270, "texture": "#0"},
				"down": {"uv": [6.125, 2.375, 6.25, 2.5], "rotation": 270, "texture": "#0"}
			}
		},
		{
			"from": [8.43, 3.752, 1.18771],
			"to": [8.855, 4.052, 12.77571],
			"rotation": {"angle": 45, "axis": "z", "origin": [8.65253, 3.91901, 6.33171]},
			"faces": {
				"north": {"uv": [6.125, 2.5, 6.25, 2.625], "rotation": 270, "texture": "#0"},
				"east": {"uv": [6.375, 2.375, 6.5, 2.5], "rotation": 270, "texture": "#0"},
				"south": {"uv": [6.375, 2.5, 6.5, 2.625], "rotation": 270, "texture": "#0"},
				"west": {"uv": [6.25, 2.5, 6.375, 2.625], "rotation": 270, "texture": "#0"},
				"up": {"uv": [6.125, 2.25, 6.25, 2.375], "rotation": 270, "texture": "#0"},
				"down": {"uv": [6.125, 2.375, 6.25, 2.5], "rotation": 270, "texture": "#0"}
			}
		},
		{
			"from": [7.73, 3.825, 1.18771],
			"to": [8.155, 4.125, 12.77571],
			"rotation": {"angle": -45, "axis": "z", "origin": [7.877, 3.89368, 6.33171]},
			"faces": {
				"north": {"uv": [6.125, 2.5, 6.25, 2.625], "rotation": 270, "texture": "#0"},
				"east": {"uv": [6.375, 2.375, 6.5, 2.5], "rotation": 270, "texture": "#0"},
				"south": {"uv": [6.375, 2.5, 6.5, 2.625], "rotation": 270, "texture": "#0"},
				"west": {"uv": [6.25, 2.5, 6.375, 2.625], "rotation": 270, "texture": "#0"},
				"up": {"uv": [6.125, 2.25, 6.25, 2.375], "rotation": 270, "texture": "#0"},
				"down": {"uv": [6.125, 2.375, 6.25, 2.5], "rotation": 270, "texture": "#0"}
			}
		},
		{
			"from": [8.027, 4.41568, 1.21571],
			"to": [8.911, 6.20368, 2.64771],
			"rotation": {"angle": 0, "axis": "y", "origin": [8.319, 7.35968, 2.23171]},
			"faces": {
				"north": {"uv": [6.125, 2.5, 6.25, 2.625], "rotation": 90, "texture": "#0"},
				"east": {"uv": [6.375, 2.375, 6.5, 2.5], "texture": "#0"},
				"south": {"uv": [6.375, 2.5, 6.5, 2.625], "rotation": 270, "texture": "#0"},
				"west": {"uv": [6.25, 2.5, 6.375, 2.625], "rotation": 180, "texture": "#0"},
				"up": {"uv": [6.125, 2.25, 6.25, 2.375], "rotation": 270, "texture": "#0"},
				"down": {"uv": [6.125, 2.375, 6.25, 2.5], "rotation": 90, "texture": "#0"}
			}
		},
		{
			"from": [8.127, 6.14368, 7.98771],
			"to": [8.511, 7.27568, 8.87571],
			"rotation": {"angle": 0, "axis": "y", "origin": [8.319, 5.19768, 8.23171]},
			"faces": {
				"north": {"uv": [5.75, 9.75, 5.875, 9.875], "rotation": 270, "texture": "#0"},
				"east": {"uv": [5.875, 9.75, 6, 9.875], "rotation": 270, "texture": "#0"},
				"south": {"uv": [5.625, 9.5, 5.75, 9.625], "rotation": 270, "texture": "#0"},
				"west": {"uv": [6, 9.5, 6.125, 9.625], "rotation": 270, "texture": "#0"},
				"up": {"uv": [5.75, 9.5, 5.875, 9.625], "rotation": 270, "texture": "#0"},
				"down": {"uv": [5.625, 10, 5.75, 10.125], "rotation": 270, "texture": "#0"}
			}
		},
		{
			"from": [8.127, 4.38368, 7.71571],
			"to": [8.511, 6.24368, 9.00371],
			"rotation": {"angle": -22.5, "axis": "x", "origin": [8.319, 5.96568, 8.35971]},
			"faces": {
				"north": {"uv": [5.75, 9.75, 5.875, 9.875], "rotation": 270, "texture": "#0"},
				"east": {"uv": [5.875, 9.75, 6, 9.875], "rotation": 270, "texture": "#0"},
				"south": {"uv": [5.625, 9.5, 5.75, 9.625], "rotation": 270, "texture": "#0"},
				"west": {"uv": [6, 9.5, 6.125, 9.625], "rotation": 270, "texture": "#0"},
				"up": {"uv": [5.75, 9.5, 5.875, 9.625], "rotation": 270, "texture": "#0"},
				"down": {"uv": [5.625, 10, 5.75, 10.125], "rotation": 270, "texture": "#0"}
			}
		},
		{
			"from": [8.127, 5.38997, 7.90945],
			"to": [8.511, 6.34597, 9.00545],
			"rotation": {"angle": -45, "axis": "x", "origin": [8.319, 5.86797, 8.36145]},
			"faces": {
				"north": {"uv": [5.75, 9.75, 5.875, 9.875], "rotation": 270, "texture": "#0"},
				"east": {"uv": [5.875, 9.75, 6, 9.875], "rotation": 270, "texture": "#0"},
				"south": {"uv": [5.625, 9.5, 5.75, 9.625], "rotation": 270, "texture": "#0"},
				"west": {"uv": [6, 9.5, 6.125, 9.625], "rotation": 270, "texture": "#0"},
				"up": {"uv": [5.75, 9.5, 5.875, 9.625], "rotation": 270, "texture": "#0"},
				"down": {"uv": [5.625, 10, 5.75, 10.125], "rotation": 270, "texture": "#0"}
			}
		},
		{
			"from": [8.127, 4.92768, 8.64371],
			"to": [8.511, 5.88368, 9.93171],
			"rotation": {"angle": -22.5, "axis": "x", "origin": [8.319, 3.98168, 9.28771]},
			"faces": {
				"north": {"uv": [5.75, 9.75, 5.875, 9.875], "rotation": 270, "texture": "#0"},
				"east": {"uv": [5.875, 9.75, 6, 9.875], "rotation": 270, "texture": "#0"},
				"south": {"uv": [5.625, 9.5, 5.75, 9.625], "rotation": 270, "texture": "#0"},
				"west": {"uv": [6, 9.5, 6.125, 9.625], "rotation": 270, "texture": "#0"},
				"up": {"uv": [5.75, 9.5, 5.875, 9.625], "rotation": 270, "texture": "#0"},
				"down": {"uv": [5.625, 10, 5.75, 10.125], "rotation": 270, "texture": "#0"}
			}
		},
		{
			"from": [8.127, 4.75412, 8.23267],
			"to": [8.511, 5.10212, 9.52067],
			"rotation": {"angle": 0, "axis": "y", "origin": [8.319, 3.20012, 8.87667]},
			"faces": {
				"north": {"uv": [5.75, 9.75, 5.875, 9.875], "rotation": 270, "texture": "#0"},
				"east": {"uv": [5.875, 9.75, 6, 9.875], "rotation": 270, "texture": "#0"},
				"south": {"uv": [5.625, 9.5, 5.75, 9.625], "rotation": 270, "texture": "#0"},
				"west": {"uv": [6, 9.5, 6.125, 9.625], "rotation": 270, "texture": "#0"},
				"up": {"uv": [5.75, 9.5, 5.875, 9.625], "rotation": 270, "texture": "#0"},
				"down": {"uv": [5.625, 10, 5.75, 10.125], "rotation": 270, "texture": "#0"}
			}
		},
		{
			"from": [8.031, 4.38368, 7.65171],
			"to": [8.607, 6.24368, 8.93971],
			"rotation": {"angle": -22.5, "axis": "x", "origin": [8.319, 5.96568, 8.29571]},
			"faces": {
				"north": {"uv": [5.75, 9.75, 5.875, 9.875], "rotation": 270, "texture": "#0"},
				"east": {"uv": [5.875, 9.75, 6, 9.875], "rotation": 270, "texture": "#0"},
				"south": {"uv": [5.625, 9.5, 5.75, 9.625], "rotation": 270, "texture": "#0"},
				"west": {"uv": [6, 9.5, 6.125, 9.625], "rotation": 270, "texture": "#0"},
				"up": {"uv": [5.75, 9.5, 5.875, 9.625], "rotation": 270, "texture": "#0"},
				"down": {"uv": [5.625, 10, 5.75, 10.125], "rotation": 270, "texture": "#0"}
			}
		},
		{
			"from": [8.031, 5.69113, 7.69189],
			"to": [8.607, 6.26713, 8.27989],
			"rotation": {"angle": -45, "axis": "x", "origin": [8.319, 6.02113, 7.98589]},
			"faces": {
				"north": {"uv": [5.75, 9.75, 5.875, 9.875], "rotation": 270, "texture": "#0"},
				"east": {"uv": [5.875, 9.75, 6, 9.875], "rotation": 270, "texture": "#0"},
				"south": {"uv": [5.625, 9.5, 5.75, 9.625], "rotation": 270, "texture": "#0"},
				"west": {"uv": [6, 9.5, 6.125, 9.625], "rotation": 270, "texture": "#0"},
				"up": {"uv": [5.75, 9.5, 5.875, 9.625], "rotation": 270, "texture": "#0"},
				"down": {"uv": [5.625, 10, 5.75, 10.125], "rotation": 270, "texture": "#0"}
			}
		},
		{
			"from": [8.031, 4.32566, 8.07814],
			"to": [8.607, 5.21766, 8.40614],
			"rotation": {"angle": 0, "axis": "y", "origin": [8.319, 3.34766, 8.72214]},
			"faces": {
				"north": {"uv": [5.75, 9.75, 5.875, 9.875], "rotation": 270, "texture": "#0"},
				"east": {"uv": [5.875, 9.75, 6, 9.875], "rotation": 270, "texture": "#0"},
				"south": {"uv": [5.625, 9.5, 5.75, 9.625], "rotation": 270, "texture": "#0"},
				"west": {"uv": [6, 9.5, 6.125, 9.625], "rotation": 270, "texture": "#0"},
				"up": {"uv": [5.75, 9.5, 5.875, 9.625], "rotation": 270, "texture": "#0"},
				"down": {"uv": [5.625, 10, 5.75, 10.125], "rotation": 270, "texture": "#0"}
			}
		},
		{
			"from": [8.031, 4.89568, 8.57971],
			"to": [8.607, 5.85168, 9.86771],
			"rotation": {"angle": -22.5, "axis": "x", "origin": [8.319, 3.94968, 9.22371]},
			"faces": {
				"north": {"uv": [5.75, 9.75, 5.875, 9.875], "rotation": 270, "texture": "#0"},
				"east": {"uv": [5.875, 9.75, 6, 9.875], "rotation": 270, "texture": "#0"},
				"south": {"uv": [5.625, 9.5, 5.75, 9.625], "rotation": 270, "texture": "#0"},
				"west": {"uv": [6, 9.5, 6.125, 9.625], "rotation": 270, "texture": "#0"},
				"up": {"uv": [5.75, 9.5, 5.875, 9.625], "rotation": 270, "texture": "#0"},
				"down": {"uv": [5.625, 10, 5.75, 10.125], "rotation": 270, "texture": "#0"}
			}
		},
		{
			"from": [8.031, 5.35797, 7.84545],
			"to": [8.607, 6.31397, 8.94145],
			"rotation": {"angle": -45, "axis": "x", "origin": [8.319, 5.83597, 8.29745]},
			"faces": {
				"north": {"uv": [5.75, 9.75, 5.875, 9.875], "rotation": 270, "texture": "#0"},
				"east": {"uv": [5.875, 9.75, 6, 9.875], "rotation": 270, "texture": "#0"},
				"south": {"uv": [5.625, 9.5, 5.75, 9.625], "rotation": 270, "texture": "#0"},
				"west": {"uv": [6, 9.5, 6.125, 9.625], "rotation": 270, "texture": "#0"},
				"up": {"uv": [5.75, 9.5, 5.875, 9.625], "rotation": 270, "texture": "#0"},
				"down": {"uv": [5.625, 10, 5.75, 10.125], "rotation": 270, "texture": "#0"}
			}
		},
		{
			"from": [8.031, 6.11168, 7.92371],
			"to": [8.607, 6.94368, 8.81171],
			"rotation": {"angle": 0, "axis": "y", "origin": [8.319, 5.16568, 8.16771]},
			"faces": {
				"north": {"uv": [5.75, 9.75, 5.875, 9.875], "rotation": 270, "texture": "#0"},
				"east": {"uv": [5.875, 9.75, 6, 9.875], "rotation": 270, "texture": "#0"},
				"south": {"uv": [5.625, 9.5, 5.75, 9.625], "rotation": 270, "texture": "#0"},
				"west": {"uv": [6, 9.5, 6.125, 9.625], "rotation": 270, "texture": "#0"},
				"up": {"uv": [5.75, 9.5, 5.875, 9.625], "rotation": 270, "texture": "#0"},
				"down": {"uv": [5.625, 10, 5.75, 10.125], "rotation": 270, "texture": "#0"}
			}
		},
		{
			"from": [8.031, 4.72212, 8.16867],
			"to": [8.607, 5.07012, 9.45667],
			"rotation": {"angle": 0, "axis": "y", "origin": [8.319, 3.16812, 8.81267]},
			"faces": {
				"north": {"uv": [5.75, 9.75, 5.875, 9.875], "rotation": 270, "texture": "#0"},
				"east": {"uv": [5.875, 9.75, 6, 9.875], "rotation": 270, "texture": "#0"},
				"south": {"uv": [5.625, 9.5, 5.75, 9.625], "rotation": 270, "texture": "#0"},
				"west": {"uv": [6, 9.5, 6.125, 9.625], "rotation": 270, "texture": "#0"},
				"up": {"uv": [5.75, 9.5, 5.875, 9.625], "rotation": 270, "texture": "#0"},
				"down": {"uv": [5.625, 10, 5.75, 10.125], "rotation": 270, "texture": "#0"}
			}
		},
		{
			"from": [8.031, 6.49113, 7.69189],
			"to": [8.607, 7.26713, 7.97989],
			"rotation": {"angle": -45, "axis": "x", "origin": [8.319, 6.82113, 7.98589]},
			"faces": {
				"north": {"uv": [5.75, 9.75, 5.875, 9.875], "rotation": 270, "texture": "#0"},
				"east": {"uv": [5.875, 9.75, 6, 9.875], "rotation": 270, "texture": "#0"},
				"south": {"uv": [5.625, 9.5, 5.75, 9.625], "rotation": 270, "texture": "#0"},
				"west": {"uv": [6, 9.5, 6.125, 9.625], "rotation": 270, "texture": "#0"},
				"up": {"uv": [5.75, 9.5, 5.875, 9.625], "rotation": 270, "texture": "#0"},
				"down": {"uv": [5.625, 10, 5.75, 10.125], "rotation": 270, "texture": "#0"}
			}
		},
		{
			"from": [8.031, 6.49113, 7.99189],
			"to": [8.607, 7.26713, 8.27989],
			"rotation": {"angle": -45, "axis": "x", "origin": [8.319, 6.82113, 8.28589]},
			"faces": {
				"north": {"uv": [5.75, 9.75, 5.875, 9.875], "rotation": 270, "texture": "#0"},
				"east": {"uv": [5.875, 9.75, 6, 9.875], "rotation": 270, "texture": "#0"},
				"south": {"uv": [5.625, 9.5, 5.75, 9.625], "rotation": 270, "texture": "#0"},
				"west": {"uv": [6, 9.5, 6.125, 9.625], "rotation": 270, "texture": "#0"},
				"up": {"uv": [5.75, 9.5, 5.875, 9.625], "rotation": 270, "texture": "#0"},
				"down": {"uv": [5.625, 10, 5.75, 10.125], "rotation": 270, "texture": "#0"}
			}
		},
		{
			"from": [8.245, 5.94368, 7.62],
			"to": [8.395, 6.77568, 8.208],
			"rotation": {"angle": 0, "axis": "y", "origin": [8.419, 5.29768, 8.03171]},
			"faces": {
				"north": {"uv": [14.125, 6.5, 14.25, 6.625], "rotation": 270, "texture": "#0"},
				"east": {"uv": [14.5, 6.25, 14.625, 6.375], "rotation": 270, "texture": "#0"},
				"south": {"uv": [14.25, 6.375, 14.375, 6.5], "rotation": 270, "texture": "#0"},
				"west": {"uv": [14.375, 6.75, 14.5, 6.875], "rotation": 270, "texture": "#0"},
				"up": {"uv": [14.375, 6.75, 14.5, 6.875], "rotation": 270, "texture": "#0"},
				"down": {"uv": [14.25, 6.375, 14.375, 6.5], "rotation": 270, "texture": "#0"}
			}
		},
		{
			"from": [8.245, 5.84368, 7.48],
			"to": [8.395, 6.35968, 8.068],
			"rotation": {"angle": 22.5, "axis": "x", "origin": [8.32, 6.05168, 7.814]},
			"faces": {
				"north": {"uv": [14.125, 6.5, 14.25, 6.625], "rotation": 270, "texture": "#0"},
				"east": {"uv": [14.5, 6.25, 14.625, 6.375], "rotation": 270, "texture": "#0"},
				"south": {"uv": [14.25, 6.375, 14.375, 6.5], "rotation": 270, "texture": "#0"},
				"west": {"uv": [14.375, 6.75, 14.5, 6.875], "rotation": 270, "texture": "#0"},
				"up": {"uv": [14.375, 6.75, 14.5, 6.875], "rotation": 270, "texture": "#0"},
				"down": {"uv": [14.25, 6.375, 14.375, 6.5], "rotation": 270, "texture": "#0"}
			}
		},
		{
			"from": [8.245, 6.35768, 7.506],
			"to": [8.395, 7.04568, 7.922],
			"rotation": {"angle": -22.5, "axis": "x", "origin": [8.32, 6.65168, 7.714]},
			"faces": {
				"north": {"uv": [14.125, 6.5, 14.25, 6.625], "rotation": 90, "texture": "#0"},
				"east": {"uv": [14.5, 6.25, 14.625, 6.375], "rotation": 180, "texture": "#0"},
				"south": {"uv": [14.25, 6.375, 14.375, 6.5], "rotation": 270, "texture": "#0"},
				"west": {"uv": [14.375, 6.75, 14.5, 6.875], "texture": "#0"},
				"up": {"uv": [14.375, 6.75, 14.5, 6.875], "rotation": 90, "texture": "#0"},
				"down": {"uv": [14.25, 6.375, 14.375, 6.5], "rotation": 270, "texture": "#0"}
			}
		},
		{
			"from": [8.127, 6.84368, 6.58771],
			"to": [8.511, 7.27568, 8.37571],
			"rotation": {"angle": 0, "axis": "y", "origin": [8.319, 5.19768, 7.73171]},
			"faces": {
				"north": {"uv": [6.125, 2.5, 6.25, 2.625], "rotation": 270, "texture": "#0"},
				"east": {"uv": [5.75, 9.625, 5.875, 9.75], "rotation": 270, "texture": "#0"},
				"south": {"uv": [6.375, 2.5, 6.5, 2.625], "rotation": 270, "texture": "#0"},
				"west": {"uv": [6, 9.5, 6.125, 9.625], "rotation": 270, "texture": "#0"},
				"up": {"uv": [6.125, 2.25, 6.25, 2.375], "rotation": 270, "texture": "#0"},
				"down": {"uv": [5.625, 9.625, 5.75, 9.75], "rotation": 270, "texture": "#0"}
			}
		}
	],
	"display": {
		"thirdperson_righthand": {
			"translation": [0, 1, 0.75],
			"scale": [1.2, 1.2, 1.2]
		},
		"thirdperson_lefthand": {
			"translation": [0, 1, 0.75],
			"scale": [1.2, 1.2, 1.2]
		},
		"firstperson_righthand": {
			"translation": [-1, 5.25, 3.5],
			"scale": [1.4, 1.4, 1.4]
		},
		"firstperson_lefthand": {
			"translation": [-1, 5.25, 3.5],
			"scale": [1.4, 1.4, 1.4]
		},
		"ground": {
			"rotation": [0, 0, 90],
			"translation": [0, -1.75, 0],
			"scale": [1.4, 1.4, 1.4]
		},
		"gui": {
			"rotation": [31.25, 138.25, 0],
			"translation": [2, 1.5, 0]
		},
		"fixed": {
			"rotation": [90, 45, -90],
			"translation": [2, 0.5, -1.5],
			"scale": [1.2, 1.2, 1.2]
		}
	},
	"groups": [
		{
			"name": "gun",
			"origin": [8, 8, 8],
			"children": [
				{
					"name": "Антенны",
					"origin": [8.525, 4.99368, -2.06829],
					"children": [0, 1, 2, 3, 4, 5, 6, 7, 8, 9, 10, 11, 12, 13, 14, 15, 16, 17, 18, 19, 20, 21, 22, 23, 24, 25, 26, 27, 28, 29, 30, 31, 32, 33, 34, 35, 36, 37, 38, 39, 40, 41, 42]
				}, 43, 44, 45, 46, 47, 48, 49, 50, 51, 52, 53, 54, 55, 56, 57, 58, 59, 60, 61, 62, 63, 64, 65, 66, 67, 68, 69, 70, 71, 72, 73, 74, 75, 76, 77, 78, 79, 80, 81, 82, 83, 84, 85, 86, 87, 88, 89, 90, 91, 92, 93, 94, 95, 96,
				{
					"name": "Picatos",
					"origin": [8, 8, 8],
					"children": [97, 98, 99, 100, 101, 102, 103, 104]
				}, 105, 106, 107, 108, 109, 110, 111, 112, 113, 114, 115, 116, 117, 118, 119, 120,
				{
					"name": "pistoletka",
					"origin": [8.319, 4.34012, 9.74067],
					"children": [121, 122, 123, 124, 125, 126, 127, 128, 129, 130, 131, 132, 133, 134, 135, 136, 137, 138]
				}
			]
		}
	]
}